%!PS-Adobe-3.0 EPSF-3.0
%%Title: /home/yin/020000_error_thin_noise.eps
%%Creator: matplotlib version 3.1.1, http://matplotlib.org/
%%CreationDate: Mon May 11 23:36:47 2020
%%Orientation: portrait
%%BoundingBox: -122.81093749999991 98.08562500000005 734.8109374999999 693.914375
%%EndComments
%%BeginProlog
/mpldict 9 dict def
mpldict begin
/m { moveto } bind def
/l { lineto } bind def
/r { rlineto } bind def
/c { curveto } bind def
/cl { closepath } bind def
/box {
m
1 index 0 r
0 exch r
neg 0 r
cl
} bind def
/clipbox {
box
clip
newpath
} bind def
%!PS-Adobe-3.0 Resource-Font
%%Title: DejaVu Sans
%%Copyright: Copyright (c) 2003 by Bitstream, Inc. All Rights Reserved. Copyright (c) 2006 by Tavmjong Bah. All Rights Reserved. DejaVu changes are in public domain 
%%Creator: Converted from TrueType to type 3 by PPR
25 dict begin
/_d{bind def}bind def
/_m{moveto}_d
/_l{lineto}_d
/_cl{closepath eofill}_d
/_c{curveto}_d
/_sc{7 -1 roll{setcachedevice}{pop pop pop pop pop pop}ifelse}_d
/_e{exec}_d
/FontName /DejaVuSans def
/PaintType 0 def
/FontMatrix[.001 0 0 .001 0 0]def
/FontBBox[-1021 -463 1793 1232]def
/FontType 3 def
/Encoding [ /space /parenleft /parenright /comma /period /zero /one /two /three /four /five /seven /equal /B /E /F /K /L /M /N /P /R /S /T /a /c /d /e /f /h /i /l /m /n /o /p /r /s /t /x ] def
/FontInfo 10 dict dup begin
/FamilyName (DejaVu Sans) def
/FullName (DejaVu Sans) def
/Notice (Copyright (c) 2003 by Bitstream, Inc. All Rights Reserved. Copyright (c) 2006 by Tavmjong Bah. All Rights Reserved. DejaVu changes are in public domain ) def
/Weight (Book) def
/Version (Version 2.35) def
/ItalicAngle 0.0 def
/isFixedPitch false def
/UnderlinePosition -130 def
/UnderlineThickness 90 def
end readonly def
/CharStrings 41 dict dup begin
/.notdef 0 def
/space{318 0 0 0 0 0 _sc
}_d
/parenleft{390 0 86 -131 310 759 _sc
310 759 _m
266 683 234 609 213 536 _c
191 463 181 389 181 314 _c
181 238 191 164 213 91 _c
234 17 266 -56 310 -131 _c
232 -131 _l
183 -54 146 20 122 94 _c
98 168 86 241 86 314 _c
86 386 98 459 122 533 _c
146 607 182 682 232 759 _c
310 759 _l
_cl}_d
/parenright{390 0 80 -131 304 759 _sc
80 759 _m
158 759 _l
206 682 243 607 267 533 _c
291 459 304 386 304 314 _c
304 241 291 168 267 94 _c
243 20 206 -54 158 -131 _c
80 -131 _l
123 -56 155 17 177 91 _c
198 164 209 238 209 314 _c
209 389 198 463 177 536 _c
155 609 123 683 80 759 _c
_cl}_d
/comma{318 0 77 -115 220 124 _sc
117 124 _m
220 124 _l
220 40 _l
140 -115 _l
77 -115 _l
117 40 _l
117 124 _l
_cl}_d
/period{318 0 107 0 210 124 _sc
107 124 _m
210 124 _l
210 0 _l
107 0 _l
107 124 _l
_cl}_d
/zero{636 0 66 -13 570 742 _sc
318 664 _m
267 664 229 639 203 589 _c
177 539 165 464 165 364 _c
165 264 177 189 203 139 _c
229 89 267 64 318 64 _c
369 64 407 89 433 139 _c
458 189 471 264 471 364 _c
471 464 458 539 433 589 _c
407 639 369 664 318 664 _c
318 742 _m
399 742 461 709 505 645 _c
548 580 570 486 570 364 _c
570 241 548 147 505 83 _c
461 19 399 -13 318 -13 _c
236 -13 173 19 130 83 _c
87 147 66 241 66 364 _c
66 486 87 580 130 645 _c
173 709 236 742 318 742 _c
_cl}_d
/one{636 0 110 0 544 729 _sc
124 83 _m
285 83 _l
285 639 _l
110 604 _l
110 694 _l
284 729 _l
383 729 _l
383 83 _l
544 83 _l
544 0 _l
124 0 _l
124 83 _l
_cl}_d
/two{{636 0 73 0 536 742 _sc
192 83 _m
536 83 _l
536 0 _l
73 0 _l
73 83 _l
110 121 161 173 226 239 _c
290 304 331 346 348 365 _c
380 400 402 430 414 455 _c
426 479 433 504 433 528 _c
433 566 419 598 392 622 _c
365 646 330 659 286 659 _c
255 659 222 653 188 643 _c
154 632 117 616 78 594 _c
78 694 _l
118 710 155 722 189 730 _c
223 738 255 742 284 742 _c
}_e{359 742 419 723 464 685 _c
509 647 532 597 532 534 _c
532 504 526 475 515 449 _c
504 422 484 390 454 354 _c
446 344 420 317 376 272 _c
332 227 271 164 192 83 _c
_cl}_e}_d
/three{{636 0 76 -13 556 742 _sc
406 393 _m
453 383 490 362 516 330 _c
542 298 556 258 556 212 _c
556 140 531 84 482 45 _c
432 6 362 -13 271 -13 _c
240 -13 208 -10 176 -4 _c
144 1 110 10 76 22 _c
76 117 _l
103 101 133 89 166 81 _c
198 73 232 69 268 69 _c
330 69 377 81 409 105 _c
441 129 458 165 458 212 _c
458 254 443 288 413 312 _c
383 336 341 349 287 349 _c
}_e{202 349 _l
202 430 _l
291 430 _l
339 430 376 439 402 459 _c
428 478 441 506 441 543 _c
441 580 427 609 401 629 _c
374 649 336 659 287 659 _c
260 659 231 656 200 650 _c
169 644 135 635 98 623 _c
98 711 _l
135 721 170 729 203 734 _c
235 739 266 742 296 742 _c
370 742 429 725 473 691 _c
517 657 539 611 539 553 _c
539 513 527 479 504 451 _c
481 423 448 403 406 393 _c
_cl}_e}_d
/four{636 0 49 0 580 729 _sc
378 643 _m
129 254 _l
378 254 _l
378 643 _l
352 729 _m
476 729 _l
476 254 _l
580 254 _l
580 172 _l
476 172 _l
476 0 _l
378 0 _l
378 172 _l
49 172 _l
49 267 _l
352 729 _l
_cl}_d
/five{{636 0 77 -13 549 729 _sc
108 729 _m
495 729 _l
495 646 _l
198 646 _l
198 467 _l
212 472 227 476 241 478 _c
255 480 270 482 284 482 _c
365 482 429 459 477 415 _c
525 370 549 310 549 234 _c
549 155 524 94 475 51 _c
426 8 357 -13 269 -13 _c
238 -13 207 -10 175 -6 _c
143 -1 111 6 77 17 _c
77 116 _l
106 100 136 88 168 80 _c
199 72 232 69 267 69 _c
}_e{323 69 368 83 401 113 _c
433 143 450 183 450 234 _c
450 284 433 324 401 354 _c
368 384 323 399 267 399 _c
241 399 214 396 188 390 _c
162 384 135 375 108 363 _c
108 729 _l
_cl}_e}_d
/seven{636 0 82 0 551 729 _sc
82 729 _m
551 729 _l
551 687 _l
286 0 _l
183 0 _l
432 646 _l
82 646 _l
82 729 _l
_cl}_d
/equal{838 0 106 172 732 454 _sc
106 454 _m
732 454 _l
732 372 _l
106 372 _l
106 454 _l
106 255 _m
732 255 _l
732 172 _l
106 172 _l
106 255 _l
_cl}_d
/B{{686 0 98 0 615 729 _sc
197 348 _m
197 81 _l
355 81 _l
408 81 447 92 473 114 _c
498 136 511 169 511 215 _c
511 260 498 293 473 315 _c
447 337 408 348 355 348 _c
197 348 _l
197 648 _m
197 428 _l
343 428 _l
391 428 426 437 450 455 _c
474 473 486 500 486 538 _c
486 574 474 602 450 620 _c
426 638 391 648 343 648 _c
197 648 _l
98 729 _m
350 729 _l
}_e{425 729 483 713 524 682 _c
564 650 585 606 585 549 _c
585 504 574 468 553 442 _c
532 416 502 399 462 393 _c
510 382 548 360 575 327 _c
601 294 615 253 615 204 _c
615 138 592 88 548 53 _c
504 17 441 0 360 0 _c
98 0 _l
98 729 _l
_cl}_e}_d
/E{632 0 98 0 568 729 _sc
98 729 _m
559 729 _l
559 646 _l
197 646 _l
197 430 _l
544 430 _l
544 347 _l
197 347 _l
197 83 _l
568 83 _l
568 0 _l
98 0 _l
98 729 _l
_cl}_d
/F{575 0 98 0 517 729 _sc
98 729 _m
517 729 _l
517 646 _l
197 646 _l
197 431 _l
486 431 _l
486 348 _l
197 348 _l
197 0 _l
98 0 _l
98 729 _l
_cl}_d
/K{656 0 98 0 677 729 _sc
98 729 _m
197 729 _l
197 421 _l
524 729 _l
651 729 _l
289 389 _l
677 0 _l
547 0 _l
197 351 _l
197 0 _l
98 0 _l
98 729 _l
_cl}_d
/L{557 0 98 0 552 729 _sc
98 729 _m
197 729 _l
197 83 _l
552 83 _l
552 0 _l
98 0 _l
98 729 _l
_cl}_d
/M{863 0 98 0 765 729 _sc
98 729 _m
245 729 _l
431 233 _l
618 729 _l
765 729 _l
765 0 _l
669 0 _l
669 640 _l
481 140 _l
382 140 _l
194 640 _l
194 0 _l
98 0 _l
98 729 _l
_cl}_d
/N{748 0 98 0 650 729 _sc
98 729 _m
231 729 _l
554 119 _l
554 729 _l
650 729 _l
650 0 _l
517 0 _l
194 610 _l
194 0 _l
98 0 _l
98 729 _l
_cl}_d
/P{603 0 98 0 569 729 _sc
197 648 _m
197 374 _l
321 374 _l
367 374 402 385 427 409 _c
452 433 465 467 465 511 _c
465 555 452 588 427 612 _c
402 636 367 648 321 648 _c
197 648 _l
98 729 _m
321 729 _l
402 729 464 710 506 673 _c
548 636 569 582 569 511 _c
569 439 548 384 506 348 _c
464 311 402 293 321 293 _c
197 293 _l
197 0 _l
98 0 _l
98 729 _l
_cl}_d
/R{{695 0 98 0 666 729 _sc
444 342 _m
465 334 486 319 506 296 _c
526 272 546 240 566 199 _c
666 0 _l
560 0 _l
467 187 _l
443 235 419 268 397 284 _c
374 300 343 308 304 308 _c
197 308 _l
197 0 _l
98 0 _l
98 729 _l
321 729 _l
404 729 466 711 507 677 _c
548 642 569 589 569 519 _c
569 473 558 434 537 404 _c
515 374 484 353 444 342 _c
197 648 _m
197 389 _l
321 389 _l
}_e{368 389 404 400 428 422 _c
452 444 465 476 465 519 _c
465 561 452 593 428 615 _c
404 637 368 648 321 648 _c
197 648 _l
_cl}_e}_d
/S{{635 0 66 -13 579 742 _sc
535 705 _m
535 609 _l
497 627 462 640 429 649 _c
395 657 363 662 333 662 _c
279 662 237 651 208 631 _c
179 610 165 580 165 542 _c
165 510 174 485 194 469 _c
213 452 250 439 304 429 _c
364 417 _l
437 403 491 378 526 343 _c
561 307 579 260 579 201 _c
579 130 555 77 508 41 _c
460 5 391 -13 300 -13 _c
265 -13 228 -9 189 -2 _c
}_e{150 5 110 16 69 32 _c
69 134 _l
109 111 148 94 186 83 _c
224 71 262 66 300 66 _c
356 66 399 77 430 99 _c
460 121 476 152 476 194 _c
476 230 465 258 443 278 _c
421 298 385 313 335 323 _c
275 335 _l
201 349 148 372 115 404 _c
82 435 66 478 66 534 _c
66 598 88 649 134 686 _c
179 723 242 742 322 742 _c
356 742 390 739 426 733 _c
461 727 497 717 535 705 _c
}_e{_cl}_e}_d
/T{611 0 -2 0 614 729 _sc
-2 729 _m
614 729 _l
614 646 _l
355 646 _l
355 0 _l
256 0 _l
256 646 _l
-2 646 _l
-2 729 _l
_cl}_d
/a{{613 0 60 -13 522 560 _sc
343 275 _m
270 275 220 266 192 250 _c
164 233 150 205 150 165 _c
150 133 160 107 181 89 _c
202 70 231 61 267 61 _c
317 61 357 78 387 114 _c
417 149 432 196 432 255 _c
432 275 _l
343 275 _l
522 312 _m
522 0 _l
432 0 _l
432 83 _l
411 49 385 25 355 10 _c
325 -5 287 -13 243 -13 _c
187 -13 142 2 109 33 _c
76 64 60 106 60 159 _c
}_e{60 220 80 266 122 298 _c
163 329 224 345 306 345 _c
432 345 _l
432 354 _l
432 395 418 427 391 450 _c
364 472 326 484 277 484 _c
245 484 215 480 185 472 _c
155 464 127 453 100 439 _c
100 522 _l
132 534 164 544 195 550 _c
226 556 256 560 286 560 _c
365 560 424 539 463 498 _c
502 457 522 395 522 312 _c
_cl}_e}_d
/c{{550 0 55 -13 488 560 _sc
488 526 _m
488 442 _l
462 456 437 466 411 473 _c
385 480 360 484 334 484 _c
276 484 230 465 198 428 _c
166 391 150 339 150 273 _c
150 206 166 154 198 117 _c
230 80 276 62 334 62 _c
360 62 385 65 411 72 _c
437 79 462 90 488 104 _c
488 21 _l
462 9 436 0 410 -5 _c
383 -10 354 -13 324 -13 _c
242 -13 176 12 128 64 _c
}_e{79 115 55 185 55 273 _c
55 362 79 432 128 483 _c
177 534 244 560 330 560 _c
358 560 385 557 411 551 _c
437 545 463 537 488 526 _c
_cl}_e}_d
/d{{635 0 55 -13 544 760 _sc
454 464 _m
454 760 _l
544 760 _l
544 0 _l
454 0 _l
454 82 _l
435 49 411 25 382 10 _c
353 -5 319 -13 279 -13 _c
213 -13 159 13 117 65 _c
75 117 55 187 55 273 _c
55 359 75 428 117 481 _c
159 533 213 560 279 560 _c
319 560 353 552 382 536 _c
411 520 435 496 454 464 _c
148 273 _m
148 207 161 155 188 117 _c
215 79 253 61 301 61 _c
}_e{348 61 385 79 413 117 _c
440 155 454 207 454 273 _c
454 339 440 390 413 428 _c
385 466 348 485 301 485 _c
253 485 215 466 188 428 _c
161 390 148 339 148 273 _c
_cl}_e}_d
/e{{615 0 55 -13 562 560 _sc
562 296 _m
562 252 _l
149 252 _l
153 190 171 142 205 110 _c
238 78 284 62 344 62 _c
378 62 412 66 444 74 _c
476 82 509 95 541 113 _c
541 28 _l
509 14 476 3 442 -3 _c
408 -9 373 -13 339 -13 _c
251 -13 182 12 131 62 _c
80 112 55 181 55 268 _c
55 357 79 428 127 481 _c
175 533 241 560 323 560 _c
397 560 455 536 498 489 _c
}_e{540 441 562 377 562 296 _c
472 322 _m
471 371 457 410 431 440 _c
404 469 368 484 324 484 _c
274 484 234 469 204 441 _c
174 413 156 373 152 322 _c
472 322 _l
_cl}_e}_d
/f{352 0 23 0 371 760 _sc
371 760 _m
371 685 _l
285 685 _l
253 685 230 678 218 665 _c
205 652 199 629 199 595 _c
199 547 _l
347 547 _l
347 477 _l
199 477 _l
199 0 _l
109 0 _l
109 477 _l
23 477 _l
23 547 _l
109 547 _l
109 585 _l
109 645 123 690 151 718 _c
179 746 224 760 286 760 _c
371 760 _l
_cl}_d
/h{634 0 91 0 549 760 _sc
549 330 _m
549 0 _l
459 0 _l
459 327 _l
459 379 448 417 428 443 _c
408 469 378 482 338 482 _c
289 482 251 466 223 435 _c
195 404 181 362 181 309 _c
181 0 _l
91 0 _l
91 760 _l
181 760 _l
181 462 _l
202 494 227 519 257 535 _c
286 551 320 560 358 560 _c
420 560 468 540 500 501 _c
532 462 549 405 549 330 _c
_cl}_d
/i{278 0 94 0 184 760 _sc
94 547 _m
184 547 _l
184 0 _l
94 0 _l
94 547 _l
94 760 _m
184 760 _l
184 646 _l
94 646 _l
94 760 _l
_cl}_d
/l{278 0 94 0 184 760 _sc
94 760 _m
184 760 _l
184 0 _l
94 0 _l
94 760 _l
_cl}_d
/m{{974 0 91 0 889 560 _sc
520 442 _m
542 482 569 511 600 531 _c
631 550 668 560 711 560 _c
767 560 811 540 842 500 _c
873 460 889 403 889 330 _c
889 0 _l
799 0 _l
799 327 _l
799 379 789 418 771 444 _c
752 469 724 482 686 482 _c
639 482 602 466 575 435 _c
548 404 535 362 535 309 _c
535 0 _l
445 0 _l
445 327 _l
445 379 435 418 417 444 _c
398 469 369 482 331 482 _c
}_e{285 482 248 466 221 435 _c
194 404 181 362 181 309 _c
181 0 _l
91 0 _l
91 547 _l
181 547 _l
181 462 _l
201 495 226 520 255 536 _c
283 552 317 560 357 560 _c
397 560 430 550 458 530 _c
486 510 506 480 520 442 _c
_cl}_e}_d
/n{634 0 91 0 549 560 _sc
549 330 _m
549 0 _l
459 0 _l
459 327 _l
459 379 448 417 428 443 _c
408 469 378 482 338 482 _c
289 482 251 466 223 435 _c
195 404 181 362 181 309 _c
181 0 _l
91 0 _l
91 547 _l
181 547 _l
181 462 _l
202 494 227 519 257 535 _c
286 551 320 560 358 560 _c
420 560 468 540 500 501 _c
532 462 549 405 549 330 _c
_cl}_d
/o{612 0 55 -13 557 560 _sc
306 484 _m
258 484 220 465 192 427 _c
164 389 150 338 150 273 _c
150 207 163 156 191 118 _c
219 80 257 62 306 62 _c
354 62 392 80 420 118 _c
448 156 462 207 462 273 _c
462 337 448 389 420 427 _c
392 465 354 484 306 484 _c
306 560 _m
384 560 445 534 490 484 _c
534 433 557 363 557 273 _c
557 183 534 113 490 63 _c
445 12 384 -13 306 -13 _c
227 -13 165 12 121 63 _c
77 113 55 183 55 273 _c
55 363 77 433 121 484 _c
165 534 227 560 306 560 _c
_cl}_d
/p{{635 0 91 -207 580 560 _sc
181 82 _m
181 -207 _l
91 -207 _l
91 547 _l
181 547 _l
181 464 _l
199 496 223 520 252 536 _c
281 552 316 560 356 560 _c
422 560 476 533 518 481 _c
559 428 580 359 580 273 _c
580 187 559 117 518 65 _c
476 13 422 -13 356 -13 _c
316 -13 281 -5 252 10 _c
223 25 199 49 181 82 _c
487 273 _m
487 339 473 390 446 428 _c
418 466 381 485 334 485 _c
}_e{286 485 249 466 222 428 _c
194 390 181 339 181 273 _c
181 207 194 155 222 117 _c
249 79 286 61 334 61 _c
381 61 418 79 446 117 _c
473 155 487 207 487 273 _c
_cl}_e}_d
/r{411 0 91 0 411 560 _sc
411 463 _m
401 469 390 473 378 476 _c
366 478 353 480 339 480 _c
288 480 249 463 222 430 _c
194 397 181 350 181 288 _c
181 0 _l
91 0 _l
91 547 _l
181 547 _l
181 462 _l
199 495 224 520 254 536 _c
284 552 321 560 365 560 _c
371 560 378 559 386 559 _c
393 558 401 557 411 555 _c
411 463 _l
_cl}_d
/s{{521 0 54 -13 472 560 _sc
443 531 _m
443 446 _l
417 458 391 468 364 475 _c
336 481 308 485 279 485 _c
234 485 200 478 178 464 _c
156 450 145 430 145 403 _c
145 382 153 366 169 354 _c
185 342 217 330 265 320 _c
296 313 _l
360 299 405 279 432 255 _c
458 230 472 195 472 151 _c
472 100 452 60 412 31 _c
372 1 316 -13 246 -13 _c
216 -13 186 -10 154 -5 _c
}_e{122 0 89 8 54 20 _c
54 113 _l
87 95 120 82 152 74 _c
184 65 216 61 248 61 _c
290 61 323 68 346 82 _c
368 96 380 117 380 144 _c
380 168 371 187 355 200 _c
339 213 303 226 247 238 _c
216 245 _l
160 257 119 275 95 299 _c
70 323 58 356 58 399 _c
58 450 76 490 112 518 _c
148 546 200 560 268 560 _c
301 560 332 557 362 552 _c
391 547 418 540 443 531 _c
}_e{_cl}_e}_d
/t{392 0 27 0 368 702 _sc
183 702 _m
183 547 _l
368 547 _l
368 477 _l
183 477 _l
183 180 _l
183 135 189 106 201 94 _c
213 81 238 75 276 75 _c
368 75 _l
368 0 _l
276 0 _l
206 0 158 13 132 39 _c
106 65 93 112 93 180 _c
93 477 _l
27 477 _l
27 547 _l
93 547 _l
93 702 _l
183 702 _l
_cl}_d
/x{592 0 29 0 559 547 _sc
549 547 _m
351 281 _l
559 0 _l
453 0 _l
294 215 _l
135 0 _l
29 0 _l
241 286 _l
47 547 _l
153 547 _l
298 352 _l
443 547 _l
549 547 _l
_cl}_d
end readonly def

/BuildGlyph
 {exch begin
 CharStrings exch
 2 copy known not{pop /.notdef}if
 true 3 1 roll get exec
 end}_d

/BuildChar {
 1 index /Encoding get exch get
 1 index /BuildGlyph get exec
}_d

FontName currentdict end definefont pop
%!PS-Adobe-3.0 Resource-Font
%%Title: DejaVu Sans Oblique
%%Copyright: Copyright (c) 2003 by Bitstream, Inc. All Rights Reserved. Copyright (c) 2006 by Tavmjong Bah. All Rights Reserved. DejaVu changes are in public domain 
%%Creator: Converted from TrueType to type 3 by PPR
25 dict begin
/_d{bind def}bind def
/_m{moveto}_d
/_l{lineto}_d
/_cl{closepath eofill}_d
/_c{curveto}_d
/_sc{7 -1 roll{setcachedevice}{pop pop pop pop pop pop}ifelse}_d
/_e{exec}_d
/FontName /DejaVuSans-Oblique def
/PaintType 0 def
/FontMatrix[.001 0 0 .001 0 0]def
/FontBBox[-1016 -350 1659 1068]def
/FontType 3 def
/Encoding [ /t /delta ] def
/FontInfo 10 dict dup begin
/FamilyName (DejaVu Sans) def
/FullName (DejaVu Sans Oblique) def
/Notice (Copyright (c) 2003 by Bitstream, Inc. All Rights Reserved. Copyright (c) 2006 by Tavmjong Bah. All Rights Reserved. DejaVu changes are in public domain ) def
/Weight (Oblique) def
/Version (Version 2.35) def
/ItalicAngle -11.0 def
/isFixedPitch false def
/UnderlinePosition -130 def
/UnderlineThickness 90 def
end readonly def
/CharStrings 3 dict dup begin
/.notdef 0 def
/t{{392 0 64 0 423 702 _sc
423 547 _m
409 477 _l
230 477 _l
172 180 _l
170 169 168 160 167 152 _c
166 144 166 139 166 135 _c
166 114 172 99 185 89 _c
197 79 217 75 245 75 _c
336 75 _l
321 0 _l
235 0 _l
181 0 141 10 115 31 _c
89 52 76 84 76 126 _c
76 133 76 141 77 150 _c
78 159 80 169 82 180 _c
140 477 _l
64 477 _l
78 547 _l
153 547 _l
183 702 _l
}_e{273 702 _l
243 547 _l
423 547 _l
_cl}_e}_d
/delta{{612 0 38 -13 557 742 _sc
542 633 _m
514 655 461 667 383 667 _c
300 667 255 648 248 610 _c
242 580 280 557 364 542 _c
428 530 476 505 508 469 _c
546 425 556 358 539 268 _c
521 182 486 113 432 63 _c
377 12 310 -13 232 -13 _c
154 -13 98 12 63 63 _c
28 113 20 183 38 273 _c
50 339 84 399 139 453 _c
160 473 184 490 211 502 _c
165 528 147 563 156 609 _c
}_e{173 697 253 742 397 742 _c
469 742 522 730 557 708 _c
542 633 _l
274 478 _m
250 468 226 451 204 428 _c
168 391 144 339 132 273 _c
119 207 123 155 144 118 _c
164 80 199 62 248 62 _c
295 62 336 81 372 119 _c
407 156 431 206 443 268 _c
455 332 450 380 427 412 _c
401 445 369 464 329 468 _c
308 470 290 473 274 478 _c
_cl}_e}_d
end readonly def

/BuildGlyph
 {exch begin
 CharStrings exch
 2 copy known not{pop /.notdef}if
 true 3 1 roll get exec
 end}_d

/BuildChar {
 1 index /Encoding get exch get
 1 index /BuildGlyph get exec
}_d

FontName currentdict end definefont pop
end
%%EndProlog
mpldict begin
-122.811 98.086 translate
857.622 595.829 0 0 clipbox
gsave
0 0 m
857.621875 0 l
857.621875 595.82875 l
0 595.82875 l
cl
1.000 setgray
fill
grestore
gsave
110.121875 64.66875 m
779.721875 64.66875 l
779.721875 563.62875 l
110.121875 563.62875 l
cl
1.000 setgray
fill
grestore
0.800 setlinewidth
1 setlinejoin
0 setlinecap
[] 0 setdash
0.000 setgray
gsave
/o {
gsave
newpath
translate
0.8 setlinewidth
1 setlinejoin
0 setlinecap
0 0 m
0 -3.5 l

gsave
0.000 setgray
fill
grestore
stroke
grestore
} bind def
110.122 64.6688 o
grestore
/DejaVuSans findfont
24.000 scalefont
setfont
gsave
102.489063 39.434375 translate
0.000000 rotate
0.000000 0.000000 m /five glyphshow
grestore
gsave
/o {
gsave
newpath
translate
0.8 setlinewidth
1 setlinejoin
0 setlinecap
0 0 m
0 -3.5 l

gsave
0.000 setgray
fill
grestore
stroke
grestore
} bind def
184.522 64.6688 o
grestore
gsave
169.256250 39.434375 translate
0.000000 rotate
0.000000 0.000000 m /one glyphshow
15.269531 0.000000 m /zero glyphshow
grestore
gsave
/o {
gsave
newpath
translate
0.8 setlinewidth
1 setlinejoin
0 setlinecap
0 0 m
0 -3.5 l

gsave
0.000 setgray
fill
grestore
stroke
grestore
} bind def
258.922 64.6688 o
grestore
gsave
243.656250 39.434375 translate
0.000000 rotate
0.000000 0.000000 m /one glyphshow
15.269531 0.000000 m /five glyphshow
grestore
gsave
/o {
gsave
newpath
translate
0.8 setlinewidth
1 setlinejoin
0 setlinecap
0 0 m
0 -3.5 l

gsave
0.000 setgray
fill
grestore
stroke
grestore
} bind def
333.322 64.6688 o
grestore
gsave
318.056250 39.434375 translate
0.000000 rotate
0.000000 0.000000 m /two glyphshow
15.269531 0.000000 m /zero glyphshow
grestore
gsave
/o {
gsave
newpath
translate
0.8 setlinewidth
1 setlinejoin
0 setlinecap
0 0 m
0 -3.5 l

gsave
0.000 setgray
fill
grestore
stroke
grestore
} bind def
407.722 64.6688 o
grestore
gsave
392.456250 39.434375 translate
0.000000 rotate
0.000000 0.000000 m /two glyphshow
15.269531 0.000000 m /five glyphshow
grestore
gsave
/o {
gsave
newpath
translate
0.8 setlinewidth
1 setlinejoin
0 setlinecap
0 0 m
0 -3.5 l

gsave
0.000 setgray
fill
grestore
stroke
grestore
} bind def
482.122 64.6688 o
grestore
gsave
466.856250 39.434375 translate
0.000000 rotate
0.000000 0.000000 m /three glyphshow
15.269531 0.000000 m /zero glyphshow
grestore
gsave
/o {
gsave
newpath
translate
0.8 setlinewidth
1 setlinejoin
0 setlinecap
0 0 m
0 -3.5 l

gsave
0.000 setgray
fill
grestore
stroke
grestore
} bind def
556.522 64.6688 o
grestore
gsave
541.256250 39.434375 translate
0.000000 rotate
0.000000 0.000000 m /three glyphshow
15.269531 0.000000 m /five glyphshow
grestore
gsave
/o {
gsave
newpath
translate
0.8 setlinewidth
1 setlinejoin
0 setlinecap
0 0 m
0 -3.5 l

gsave
0.000 setgray
fill
grestore
stroke
grestore
} bind def
630.922 64.6688 o
grestore
gsave
615.656250 39.434375 translate
0.000000 rotate
0.000000 0.000000 m /four glyphshow
15.269531 0.000000 m /zero glyphshow
grestore
gsave
/o {
gsave
newpath
translate
0.8 setlinewidth
1 setlinejoin
0 setlinecap
0 0 m
0 -3.5 l

gsave
0.000 setgray
fill
grestore
stroke
grestore
} bind def
705.322 64.6688 o
grestore
gsave
690.056250 39.434375 translate
0.000000 rotate
0.000000 0.000000 m /four glyphshow
15.269531 0.000000 m /five glyphshow
grestore
gsave
/o {
gsave
newpath
translate
0.8 setlinewidth
1 setlinejoin
0 setlinecap
0 0 m
0 -3.5 l

gsave
0.000 setgray
fill
grestore
stroke
grestore
} bind def
779.722 64.6688 o
grestore
gsave
764.456250 39.434375 translate
0.000000 rotate
0.000000 0.000000 m /five glyphshow
15.269531 0.000000 m /zero glyphshow
grestore
gsave
382.570312 12.200000 translate
0.000000 rotate
0.000000 0.000000 m /S glyphshow
15.234375 0.000000 m /n glyphshow
30.445312 0.000000 m /a glyphshow
45.152344 0.000000 m /p glyphshow
60.386719 0.000000 m /s glyphshow
72.890625 0.000000 m /h glyphshow
88.101562 0.000000 m /o glyphshow
102.785156 0.000000 m /t glyphshow
112.195312 0.000000 m /s glyphshow
grestore
gsave
/o {
gsave
newpath
translate
0.8 setlinewidth
1 setlinejoin
0 setlinecap
0 0 m
-3.5 0 l

gsave
0.000 setgray
fill
grestore
stroke
grestore
} bind def
110.122 64.6687 o
grestore
gsave
34.434375 55.551562 translate
0.000000 rotate
0.000000 0.000000 m /zero glyphshow
15.269531 0.000000 m /period glyphshow
22.898438 0.000000 m /zero glyphshow
38.167969 0.000000 m /zero glyphshow
53.437500 0.000000 m /two glyphshow
grestore
gsave
/o {
gsave
newpath
translate
0.8 setlinewidth
1 setlinejoin
0 setlinecap
0 0 m
-3.5 0 l

gsave
0.000 setgray
fill
grestore
stroke
grestore
} bind def
110.122 151.264 o
grestore
gsave
34.434375 142.147134 translate
0.000000 rotate
0.000000 0.000000 m /zero glyphshow
15.269531 0.000000 m /period glyphshow
22.898438 0.000000 m /zero glyphshow
38.167969 0.000000 m /zero glyphshow
53.437500 0.000000 m /five glyphshow
grestore
gsave
/o {
gsave
newpath
translate
0.8 setlinewidth
1 setlinejoin
0 setlinecap
0 0 m
-3.5 0 l

gsave
0.000 setgray
fill
grestore
stroke
grestore
} bind def
110.122 216.771 o
grestore
gsave
34.434375 207.654155 translate
0.000000 rotate
0.000000 0.000000 m /zero glyphshow
15.269531 0.000000 m /period glyphshow
22.898438 0.000000 m /zero glyphshow
38.167969 0.000000 m /one glyphshow
53.437500 0.000000 m /zero glyphshow
grestore
gsave
/o {
gsave
newpath
translate
0.8 setlinewidth
1 setlinejoin
0 setlinecap
0 0 m
-3.5 0 l

gsave
0.000 setgray
fill
grestore
stroke
grestore
} bind def
110.122 282.278 o
grestore
gsave
34.434375 273.161176 translate
0.000000 rotate
0.000000 0.000000 m /zero glyphshow
15.269531 0.000000 m /period glyphshow
22.898438 0.000000 m /zero glyphshow
38.167969 0.000000 m /two glyphshow
53.437500 0.000000 m /zero glyphshow
grestore
gsave
/o {
gsave
newpath
translate
0.8 setlinewidth
1 setlinejoin
0 setlinecap
0 0 m
-3.5 0 l

gsave
0.000 setgray
fill
grestore
stroke
grestore
} bind def
110.122 368.874 o
grestore
gsave
34.434375 359.756748 translate
0.000000 rotate
0.000000 0.000000 m /zero glyphshow
15.269531 0.000000 m /period glyphshow
22.898438 0.000000 m /zero glyphshow
38.167969 0.000000 m /five glyphshow
53.437500 0.000000 m /zero glyphshow
grestore
gsave
/o {
gsave
newpath
translate
0.8 setlinewidth
1 setlinejoin
0 setlinecap
0 0 m
-3.5 0 l

gsave
0.000 setgray
fill
grestore
stroke
grestore
} bind def
110.122 434.381 o
grestore
gsave
34.434375 425.263769 translate
0.000000 rotate
0.000000 0.000000 m /zero glyphshow
15.269531 0.000000 m /period glyphshow
22.898438 0.000000 m /one glyphshow
38.167969 0.000000 m /zero glyphshow
53.437500 0.000000 m /zero glyphshow
grestore
gsave
/o {
gsave
newpath
translate
0.8 setlinewidth
1 setlinejoin
0 setlinecap
0 0 m
-3.5 0 l

gsave
0.000 setgray
fill
grestore
stroke
grestore
} bind def
110.122 499.888 o
grestore
gsave
34.434375 490.770790 translate
0.000000 rotate
0.000000 0.000000 m /zero glyphshow
15.269531 0.000000 m /period glyphshow
22.898438 0.000000 m /two glyphshow
38.167969 0.000000 m /zero glyphshow
53.437500 0.000000 m /zero glyphshow
grestore
0.600 setlinewidth
gsave
/o {
gsave
newpath
translate
0.6 setlinewidth
1 setlinejoin
0 setlinecap
0 0 m
-2 0 l

gsave
0.000 setgray
fill
grestore
stroke
grestore
} bind def
110.122 102.988 o
grestore
gsave
/o {
gsave
newpath
translate
0.6 setlinewidth
1 setlinejoin
0 setlinecap
0 0 m
-2 0 l

gsave
0.000 setgray
fill
grestore
stroke
grestore
} bind def
110.122 130.176 o
grestore
gsave
/o {
gsave
newpath
translate
0.6 setlinewidth
1 setlinejoin
0 setlinecap
0 0 m
-2 0 l

gsave
0.000 setgray
fill
grestore
stroke
grestore
} bind def
110.122 168.495 o
grestore
gsave
/o {
gsave
newpath
translate
0.6 setlinewidth
1 setlinejoin
0 setlinecap
0 0 m
-2 0 l

gsave
0.000 setgray
fill
grestore
stroke
grestore
} bind def
110.122 183.063 o
grestore
gsave
/o {
gsave
newpath
translate
0.6 setlinewidth
1 setlinejoin
0 setlinecap
0 0 m
-2 0 l

gsave
0.000 setgray
fill
grestore
stroke
grestore
} bind def
110.122 195.683 o
grestore
gsave
/o {
gsave
newpath
translate
0.6 setlinewidth
1 setlinejoin
0 setlinecap
0 0 m
-2 0 l

gsave
0.000 setgray
fill
grestore
stroke
grestore
} bind def
110.122 206.814 o
grestore
gsave
/o {
gsave
newpath
translate
0.6 setlinewidth
1 setlinejoin
0 setlinecap
0 0 m
-2 0 l

gsave
0.000 setgray
fill
grestore
stroke
grestore
} bind def
110.122 320.598 o
grestore
gsave
/o {
gsave
newpath
translate
0.6 setlinewidth
1 setlinejoin
0 setlinecap
0 0 m
-2 0 l

gsave
0.000 setgray
fill
grestore
stroke
grestore
} bind def
110.122 347.785 o
grestore
gsave
/o {
gsave
newpath
translate
0.6 setlinewidth
1 setlinejoin
0 setlinecap
0 0 m
-2 0 l

gsave
0.000 setgray
fill
grestore
stroke
grestore
} bind def
110.122 386.105 o
grestore
gsave
/o {
gsave
newpath
translate
0.6 setlinewidth
1 setlinejoin
0 setlinecap
0 0 m
-2 0 l

gsave
0.000 setgray
fill
grestore
stroke
grestore
} bind def
110.122 400.673 o
grestore
gsave
/o {
gsave
newpath
translate
0.6 setlinewidth
1 setlinejoin
0 setlinecap
0 0 m
-2 0 l

gsave
0.000 setgray
fill
grestore
stroke
grestore
} bind def
110.122 413.292 o
grestore
gsave
/o {
gsave
newpath
translate
0.6 setlinewidth
1 setlinejoin
0 setlinecap
0 0 m
-2 0 l

gsave
0.000 setgray
fill
grestore
stroke
grestore
} bind def
110.122 424.424 o
grestore
gsave
/o {
gsave
newpath
translate
0.6 setlinewidth
1 setlinejoin
0 setlinecap
0 0 m
-2 0 l

gsave
0.000 setgray
fill
grestore
stroke
grestore
} bind def
110.122 538.207 o
grestore
gsave
25.434375 250.265938 translate
90.000000 rotate
0.000000 0.000000 m /E glyphshow
15.164062 0.000000 m /r glyphshow
25.031250 0.000000 m /r glyphshow
34.898438 0.000000 m /o glyphshow
49.582031 0.000000 m /r glyphshow
59.449219 0.000000 m /s glyphshow
71.953125 0.000000 m /space glyphshow
79.582031 0.000000 m /parenleft glyphshow
88.945312 0.000000 m /p glyphshow
104.179688 0.000000 m /x glyphshow
118.382812 0.000000 m /parenright glyphshow
grestore
3.000 setlinewidth
2 setlinecap
0.000 0.000 1.000 setrgbcolor
gsave
669.6 499 110.1 64.67 clipbox
110.121875 174.771865 m
125.001875 182.42691 l
139.881875 152.355036 l
154.761875 146.353672 l
169.641875 136.512315 l
184.521875 141.340228 l
199.401875 133.925317 l
214.281875 148.939447 l
229.161875 150.197008 l
244.041875 148.676007 l
258.921875 149.740756 l
273.801875 149.187664 l
288.681875 161.998598 l
303.561875 160.737139 l
318.441875 159.235121 l
333.321875 151.153495 l
348.201875 155.238995 l
363.081875 155.838767 l
377.961875 151.04197 l
392.841875 158.317405 l
407.721875 164.366848 l
422.601875 167.478093 l
437.481875 163.815668 l
452.361875 168.864978 l
467.241875 173.119717 l
482.121875 163.749111 l
497.001875 159.832064 l
511.881875 151.73831 l
526.761875 171.091714 l
541.641875 172.584847 l
556.521875 179.79099 l
571.401875 173.022174 l
586.281875 178.006489 l
601.161875 174.373666 l
616.041875 170.346788 l
630.921875 175.125086 l
645.801875 178.844947 l
660.681875 180.898135 l
675.561875 172.182455 l
690.441875 167.377893 l
705.321875 177.754336 l
720.201875 185.533426 l
735.081875 184.650323 l
749.961875 188.14106 l
764.841875 190.129902 l
779.721875 189.0715 l
stroke
grestore
1.000 0.000 0.000 setrgbcolor
gsave
669.6 499 110.1 64.67 clipbox
110.121875 166.984993 m
125.001875 176.467748 l
139.881875 166.754885 l
154.761875 128.314204 l
169.641875 112.664258 l
184.521875 126.923524 l
199.401875 130.037454 l
214.281875 140.211166 l
229.161875 135.126379 l
244.041875 129.626512 l
258.921875 134.206925 l
273.801875 140.790899 l
288.681875 152.297284 l
303.561875 136.838528 l
318.441875 137.535256 l
333.321875 142.040093 l
348.201875 137.106551 l
363.081875 134.074161 l
377.961875 135.449136 l
392.841875 139.597279 l
407.721875 151.075687 l
422.601875 151.714611 l
437.481875 137.193018 l
452.361875 146.768469 l
467.241875 142.891075 l
482.121875 138.325989 l
497.001875 130.984819 l
511.881875 124.119285 l
526.761875 142.496203 l
541.641875 143.497134 l
556.521875 153.296141 l
571.401875 147.921405 l
586.281875 152.078851 l
601.161875 144.000797 l
616.041875 144.419524 l
630.921875 143.2878 l
645.801875 149.935138 l
660.681875 143.895824 l
675.561875 146.951647 l
690.441875 141.941264 l
705.321875 140.24749 l
720.201875 157.405038 l
735.081875 158.851627 l
749.961875 160.954725 l
764.841875 154.293339 l
779.721875 159.673455 l
stroke
grestore
0 setlinecap
[11.1 4.8] 0 setdash
0.000 0.000 1.000 setrgbcolor
gsave
669.6 499 110.1 64.67 clipbox
110.121875 279.24131 m
125.001875 284.085427 l
139.881875 274.724348 l
154.761875 272.756918 l
169.641875 271.854235 l
184.521875 272.925574 l
199.401875 273.067367 l
214.281875 274.235288 l
229.161875 275.88625 l
244.041875 274.865003 l
258.921875 277.444732 l
273.801875 278.206054 l
288.681875 278.288406 l
303.561875 277.740677 l
318.441875 280.555973 l
333.321875 279.68529 l
348.201875 281.193366 l
363.081875 278.318469 l
377.961875 278.929964 l
392.841875 280.565597 l
407.721875 283.772454 l
422.601875 281.190498 l
437.481875 279.852216 l
452.361875 280.789559 l
467.241875 281.120683 l
482.121875 280.092865 l
497.001875 281.659687 l
511.881875 279.234966 l
526.761875 283.266913 l
541.641875 282.800486 l
556.521875 285.25016 l
571.401875 280.635342 l
586.281875 283.40616 l
601.161875 281.938474 l
616.041875 282.400671 l
630.921875 283.761291 l
645.801875 286.267172 l
660.681875 285.267559 l
675.561875 284.658991 l
690.441875 284.908404 l
705.321875 285.064068 l
720.201875 284.565407 l
735.081875 285.57791 l
749.961875 287.80121 l
764.841875 287.017081 l
779.721875 286.246331 l
stroke
grestore
1.000 0.000 0.000 setrgbcolor
gsave
669.6 499 110.1 64.67 clipbox
110.121875 256.293746 m
125.001875 260.31752 l
139.881875 257.787912 l
154.761875 247.043816 l
169.641875 247.580828 l
184.521875 247.230919 l
199.401875 252.042216 l
214.281875 252.13327 l
229.161875 254.405046 l
244.041875 252.473294 l
258.921875 253.767636 l
273.801875 257.277087 l
288.681875 256.179838 l
303.561875 254.140033 l
318.441875 257.769541 l
333.321875 258.267971 l
348.201875 256.105693 l
363.081875 256.172364 l
377.961875 255.944741 l
392.841875 259.153263 l
407.721875 259.114025 l
422.601875 256.055815 l
437.481875 259.709889 l
452.361875 257.732788 l
467.241875 258.372698 l
482.121875 255.965344 l
497.001875 255.830412 l
511.881875 252.180713 l
526.761875 256.352825 l
541.641875 255.984693 l
556.521875 258.731055 l
571.401875 254.234176 l
586.281875 257.12922 l
601.161875 255.429479 l
616.041875 255.142143 l
630.921875 254.63387 l
645.801875 256.642706 l
660.681875 260.998243 l
675.561875 258.288073 l
690.441875 261.82735 l
705.321875 258.572088 l
720.201875 260.911199 l
735.081875 260.709564 l
749.961875 260.898165 l
764.841875 260.443818 l
779.721875 260.082347 l
stroke
grestore
[3 4.95] 0 setdash
0.000 0.000 1.000 setrgbcolor
gsave
669.6 499 110.1 64.67 clipbox
110.121875 379.49223 m
125.001875 386.899293 l
139.881875 378.783127 l
154.761875 375.806779 l
169.641875 373.920098 l
184.521875 374.442946 l
199.401875 372.392444 l
214.281875 372.965248 l
229.161875 372.416114 l
244.041875 373.010126 l
258.921875 374.180275 l
273.801875 373.557987 l
288.681875 373.521106 l
303.561875 372.062987 l
318.441875 372.946059 l
333.321875 373.792969 l
348.201875 373.001442 l
363.081875 372.611263 l
377.961875 373.061674 l
392.841875 373.85772 l
407.721875 372.91745 l
422.601875 374.43956 l
437.481875 374.407122 l
452.361875 374.202966 l
467.241875 374.753567 l
482.121875 376.08389 l
497.001875 374.956537 l
511.881875 374.153646 l
526.761875 374.576321 l
541.641875 376.309014 l
556.521875 376.43263 l
571.401875 376.535519 l
586.281875 376.92583 l
601.161875 377.425103 l
616.041875 377.51105 l
630.921875 378.300062 l
645.801875 377.987856 l
660.681875 379.813656 l
675.561875 378.984427 l
690.441875 379.525165 l
705.321875 378.945697 l
720.201875 379.249679 l
735.081875 380.155802 l
749.961875 378.485833 l
764.841875 378.952832 l
779.721875 378.920547 l
stroke
grestore
1.000 0.000 0.000 setrgbcolor
gsave
669.6 499 110.1 64.67 clipbox
110.121875 344.423766 m
125.001875 344.221571 l
139.881875 343.985007 l
154.761875 338.709987 l
169.641875 339.18888 l
184.521875 340.410859 l
199.401875 341.024984 l
214.281875 341.166491 l
229.161875 341.904312 l
244.041875 340.674872 l
258.921875 341.735951 l
273.801875 340.901055 l
288.681875 341.71731 l
303.561875 341.256661 l
318.441875 342.595991 l
333.321875 341.361666 l
348.201875 341.978708 l
363.081875 341.784049 l
377.961875 341.551392 l
392.841875 341.641447 l
407.721875 342.511088 l
422.601875 343.296767 l
437.481875 342.385591 l
452.361875 343.671625 l
467.241875 342.404351 l
482.121875 342.081409 l
497.001875 341.489539 l
511.881875 341.741996 l
526.761875 340.70849 l
541.641875 342.408603 l
556.521875 342.696777 l
571.401875 342.234625 l
586.281875 342.382839 l
601.161875 343.51133 l
616.041875 343.108779 l
630.921875 343.23679 l
645.801875 344.488621 l
660.681875 343.736999 l
675.561875 343.036758 l
690.441875 343.932849 l
705.321875 342.530822 l
720.201875 344.423521 l
735.081875 343.64497 l
749.961875 342.879613 l
764.841875 343.049925 l
779.721875 342.982086 l
stroke
grestore
[19.2 4.8 3 4.8] 0 setdash
0.000 0.000 1.000 setrgbcolor
gsave
669.6 499 110.1 64.67 clipbox
110.121875 519.049106 m
125.001875 527.420875 l
139.881875 528.37858 l
154.761875 530.801093 l
169.641875 531.590599 l
184.521875 533.36786 l
199.401875 534.581222 l
214.281875 535.319112 l
229.161875 535.835426 l
244.041875 535.531615 l
258.921875 536.51521 l
273.801875 536.95676 l
288.681875 537.282757 l
303.561875 537.216566 l
318.441875 537.096475 l
333.321875 537.815058 l
348.201875 537.174854 l
363.081875 540.020836 l
377.961875 536.332869 l
392.841875 537.587342 l
407.721875 536.67447 l
422.601875 537.475976 l
437.481875 538.810669 l
452.361875 539.040769 l
467.241875 538.683499 l
482.121875 539.187727 l
497.001875 539.285261 l
511.881875 538.544858 l
526.761875 539.64244 l
541.641875 542.15425 l
556.521875 540.255411 l
571.401875 541.658962 l
586.281875 540.270823 l
601.161875 538.850414 l
616.041875 541.349569 l
630.921875 541.799785 l
645.801875 539.619167 l
660.681875 539.294604 l
675.561875 540.608027 l
690.441875 539.065122 l
705.321875 539.386739 l
720.201875 539.233858 l
735.081875 540.38972 l
749.961875 537.540083 l
764.841875 540.189727 l
779.721875 540.549657 l
stroke
grestore
1.000 0.000 0.000 setrgbcolor
gsave
669.6 499 110.1 64.67 clipbox
110.121875 480.977902 m
125.001875 485.549006 l
139.881875 484.989702 l
154.761875 480.031174 l
169.641875 477.206036 l
184.521875 476.091785 l
199.401875 475.189722 l
214.281875 474.093523 l
229.161875 474.636422 l
244.041875 472.451543 l
258.921875 471.760465 l
273.801875 471.655411 l
288.681875 472.266905 l
303.561875 470.483654 l
318.441875 470.21172 l
333.321875 468.761398 l
348.201875 469.359867 l
363.081875 468.089017 l
377.961875 467.574257 l
392.841875 468.562819 l
407.721875 466.998473 l
422.601875 467.315822 l
437.481875 467.563614 l
452.361875 467.515039 l
467.241875 465.904 l
482.121875 466.684756 l
497.001875 466.985757 l
511.881875 467.160287 l
526.761875 467.166968 l
541.641875 467.568936 l
556.521875 466.575918 l
571.401875 467.186339 l
586.281875 468.157793 l
601.161875 467.227072 l
616.041875 467.39516 l
630.921875 466.812245 l
645.801875 467.447126 l
660.681875 467.55297 l
675.561875 468.220574 l
690.441875 465.900615 l
705.321875 467.561618 l
720.201875 467.770276 l
735.081875 467.51038 l
749.961875 466.457533 l
764.841875 466.902726 l
779.721875 466.276978 l
stroke
grestore
0.800 setlinewidth
0 setlinejoin
2 setlinecap
[] 0 setdash
0.000 setgray
gsave
110.121875 64.66875 m
110.121875 563.62875 l
stroke
grestore
gsave
779.721875 64.66875 m
779.721875 563.62875 l
stroke
grestore
gsave
110.121875 64.66875 m
779.721875 64.66875 l
stroke
grestore
gsave
110.121875 563.62875 m
779.721875 563.62875 l
stroke
grestore
gsave
39.421875 569.628750 translate
0.000000 rotate
/DejaVuSans findfont
24.0 scalefont
setfont
0.000000 0.765625 moveto
/M glyphshow

20.707031 0.765625 moveto
/e glyphshow

35.472656 0.765625 moveto
/a glyphshow

50.179688 0.765625 moveto
/n glyphshow

65.390625 0.765625 moveto
/space glyphshow

73.019531 0.765625 moveto
/e glyphshow

87.785156 0.765625 moveto
/r glyphshow

97.652344 0.765625 moveto
/r glyphshow

107.519531 0.765625 moveto
/o glyphshow

122.203125 0.765625 moveto
/r glyphshow

132.070312 0.765625 moveto
/space glyphshow

139.699219 0.765625 moveto
/o glyphshow

154.382812 0.765625 moveto
/f glyphshow

162.832031 0.765625 moveto
/space glyphshow

170.460938 0.765625 moveto
/d glyphshow

185.695312 0.765625 moveto
/e glyphshow

200.460938 0.765625 moveto
/t glyphshow

209.871094 0.765625 moveto
/e glyphshow

224.636719 0.765625 moveto
/c glyphshow

237.832031 0.765625 moveto
/t glyphshow

247.242188 0.765625 moveto
/e glyphshow

262.007812 0.765625 moveto
/d glyphshow

277.242188 0.765625 moveto
/space glyphshow

284.871094 0.765625 moveto
/p glyphshow

300.105469 0.765625 moveto
/a glyphshow

314.812500 0.765625 moveto
/r glyphshow

324.679688 0.765625 moveto
/t glyphshow

334.089844 0.765625 moveto
/i glyphshow

340.757812 0.765625 moveto
/c glyphshow

353.953125 0.765625 moveto
/l glyphshow

360.621094 0.765625 moveto
/e glyphshow

375.386719 0.765625 moveto
/s glyphshow

387.890625 0.765625 moveto
/comma glyphshow

395.519531 0.765625 moveto
/space glyphshow

403.148438 0.765625 moveto
/P glyphshow

417.621094 0.765625 moveto
/P glyphshow

432.093750 0.765625 moveto
/P glyphshow

446.566406 0.765625 moveto
/space glyphshow

454.195312 0.765625 moveto
/equal glyphshow

474.304688 0.765625 moveto
/space glyphshow

481.933594 0.765625 moveto
/zero glyphshow

497.203125 0.765625 moveto
/period glyphshow

504.832031 0.765625 moveto
/zero glyphshow

520.101562 0.765625 moveto
/five glyphshow

535.371094 0.765625 moveto
/comma glyphshow

543.000000 0.765625 moveto
/space glyphshow

550.628906 0.765625 moveto
/t glyphshow

560.039062 0.765625 moveto
/i glyphshow

566.707031 0.765625 moveto
/m glyphshow

590.085938 0.765625 moveto
/e glyphshow

604.851562 0.765625 moveto
/space glyphshow

612.480469 0.765625 moveto
/s glyphshow

624.984375 0.765625 moveto
/e glyphshow

639.750000 0.765625 moveto
/p glyphshow

654.984375 0.765625 moveto
/a glyphshow

669.691406 0.765625 moveto
/r glyphshow

679.558594 0.765625 moveto
/a glyphshow

694.265625 0.765625 moveto
/t glyphshow

703.675781 0.765625 moveto
/i glyphshow

710.343750 0.765625 moveto
/o glyphshow

725.027344 0.765625 moveto
/n glyphshow

740.238281 0.765625 moveto
/space glyphshow

747.867188 0.765625 moveto
/seven glyphshow

763.136719 0.765625 moveto
/period glyphshow

770.765625 0.765625 moveto
/five glyphshow

/DejaVuSans-Oblique findfont
24.0 scalefont
setfont
786.035156 0.765625 moveto
/delta glyphshow

800.718750 0.765625 moveto
/t glyphshow


grestore
1.000 setlinewidth
0 setlinecap
0.800 setgray
gsave
181.8525 375.50375 m
367.461875 375.50375 l
369.461875 375.50375 370.461875 376.50375 370.461875 378.50375 c
370.461875 553.12875 l
370.461875 555.12875 369.461875 556.12875 367.461875 556.12875 c
181.8525 556.12875 l
179.8525 556.12875 178.8525 555.12875 178.8525 553.12875 c
178.8525 378.50375 l
178.8525 376.50375 179.8525 375.50375 181.8525 375.50375 c
cl
gsave
1.000 setgray
fill
grestore
stroke
grestore
3.000 setlinewidth
1 setlinejoin
2 setlinecap
[] 0 setdash
0.000 0.000 1.000 setrgbcolor
gsave
184.8525 543.988125 m
214.8525 543.988125 l
stroke
grestore
0.000 setgray
/DejaVuSans findfont
15.000 scalefont
setfont
gsave
226.852500 538.738125 translate
0.000000 rotate
0.000000 0.000000 m /S glyphshow
9.521484 0.000000 m /T glyphshow
18.684082 0.000000 m /B glyphshow
28.974609 0.000000 m /comma glyphshow
33.742676 0.000000 m /space glyphshow
38.510742 0.000000 m /N glyphshow
49.731445 0.000000 m /o glyphshow
58.908691 0.000000 m /i glyphshow
63.076172 0.000000 m /s glyphshow
70.891113 0.000000 m /e glyphshow
80.119629 0.000000 m /space glyphshow
84.887695 0.000000 m /F glyphshow
93.500000 0.000000 m /r glyphshow
99.666992 0.000000 m /e glyphshow
108.895508 0.000000 m /e glyphshow
grestore
1.000 0.000 0.000 setrgbcolor
gsave
184.8525 521.9725 m
214.8525 521.9725 l
stroke
grestore
0.000 setgray
gsave
226.852500 516.722500 translate
0.000000 rotate
0.000000 0.000000 m /K glyphshow
9.836426 0.000000 m /L glyphshow
18.193359 0.000000 m /P glyphshow
27.238770 0.000000 m /T glyphshow
36.401367 0.000000 m /comma glyphshow
41.169434 0.000000 m /space glyphshow
45.937500 0.000000 m /N glyphshow
57.158203 0.000000 m /o glyphshow
66.335449 0.000000 m /i glyphshow
70.502930 0.000000 m /s glyphshow
78.317871 0.000000 m /e glyphshow
87.546387 0.000000 m /space glyphshow
92.314453 0.000000 m /F glyphshow
100.926758 0.000000 m /r glyphshow
107.093750 0.000000 m /e glyphshow
116.322266 0.000000 m /e glyphshow
grestore
0 setlinecap
[11.1 4.8] 0 setdash
0.000 0.000 1.000 setrgbcolor
gsave
184.8525 499.956875 m
214.8525 499.956875 l
stroke
grestore
0.000 setgray
gsave
226.852500 494.706875 translate
0.000000 rotate
0.000000 0.000000 m /S glyphshow
9.521484 0.000000 m /T glyphshow
18.684082 0.000000 m /B glyphshow
28.974609 0.000000 m /comma glyphshow
33.742676 0.000000 m /space glyphshow
38.510742 0.000000 m /P glyphshow
47.556152 0.000000 m /S glyphshow
57.077637 0.000000 m /N glyphshow
68.298340 0.000000 m /R glyphshow
78.720703 0.000000 m /equal glyphshow
91.289062 0.000000 m /four glyphshow
100.832520 0.000000 m /zero glyphshow
110.375977 0.000000 m /d glyphshow
119.897461 0.000000 m /B glyphshow
grestore
1.000 0.000 0.000 setrgbcolor
gsave
184.8525 477.94125 m
214.8525 477.94125 l
stroke
grestore
0.000 setgray
gsave
226.852500 472.691250 translate
0.000000 rotate
0.000000 0.000000 m /K glyphshow
9.836426 0.000000 m /L glyphshow
18.193359 0.000000 m /P glyphshow
27.238770 0.000000 m /T glyphshow
36.401367 0.000000 m /comma glyphshow
41.169434 0.000000 m /space glyphshow
45.937500 0.000000 m /P glyphshow
54.982910 0.000000 m /S glyphshow
64.504395 0.000000 m /N glyphshow
75.725098 0.000000 m /R glyphshow
86.147461 0.000000 m /equal glyphshow
98.715820 0.000000 m /four glyphshow
108.259277 0.000000 m /zero glyphshow
117.802734 0.000000 m /d glyphshow
127.324219 0.000000 m /B glyphshow
grestore
[3 4.95] 0 setdash
0.000 0.000 1.000 setrgbcolor
gsave
184.8525 455.925625 m
214.8525 455.925625 l
stroke
grestore
0.000 setgray
gsave
226.852500 450.675625 translate
0.000000 rotate
0.000000 0.000000 m /S glyphshow
9.521484 0.000000 m /T glyphshow
18.684082 0.000000 m /B glyphshow
28.974609 0.000000 m /comma glyphshow
33.742676 0.000000 m /space glyphshow
38.510742 0.000000 m /P glyphshow
47.556152 0.000000 m /S glyphshow
57.077637 0.000000 m /N glyphshow
68.298340 0.000000 m /R glyphshow
78.720703 0.000000 m /equal glyphshow
91.289062 0.000000 m /three glyphshow
100.832520 0.000000 m /zero glyphshow
110.375977 0.000000 m /d glyphshow
119.897461 0.000000 m /B glyphshow
grestore
1.000 0.000 0.000 setrgbcolor
gsave
184.8525 433.91 m
214.8525 433.91 l
stroke
grestore
0.000 setgray
gsave
226.852500 428.660000 translate
0.000000 rotate
0.000000 0.000000 m /K glyphshow
9.836426 0.000000 m /L glyphshow
18.193359 0.000000 m /P glyphshow
27.238770 0.000000 m /T glyphshow
36.401367 0.000000 m /comma glyphshow
41.169434 0.000000 m /space glyphshow
45.937500 0.000000 m /P glyphshow
54.982910 0.000000 m /S glyphshow
64.504395 0.000000 m /N glyphshow
75.725098 0.000000 m /R glyphshow
86.147461 0.000000 m /equal glyphshow
98.715820 0.000000 m /three glyphshow
108.259277 0.000000 m /zero glyphshow
117.802734 0.000000 m /d glyphshow
127.324219 0.000000 m /B glyphshow
grestore
[19.2 4.8 3 4.8] 0 setdash
0.000 0.000 1.000 setrgbcolor
gsave
184.8525 411.894375 m
214.8525 411.894375 l
stroke
grestore
0.000 setgray
gsave
226.852500 406.644375 translate
0.000000 rotate
0.000000 0.000000 m /S glyphshow
9.521484 0.000000 m /T glyphshow
18.684082 0.000000 m /B glyphshow
28.974609 0.000000 m /comma glyphshow
33.742676 0.000000 m /space glyphshow
38.510742 0.000000 m /P glyphshow
47.556152 0.000000 m /S glyphshow
57.077637 0.000000 m /N glyphshow
68.298340 0.000000 m /R glyphshow
78.720703 0.000000 m /equal glyphshow
91.289062 0.000000 m /two glyphshow
100.832520 0.000000 m /zero glyphshow
110.375977 0.000000 m /d glyphshow
119.897461 0.000000 m /B glyphshow
grestore
1.000 0.000 0.000 setrgbcolor
gsave
184.8525 389.87875 m
214.8525 389.87875 l
stroke
grestore
0.000 setgray
gsave
226.852500 384.628750 translate
0.000000 rotate
0.000000 0.000000 m /K glyphshow
9.836426 0.000000 m /L glyphshow
18.193359 0.000000 m /P glyphshow
27.238770 0.000000 m /T glyphshow
36.401367 0.000000 m /comma glyphshow
41.169434 0.000000 m /space glyphshow
45.937500 0.000000 m /P glyphshow
54.982910 0.000000 m /S glyphshow
64.504395 0.000000 m /N glyphshow
75.725098 0.000000 m /R glyphshow
86.147461 0.000000 m /equal glyphshow
98.715820 0.000000 m /two glyphshow
108.259277 0.000000 m /zero glyphshow
117.802734 0.000000 m /d glyphshow
127.324219 0.000000 m /B glyphshow
grestore

end
showpage
