%!PS-Adobe-3.0 EPSF-3.0
%%Title: /home/yin/020000_undetected_thin_noise.eps
%%Creator: matplotlib version 3.1.1, http://matplotlib.org/
%%CreationDate: Mon May 11 23:39:33 2020
%%Orientation: portrait
%%BoundingBox: -122.0609374999999 98.08562500000005 734.0609374999999 693.914375
%%EndComments
%%BeginProlog
/mpldict 9 dict def
mpldict begin
/m { moveto } bind def
/l { lineto } bind def
/r { rlineto } bind def
/c { curveto } bind def
/cl { closepath } bind def
/box {
m
1 index 0 r
0 exch r
neg 0 r
cl
} bind def
/clipbox {
box
clip
newpath
} bind def
%!PS-Adobe-3.0 Resource-Font
%%Title: DejaVu Sans
%%Copyright: Copyright (c) 2003 by Bitstream, Inc. All Rights Reserved. Copyright (c) 2006 by Tavmjong Bah. All Rights Reserved. DejaVu changes are in public domain 
%%Creator: Converted from TrueType to type 3 by PPR
25 dict begin
/_d{bind def}bind def
/_m{moveto}_d
/_l{lineto}_d
/_cl{closepath eofill}_d
/_c{curveto}_d
/_sc{7 -1 roll{setcachedevice}{pop pop pop pop pop pop}ifelse}_d
/_e{exec}_d
/FontName /DejaVuSans def
/PaintType 0 def
/FontMatrix[.001 0 0 .001 0 0]def
/FontBBox[-1021 -463 1793 1232]def
/FontType 3 def
/Encoding [ /space /comma /period /zero /one /two /three /four /five /seven /equal /B /F /K /L /N /P /R /S /T /U /a /c /d /e /f /h /i /l /m /n /o /p /r /s /t ] def
/FontInfo 10 dict dup begin
/FamilyName (DejaVu Sans) def
/FullName (DejaVu Sans) def
/Notice (Copyright (c) 2003 by Bitstream, Inc. All Rights Reserved. Copyright (c) 2006 by Tavmjong Bah. All Rights Reserved. DejaVu changes are in public domain ) def
/Weight (Book) def
/Version (Version 2.35) def
/ItalicAngle 0.0 def
/isFixedPitch false def
/UnderlinePosition -130 def
/UnderlineThickness 90 def
end readonly def
/CharStrings 37 dict dup begin
/.notdef 0 def
/space{318 0 0 0 0 0 _sc
}_d
/comma{318 0 77 -115 220 124 _sc
117 124 _m
220 124 _l
220 40 _l
140 -115 _l
77 -115 _l
117 40 _l
117 124 _l
_cl}_d
/period{318 0 107 0 210 124 _sc
107 124 _m
210 124 _l
210 0 _l
107 0 _l
107 124 _l
_cl}_d
/zero{636 0 66 -13 570 742 _sc
318 664 _m
267 664 229 639 203 589 _c
177 539 165 464 165 364 _c
165 264 177 189 203 139 _c
229 89 267 64 318 64 _c
369 64 407 89 433 139 _c
458 189 471 264 471 364 _c
471 464 458 539 433 589 _c
407 639 369 664 318 664 _c
318 742 _m
399 742 461 709 505 645 _c
548 580 570 486 570 364 _c
570 241 548 147 505 83 _c
461 19 399 -13 318 -13 _c
236 -13 173 19 130 83 _c
87 147 66 241 66 364 _c
66 486 87 580 130 645 _c
173 709 236 742 318 742 _c
_cl}_d
/one{636 0 110 0 544 729 _sc
124 83 _m
285 83 _l
285 639 _l
110 604 _l
110 694 _l
284 729 _l
383 729 _l
383 83 _l
544 83 _l
544 0 _l
124 0 _l
124 83 _l
_cl}_d
/two{{636 0 73 0 536 742 _sc
192 83 _m
536 83 _l
536 0 _l
73 0 _l
73 83 _l
110 121 161 173 226 239 _c
290 304 331 346 348 365 _c
380 400 402 430 414 455 _c
426 479 433 504 433 528 _c
433 566 419 598 392 622 _c
365 646 330 659 286 659 _c
255 659 222 653 188 643 _c
154 632 117 616 78 594 _c
78 694 _l
118 710 155 722 189 730 _c
223 738 255 742 284 742 _c
}_e{359 742 419 723 464 685 _c
509 647 532 597 532 534 _c
532 504 526 475 515 449 _c
504 422 484 390 454 354 _c
446 344 420 317 376 272 _c
332 227 271 164 192 83 _c
_cl}_e}_d
/three{{636 0 76 -13 556 742 _sc
406 393 _m
453 383 490 362 516 330 _c
542 298 556 258 556 212 _c
556 140 531 84 482 45 _c
432 6 362 -13 271 -13 _c
240 -13 208 -10 176 -4 _c
144 1 110 10 76 22 _c
76 117 _l
103 101 133 89 166 81 _c
198 73 232 69 268 69 _c
330 69 377 81 409 105 _c
441 129 458 165 458 212 _c
458 254 443 288 413 312 _c
383 336 341 349 287 349 _c
}_e{202 349 _l
202 430 _l
291 430 _l
339 430 376 439 402 459 _c
428 478 441 506 441 543 _c
441 580 427 609 401 629 _c
374 649 336 659 287 659 _c
260 659 231 656 200 650 _c
169 644 135 635 98 623 _c
98 711 _l
135 721 170 729 203 734 _c
235 739 266 742 296 742 _c
370 742 429 725 473 691 _c
517 657 539 611 539 553 _c
539 513 527 479 504 451 _c
481 423 448 403 406 393 _c
_cl}_e}_d
/four{636 0 49 0 580 729 _sc
378 643 _m
129 254 _l
378 254 _l
378 643 _l
352 729 _m
476 729 _l
476 254 _l
580 254 _l
580 172 _l
476 172 _l
476 0 _l
378 0 _l
378 172 _l
49 172 _l
49 267 _l
352 729 _l
_cl}_d
/five{{636 0 77 -13 549 729 _sc
108 729 _m
495 729 _l
495 646 _l
198 646 _l
198 467 _l
212 472 227 476 241 478 _c
255 480 270 482 284 482 _c
365 482 429 459 477 415 _c
525 370 549 310 549 234 _c
549 155 524 94 475 51 _c
426 8 357 -13 269 -13 _c
238 -13 207 -10 175 -6 _c
143 -1 111 6 77 17 _c
77 116 _l
106 100 136 88 168 80 _c
199 72 232 69 267 69 _c
}_e{323 69 368 83 401 113 _c
433 143 450 183 450 234 _c
450 284 433 324 401 354 _c
368 384 323 399 267 399 _c
241 399 214 396 188 390 _c
162 384 135 375 108 363 _c
108 729 _l
_cl}_e}_d
/seven{636 0 82 0 551 729 _sc
82 729 _m
551 729 _l
551 687 _l
286 0 _l
183 0 _l
432 646 _l
82 646 _l
82 729 _l
_cl}_d
/equal{838 0 106 172 732 454 _sc
106 454 _m
732 454 _l
732 372 _l
106 372 _l
106 454 _l
106 255 _m
732 255 _l
732 172 _l
106 172 _l
106 255 _l
_cl}_d
/B{{686 0 98 0 615 729 _sc
197 348 _m
197 81 _l
355 81 _l
408 81 447 92 473 114 _c
498 136 511 169 511 215 _c
511 260 498 293 473 315 _c
447 337 408 348 355 348 _c
197 348 _l
197 648 _m
197 428 _l
343 428 _l
391 428 426 437 450 455 _c
474 473 486 500 486 538 _c
486 574 474 602 450 620 _c
426 638 391 648 343 648 _c
197 648 _l
98 729 _m
350 729 _l
}_e{425 729 483 713 524 682 _c
564 650 585 606 585 549 _c
585 504 574 468 553 442 _c
532 416 502 399 462 393 _c
510 382 548 360 575 327 _c
601 294 615 253 615 204 _c
615 138 592 88 548 53 _c
504 17 441 0 360 0 _c
98 0 _l
98 729 _l
_cl}_e}_d
/F{575 0 98 0 517 729 _sc
98 729 _m
517 729 _l
517 646 _l
197 646 _l
197 431 _l
486 431 _l
486 348 _l
197 348 _l
197 0 _l
98 0 _l
98 729 _l
_cl}_d
/K{656 0 98 0 677 729 _sc
98 729 _m
197 729 _l
197 421 _l
524 729 _l
651 729 _l
289 389 _l
677 0 _l
547 0 _l
197 351 _l
197 0 _l
98 0 _l
98 729 _l
_cl}_d
/L{557 0 98 0 552 729 _sc
98 729 _m
197 729 _l
197 83 _l
552 83 _l
552 0 _l
98 0 _l
98 729 _l
_cl}_d
/N{748 0 98 0 650 729 _sc
98 729 _m
231 729 _l
554 119 _l
554 729 _l
650 729 _l
650 0 _l
517 0 _l
194 610 _l
194 0 _l
98 0 _l
98 729 _l
_cl}_d
/P{603 0 98 0 569 729 _sc
197 648 _m
197 374 _l
321 374 _l
367 374 402 385 427 409 _c
452 433 465 467 465 511 _c
465 555 452 588 427 612 _c
402 636 367 648 321 648 _c
197 648 _l
98 729 _m
321 729 _l
402 729 464 710 506 673 _c
548 636 569 582 569 511 _c
569 439 548 384 506 348 _c
464 311 402 293 321 293 _c
197 293 _l
197 0 _l
98 0 _l
98 729 _l
_cl}_d
/R{{695 0 98 0 666 729 _sc
444 342 _m
465 334 486 319 506 296 _c
526 272 546 240 566 199 _c
666 0 _l
560 0 _l
467 187 _l
443 235 419 268 397 284 _c
374 300 343 308 304 308 _c
197 308 _l
197 0 _l
98 0 _l
98 729 _l
321 729 _l
404 729 466 711 507 677 _c
548 642 569 589 569 519 _c
569 473 558 434 537 404 _c
515 374 484 353 444 342 _c
197 648 _m
197 389 _l
321 389 _l
}_e{368 389 404 400 428 422 _c
452 444 465 476 465 519 _c
465 561 452 593 428 615 _c
404 637 368 648 321 648 _c
197 648 _l
_cl}_e}_d
/S{{635 0 66 -13 579 742 _sc
535 705 _m
535 609 _l
497 627 462 640 429 649 _c
395 657 363 662 333 662 _c
279 662 237 651 208 631 _c
179 610 165 580 165 542 _c
165 510 174 485 194 469 _c
213 452 250 439 304 429 _c
364 417 _l
437 403 491 378 526 343 _c
561 307 579 260 579 201 _c
579 130 555 77 508 41 _c
460 5 391 -13 300 -13 _c
265 -13 228 -9 189 -2 _c
}_e{150 5 110 16 69 32 _c
69 134 _l
109 111 148 94 186 83 _c
224 71 262 66 300 66 _c
356 66 399 77 430 99 _c
460 121 476 152 476 194 _c
476 230 465 258 443 278 _c
421 298 385 313 335 323 _c
275 335 _l
201 349 148 372 115 404 _c
82 435 66 478 66 534 _c
66 598 88 649 134 686 _c
179 723 242 742 322 742 _c
356 742 390 739 426 733 _c
461 727 497 717 535 705 _c
}_e{_cl}_e}_d
/T{611 0 -2 0 614 729 _sc
-2 729 _m
614 729 _l
614 646 _l
355 646 _l
355 0 _l
256 0 _l
256 646 _l
-2 646 _l
-2 729 _l
_cl}_d
/U{732 0 87 -13 645 729 _sc
87 729 _m
186 729 _l
186 286 _l
186 208 200 151 228 117 _c
256 83 302 66 366 66 _c
429 66 475 83 503 117 _c
531 151 546 208 546 286 _c
546 729 _l
645 729 _l
645 274 _l
645 178 621 107 574 59 _c
527 11 458 -13 366 -13 _c
274 -13 204 11 157 59 _c
110 107 87 178 87 274 _c
87 729 _l
_cl}_d
/a{{613 0 60 -13 522 560 _sc
343 275 _m
270 275 220 266 192 250 _c
164 233 150 205 150 165 _c
150 133 160 107 181 89 _c
202 70 231 61 267 61 _c
317 61 357 78 387 114 _c
417 149 432 196 432 255 _c
432 275 _l
343 275 _l
522 312 _m
522 0 _l
432 0 _l
432 83 _l
411 49 385 25 355 10 _c
325 -5 287 -13 243 -13 _c
187 -13 142 2 109 33 _c
76 64 60 106 60 159 _c
}_e{60 220 80 266 122 298 _c
163 329 224 345 306 345 _c
432 345 _l
432 354 _l
432 395 418 427 391 450 _c
364 472 326 484 277 484 _c
245 484 215 480 185 472 _c
155 464 127 453 100 439 _c
100 522 _l
132 534 164 544 195 550 _c
226 556 256 560 286 560 _c
365 560 424 539 463 498 _c
502 457 522 395 522 312 _c
_cl}_e}_d
/c{{550 0 55 -13 488 560 _sc
488 526 _m
488 442 _l
462 456 437 466 411 473 _c
385 480 360 484 334 484 _c
276 484 230 465 198 428 _c
166 391 150 339 150 273 _c
150 206 166 154 198 117 _c
230 80 276 62 334 62 _c
360 62 385 65 411 72 _c
437 79 462 90 488 104 _c
488 21 _l
462 9 436 0 410 -5 _c
383 -10 354 -13 324 -13 _c
242 -13 176 12 128 64 _c
}_e{79 115 55 185 55 273 _c
55 362 79 432 128 483 _c
177 534 244 560 330 560 _c
358 560 385 557 411 551 _c
437 545 463 537 488 526 _c
_cl}_e}_d
/d{{635 0 55 -13 544 760 _sc
454 464 _m
454 760 _l
544 760 _l
544 0 _l
454 0 _l
454 82 _l
435 49 411 25 382 10 _c
353 -5 319 -13 279 -13 _c
213 -13 159 13 117 65 _c
75 117 55 187 55 273 _c
55 359 75 428 117 481 _c
159 533 213 560 279 560 _c
319 560 353 552 382 536 _c
411 520 435 496 454 464 _c
148 273 _m
148 207 161 155 188 117 _c
215 79 253 61 301 61 _c
}_e{348 61 385 79 413 117 _c
440 155 454 207 454 273 _c
454 339 440 390 413 428 _c
385 466 348 485 301 485 _c
253 485 215 466 188 428 _c
161 390 148 339 148 273 _c
_cl}_e}_d
/e{{615 0 55 -13 562 560 _sc
562 296 _m
562 252 _l
149 252 _l
153 190 171 142 205 110 _c
238 78 284 62 344 62 _c
378 62 412 66 444 74 _c
476 82 509 95 541 113 _c
541 28 _l
509 14 476 3 442 -3 _c
408 -9 373 -13 339 -13 _c
251 -13 182 12 131 62 _c
80 112 55 181 55 268 _c
55 357 79 428 127 481 _c
175 533 241 560 323 560 _c
397 560 455 536 498 489 _c
}_e{540 441 562 377 562 296 _c
472 322 _m
471 371 457 410 431 440 _c
404 469 368 484 324 484 _c
274 484 234 469 204 441 _c
174 413 156 373 152 322 _c
472 322 _l
_cl}_e}_d
/f{352 0 23 0 371 760 _sc
371 760 _m
371 685 _l
285 685 _l
253 685 230 678 218 665 _c
205 652 199 629 199 595 _c
199 547 _l
347 547 _l
347 477 _l
199 477 _l
199 0 _l
109 0 _l
109 477 _l
23 477 _l
23 547 _l
109 547 _l
109 585 _l
109 645 123 690 151 718 _c
179 746 224 760 286 760 _c
371 760 _l
_cl}_d
/h{634 0 91 0 549 760 _sc
549 330 _m
549 0 _l
459 0 _l
459 327 _l
459 379 448 417 428 443 _c
408 469 378 482 338 482 _c
289 482 251 466 223 435 _c
195 404 181 362 181 309 _c
181 0 _l
91 0 _l
91 760 _l
181 760 _l
181 462 _l
202 494 227 519 257 535 _c
286 551 320 560 358 560 _c
420 560 468 540 500 501 _c
532 462 549 405 549 330 _c
_cl}_d
/i{278 0 94 0 184 760 _sc
94 547 _m
184 547 _l
184 0 _l
94 0 _l
94 547 _l
94 760 _m
184 760 _l
184 646 _l
94 646 _l
94 760 _l
_cl}_d
/l{278 0 94 0 184 760 _sc
94 760 _m
184 760 _l
184 0 _l
94 0 _l
94 760 _l
_cl}_d
/m{{974 0 91 0 889 560 _sc
520 442 _m
542 482 569 511 600 531 _c
631 550 668 560 711 560 _c
767 560 811 540 842 500 _c
873 460 889 403 889 330 _c
889 0 _l
799 0 _l
799 327 _l
799 379 789 418 771 444 _c
752 469 724 482 686 482 _c
639 482 602 466 575 435 _c
548 404 535 362 535 309 _c
535 0 _l
445 0 _l
445 327 _l
445 379 435 418 417 444 _c
398 469 369 482 331 482 _c
}_e{285 482 248 466 221 435 _c
194 404 181 362 181 309 _c
181 0 _l
91 0 _l
91 547 _l
181 547 _l
181 462 _l
201 495 226 520 255 536 _c
283 552 317 560 357 560 _c
397 560 430 550 458 530 _c
486 510 506 480 520 442 _c
_cl}_e}_d
/n{634 0 91 0 549 560 _sc
549 330 _m
549 0 _l
459 0 _l
459 327 _l
459 379 448 417 428 443 _c
408 469 378 482 338 482 _c
289 482 251 466 223 435 _c
195 404 181 362 181 309 _c
181 0 _l
91 0 _l
91 547 _l
181 547 _l
181 462 _l
202 494 227 519 257 535 _c
286 551 320 560 358 560 _c
420 560 468 540 500 501 _c
532 462 549 405 549 330 _c
_cl}_d
/o{612 0 55 -13 557 560 _sc
306 484 _m
258 484 220 465 192 427 _c
164 389 150 338 150 273 _c
150 207 163 156 191 118 _c
219 80 257 62 306 62 _c
354 62 392 80 420 118 _c
448 156 462 207 462 273 _c
462 337 448 389 420 427 _c
392 465 354 484 306 484 _c
306 560 _m
384 560 445 534 490 484 _c
534 433 557 363 557 273 _c
557 183 534 113 490 63 _c
445 12 384 -13 306 -13 _c
227 -13 165 12 121 63 _c
77 113 55 183 55 273 _c
55 363 77 433 121 484 _c
165 534 227 560 306 560 _c
_cl}_d
/p{{635 0 91 -207 580 560 _sc
181 82 _m
181 -207 _l
91 -207 _l
91 547 _l
181 547 _l
181 464 _l
199 496 223 520 252 536 _c
281 552 316 560 356 560 _c
422 560 476 533 518 481 _c
559 428 580 359 580 273 _c
580 187 559 117 518 65 _c
476 13 422 -13 356 -13 _c
316 -13 281 -5 252 10 _c
223 25 199 49 181 82 _c
487 273 _m
487 339 473 390 446 428 _c
418 466 381 485 334 485 _c
}_e{286 485 249 466 222 428 _c
194 390 181 339 181 273 _c
181 207 194 155 222 117 _c
249 79 286 61 334 61 _c
381 61 418 79 446 117 _c
473 155 487 207 487 273 _c
_cl}_e}_d
/r{411 0 91 0 411 560 _sc
411 463 _m
401 469 390 473 378 476 _c
366 478 353 480 339 480 _c
288 480 249 463 222 430 _c
194 397 181 350 181 288 _c
181 0 _l
91 0 _l
91 547 _l
181 547 _l
181 462 _l
199 495 224 520 254 536 _c
284 552 321 560 365 560 _c
371 560 378 559 386 559 _c
393 558 401 557 411 555 _c
411 463 _l
_cl}_d
/s{{521 0 54 -13 472 560 _sc
443 531 _m
443 446 _l
417 458 391 468 364 475 _c
336 481 308 485 279 485 _c
234 485 200 478 178 464 _c
156 450 145 430 145 403 _c
145 382 153 366 169 354 _c
185 342 217 330 265 320 _c
296 313 _l
360 299 405 279 432 255 _c
458 230 472 195 472 151 _c
472 100 452 60 412 31 _c
372 1 316 -13 246 -13 _c
216 -13 186 -10 154 -5 _c
}_e{122 0 89 8 54 20 _c
54 113 _l
87 95 120 82 152 74 _c
184 65 216 61 248 61 _c
290 61 323 68 346 82 _c
368 96 380 117 380 144 _c
380 168 371 187 355 200 _c
339 213 303 226 247 238 _c
216 245 _l
160 257 119 275 95 299 _c
70 323 58 356 58 399 _c
58 450 76 490 112 518 _c
148 546 200 560 268 560 _c
301 560 332 557 362 552 _c
391 547 418 540 443 531 _c
}_e{_cl}_e}_d
/t{392 0 27 0 368 702 _sc
183 702 _m
183 547 _l
368 547 _l
368 477 _l
183 477 _l
183 180 _l
183 135 189 106 201 94 _c
213 81 238 75 276 75 _c
368 75 _l
368 0 _l
276 0 _l
206 0 158 13 132 39 _c
106 65 93 112 93 180 _c
93 477 _l
27 477 _l
27 547 _l
93 547 _l
93 702 _l
183 702 _l
_cl}_d
end readonly def

/BuildGlyph
 {exch begin
 CharStrings exch
 2 copy known not{pop /.notdef}if
 true 3 1 roll get exec
 end}_d

/BuildChar {
 1 index /Encoding get exch get
 1 index /BuildGlyph get exec
}_d

FontName currentdict end definefont pop
%!PS-Adobe-3.0 Resource-Font
%%Title: DejaVu Sans Oblique
%%Copyright: Copyright (c) 2003 by Bitstream, Inc. All Rights Reserved. Copyright (c) 2006 by Tavmjong Bah. All Rights Reserved. DejaVu changes are in public domain 
%%Creator: Converted from TrueType to type 3 by PPR
25 dict begin
/_d{bind def}bind def
/_m{moveto}_d
/_l{lineto}_d
/_cl{closepath eofill}_d
/_c{curveto}_d
/_sc{7 -1 roll{setcachedevice}{pop pop pop pop pop pop}ifelse}_d
/_e{exec}_d
/FontName /DejaVuSans-Oblique def
/PaintType 0 def
/FontMatrix[.001 0 0 .001 0 0]def
/FontBBox[-1016 -350 1659 1068]def
/FontType 3 def
/Encoding [ /t /delta ] def
/FontInfo 10 dict dup begin
/FamilyName (DejaVu Sans) def
/FullName (DejaVu Sans Oblique) def
/Notice (Copyright (c) 2003 by Bitstream, Inc. All Rights Reserved. Copyright (c) 2006 by Tavmjong Bah. All Rights Reserved. DejaVu changes are in public domain ) def
/Weight (Oblique) def
/Version (Version 2.35) def
/ItalicAngle -11.0 def
/isFixedPitch false def
/UnderlinePosition -130 def
/UnderlineThickness 90 def
end readonly def
/CharStrings 3 dict dup begin
/.notdef 0 def
/t{{392 0 64 0 423 702 _sc
423 547 _m
409 477 _l
230 477 _l
172 180 _l
170 169 168 160 167 152 _c
166 144 166 139 166 135 _c
166 114 172 99 185 89 _c
197 79 217 75 245 75 _c
336 75 _l
321 0 _l
235 0 _l
181 0 141 10 115 31 _c
89 52 76 84 76 126 _c
76 133 76 141 77 150 _c
78 159 80 169 82 180 _c
140 477 _l
64 477 _l
78 547 _l
153 547 _l
183 702 _l
}_e{273 702 _l
243 547 _l
423 547 _l
_cl}_e}_d
/delta{{612 0 38 -13 557 742 _sc
542 633 _m
514 655 461 667 383 667 _c
300 667 255 648 248 610 _c
242 580 280 557 364 542 _c
428 530 476 505 508 469 _c
546 425 556 358 539 268 _c
521 182 486 113 432 63 _c
377 12 310 -13 232 -13 _c
154 -13 98 12 63 63 _c
28 113 20 183 38 273 _c
50 339 84 399 139 453 _c
160 473 184 490 211 502 _c
165 528 147 563 156 609 _c
}_e{173 697 253 742 397 742 _c
469 742 522 730 557 708 _c
542 633 _l
274 478 _m
250 468 226 451 204 428 _c
168 391 144 339 132 273 _c
119 207 123 155 144 118 _c
164 80 199 62 248 62 _c
295 62 336 81 372 119 _c
407 156 431 206 443 268 _c
455 332 450 380 427 412 _c
401 445 369 464 329 468 _c
308 470 290 473 274 478 _c
_cl}_e}_d
end readonly def

/BuildGlyph
 {exch begin
 CharStrings exch
 2 copy known not{pop /.notdef}if
 true 3 1 roll get exec
 end}_d

/BuildChar {
 1 index /Encoding get exch get
 1 index /BuildGlyph get exec
}_d

FontName currentdict end definefont pop
end
%%EndProlog
mpldict begin
-122.061 98.086 translate
856.122 595.829 0 0 clipbox
gsave
0 0 m
856.121875 0 l
856.121875 595.82875 l
0 595.82875 l
cl
1.000 setgray
fill
grestore
gsave
110.121875 64.66875 m
779.721875 64.66875 l
779.721875 563.62875 l
110.121875 563.62875 l
cl
1.000 setgray
fill
grestore
0.800 setlinewidth
1 setlinejoin
0 setlinecap
[] 0 setdash
0.000 setgray
gsave
/o {
gsave
newpath
translate
0.8 setlinewidth
1 setlinejoin
0 setlinecap
0 0 m
0 -3.5 l

gsave
0.000 setgray
fill
grestore
stroke
grestore
} bind def
110.122 64.6688 o
grestore
/DejaVuSans findfont
24.000 scalefont
setfont
gsave
102.489063 39.434375 translate
0.000000 rotate
0.000000 0.000000 m /five glyphshow
grestore
gsave
/o {
gsave
newpath
translate
0.8 setlinewidth
1 setlinejoin
0 setlinecap
0 0 m
0 -3.5 l

gsave
0.000 setgray
fill
grestore
stroke
grestore
} bind def
184.522 64.6688 o
grestore
gsave
169.256250 39.434375 translate
0.000000 rotate
0.000000 0.000000 m /one glyphshow
15.269531 0.000000 m /zero glyphshow
grestore
gsave
/o {
gsave
newpath
translate
0.8 setlinewidth
1 setlinejoin
0 setlinecap
0 0 m
0 -3.5 l

gsave
0.000 setgray
fill
grestore
stroke
grestore
} bind def
258.922 64.6688 o
grestore
gsave
243.656250 39.434375 translate
0.000000 rotate
0.000000 0.000000 m /one glyphshow
15.269531 0.000000 m /five glyphshow
grestore
gsave
/o {
gsave
newpath
translate
0.8 setlinewidth
1 setlinejoin
0 setlinecap
0 0 m
0 -3.5 l

gsave
0.000 setgray
fill
grestore
stroke
grestore
} bind def
333.322 64.6688 o
grestore
gsave
318.056250 39.434375 translate
0.000000 rotate
0.000000 0.000000 m /two glyphshow
15.269531 0.000000 m /zero glyphshow
grestore
gsave
/o {
gsave
newpath
translate
0.8 setlinewidth
1 setlinejoin
0 setlinecap
0 0 m
0 -3.5 l

gsave
0.000 setgray
fill
grestore
stroke
grestore
} bind def
407.722 64.6688 o
grestore
gsave
392.456250 39.434375 translate
0.000000 rotate
0.000000 0.000000 m /two glyphshow
15.269531 0.000000 m /five glyphshow
grestore
gsave
/o {
gsave
newpath
translate
0.8 setlinewidth
1 setlinejoin
0 setlinecap
0 0 m
0 -3.5 l

gsave
0.000 setgray
fill
grestore
stroke
grestore
} bind def
482.122 64.6688 o
grestore
gsave
466.856250 39.434375 translate
0.000000 rotate
0.000000 0.000000 m /three glyphshow
15.269531 0.000000 m /zero glyphshow
grestore
gsave
/o {
gsave
newpath
translate
0.8 setlinewidth
1 setlinejoin
0 setlinecap
0 0 m
0 -3.5 l

gsave
0.000 setgray
fill
grestore
stroke
grestore
} bind def
556.522 64.6688 o
grestore
gsave
541.256250 39.434375 translate
0.000000 rotate
0.000000 0.000000 m /three glyphshow
15.269531 0.000000 m /five glyphshow
grestore
gsave
/o {
gsave
newpath
translate
0.8 setlinewidth
1 setlinejoin
0 setlinecap
0 0 m
0 -3.5 l

gsave
0.000 setgray
fill
grestore
stroke
grestore
} bind def
630.922 64.6688 o
grestore
gsave
615.656250 39.434375 translate
0.000000 rotate
0.000000 0.000000 m /four glyphshow
15.269531 0.000000 m /zero glyphshow
grestore
gsave
/o {
gsave
newpath
translate
0.8 setlinewidth
1 setlinejoin
0 setlinecap
0 0 m
0 -3.5 l

gsave
0.000 setgray
fill
grestore
stroke
grestore
} bind def
705.322 64.6688 o
grestore
gsave
690.056250 39.434375 translate
0.000000 rotate
0.000000 0.000000 m /four glyphshow
15.269531 0.000000 m /five glyphshow
grestore
gsave
/o {
gsave
newpath
translate
0.8 setlinewidth
1 setlinejoin
0 setlinecap
0 0 m
0 -3.5 l

gsave
0.000 setgray
fill
grestore
stroke
grestore
} bind def
779.722 64.6688 o
grestore
gsave
764.456250 39.434375 translate
0.000000 rotate
0.000000 0.000000 m /five glyphshow
15.269531 0.000000 m /zero glyphshow
grestore
gsave
382.570312 12.200000 translate
0.000000 rotate
0.000000 0.000000 m /S glyphshow
15.234375 0.000000 m /n glyphshow
30.445312 0.000000 m /a glyphshow
45.152344 0.000000 m /p glyphshow
60.386719 0.000000 m /s glyphshow
72.890625 0.000000 m /h glyphshow
88.101562 0.000000 m /o glyphshow
102.785156 0.000000 m /t glyphshow
112.195312 0.000000 m /s glyphshow
grestore
gsave
/o {
gsave
newpath
translate
0.8 setlinewidth
1 setlinejoin
0 setlinecap
0 0 m
-3.5 0 l

gsave
0.000 setgray
fill
grestore
stroke
grestore
} bind def
110.122 64.6687 o
grestore
gsave
34.434375 55.551562 translate
0.000000 rotate
0.000000 0.000000 m /zero glyphshow
15.269531 0.000000 m /period glyphshow
22.898438 0.000000 m /zero glyphshow
38.167969 0.000000 m /zero glyphshow
53.437500 0.000000 m /one glyphshow
grestore
gsave
/o {
gsave
newpath
translate
0.8 setlinewidth
1 setlinejoin
0 setlinecap
0 0 m
-3.5 0 l

gsave
0.000 setgray
fill
grestore
stroke
grestore
} bind def
110.122 177.98 o
grestore
gsave
34.434375 168.862859 translate
0.000000 rotate
0.000000 0.000000 m /zero glyphshow
15.269531 0.000000 m /period glyphshow
22.898438 0.000000 m /zero glyphshow
38.167969 0.000000 m /zero glyphshow
53.437500 0.000000 m /five glyphshow
grestore
gsave
/o {
gsave
newpath
translate
0.8 setlinewidth
1 setlinejoin
0 setlinecap
0 0 m
-3.5 0 l

gsave
0.000 setgray
fill
grestore
stroke
grestore
} bind def
110.122 226.781 o
grestore
gsave
34.434375 217.663378 translate
0.000000 rotate
0.000000 0.000000 m /zero glyphshow
15.269531 0.000000 m /period glyphshow
22.898438 0.000000 m /zero glyphshow
38.167969 0.000000 m /one glyphshow
53.437500 0.000000 m /zero glyphshow
grestore
gsave
/o {
gsave
newpath
translate
0.8 setlinewidth
1 setlinejoin
0 setlinecap
0 0 m
-3.5 0 l

gsave
0.000 setgray
fill
grestore
stroke
grestore
} bind def
110.122 340.092 o
grestore
gsave
34.434375 330.974675 translate
0.000000 rotate
0.000000 0.000000 m /zero glyphshow
15.269531 0.000000 m /period glyphshow
22.898438 0.000000 m /zero glyphshow
38.167969 0.000000 m /five glyphshow
53.437500 0.000000 m /zero glyphshow
grestore
gsave
/o {
gsave
newpath
translate
0.8 setlinewidth
1 setlinejoin
0 setlinecap
0 0 m
-3.5 0 l

gsave
0.000 setgray
fill
grestore
stroke
grestore
} bind def
110.122 388.892 o
grestore
gsave
34.434375 379.775194 translate
0.000000 rotate
0.000000 0.000000 m /zero glyphshow
15.269531 0.000000 m /period glyphshow
22.898438 0.000000 m /one glyphshow
38.167969 0.000000 m /zero glyphshow
53.437500 0.000000 m /zero glyphshow
grestore
gsave
/o {
gsave
newpath
translate
0.8 setlinewidth
1 setlinejoin
0 setlinecap
0 0 m
-3.5 0 l

gsave
0.000 setgray
fill
grestore
stroke
grestore
} bind def
110.122 502.204 o
grestore
gsave
34.434375 493.086491 translate
0.000000 rotate
0.000000 0.000000 m /zero glyphshow
15.269531 0.000000 m /period glyphshow
22.898438 0.000000 m /five glyphshow
38.167969 0.000000 m /zero glyphshow
53.437500 0.000000 m /zero glyphshow
grestore
gsave
/o {
gsave
newpath
translate
0.8 setlinewidth
1 setlinejoin
0 setlinecap
0 0 m
-3.5 0 l

gsave
0.000 setgray
fill
grestore
stroke
grestore
} bind def
110.122 551.004 o
grestore
gsave
34.434375 541.887010 translate
0.000000 rotate
0.000000 0.000000 m /one glyphshow
15.269531 0.000000 m /period glyphshow
22.898438 0.000000 m /zero glyphshow
38.167969 0.000000 m /zero glyphshow
53.437500 0.000000 m /zero glyphshow
grestore
0.600 setlinewidth
gsave
/o {
gsave
newpath
translate
0.6 setlinewidth
1 setlinejoin
0 setlinecap
0 0 m
-2 0 l

gsave
0.000 setgray
fill
grestore
stroke
grestore
} bind def
110.122 113.469 o
grestore
gsave
/o {
gsave
newpath
translate
0.6 setlinewidth
1 setlinejoin
0 setlinecap
0 0 m
-2 0 l

gsave
0.000 setgray
fill
grestore
stroke
grestore
} bind def
110.122 142.016 o
grestore
gsave
/o {
gsave
newpath
translate
0.6 setlinewidth
1 setlinejoin
0 setlinecap
0 0 m
-2 0 l

gsave
0.000 setgray
fill
grestore
stroke
grestore
} bind def
110.122 162.27 o
grestore
gsave
/o {
gsave
newpath
translate
0.6 setlinewidth
1 setlinejoin
0 setlinecap
0 0 m
-2 0 l

gsave
0.000 setgray
fill
grestore
stroke
grestore
} bind def
110.122 190.816 o
grestore
gsave
/o {
gsave
newpath
translate
0.6 setlinewidth
1 setlinejoin
0 setlinecap
0 0 m
-2 0 l

gsave
0.000 setgray
fill
grestore
stroke
grestore
} bind def
110.122 201.669 o
grestore
gsave
/o {
gsave
newpath
translate
0.6 setlinewidth
1 setlinejoin
0 setlinecap
0 0 m
-2 0 l

gsave
0.000 setgray
fill
grestore
stroke
grestore
} bind def
110.122 211.07 o
grestore
gsave
/o {
gsave
newpath
translate
0.6 setlinewidth
1 setlinejoin
0 setlinecap
0 0 m
-2 0 l

gsave
0.000 setgray
fill
grestore
stroke
grestore
} bind def
110.122 219.363 o
grestore
gsave
/o {
gsave
newpath
translate
0.6 setlinewidth
1 setlinejoin
0 setlinecap
0 0 m
-2 0 l

gsave
0.000 setgray
fill
grestore
stroke
grestore
} bind def
110.122 275.581 o
grestore
gsave
/o {
gsave
newpath
translate
0.6 setlinewidth
1 setlinejoin
0 setlinecap
0 0 m
-2 0 l

gsave
0.000 setgray
fill
grestore
stroke
grestore
} bind def
110.122 304.128 o
grestore
gsave
/o {
gsave
newpath
translate
0.6 setlinewidth
1 setlinejoin
0 setlinecap
0 0 m
-2 0 l

gsave
0.000 setgray
fill
grestore
stroke
grestore
} bind def
110.122 324.382 o
grestore
gsave
/o {
gsave
newpath
translate
0.6 setlinewidth
1 setlinejoin
0 setlinecap
0 0 m
-2 0 l

gsave
0.000 setgray
fill
grestore
stroke
grestore
} bind def
110.122 352.928 o
grestore
gsave
/o {
gsave
newpath
translate
0.6 setlinewidth
1 setlinejoin
0 setlinecap
0 0 m
-2 0 l

gsave
0.000 setgray
fill
grestore
stroke
grestore
} bind def
110.122 363.781 o
grestore
gsave
/o {
gsave
newpath
translate
0.6 setlinewidth
1 setlinejoin
0 setlinecap
0 0 m
-2 0 l

gsave
0.000 setgray
fill
grestore
stroke
grestore
} bind def
110.122 373.182 o
grestore
gsave
/o {
gsave
newpath
translate
0.6 setlinewidth
1 setlinejoin
0 setlinecap
0 0 m
-2 0 l

gsave
0.000 setgray
fill
grestore
stroke
grestore
} bind def
110.122 381.475 o
grestore
gsave
/o {
gsave
newpath
translate
0.6 setlinewidth
1 setlinejoin
0 setlinecap
0 0 m
-2 0 l

gsave
0.000 setgray
fill
grestore
stroke
grestore
} bind def
110.122 437.693 o
grestore
gsave
/o {
gsave
newpath
translate
0.6 setlinewidth
1 setlinejoin
0 setlinecap
0 0 m
-2 0 l

gsave
0.000 setgray
fill
grestore
stroke
grestore
} bind def
110.122 466.239 o
grestore
gsave
/o {
gsave
newpath
translate
0.6 setlinewidth
1 setlinejoin
0 setlinecap
0 0 m
-2 0 l

gsave
0.000 setgray
fill
grestore
stroke
grestore
} bind def
110.122 486.493 o
grestore
gsave
/o {
gsave
newpath
translate
0.6 setlinewidth
1 setlinejoin
0 setlinecap
0 0 m
-2 0 l

gsave
0.000 setgray
fill
grestore
stroke
grestore
} bind def
110.122 515.04 o
grestore
gsave
/o {
gsave
newpath
translate
0.6 setlinewidth
1 setlinejoin
0 setlinecap
0 0 m
-2 0 l

gsave
0.000 setgray
fill
grestore
stroke
grestore
} bind def
110.122 525.893 o
grestore
gsave
/o {
gsave
newpath
translate
0.6 setlinewidth
1 setlinejoin
0 setlinecap
0 0 m
-2 0 l

gsave
0.000 setgray
fill
grestore
stroke
grestore
} bind def
110.122 535.294 o
grestore
gsave
/o {
gsave
newpath
translate
0.6 setlinewidth
1 setlinejoin
0 setlinecap
0 0 m
-2 0 l

gsave
0.000 setgray
fill
grestore
stroke
grestore
} bind def
110.122 543.586 o
grestore
gsave
25.434375 265.367500 translate
90.000000 rotate
0.000000 0.000000 m /F glyphshow
13.789062 0.000000 m /r glyphshow
23.656250 0.000000 m /a glyphshow
38.363281 0.000000 m /c glyphshow
51.558594 0.000000 m /t glyphshow
60.968750 0.000000 m /i glyphshow
67.636719 0.000000 m /o glyphshow
82.320312 0.000000 m /n glyphshow
grestore
3.000 setlinewidth
2 setlinecap
0.000 0.000 1.000 setrgbcolor
gsave
669.6 499 110.1 64.67 clipbox
110.121875 295.127544 m
125.001875 256.721229 l
139.881875 197.526506 l
154.761875 195.360049 l
169.641875 182.082426 l
184.521875 174.36878 l
199.401875 173.623754 l
214.281875 168.980032 l
229.161875 170.562217 l
244.041875 168.175403 l
258.921875 171.340172 l
273.801875 175.835588 l
288.681875 172.87076 l
303.561875 173.623754 l
318.441875 174.36878 l
333.321875 166.53802 l
348.201875 170.562217 l
363.081875 167.361472 l
377.961875 166.53802 l
392.841875 179.374236 l
407.721875 175.106004 l
422.601875 173.623754 l
437.481875 178.680592 l
452.361875 192.554727 l
467.241875 189.632969 l
482.121875 191.979996 l
497.001875 185.95887 l
511.881875 194.251298 l
526.761875 191.979996 l
541.641875 196.991109 l
556.521875 196.45161 l
571.401875 186.584689 l
586.281875 187.819884 l
601.161875 193.690305 l
616.041875 191.400533 l
630.921875 191.400533 l
645.801875 198.585236 l
660.681875 199.628282 l
675.561875 201.164436 l
690.441875 202.170228 l
705.321875 211.070308 l
720.201875 223.169299 l
735.081875 222.048783 l
749.961875 264.139059 l
764.841875 289.291899 l
779.721875 307.226535 l
stroke
grestore
1.000 0.000 0.000 setrgbcolor
gsave
669.6 499 110.1 64.67 clipbox
110.121875 299.270166 m
125.001875 252.697033 l
139.881875 171.340172 l
154.761875 163.144387 l
169.641875 149.784717 l
184.521875 147.651091 l
199.401875 144.324286 l
214.281875 142.015743 l
229.161875 140.83245 l
244.041875 145.450779 l
258.921875 147.651091 l
273.801875 143.179476 l
288.681875 130.573717 l
303.561875 126.305485 l
318.441875 129.179527 l
333.321875 123.309106 l
348.201875 137.15835 l
363.081875 133.281907 l
377.961875 126.305485 l
392.841875 131.940833 l
407.721875 124.823235 l
422.601875 129.179527 l
437.481875 131.940833 l
452.361875 146.55953 l
467.241875 148.725986 l
482.121875 151.85558 l
497.001875 139.628929 l
511.881875 147.651091 l
526.761875 144.324286 l
541.641875 142.015743 l
556.521875 156.780963 l
571.401875 137.15835 l
586.281875 139.628929 l
601.161875 150.827762 l
616.041875 142.015743 l
630.921875 123.309106 l
645.801875 138.404476 l
660.681875 129.179527 l
675.561875 133.281907 l
690.441875 144.324286 l
705.321875 153.867267 l
720.201875 164.861649 l
735.081875 158.658522 l
749.961875 236.31363 l
764.841875 272.523459 l
779.721875 294.726379 l
stroke
grestore
0 setlinecap
[11.1 4.8] 0 setdash
0.000 0.000 1.000 setrgbcolor
gsave
669.6 499 110.1 64.67 clipbox
110.121875 292.54735 m
125.001875 250.970747 l
139.881875 201.669128 l
154.761875 194.251298 l
169.641875 183.398432 l
184.521875 187.204995 l
199.401875 190.816262 l
214.281875 187.819884 l
229.161875 184.69029 l
244.041875 184.047324 l
258.921875 189.03378 l
273.801875 186.584689 l
288.681875 180.741352 l
303.561875 189.632969 l
318.441875 196.45161 l
333.321875 192.554727 l
348.201875 199.628282 l
363.081875 196.45161 l
377.961875 189.03378 l
392.841875 203.652478 l
407.721875 193.124806 l
422.601875 198.057861 l
437.481875 189.03378 l
452.361875 199.628282 l
467.241875 198.057861 l
482.121875 206.52652 l
497.001875 205.104164 l
511.881875 212.808773 l
526.761875 214.085018 l
541.641875 216.975922 l
556.521875 218.179443 l
571.401875 211.944906 l
586.281875 220.526469 l
601.161875 223.906523 l
616.041875 222.048783 l
630.921875 214.923174 l
645.801875 218.970511 l
660.681875 217.780551 l
675.561875 219.362736 l
690.441875 222.048783 l
705.321875 227.828788 l
720.201875 237.8343 l
735.081875 239.027621 l
749.961875 275.051063 l
764.841875 298.765474 l
779.721875 314.879775 l
stroke
grestore
1.000 0.000 0.000 setrgbcolor
gsave
669.6 499 110.1 64.67 clipbox
110.121875 303.182521 m
125.001875 254.856106 l
139.881875 177.27246 l
154.761875 174.36878 l
169.641875 170.562217 l
184.521875 162.269788 l
199.401875 153.867267 l
214.281875 151.85558 l
229.161875 153.867267 l
244.041875 142.015743 l
258.921875 145.450779 l
273.801875 139.628929 l
288.681875 130.573717 l
303.561875 133.281907 l
318.441875 135.889771 l
333.321875 131.940833 l
348.201875 135.889771 l
363.081875 134.597913 l
377.961875 131.940833 l
392.841875 146.55953 l
407.721875 134.597913 l
422.601875 145.450779 l
437.481875 145.450779 l
452.361875 159.578852 l
467.241875 159.578852 l
482.121875 153.867267 l
497.001875 159.578852 l
511.881875 156.780963 l
526.761875 153.867267 l
541.641875 148.725986 l
556.521875 149.784717 l
571.401875 144.324286 l
586.281875 157.726001 l
601.161875 155.823067 l
616.041875 147.651091 l
630.921875 137.15835 l
645.801875 149.784717 l
660.681875 138.404476 l
675.561875 137.15835 l
690.441875 142.015743 l
705.321875 153.867267 l
720.201875 167.361472 l
735.081875 157.726001 l
749.961875 236.005515 l
764.841875 272.154849 l
779.721875 293.917126 l
stroke
grestore
[3 4.95] 0 setdash
0.000 0.000 1.000 setrgbcolor
gsave
669.6 499 110.1 64.67 clipbox
110.121875 346.993856 m
125.001875 326.888589 l
139.881875 294.45766 l
154.761875 284.029794 l
169.641875 273.798603 l
184.521875 266.979962 l
199.401875 262.67443 l
214.281875 262.462688 l
229.161875 260.962388 l
244.041875 263.515088 l
258.921875 262.885537 l
273.801875 263.096014 l
288.681875 260.527792 l
303.561875 262.462688 l
318.441875 265.370652 l
333.321875 262.250307 l
348.201875 262.462688 l
363.081875 262.250307 l
377.961875 263.515088 l
392.841875 270.09226 l
407.721875 267.967416 l
422.601875 269.710664 l
437.481875 269.326989 l
452.361875 273.07278 l
467.241875 278.003092 l
482.121875 283.086865 l
497.001875 281.486699 l
511.881875 282.610623 l
526.761875 287.531701 l
541.641875 291.712507 l
556.521875 292.270167 l
571.401875 291.712507 l
586.281875 294.052649 l
601.161875 295.923081 l
616.041875 296.970004 l
630.921875 297.22932 l
645.801875 301.253516 l
660.681875 299.521162 l
675.561875 307.450753 l
690.441875 305.866024 l
705.321875 306.888864 l
720.201875 310.624132 l
735.081875 313.763029 l
749.961875 329.309366 l
764.841875 342.309503 l
779.721875 351.565563 l
stroke
grestore
1.000 0.000 0.000 setrgbcolor
gsave
669.6 499 110.1 64.67 clipbox
110.121875 302.944266 m
125.001875 261.178684 l
139.881875 201.669128 l
154.761875 187.204995 l
169.641875 179.374236 l
184.521875 184.69029 l
199.401875 178.680592 l
214.281875 180.741352 l
229.161875 178.680592 l
244.041875 173.623754 l
258.921875 174.36878 l
273.801875 177.27246 l
288.681875 164.008254 l
303.561875 169.775569 l
318.441875 175.106004 l
333.321875 167.361472 l
348.201875 168.980032 l
363.081875 166.53802 l
377.961875 154.851959 l
392.841875 164.008254 l
407.721875 157.726001 l
422.601875 176.55769 l
437.481875 171.340172 l
452.361875 173.623754 l
467.241875 179.374236 l
482.121875 176.55769 l
497.001875 169.775569 l
511.881875 170.562217 l
526.761875 167.361472 l
541.641875 164.008254 l
556.521875 175.835588 l
571.401875 176.55769 l
586.281875 175.835588 l
601.161875 180.061112 l
616.041875 170.562217 l
630.921875 167.361472 l
645.801875 182.082426 l
660.681875 171.340172 l
675.561875 172.109626 l
690.441875 175.106004 l
705.321875 189.632969 l
720.201875 198.585236 l
735.081875 193.690305 l
749.961875 255.56133 l
764.841875 283.873513 l
779.721875 303.419972 l
stroke
grestore
[19.2 4.8 3 4.8] 0 setdash
0.000 0.000 1.000 setrgbcolor
gsave
669.6 499 110.1 64.67 clipbox
110.121875 495.144776 m
125.001875 494.4801 l
139.881875 495.733807 l
154.761875 498.740475 l
169.641875 501.39646 l
184.521875 504.264235 l
199.401875 507.019755 l
214.281875 509.60813 l
229.161875 511.914834 l
244.041875 514.029416 l
258.921875 515.902902 l
273.801875 517.812481 l
288.681875 519.506634 l
303.561875 521.220115 l
318.441875 522.630003 l
333.321875 523.981214 l
348.201875 525.078419 l
363.081875 526.073567 l
377.961875 527.089461 l
392.841875 528.1104 l
407.721875 528.962856 l
422.601875 529.92394 l
437.481875 530.35006 l
452.361875 530.886136 l
467.241875 531.654876 l
482.121875 532.506931 l
497.001875 533.271856 l
511.881875 533.727754 l
526.761875 534.296852 l
541.641875 534.843675 l
556.521875 535.188254 l
571.401875 535.368704 l
586.281875 535.579377 l
601.161875 536.125065 l
616.041875 536.580196 l
630.921875 536.649292 l
645.801875 537.161075 l
660.681875 537.310894 l
675.561875 537.520107 l
690.441875 537.9282 l
705.321875 537.970573 l
720.201875 538.325511 l
735.081875 538.367647 l
749.961875 539.884464 l
764.841875 541.231916 l
779.721875 542.661148 l
stroke
grestore
1.000 0.000 0.000 setrgbcolor
gsave
669.6 499 110.1 64.67 clipbox
110.121875 490.429556 m
125.001875 481.648599 l
139.881875 473.692398 l
154.761875 468.092225 l
169.641875 462.132301 l
184.521875 457.252693 l
199.401875 451.287728 l
214.281875 446.639388 l
229.161875 442.423452 l
244.041875 438.149048 l
258.921875 434.358999 l
273.801875 431.284747 l
288.681875 428.291721 l
303.561875 425.71042 l
318.441875 422.465016 l
333.321875 420.447945 l
348.201875 419.291706 l
363.081875 417.673146 l
377.961875 415.800645 l
392.841875 414.368973 l
407.721875 412.832459 l
422.601875 411.670396 l
437.481875 410.437005 l
452.361875 409.890526 l
467.241875 410.021026 l
482.121875 410.177306 l
497.001875 410.566496 l
511.881875 410.2813 l
526.761875 410.359196 l
541.641875 411.030701 l
556.521875 411.210402 l
571.401875 410.953546 l
586.281875 412.253825 l
601.161875 411.95003 l
616.041875 411.924655 l
630.921875 413.007625 l
645.801875 414.024938 l
660.681875 413.3069 l
675.561875 413.876978 l
690.441875 413.257109 l
705.321875 412.782331 l
720.201875 413.802881 l
735.081875 414.589254 l
749.961875 426.292277 l
764.841875 436.825123 l
779.721875 446.313118 l
stroke
grestore
0.800 setlinewidth
0 setlinejoin
2 setlinecap
[] 0 setdash
0.000 setgray
gsave
110.121875 64.66875 m
110.121875 563.62875 l
stroke
grestore
gsave
779.721875 64.66875 m
779.721875 563.62875 l
stroke
grestore
gsave
110.121875 64.66875 m
779.721875 64.66875 l
stroke
grestore
gsave
110.121875 563.62875 m
779.721875 563.62875 l
stroke
grestore
gsave
40.921875 569.628750 translate
0.000000 rotate
/DejaVuSans findfont
24.0 scalefont
setfont
0.000000 0.765625 moveto
/F glyphshow

13.804688 0.765625 moveto
/r glyphshow

23.671875 0.765625 moveto
/a glyphshow

38.378906 0.765625 moveto
/c glyphshow

51.574219 0.765625 moveto
/t glyphshow

60.984375 0.765625 moveto
/i glyphshow

67.652344 0.765625 moveto
/o glyphshow

82.335938 0.765625 moveto
/n glyphshow

97.546875 0.765625 moveto
/space glyphshow

105.175781 0.765625 moveto
/o glyphshow

119.859375 0.765625 moveto
/f glyphshow

128.308594 0.765625 moveto
/space glyphshow

135.937500 0.765625 moveto
/U glyphshow

153.503906 0.765625 moveto
/n glyphshow

168.714844 0.765625 moveto
/d glyphshow

183.949219 0.765625 moveto
/e glyphshow

198.714844 0.765625 moveto
/t glyphshow

208.125000 0.765625 moveto
/e glyphshow

222.890625 0.765625 moveto
/c glyphshow

236.085938 0.765625 moveto
/t glyphshow

245.496094 0.765625 moveto
/e glyphshow

260.261719 0.765625 moveto
/d glyphshow

275.496094 0.765625 moveto
/space glyphshow

283.125000 0.765625 moveto
/P glyphshow

297.597656 0.765625 moveto
/a glyphshow

312.304688 0.765625 moveto
/r glyphshow

322.171875 0.765625 moveto
/t glyphshow

331.582031 0.765625 moveto
/i glyphshow

338.250000 0.765625 moveto
/c glyphshow

351.445312 0.765625 moveto
/l glyphshow

358.113281 0.765625 moveto
/e glyphshow

372.878906 0.765625 moveto
/s glyphshow

385.382812 0.765625 moveto
/comma glyphshow

393.011719 0.765625 moveto
/space glyphshow

400.640625 0.765625 moveto
/P glyphshow

415.113281 0.765625 moveto
/P glyphshow

429.585938 0.765625 moveto
/P glyphshow

444.058594 0.765625 moveto
/space glyphshow

451.687500 0.765625 moveto
/equal glyphshow

471.796875 0.765625 moveto
/space glyphshow

479.425781 0.765625 moveto
/zero glyphshow

494.695312 0.765625 moveto
/period glyphshow

502.324219 0.765625 moveto
/zero glyphshow

517.593750 0.765625 moveto
/five glyphshow

532.863281 0.765625 moveto
/comma glyphshow

540.492188 0.765625 moveto
/space glyphshow

548.121094 0.765625 moveto
/t glyphshow

557.531250 0.765625 moveto
/i glyphshow

564.199219 0.765625 moveto
/m glyphshow

587.578125 0.765625 moveto
/e glyphshow

602.343750 0.765625 moveto
/space glyphshow

609.972656 0.765625 moveto
/s glyphshow

622.476562 0.765625 moveto
/e glyphshow

637.242188 0.765625 moveto
/p glyphshow

652.476562 0.765625 moveto
/a glyphshow

667.183594 0.765625 moveto
/r glyphshow

677.050781 0.765625 moveto
/a glyphshow

691.757812 0.765625 moveto
/t glyphshow

701.167969 0.765625 moveto
/i glyphshow

707.835938 0.765625 moveto
/o glyphshow

722.519531 0.765625 moveto
/n glyphshow

737.730469 0.765625 moveto
/space glyphshow

745.359375 0.765625 moveto
/seven glyphshow

760.628906 0.765625 moveto
/period glyphshow

768.257812 0.765625 moveto
/five glyphshow

/DejaVuSans-Oblique findfont
24.0 scalefont
setfont
783.527344 0.765625 moveto
/delta glyphshow

798.210938 0.765625 moveto
/t glyphshow


grestore
1.000 setlinewidth
0 setlinecap
0.800 setgray
gsave
181.8525 375.50375 m
367.461875 375.50375 l
369.461875 375.50375 370.461875 376.50375 370.461875 378.50375 c
370.461875 553.12875 l
370.461875 555.12875 369.461875 556.12875 367.461875 556.12875 c
181.8525 556.12875 l
179.8525 556.12875 178.8525 555.12875 178.8525 553.12875 c
178.8525 378.50375 l
178.8525 376.50375 179.8525 375.50375 181.8525 375.50375 c
cl
gsave
1.000 setgray
fill
grestore
stroke
grestore
3.000 setlinewidth
1 setlinejoin
2 setlinecap
[] 0 setdash
0.000 0.000 1.000 setrgbcolor
gsave
184.8525 543.988125 m
214.8525 543.988125 l
stroke
grestore
0.000 setgray
/DejaVuSans findfont
15.000 scalefont
setfont
gsave
226.852500 538.738125 translate
0.000000 rotate
0.000000 0.000000 m /S glyphshow
9.521484 0.000000 m /T glyphshow
18.684082 0.000000 m /B glyphshow
28.974609 0.000000 m /comma glyphshow
33.742676 0.000000 m /space glyphshow
38.510742 0.000000 m /N glyphshow
49.731445 0.000000 m /o glyphshow
58.908691 0.000000 m /i glyphshow
63.076172 0.000000 m /s glyphshow
70.891113 0.000000 m /e glyphshow
80.119629 0.000000 m /space glyphshow
84.887695 0.000000 m /F glyphshow
93.500000 0.000000 m /r glyphshow
99.666992 0.000000 m /e glyphshow
108.895508 0.000000 m /e glyphshow
grestore
1.000 0.000 0.000 setrgbcolor
gsave
184.8525 521.9725 m
214.8525 521.9725 l
stroke
grestore
0.000 setgray
gsave
226.852500 516.722500 translate
0.000000 rotate
0.000000 0.000000 m /K glyphshow
9.836426 0.000000 m /L glyphshow
18.193359 0.000000 m /P glyphshow
27.238770 0.000000 m /T glyphshow
36.401367 0.000000 m /comma glyphshow
41.169434 0.000000 m /space glyphshow
45.937500 0.000000 m /N glyphshow
57.158203 0.000000 m /o glyphshow
66.335449 0.000000 m /i glyphshow
70.502930 0.000000 m /s glyphshow
78.317871 0.000000 m /e glyphshow
87.546387 0.000000 m /space glyphshow
92.314453 0.000000 m /F glyphshow
100.926758 0.000000 m /r glyphshow
107.093750 0.000000 m /e glyphshow
116.322266 0.000000 m /e glyphshow
grestore
0 setlinecap
[11.1 4.8] 0 setdash
0.000 0.000 1.000 setrgbcolor
gsave
184.8525 499.956875 m
214.8525 499.956875 l
stroke
grestore
0.000 setgray
gsave
226.852500 494.706875 translate
0.000000 rotate
0.000000 0.000000 m /S glyphshow
9.521484 0.000000 m /T glyphshow
18.684082 0.000000 m /B glyphshow
28.974609 0.000000 m /comma glyphshow
33.742676 0.000000 m /space glyphshow
38.510742 0.000000 m /P glyphshow
47.556152 0.000000 m /S glyphshow
57.077637 0.000000 m /N glyphshow
68.298340 0.000000 m /R glyphshow
78.720703 0.000000 m /equal glyphshow
91.289062 0.000000 m /four glyphshow
100.832520 0.000000 m /zero glyphshow
110.375977 0.000000 m /d glyphshow
119.897461 0.000000 m /B glyphshow
grestore
1.000 0.000 0.000 setrgbcolor
gsave
184.8525 477.94125 m
214.8525 477.94125 l
stroke
grestore
0.000 setgray
gsave
226.852500 472.691250 translate
0.000000 rotate
0.000000 0.000000 m /K glyphshow
9.836426 0.000000 m /L glyphshow
18.193359 0.000000 m /P glyphshow
27.238770 0.000000 m /T glyphshow
36.401367 0.000000 m /comma glyphshow
41.169434 0.000000 m /space glyphshow
45.937500 0.000000 m /P glyphshow
54.982910 0.000000 m /S glyphshow
64.504395 0.000000 m /N glyphshow
75.725098 0.000000 m /R glyphshow
86.147461 0.000000 m /equal glyphshow
98.715820 0.000000 m /four glyphshow
108.259277 0.000000 m /zero glyphshow
117.802734 0.000000 m /d glyphshow
127.324219 0.000000 m /B glyphshow
grestore
[3 4.95] 0 setdash
0.000 0.000 1.000 setrgbcolor
gsave
184.8525 455.925625 m
214.8525 455.925625 l
stroke
grestore
0.000 setgray
gsave
226.852500 450.675625 translate
0.000000 rotate
0.000000 0.000000 m /S glyphshow
9.521484 0.000000 m /T glyphshow
18.684082 0.000000 m /B glyphshow
28.974609 0.000000 m /comma glyphshow
33.742676 0.000000 m /space glyphshow
38.510742 0.000000 m /P glyphshow
47.556152 0.000000 m /S glyphshow
57.077637 0.000000 m /N glyphshow
68.298340 0.000000 m /R glyphshow
78.720703 0.000000 m /equal glyphshow
91.289062 0.000000 m /three glyphshow
100.832520 0.000000 m /zero glyphshow
110.375977 0.000000 m /d glyphshow
119.897461 0.000000 m /B glyphshow
grestore
1.000 0.000 0.000 setrgbcolor
gsave
184.8525 433.91 m
214.8525 433.91 l
stroke
grestore
0.000 setgray
gsave
226.852500 428.660000 translate
0.000000 rotate
0.000000 0.000000 m /K glyphshow
9.836426 0.000000 m /L glyphshow
18.193359 0.000000 m /P glyphshow
27.238770 0.000000 m /T glyphshow
36.401367 0.000000 m /comma glyphshow
41.169434 0.000000 m /space glyphshow
45.937500 0.000000 m /P glyphshow
54.982910 0.000000 m /S glyphshow
64.504395 0.000000 m /N glyphshow
75.725098 0.000000 m /R glyphshow
86.147461 0.000000 m /equal glyphshow
98.715820 0.000000 m /three glyphshow
108.259277 0.000000 m /zero glyphshow
117.802734 0.000000 m /d glyphshow
127.324219 0.000000 m /B glyphshow
grestore
[19.2 4.8 3 4.8] 0 setdash
0.000 0.000 1.000 setrgbcolor
gsave
184.8525 411.894375 m
214.8525 411.894375 l
stroke
grestore
0.000 setgray
gsave
226.852500 406.644375 translate
0.000000 rotate
0.000000 0.000000 m /S glyphshow
9.521484 0.000000 m /T glyphshow
18.684082 0.000000 m /B glyphshow
28.974609 0.000000 m /comma glyphshow
33.742676 0.000000 m /space glyphshow
38.510742 0.000000 m /P glyphshow
47.556152 0.000000 m /S glyphshow
57.077637 0.000000 m /N glyphshow
68.298340 0.000000 m /R glyphshow
78.720703 0.000000 m /equal glyphshow
91.289062 0.000000 m /two glyphshow
100.832520 0.000000 m /zero glyphshow
110.375977 0.000000 m /d glyphshow
119.897461 0.000000 m /B glyphshow
grestore
1.000 0.000 0.000 setrgbcolor
gsave
184.8525 389.87875 m
214.8525 389.87875 l
stroke
grestore
0.000 setgray
gsave
226.852500 384.628750 translate
0.000000 rotate
0.000000 0.000000 m /K glyphshow
9.836426 0.000000 m /L glyphshow
18.193359 0.000000 m /P glyphshow
27.238770 0.000000 m /T glyphshow
36.401367 0.000000 m /comma glyphshow
41.169434 0.000000 m /space glyphshow
45.937500 0.000000 m /P glyphshow
54.982910 0.000000 m /S glyphshow
64.504395 0.000000 m /N glyphshow
75.725098 0.000000 m /R glyphshow
86.147461 0.000000 m /equal glyphshow
98.715820 0.000000 m /two glyphshow
108.259277 0.000000 m /zero glyphshow
117.802734 0.000000 m /d glyphshow
127.324219 0.000000 m /B glyphshow
grestore

end
showpage
