%!PS-Adobe-3.0 EPSF-3.0
%%Title: /home/yin/030000_error_thin_part_noise.eps
%%Creator: matplotlib version 3.1.0, http://matplotlib.org/
%%CreationDate: Tue Jan 21 12:34:16 2020
%%Orientation: portrait
%%BoundingBox: -89.24999999999997 98.08562500000005 701.25 693.914375
%%EndComments
%%BeginProlog
/mpldict 9 dict def
mpldict begin
/m { moveto } bind def
/l { lineto } bind def
/r { rlineto } bind def
/c { curveto } bind def
/cl { closepath } bind def
/box {
m
1 index 0 r
0 exch r
neg 0 r
cl
} bind def
/clipbox {
box
clip
newpath
} bind def
%!PS-Adobe-3.0 Resource-Font
%%Title: DejaVu Sans
%%Copyright: Copyright (c) 2003 by Bitstream, Inc. All Rights Reserved. Copyright (c) 2006 by Tavmjong Bah. All Rights Reserved. DejaVu changes are in public domain 
%%Creator: Converted from TrueType to type 3 by PPR
25 dict begin
/_d{bind def}bind def
/_m{moveto}_d
/_l{lineto}_d
/_cl{closepath eofill}_d
/_c{curveto}_d
/_sc{7 -1 roll{setcachedevice}{pop pop pop pop pop pop}ifelse}_d
/_e{exec}_d
/FontName /DejaVuSans def
/PaintType 0 def
/FontMatrix[.001 0 0 .001 0 0]def
/FontBBox[-1021 -463 1793 1232]def
/FontType 3 def
/Encoding [ /space /parenleft /parenright /comma /period /zero /one /two /three /four /five /seven /equal /B /E /M /O /S /T /a /c /d /e /f /h /i /l /n /o /p /r /s /t /u /x /minus ] def
/FontInfo 10 dict dup begin
/FamilyName (DejaVu Sans) def
/FullName (DejaVu Sans) def
/Notice (Copyright (c) 2003 by Bitstream, Inc. All Rights Reserved. Copyright (c) 2006 by Tavmjong Bah. All Rights Reserved. DejaVu changes are in public domain ) def
/Weight (Book) def
/Version (Version 2.35) def
/ItalicAngle 0.0 def
/isFixedPitch false def
/UnderlinePosition -130 def
/UnderlineThickness 90 def
end readonly def
/CharStrings 37 dict dup begin
/.notdef 0 def
/space{318 0 0 0 0 0 _sc
}_d
/parenleft{390 0 86 -131 310 759 _sc
310 759 _m
266 683 234 609 213 536 _c
191 463 181 389 181 314 _c
181 238 191 164 213 91 _c
234 17 266 -56 310 -131 _c
232 -131 _l
183 -54 146 20 122 94 _c
98 168 86 241 86 314 _c
86 386 98 459 122 533 _c
146 607 182 682 232 759 _c
310 759 _l
_cl}_d
/parenright{390 0 80 -131 304 759 _sc
80 759 _m
158 759 _l
206 682 243 607 267 533 _c
291 459 304 386 304 314 _c
304 241 291 168 267 94 _c
243 20 206 -54 158 -131 _c
80 -131 _l
123 -56 155 17 177 91 _c
198 164 209 238 209 314 _c
209 389 198 463 177 536 _c
155 609 123 683 80 759 _c
_cl}_d
/comma{318 0 77 -115 220 124 _sc
117 124 _m
220 124 _l
220 40 _l
140 -115 _l
77 -115 _l
117 40 _l
117 124 _l
_cl}_d
/period{318 0 107 0 210 124 _sc
107 124 _m
210 124 _l
210 0 _l
107 0 _l
107 124 _l
_cl}_d
/zero{636 0 66 -13 570 742 _sc
318 664 _m
267 664 229 639 203 589 _c
177 539 165 464 165 364 _c
165 264 177 189 203 139 _c
229 89 267 64 318 64 _c
369 64 407 89 433 139 _c
458 189 471 264 471 364 _c
471 464 458 539 433 589 _c
407 639 369 664 318 664 _c
318 742 _m
399 742 461 709 505 645 _c
548 580 570 486 570 364 _c
570 241 548 147 505 83 _c
461 19 399 -13 318 -13 _c
236 -13 173 19 130 83 _c
87 147 66 241 66 364 _c
66 486 87 580 130 645 _c
173 709 236 742 318 742 _c
_cl}_d
/one{636 0 110 0 544 729 _sc
124 83 _m
285 83 _l
285 639 _l
110 604 _l
110 694 _l
284 729 _l
383 729 _l
383 83 _l
544 83 _l
544 0 _l
124 0 _l
124 83 _l
_cl}_d
/two{{636 0 73 0 536 742 _sc
192 83 _m
536 83 _l
536 0 _l
73 0 _l
73 83 _l
110 121 161 173 226 239 _c
290 304 331 346 348 365 _c
380 400 402 430 414 455 _c
426 479 433 504 433 528 _c
433 566 419 598 392 622 _c
365 646 330 659 286 659 _c
255 659 222 653 188 643 _c
154 632 117 616 78 594 _c
78 694 _l
118 710 155 722 189 730 _c
223 738 255 742 284 742 _c
}_e{359 742 419 723 464 685 _c
509 647 532 597 532 534 _c
532 504 526 475 515 449 _c
504 422 484 390 454 354 _c
446 344 420 317 376 272 _c
332 227 271 164 192 83 _c
_cl}_e}_d
/three{{636 0 76 -13 556 742 _sc
406 393 _m
453 383 490 362 516 330 _c
542 298 556 258 556 212 _c
556 140 531 84 482 45 _c
432 6 362 -13 271 -13 _c
240 -13 208 -10 176 -4 _c
144 1 110 10 76 22 _c
76 117 _l
103 101 133 89 166 81 _c
198 73 232 69 268 69 _c
330 69 377 81 409 105 _c
441 129 458 165 458 212 _c
458 254 443 288 413 312 _c
383 336 341 349 287 349 _c
}_e{202 349 _l
202 430 _l
291 430 _l
339 430 376 439 402 459 _c
428 478 441 506 441 543 _c
441 580 427 609 401 629 _c
374 649 336 659 287 659 _c
260 659 231 656 200 650 _c
169 644 135 635 98 623 _c
98 711 _l
135 721 170 729 203 734 _c
235 739 266 742 296 742 _c
370 742 429 725 473 691 _c
517 657 539 611 539 553 _c
539 513 527 479 504 451 _c
481 423 448 403 406 393 _c
_cl}_e}_d
/four{636 0 49 0 580 729 _sc
378 643 _m
129 254 _l
378 254 _l
378 643 _l
352 729 _m
476 729 _l
476 254 _l
580 254 _l
580 172 _l
476 172 _l
476 0 _l
378 0 _l
378 172 _l
49 172 _l
49 267 _l
352 729 _l
_cl}_d
/five{{636 0 77 -13 549 729 _sc
108 729 _m
495 729 _l
495 646 _l
198 646 _l
198 467 _l
212 472 227 476 241 478 _c
255 480 270 482 284 482 _c
365 482 429 459 477 415 _c
525 370 549 310 549 234 _c
549 155 524 94 475 51 _c
426 8 357 -13 269 -13 _c
238 -13 207 -10 175 -6 _c
143 -1 111 6 77 17 _c
77 116 _l
106 100 136 88 168 80 _c
199 72 232 69 267 69 _c
}_e{323 69 368 83 401 113 _c
433 143 450 183 450 234 _c
450 284 433 324 401 354 _c
368 384 323 399 267 399 _c
241 399 214 396 188 390 _c
162 384 135 375 108 363 _c
108 729 _l
_cl}_e}_d
/seven{636 0 82 0 551 729 _sc
82 729 _m
551 729 _l
551 687 _l
286 0 _l
183 0 _l
432 646 _l
82 646 _l
82 729 _l
_cl}_d
/equal{838 0 106 172 732 454 _sc
106 454 _m
732 454 _l
732 372 _l
106 372 _l
106 454 _l
106 255 _m
732 255 _l
732 172 _l
106 172 _l
106 255 _l
_cl}_d
/B{{686 0 98 0 615 729 _sc
197 348 _m
197 81 _l
355 81 _l
408 81 447 92 473 114 _c
498 136 511 169 511 215 _c
511 260 498 293 473 315 _c
447 337 408 348 355 348 _c
197 348 _l
197 648 _m
197 428 _l
343 428 _l
391 428 426 437 450 455 _c
474 473 486 500 486 538 _c
486 574 474 602 450 620 _c
426 638 391 648 343 648 _c
197 648 _l
98 729 _m
350 729 _l
}_e{425 729 483 713 524 682 _c
564 650 585 606 585 549 _c
585 504 574 468 553 442 _c
532 416 502 399 462 393 _c
510 382 548 360 575 327 _c
601 294 615 253 615 204 _c
615 138 592 88 548 53 _c
504 17 441 0 360 0 _c
98 0 _l
98 729 _l
_cl}_e}_d
/E{632 0 98 0 568 729 _sc
98 729 _m
559 729 _l
559 646 _l
197 646 _l
197 430 _l
544 430 _l
544 347 _l
197 347 _l
197 83 _l
568 83 _l
568 0 _l
98 0 _l
98 729 _l
_cl}_d
/M{863 0 98 0 765 729 _sc
98 729 _m
245 729 _l
431 233 _l
618 729 _l
765 729 _l
765 0 _l
669 0 _l
669 640 _l
481 140 _l
382 140 _l
194 640 _l
194 0 _l
98 0 _l
98 729 _l
_cl}_d
/O{787 0 56 -13 731 742 _sc
394 662 _m
322 662 265 635 223 582 _c
181 528 160 456 160 364 _c
160 272 181 199 223 146 _c
265 92 322 66 394 66 _c
465 66 522 92 564 146 _c
606 199 627 272 627 364 _c
627 456 606 528 564 582 _c
522 635 465 662 394 662 _c
394 742 _m
496 742 577 707 639 639 _c
700 571 731 479 731 364 _c
731 248 700 157 639 89 _c
577 21 496 -13 394 -13 _c
291 -13 209 21 148 89 _c
86 157 56 248 56 364 _c
56 479 86 571 148 639 _c
209 707 291 742 394 742 _c
_cl}_d
/S{{635 0 66 -13 579 742 _sc
535 705 _m
535 609 _l
497 627 462 640 429 649 _c
395 657 363 662 333 662 _c
279 662 237 651 208 631 _c
179 610 165 580 165 542 _c
165 510 174 485 194 469 _c
213 452 250 439 304 429 _c
364 417 _l
437 403 491 378 526 343 _c
561 307 579 260 579 201 _c
579 130 555 77 508 41 _c
460 5 391 -13 300 -13 _c
265 -13 228 -9 189 -2 _c
}_e{150 5 110 16 69 32 _c
69 134 _l
109 111 148 94 186 83 _c
224 71 262 66 300 66 _c
356 66 399 77 430 99 _c
460 121 476 152 476 194 _c
476 230 465 258 443 278 _c
421 298 385 313 335 323 _c
275 335 _l
201 349 148 372 115 404 _c
82 435 66 478 66 534 _c
66 598 88 649 134 686 _c
179 723 242 742 322 742 _c
356 742 390 739 426 733 _c
461 727 497 717 535 705 _c
}_e{_cl}_e}_d
/T{611 0 -2 0 614 729 _sc
-2 729 _m
614 729 _l
614 646 _l
355 646 _l
355 0 _l
256 0 _l
256 646 _l
-2 646 _l
-2 729 _l
_cl}_d
/a{{613 0 60 -13 522 560 _sc
343 275 _m
270 275 220 266 192 250 _c
164 233 150 205 150 165 _c
150 133 160 107 181 89 _c
202 70 231 61 267 61 _c
317 61 357 78 387 114 _c
417 149 432 196 432 255 _c
432 275 _l
343 275 _l
522 312 _m
522 0 _l
432 0 _l
432 83 _l
411 49 385 25 355 10 _c
325 -5 287 -13 243 -13 _c
187 -13 142 2 109 33 _c
76 64 60 106 60 159 _c
}_e{60 220 80 266 122 298 _c
163 329 224 345 306 345 _c
432 345 _l
432 354 _l
432 395 418 427 391 450 _c
364 472 326 484 277 484 _c
245 484 215 480 185 472 _c
155 464 127 453 100 439 _c
100 522 _l
132 534 164 544 195 550 _c
226 556 256 560 286 560 _c
365 560 424 539 463 498 _c
502 457 522 395 522 312 _c
_cl}_e}_d
/c{{550 0 55 -13 488 560 _sc
488 526 _m
488 442 _l
462 456 437 466 411 473 _c
385 480 360 484 334 484 _c
276 484 230 465 198 428 _c
166 391 150 339 150 273 _c
150 206 166 154 198 117 _c
230 80 276 62 334 62 _c
360 62 385 65 411 72 _c
437 79 462 90 488 104 _c
488 21 _l
462 9 436 0 410 -5 _c
383 -10 354 -13 324 -13 _c
242 -13 176 12 128 64 _c
}_e{79 115 55 185 55 273 _c
55 362 79 432 128 483 _c
177 534 244 560 330 560 _c
358 560 385 557 411 551 _c
437 545 463 537 488 526 _c
_cl}_e}_d
/d{{635 0 55 -13 544 760 _sc
454 464 _m
454 760 _l
544 760 _l
544 0 _l
454 0 _l
454 82 _l
435 49 411 25 382 10 _c
353 -5 319 -13 279 -13 _c
213 -13 159 13 117 65 _c
75 117 55 187 55 273 _c
55 359 75 428 117 481 _c
159 533 213 560 279 560 _c
319 560 353 552 382 536 _c
411 520 435 496 454 464 _c
148 273 _m
148 207 161 155 188 117 _c
215 79 253 61 301 61 _c
}_e{348 61 385 79 413 117 _c
440 155 454 207 454 273 _c
454 339 440 390 413 428 _c
385 466 348 485 301 485 _c
253 485 215 466 188 428 _c
161 390 148 339 148 273 _c
_cl}_e}_d
/e{{615 0 55 -13 562 560 _sc
562 296 _m
562 252 _l
149 252 _l
153 190 171 142 205 110 _c
238 78 284 62 344 62 _c
378 62 412 66 444 74 _c
476 82 509 95 541 113 _c
541 28 _l
509 14 476 3 442 -3 _c
408 -9 373 -13 339 -13 _c
251 -13 182 12 131 62 _c
80 112 55 181 55 268 _c
55 357 79 428 127 481 _c
175 533 241 560 323 560 _c
397 560 455 536 498 489 _c
}_e{540 441 562 377 562 296 _c
472 322 _m
471 371 457 410 431 440 _c
404 469 368 484 324 484 _c
274 484 234 469 204 441 _c
174 413 156 373 152 322 _c
472 322 _l
_cl}_e}_d
/f{352 0 23 0 371 760 _sc
371 760 _m
371 685 _l
285 685 _l
253 685 230 678 218 665 _c
205 652 199 629 199 595 _c
199 547 _l
347 547 _l
347 477 _l
199 477 _l
199 0 _l
109 0 _l
109 477 _l
23 477 _l
23 547 _l
109 547 _l
109 585 _l
109 645 123 690 151 718 _c
179 746 224 760 286 760 _c
371 760 _l
_cl}_d
/h{634 0 91 0 549 760 _sc
549 330 _m
549 0 _l
459 0 _l
459 327 _l
459 379 448 417 428 443 _c
408 469 378 482 338 482 _c
289 482 251 466 223 435 _c
195 404 181 362 181 309 _c
181 0 _l
91 0 _l
91 760 _l
181 760 _l
181 462 _l
202 494 227 519 257 535 _c
286 551 320 560 358 560 _c
420 560 468 540 500 501 _c
532 462 549 405 549 330 _c
_cl}_d
/i{278 0 94 0 184 760 _sc
94 547 _m
184 547 _l
184 0 _l
94 0 _l
94 547 _l
94 760 _m
184 760 _l
184 646 _l
94 646 _l
94 760 _l
_cl}_d
/l{278 0 94 0 184 760 _sc
94 760 _m
184 760 _l
184 0 _l
94 0 _l
94 760 _l
_cl}_d
/n{634 0 91 0 549 560 _sc
549 330 _m
549 0 _l
459 0 _l
459 327 _l
459 379 448 417 428 443 _c
408 469 378 482 338 482 _c
289 482 251 466 223 435 _c
195 404 181 362 181 309 _c
181 0 _l
91 0 _l
91 547 _l
181 547 _l
181 462 _l
202 494 227 519 257 535 _c
286 551 320 560 358 560 _c
420 560 468 540 500 501 _c
532 462 549 405 549 330 _c
_cl}_d
/o{612 0 55 -13 557 560 _sc
306 484 _m
258 484 220 465 192 427 _c
164 389 150 338 150 273 _c
150 207 163 156 191 118 _c
219 80 257 62 306 62 _c
354 62 392 80 420 118 _c
448 156 462 207 462 273 _c
462 337 448 389 420 427 _c
392 465 354 484 306 484 _c
306 560 _m
384 560 445 534 490 484 _c
534 433 557 363 557 273 _c
557 183 534 113 490 63 _c
445 12 384 -13 306 -13 _c
227 -13 165 12 121 63 _c
77 113 55 183 55 273 _c
55 363 77 433 121 484 _c
165 534 227 560 306 560 _c
_cl}_d
/p{{635 0 91 -207 580 560 _sc
181 82 _m
181 -207 _l
91 -207 _l
91 547 _l
181 547 _l
181 464 _l
199 496 223 520 252 536 _c
281 552 316 560 356 560 _c
422 560 476 533 518 481 _c
559 428 580 359 580 273 _c
580 187 559 117 518 65 _c
476 13 422 -13 356 -13 _c
316 -13 281 -5 252 10 _c
223 25 199 49 181 82 _c
487 273 _m
487 339 473 390 446 428 _c
418 466 381 485 334 485 _c
}_e{286 485 249 466 222 428 _c
194 390 181 339 181 273 _c
181 207 194 155 222 117 _c
249 79 286 61 334 61 _c
381 61 418 79 446 117 _c
473 155 487 207 487 273 _c
_cl}_e}_d
/r{411 0 91 0 411 560 _sc
411 463 _m
401 469 390 473 378 476 _c
366 478 353 480 339 480 _c
288 480 249 463 222 430 _c
194 397 181 350 181 288 _c
181 0 _l
91 0 _l
91 547 _l
181 547 _l
181 462 _l
199 495 224 520 254 536 _c
284 552 321 560 365 560 _c
371 560 378 559 386 559 _c
393 558 401 557 411 555 _c
411 463 _l
_cl}_d
/s{{521 0 54 -13 472 560 _sc
443 531 _m
443 446 _l
417 458 391 468 364 475 _c
336 481 308 485 279 485 _c
234 485 200 478 178 464 _c
156 450 145 430 145 403 _c
145 382 153 366 169 354 _c
185 342 217 330 265 320 _c
296 313 _l
360 299 405 279 432 255 _c
458 230 472 195 472 151 _c
472 100 452 60 412 31 _c
372 1 316 -13 246 -13 _c
216 -13 186 -10 154 -5 _c
}_e{122 0 89 8 54 20 _c
54 113 _l
87 95 120 82 152 74 _c
184 65 216 61 248 61 _c
290 61 323 68 346 82 _c
368 96 380 117 380 144 _c
380 168 371 187 355 200 _c
339 213 303 226 247 238 _c
216 245 _l
160 257 119 275 95 299 _c
70 323 58 356 58 399 _c
58 450 76 490 112 518 _c
148 546 200 560 268 560 _c
301 560 332 557 362 552 _c
391 547 418 540 443 531 _c
}_e{_cl}_e}_d
/t{392 0 27 0 368 702 _sc
183 702 _m
183 547 _l
368 547 _l
368 477 _l
183 477 _l
183 180 _l
183 135 189 106 201 94 _c
213 81 238 75 276 75 _c
368 75 _l
368 0 _l
276 0 _l
206 0 158 13 132 39 _c
106 65 93 112 93 180 _c
93 477 _l
27 477 _l
27 547 _l
93 547 _l
93 702 _l
183 702 _l
_cl}_d
/u{634 0 85 -13 543 560 _sc
85 216 _m
85 547 _l
175 547 _l
175 219 _l
175 167 185 129 205 103 _c
225 77 255 64 296 64 _c
344 64 383 79 411 110 _c
439 141 453 183 453 237 _c
453 547 _l
543 547 _l
543 0 _l
453 0 _l
453 84 _l
431 50 405 26 377 10 _c
348 -5 315 -13 277 -13 _c
214 -13 166 6 134 45 _c
101 83 85 140 85 216 _c
311 560 _m
311 560 _l
_cl}_d
/x{592 0 29 0 559 547 _sc
549 547 _m
351 281 _l
559 0 _l
453 0 _l
294 215 _l
135 0 _l
29 0 _l
241 286 _l
47 547 _l
153 547 _l
298 352 _l
443 547 _l
549 547 _l
_cl}_d
/minus{838 0 106 272 732 355 _sc
106 355 _m
732 355 _l
732 272 _l
106 272 _l
106 355 _l
_cl}_d
end readonly def

/BuildGlyph
 {exch begin
 CharStrings exch
 2 copy known not{pop /.notdef}if
 true 3 1 roll get exec
 end}_d

/BuildChar {
 1 index /Encoding get exch get
 1 index /BuildGlyph get exec
}_d

FontName currentdict end definefont pop
%!PS-Adobe-3.0 Resource-Font
%%Title: DejaVu Sans Oblique
%%Copyright: Copyright (c) 2003 by Bitstream, Inc. All Rights Reserved. Copyright (c) 2006 by Tavmjong Bah. All Rights Reserved. DejaVu changes are in public domain 
%%Creator: Converted from TrueType to type 3 by PPR
25 dict begin
/_d{bind def}bind def
/_m{moveto}_d
/_l{lineto}_d
/_cl{closepath eofill}_d
/_c{curveto}_d
/_sc{7 -1 roll{setcachedevice}{pop pop pop pop pop pop}ifelse}_d
/_e{exec}_d
/FontName /DejaVuSans-Oblique def
/PaintType 0 def
/FontMatrix[.001 0 0 .001 0 0]def
/FontBBox[-1016 -350 1659 1068]def
/FontType 3 def
/Encoding [ /t /delta /sigma ] def
/FontInfo 10 dict dup begin
/FamilyName (DejaVu Sans) def
/FullName (DejaVu Sans Oblique) def
/Notice (Copyright (c) 2003 by Bitstream, Inc. All Rights Reserved. Copyright (c) 2006 by Tavmjong Bah. All Rights Reserved. DejaVu changes are in public domain ) def
/Weight (Oblique) def
/Version (Version 2.35) def
/ItalicAngle -11.0 def
/isFixedPitch false def
/UnderlinePosition -130 def
/UnderlineThickness 90 def
end readonly def
/CharStrings 4 dict dup begin
/.notdef 0 def
/t{{392 0 64 0 423 702 _sc
423 547 _m
409 477 _l
230 477 _l
172 180 _l
170 169 168 160 167 152 _c
166 144 166 139 166 135 _c
166 114 172 99 185 89 _c
197 79 217 75 245 75 _c
336 75 _l
321 0 _l
235 0 _l
181 0 141 10 115 31 _c
89 52 76 84 76 126 _c
76 133 76 141 77 150 _c
78 159 80 169 82 180 _c
140 477 _l
64 477 _l
78 547 _l
153 547 _l
183 702 _l
}_e{273 702 _l
243 547 _l
423 547 _l
_cl}_e}_d
/delta{{612 0 38 -13 557 742 _sc
542 633 _m
514 655 461 667 383 667 _c
300 667 255 648 248 610 _c
242 580 280 557 364 542 _c
428 530 476 505 508 469 _c
546 425 556 358 539 268 _c
521 182 486 113 432 63 _c
377 12 310 -13 232 -13 _c
154 -13 98 12 63 63 _c
28 113 20 183 38 273 _c
50 339 84 399 139 453 _c
160 473 184 490 211 502 _c
165 528 147 563 156 609 _c
}_e{173 697 253 742 397 742 _c
469 742 522 730 557 708 _c
542 633 _l
274 478 _m
250 468 226 451 204 428 _c
168 391 144 339 132 273 _c
119 207 123 155 144 118 _c
164 80 199 62 248 62 _c
295 62 336 81 372 119 _c
407 156 431 206 443 268 _c
455 332 450 380 427 412 _c
401 445 369 464 329 468 _c
308 470 290 473 274 478 _c
_cl}_e}_d
/sigma{{634 0 57 -13 659 547 _sc
347 476 _m
297 476 255 458 222 422 _c
186 384 163 335 151 273 _c
138 207 142 156 163 118 _c
183 80 218 62 267 62 _c
314 62 355 81 391 119 _c
426 156 450 207 463 273 _c
474 332 470 382 450 422 _c
431 458 397 476 347 476 _c
361 547 _m
659 547 _l
642 457 _l
541 457 _l
566 406 572 345 559 273 _c
541 183 505 113 451 63 _c
396 12 329 -13 251 -13 _c
}_e{173 -13 116 12 82 63 _c
47 113 39 183 57 273 _c
74 363 110 433 164 484 _c
209 526 275 547 361 547 _c
_cl}_e}_d
end readonly def

/BuildGlyph
 {exch begin
 CharStrings exch
 2 copy known not{pop /.notdef}if
 true 3 1 roll get exec
 end}_d

/BuildChar {
 1 index /Encoding get exch get
 1 index /BuildGlyph get exec
}_d

FontName currentdict end definefont pop
end
%%EndProlog
mpldict begin
-89.25 98.086 translate
790.5 595.829 0 0 clipbox
gsave
0 0 m
790.5 0 l
790.5 595.82875 l
0 595.82875 l
cl
1.000 setgray
fill
grestore
gsave
98.434375 64.66875 m
768.034375 64.66875 l
768.034375 563.62875 l
98.434375 563.62875 l
cl
1.000 setgray
fill
grestore
0.800 setlinewidth
1 setlinejoin
0 setlinecap
[] 0 setdash
0.000 setgray
gsave
/o {
gsave
newpath
translate
0.8 setlinewidth
1 setlinejoin
0 setlinecap
0 0 m
0 -3.5 l

gsave
0.000 setgray
fill
grestore
stroke
grestore
} bind def
98.4344 64.6688 o
grestore
/DejaVuSans findfont
24.000 scalefont
setfont
gsave
90.801563 39.434375 translate
0.000000 rotate
0.000000 0.000000 m /five glyphshow
grestore
gsave
/o {
gsave
newpath
translate
0.8 setlinewidth
1 setlinejoin
0 setlinecap
0 0 m
0 -3.5 l

gsave
0.000 setgray
fill
grestore
stroke
grestore
} bind def
172.834 64.6688 o
grestore
gsave
157.568750 39.434375 translate
0.000000 rotate
0.000000 0.000000 m /one glyphshow
15.269531 0.000000 m /zero glyphshow
grestore
gsave
/o {
gsave
newpath
translate
0.8 setlinewidth
1 setlinejoin
0 setlinecap
0 0 m
0 -3.5 l

gsave
0.000 setgray
fill
grestore
stroke
grestore
} bind def
247.234 64.6688 o
grestore
gsave
231.968750 39.434375 translate
0.000000 rotate
0.000000 0.000000 m /one glyphshow
15.269531 0.000000 m /five glyphshow
grestore
gsave
/o {
gsave
newpath
translate
0.8 setlinewidth
1 setlinejoin
0 setlinecap
0 0 m
0 -3.5 l

gsave
0.000 setgray
fill
grestore
stroke
grestore
} bind def
321.634 64.6688 o
grestore
gsave
306.368750 39.434375 translate
0.000000 rotate
0.000000 0.000000 m /two glyphshow
15.269531 0.000000 m /zero glyphshow
grestore
gsave
/o {
gsave
newpath
translate
0.8 setlinewidth
1 setlinejoin
0 setlinecap
0 0 m
0 -3.5 l

gsave
0.000 setgray
fill
grestore
stroke
grestore
} bind def
396.034 64.6688 o
grestore
gsave
380.768750 39.434375 translate
0.000000 rotate
0.000000 0.000000 m /two glyphshow
15.269531 0.000000 m /five glyphshow
grestore
gsave
/o {
gsave
newpath
translate
0.8 setlinewidth
1 setlinejoin
0 setlinecap
0 0 m
0 -3.5 l

gsave
0.000 setgray
fill
grestore
stroke
grestore
} bind def
470.434 64.6688 o
grestore
gsave
455.168750 39.434375 translate
0.000000 rotate
0.000000 0.000000 m /three glyphshow
15.269531 0.000000 m /zero glyphshow
grestore
gsave
/o {
gsave
newpath
translate
0.8 setlinewidth
1 setlinejoin
0 setlinecap
0 0 m
0 -3.5 l

gsave
0.000 setgray
fill
grestore
stroke
grestore
} bind def
544.834 64.6688 o
grestore
gsave
529.568750 39.434375 translate
0.000000 rotate
0.000000 0.000000 m /three glyphshow
15.269531 0.000000 m /five glyphshow
grestore
gsave
/o {
gsave
newpath
translate
0.8 setlinewidth
1 setlinejoin
0 setlinecap
0 0 m
0 -3.5 l

gsave
0.000 setgray
fill
grestore
stroke
grestore
} bind def
619.234 64.6688 o
grestore
gsave
603.968750 39.434375 translate
0.000000 rotate
0.000000 0.000000 m /four glyphshow
15.269531 0.000000 m /zero glyphshow
grestore
gsave
/o {
gsave
newpath
translate
0.8 setlinewidth
1 setlinejoin
0 setlinecap
0 0 m
0 -3.5 l

gsave
0.000 setgray
fill
grestore
stroke
grestore
} bind def
693.634 64.6688 o
grestore
gsave
678.368750 39.434375 translate
0.000000 rotate
0.000000 0.000000 m /four glyphshow
15.269531 0.000000 m /five glyphshow
grestore
gsave
/o {
gsave
newpath
translate
0.8 setlinewidth
1 setlinejoin
0 setlinecap
0 0 m
0 -3.5 l

gsave
0.000 setgray
fill
grestore
stroke
grestore
} bind def
768.034 64.6688 o
grestore
gsave
752.768750 39.434375 translate
0.000000 rotate
0.000000 0.000000 m /five glyphshow
15.269531 0.000000 m /zero glyphshow
grestore
gsave
370.882812 12.200000 translate
0.000000 rotate
0.000000 0.000000 m /S glyphshow
15.234375 0.000000 m /n glyphshow
30.445312 0.000000 m /a glyphshow
45.152344 0.000000 m /p glyphshow
60.386719 0.000000 m /s glyphshow
72.890625 0.000000 m /h glyphshow
88.101562 0.000000 m /o glyphshow
102.785156 0.000000 m /t glyphshow
112.195312 0.000000 m /s glyphshow
grestore
gsave
/o {
gsave
newpath
translate
0.8 setlinewidth
1 setlinejoin
0 setlinecap
0 0 m
-3.5 0 l

gsave
0.000 setgray
fill
grestore
stroke
grestore
} bind def
98.4344 287.391 o
grestore
gsave
34.434375 278.273668 translate
0.000000 rotate
/DejaVuSans findfont
24.0 scalefont
setfont
0.000000 0.562500 moveto
/one glyphshow

15.269531 0.562500 moveto
/zero glyphshow

/DejaVuSans findfont
16.799999999999997 scalefont
setfont
30.768750 9.750000 moveto
/minus glyphshow

44.845312 9.750000 moveto
/one glyphshow


grestore
0.600 setlinewidth
gsave
/o {
gsave
newpath
translate
0.6 setlinewidth
1 setlinejoin
0 setlinecap
0 0 m
-2 0 l

gsave
0.000 setgray
fill
grestore
stroke
grestore
} bind def
98.4344 120.77 o
grestore
gsave
/o {
gsave
newpath
translate
0.6 setlinewidth
1 setlinejoin
0 setlinecap
0 0 m
-2 0 l

gsave
0.000 setgray
fill
grestore
stroke
grestore
} bind def
98.4344 160.583 o
grestore
gsave
/o {
gsave
newpath
translate
0.6 setlinewidth
1 setlinejoin
0 setlinecap
0 0 m
-2 0 l

gsave
0.000 setgray
fill
grestore
stroke
grestore
} bind def
98.4344 191.464 o
grestore
gsave
/o {
gsave
newpath
translate
0.6 setlinewidth
1 setlinejoin
0 setlinecap
0 0 m
-2 0 l

gsave
0.000 setgray
fill
grestore
stroke
grestore
} bind def
98.4344 216.696 o
grestore
gsave
/o {
gsave
newpath
translate
0.6 setlinewidth
1 setlinejoin
0 setlinecap
0 0 m
-2 0 l

gsave
0.000 setgray
fill
grestore
stroke
grestore
} bind def
98.4344 238.03 o
grestore
gsave
/o {
gsave
newpath
translate
0.6 setlinewidth
1 setlinejoin
0 setlinecap
0 0 m
-2 0 l

gsave
0.000 setgray
fill
grestore
stroke
grestore
} bind def
98.4344 256.509 o
grestore
gsave
/o {
gsave
newpath
translate
0.6 setlinewidth
1 setlinejoin
0 setlinecap
0 0 m
-2 0 l

gsave
0.000 setgray
fill
grestore
stroke
grestore
} bind def
98.4344 272.81 o
grestore
gsave
/o {
gsave
newpath
translate
0.6 setlinewidth
1 setlinejoin
0 setlinecap
0 0 m
-2 0 l

gsave
0.000 setgray
fill
grestore
stroke
grestore
} bind def
98.4344 383.317 o
grestore
gsave
/o {
gsave
newpath
translate
0.6 setlinewidth
1 setlinejoin
0 setlinecap
0 0 m
-2 0 l

gsave
0.000 setgray
fill
grestore
stroke
grestore
} bind def
98.4344 439.431 o
grestore
gsave
/o {
gsave
newpath
translate
0.6 setlinewidth
1 setlinejoin
0 setlinecap
0 0 m
-2 0 l

gsave
0.000 setgray
fill
grestore
stroke
grestore
} bind def
98.4344 479.244 o
grestore
gsave
/o {
gsave
newpath
translate
0.6 setlinewidth
1 setlinejoin
0 setlinecap
0 0 m
-2 0 l

gsave
0.000 setgray
fill
grestore
stroke
grestore
} bind def
98.4344 510.125 o
grestore
gsave
/o {
gsave
newpath
translate
0.6 setlinewidth
1 setlinejoin
0 setlinecap
0 0 m
-2 0 l

gsave
0.000 setgray
fill
grestore
stroke
grestore
} bind def
98.4344 535.357 o
grestore
gsave
/o {
gsave
newpath
translate
0.6 setlinewidth
1 setlinejoin
0 setlinecap
0 0 m
-2 0 l

gsave
0.000 setgray
fill
grestore
stroke
grestore
} bind def
98.4344 556.691 o
grestore
gsave
25.434375 250.265938 translate
90.000000 rotate
0.000000 0.000000 m /E glyphshow
15.164062 0.000000 m /r glyphshow
25.031250 0.000000 m /r glyphshow
34.898438 0.000000 m /o glyphshow
49.582031 0.000000 m /r glyphshow
59.449219 0.000000 m /s glyphshow
71.953125 0.000000 m /space glyphshow
79.582031 0.000000 m /parenleft glyphshow
88.945312 0.000000 m /p glyphshow
104.179688 0.000000 m /x glyphshow
118.382812 0.000000 m /parenright glyphshow
grestore
3.000 setlinewidth
2 setlinecap
1.000 0.000 0.000 setrgbcolor
gsave
669.6 499 98.43 64.67 clipbox
98.434375 107.111785 m
113.314375 103.52711 l
128.194375 87.34875 l
143.074375 90.236777 l
157.954375 89.682916 l
172.834375 90.196508 l
187.714375 90.731701 l
202.594375 90.595228 l
217.474375 92.431449 l
232.354375 94.864145 l
247.234375 98.39228 l
262.114375 98.44216 l
276.994375 96.803564 l
291.874375 99.534993 l
306.754375 100.50075 l
321.634375 105.624205 l
336.514375 103.53547 l
351.394375 105.838139 l
366.274375 110.926293 l
381.154375 114.114292 l
396.034375 113.116981 l
410.914375 117.936693 l
425.794375 120.526006 l
440.674375 126.175473 l
455.554375 128.284347 l
470.434375 129.997384 l
485.314375 131.442422 l
500.194375 132.547104 l
515.074375 138.392746 l
529.954375 141.504369 l
544.834375 145.371802 l
559.714375 152.61111 l
574.594375 159.604816 l
589.474375 162.99096 l
604.354375 171.054869 l
619.234375 176.491465 l
634.114375 177.444252 l
648.994375 186.82576 l
663.874375 187.71476 l
678.754375 186.043029 l
693.634375 187.956278 l
708.514375 186.977088 l
723.394375 189.849597 l
738.274375 197.122748 l
753.154375 198.813371 l
768.034375 193.44216 l
stroke
grestore
0.000 0.000 1.000 setrgbcolor
gsave
669.6 499 98.43 64.67 clipbox
98.434375 117.352076 m
113.314375 122.237707 l
128.194375 113.606576 l
143.074375 101.496937 l
157.954375 100.817092 l
172.834375 102.015599 l
187.714375 102.396476 l
202.594375 102.380144 l
217.474375 101.653269 l
232.354375 103.314281 l
247.234375 104.278018 l
262.114375 104.917318 l
276.994375 105.158169 l
291.874375 111.64018 l
306.754375 111.683044 l
321.634375 109.860241 l
336.514375 109.492882 l
351.394375 108.786919 l
366.274375 111.523838 l
381.154375 112.286167 l
396.034375 111.548495 l
410.914375 112.951119 l
425.794375 115.157802 l
440.674375 114.778728 l
455.554375 115.27209 l
470.434375 118.003066 l
485.314375 118.874268 l
500.194375 121.121324 l
515.074375 118.241937 l
529.954375 122.392355 l
544.834375 118.424574 l
559.714375 117.791123 l
574.594375 118.776958 l
589.474375 121.774557 l
604.354375 120.777173 l
619.234375 124.215871 l
634.114375 121.706303 l
648.994375 127.500027 l
663.874375 125.593975 l
678.754375 125.901922 l
693.634375 126.823439 l
708.514375 124.886937 l
723.394375 128.672232 l
738.274375 128.222289 l
753.154375 126.582134 l
768.034375 124.528243 l
stroke
grestore
1.000 0.000 0.000 setrgbcolor
gsave
669.6 499 98.43 64.67 clipbox
98.434375 122.219905 m
113.314375 119.123779 l
128.194375 103.410016 l
143.074375 106.062003 l
157.954375 102.352217 l
172.834375 100.99974 l
187.714375 102.994161 l
202.594375 104.150635 l
217.474375 102.820431 l
232.354375 106.036349 l
247.234375 106.376137 l
262.114375 109.249939 l
276.994375 110.362965 l
291.874375 109.468857 l
306.754375 113.728947 l
321.634375 115.386284 l
336.514375 116.133887 l
351.394375 117.230502 l
366.274375 122.095681 l
381.154375 125.145069 l
396.034375 126.534796 l
410.914375 127.971152 l
425.794375 128.272986 l
440.674375 132.735934 l
455.554375 133.769501 l
470.434375 139.995046 l
485.314375 141.054493 l
500.194375 143.461775 l
515.074375 148.937772 l
529.954375 154.012437 l
544.834375 157.342145 l
559.714375 163.452608 l
574.594375 165.708357 l
589.474375 170.190594 l
604.354375 175.060778 l
619.234375 180.347884 l
634.114375 182.07104 l
648.994375 190.221263 l
663.874375 190.826817 l
678.754375 194.682726 l
693.634375 193.972126 l
708.514375 190.78983 l
723.394375 198.2342 l
738.274375 198.220493 l
753.154375 197.00792 l
768.034375 196.042739 l
stroke
grestore
1.000 setlinewidth
0 setlinejoin
0 setlinecap
gsave
669.6 499 98.43 64.67 clipbox
/o {
gsave
newpath
translate
1.0 setlinewidth
0 setlinejoin
0 setlinecap
-10 -10 m
10 -10 l
10 10 l
-10 10 l
cl

gsave
grestore
stroke
grestore
} bind def
98.4344 122.22 o
113.314 119.124 o
128.194 103.41 o
143.074 106.062 o
157.954 102.352 o
172.834 101 o
187.714 102.994 o
202.594 104.151 o
217.474 102.82 o
232.354 106.036 o
247.234 106.376 o
262.114 109.25 o
276.994 110.363 o
291.874 109.469 o
306.754 113.729 o
321.634 115.386 o
336.514 116.134 o
351.394 117.231 o
366.274 122.096 o
381.154 125.145 o
396.034 126.535 o
410.914 127.971 o
425.794 128.273 o
440.674 132.736 o
455.554 133.77 o
470.434 139.995 o
485.314 141.054 o
500.194 143.462 o
515.074 148.938 o
529.954 154.012 o
544.834 157.342 o
559.714 163.453 o
574.594 165.708 o
589.474 170.191 o
604.354 175.061 o
619.234 180.348 o
634.114 182.071 o
648.994 190.221 o
663.874 190.827 o
678.754 194.683 o
693.634 193.972 o
708.514 190.79 o
723.394 198.234 o
738.274 198.22 o
753.154 197.008 o
768.034 196.043 o
grestore
3.000 setlinewidth
1 setlinejoin
2 setlinecap
0.000 0.000 1.000 setrgbcolor
gsave
669.6 499 98.43 64.67 clipbox
98.434375 132.555154 m
113.314375 136.165038 l
128.194375 128.39048 l
143.074375 119.901195 l
157.954375 118.46914 l
172.834375 116.326947 l
187.714375 116.519263 l
202.594375 119.38449 l
217.474375 118.770406 l
232.354375 120.141912 l
247.234375 118.361218 l
262.114375 120.577754 l
276.994375 120.677961 l
291.874375 122.723876 l
306.754375 125.691507 l
321.634375 125.758269 l
336.514375 126.112462 l
351.394375 127.662513 l
366.274375 126.093376 l
381.154375 128.791129 l
396.034375 130.851377 l
410.914375 133.213211 l
425.794375 132.781198 l
440.674375 132.227708 l
455.554375 133.552637 l
470.434375 137.074207 l
485.314375 135.36033 l
500.194375 134.371238 l
515.074375 136.577166 l
529.954375 135.555313 l
544.834375 135.76658 l
559.714375 135.808381 l
574.594375 138.097158 l
589.474375 137.461153 l
604.354375 140.785301 l
619.234375 140.475182 l
634.114375 143.414782 l
648.994375 142.876747 l
663.874375 143.030797 l
678.754375 140.519184 l
693.634375 139.314074 l
708.514375 140.744578 l
723.394375 139.527339 l
738.274375 139.543854 l
753.154375 139.091591 l
768.034375 135.247363 l
stroke
grestore
1.000 setlinewidth
0 setlinejoin
0 setlinecap
gsave
669.6 499 98.43 64.67 clipbox
/o {
gsave
newpath
translate
1.0 setlinewidth
0 setlinejoin
0 setlinecap
-10 -10 m
10 -10 l
10 10 l
-10 10 l
cl

gsave
grestore
stroke
grestore
} bind def
98.4344 132.555 o
113.314 136.165 o
128.194 128.39 o
143.074 119.901 o
157.954 118.469 o
172.834 116.327 o
187.714 116.519 o
202.594 119.384 o
217.474 118.77 o
232.354 120.142 o
247.234 118.361 o
262.114 120.578 o
276.994 120.678 o
291.874 122.724 o
306.754 125.692 o
321.634 125.758 o
336.514 126.112 o
351.394 127.663 o
366.274 126.093 o
381.154 128.791 o
396.034 130.851 o
410.914 133.213 o
425.794 132.781 o
440.674 132.228 o
455.554 133.553 o
470.434 137.074 o
485.314 135.36 o
500.194 134.371 o
515.074 136.577 o
529.954 135.555 o
544.834 135.767 o
559.714 135.808 o
574.594 138.097 o
589.474 137.461 o
604.354 140.785 o
619.234 140.475 o
634.114 143.415 o
648.994 142.877 o
663.874 143.031 o
678.754 140.519 o
693.634 139.314 o
708.514 140.745 o
723.394 139.527 o
738.274 139.544 o
753.154 139.092 o
768.034 135.247 o
grestore
3.000 setlinewidth
1 setlinejoin
2 setlinecap
1.000 0.000 0.000 setrgbcolor
gsave
669.6 499 98.43 64.67 clipbox
98.434375 200.426527 m
113.314375 190.251143 l
128.194375 172.374928 l
143.074375 169.366028 l
157.954375 166.402756 l
172.834375 166.166692 l
187.714375 167.093359 l
202.594375 165.573597 l
217.474375 165.078127 l
232.354375 167.391432 l
247.234375 167.760167 l
262.114375 169.61453 l
276.994375 169.429332 l
291.874375 169.41927 l
306.754375 171.603576 l
321.634375 172.975074 l
336.514375 175.081031 l
351.394375 176.687783 l
366.274375 179.133229 l
381.154375 180.252472 l
396.034375 182.625349 l
410.914375 185.99092 l
425.794375 187.496463 l
440.674375 189.939459 l
455.554375 191.963034 l
470.434375 192.849063 l
485.314375 194.770855 l
500.194375 199.035505 l
515.074375 202.976682 l
529.954375 207.215898 l
544.834375 209.564669 l
559.714375 213.678987 l
574.594375 218.608316 l
589.474375 218.565768 l
604.354375 221.927533 l
619.234375 221.600439 l
634.114375 224.326167 l
648.994375 226.936497 l
663.874375 228.816798 l
678.754375 230.663136 l
693.634375 234.775028 l
708.514375 237.920664 l
723.394375 238.239444 l
738.274375 240.01686 l
753.154375 235.443384 l
768.034375 231.373796 l
stroke
grestore
1.000 setlinewidth
0 setlinecap
gsave
669.6 499 98.43 64.67 clipbox
/o {
gsave
newpath
translate
1.0 setlinewidth
1 setlinejoin
0 setlinecap
0 -10 m
2.652031 -10 5.195799 -8.946337 7.071068 -7.071068 c
8.946337 -5.195799 10 -2.652031 10 0 c
10 2.652031 8.946337 5.195799 7.071068 7.071068 c
5.195799 8.946337 2.652031 10 0 10 c
-2.652031 10 -5.195799 8.946337 -7.071068 7.071068 c
-8.946337 5.195799 -10 2.652031 -10 0 c
-10 -2.652031 -8.946337 -5.195799 -7.071068 -7.071068 c
-5.195799 -8.946337 -2.652031 -10 0 -10 c
cl

gsave
grestore
stroke
grestore
} bind def
98.4344 200.427 o
113.314 190.251 o
128.194 172.375 o
143.074 169.366 o
157.954 166.403 o
172.834 166.167 o
187.714 167.093 o
202.594 165.574 o
217.474 165.078 o
232.354 167.391 o
247.234 167.76 o
262.114 169.615 o
276.994 169.429 o
291.874 169.419 o
306.754 171.604 o
321.634 172.975 o
336.514 175.081 o
351.394 176.688 o
366.274 179.133 o
381.154 180.252 o
396.034 182.625 o
410.914 185.991 o
425.794 187.496 o
440.674 189.939 o
455.554 191.963 o
470.434 192.849 o
485.314 194.771 o
500.194 199.036 o
515.074 202.977 o
529.954 207.216 o
544.834 209.565 o
559.714 213.679 o
574.594 218.608 o
589.474 218.566 o
604.354 221.928 o
619.234 221.6 o
634.114 224.326 o
648.994 226.936 o
663.874 228.817 o
678.754 230.663 o
693.634 234.775 o
708.514 237.921 o
723.394 238.239 o
738.274 240.017 o
753.154 235.443 o
768.034 231.374 o
grestore
3.000 setlinewidth
2 setlinecap
0.000 0.000 1.000 setrgbcolor
gsave
669.6 499 98.43 64.67 clipbox
98.434375 197.202434 m
113.314375 194.07755 l
128.194375 200.14424 l
143.074375 181.768858 l
157.954375 181.717192 l
172.834375 181.908317 l
187.714375 180.239865 l
202.594375 179.988094 l
217.474375 179.858425 l
232.354375 183.082201 l
247.234375 184.214423 l
262.114375 184.717516 l
276.994375 182.537989 l
291.874375 184.190212 l
306.754375 184.815419 l
321.634375 186.788547 l
336.514375 185.999558 l
351.394375 185.687952 l
366.274375 187.243297 l
381.154375 187.571354 l
396.034375 187.774752 l
410.914375 189.038769 l
425.794375 189.54683 l
440.674375 188.914774 l
455.554375 191.371305 l
470.434375 192.536865 l
485.314375 190.026745 l
500.194375 189.787135 l
515.074375 191.777579 l
529.954375 193.427425 l
544.834375 193.576342 l
559.714375 192.889613 l
574.594375 193.089178 l
589.474375 194.883774 l
604.354375 194.184794 l
619.234375 194.458634 l
634.114375 194.258594 l
648.994375 195.681839 l
663.874375 194.522543 l
678.754375 193.749875 l
693.634375 195.091542 l
708.514375 195.961578 l
723.394375 196.060411 l
738.274375 196.873566 l
753.154375 196.466518 l
768.034375 194.049843 l
stroke
grestore
1.000 setlinewidth
0 setlinecap
gsave
669.6 499 98.43 64.67 clipbox
/o {
gsave
newpath
translate
1.0 setlinewidth
1 setlinejoin
0 setlinecap
0 -10 m
2.652031 -10 5.195799 -8.946337 7.071068 -7.071068 c
8.946337 -5.195799 10 -2.652031 10 0 c
10 2.652031 8.946337 5.195799 7.071068 7.071068 c
5.195799 8.946337 2.652031 10 0 10 c
-2.652031 10 -5.195799 8.946337 -7.071068 7.071068 c
-8.946337 5.195799 -10 2.652031 -10 0 c
-10 -2.652031 -8.946337 -5.195799 -7.071068 -7.071068 c
-5.195799 -8.946337 -2.652031 -10 0 -10 c
cl

gsave
grestore
stroke
grestore
} bind def
98.4344 197.202 o
113.314 194.078 o
128.194 200.144 o
143.074 181.769 o
157.954 181.717 o
172.834 181.908 o
187.714 180.24 o
202.594 179.988 o
217.474 179.858 o
232.354 183.082 o
247.234 184.214 o
262.114 184.718 o
276.994 182.538 o
291.874 184.19 o
306.754 184.815 o
321.634 186.789 o
336.514 186 o
351.394 185.688 o
366.274 187.243 o
381.154 187.571 o
396.034 187.775 o
410.914 189.039 o
425.794 189.547 o
440.674 188.915 o
455.554 191.371 o
470.434 192.537 o
485.314 190.027 o
500.194 189.787 o
515.074 191.778 o
529.954 193.427 o
544.834 193.576 o
559.714 192.89 o
574.594 193.089 o
589.474 194.884 o
604.354 194.185 o
619.234 194.459 o
634.114 194.259 o
648.994 195.682 o
663.874 194.523 o
678.754 193.75 o
693.634 195.092 o
708.514 195.962 o
723.394 196.06 o
738.274 196.874 o
753.154 196.467 o
768.034 194.05 o
grestore
3.000 setlinewidth
2 setlinecap
1.000 0.000 0.000 setrgbcolor
gsave
669.6 499 98.43 64.67 clipbox
98.434375 432.993419 m
113.314375 471.366267 l
128.194375 492.022742 l
143.074375 503.583246 l
157.954375 514.061993 l
172.834375 518.650737 l
187.714375 525.53907 l
202.594375 530.022473 l
217.474375 535.034479 l
232.354375 533.191442 l
247.234375 531.236347 l
262.114375 529.292764 l
276.994375 530.159046 l
291.874375 526.116781 l
306.754375 527.058224 l
321.634375 528.452548 l
336.514375 529.077878 l
351.394375 526.428847 l
366.274375 528.362083 l
381.154375 525.390422 l
396.034375 526.251102 l
410.914375 523.024639 l
425.794375 520.35601 l
440.674375 524.749413 l
455.554375 523.010013 l
470.434375 526.088914 l
485.314375 525.576207 l
500.194375 524.054622 l
515.074375 524.063632 l
529.954375 521.684282 l
544.834375 520.807189 l
559.714375 520.240541 l
574.594375 520.178266 l
589.474375 521.595905 l
604.354375 525.301653 l
619.234375 522.78236 l
634.114375 523.915395 l
648.994375 523.406878 l
663.874375 519.547248 l
678.754375 522.484231 l
693.634375 521.765477 l
708.514375 519.169999 l
723.394375 519.35448 l
738.274375 518.956192 l
753.154375 532.337392 l
768.034375 540.94875 l
stroke
grestore
1.000 setlinewidth
0 setlinejoin
0 setlinecap
gsave
669.6 499 98.43 64.67 clipbox
/o {
gsave
newpath
translate
1.0 setlinewidth
0 setlinejoin
0 setlinecap
0 10 m
-10 -10 l
10 -10 l
cl

gsave
grestore
stroke
grestore
} bind def
98.4344 432.993 o
113.314 471.366 o
128.194 492.023 o
143.074 503.583 o
157.954 514.062 o
172.834 518.651 o
187.714 525.539 o
202.594 530.022 o
217.474 535.034 o
232.354 533.191 o
247.234 531.236 o
262.114 529.293 o
276.994 530.159 o
291.874 526.117 o
306.754 527.058 o
321.634 528.453 o
336.514 529.078 o
351.394 526.429 o
366.274 528.362 o
381.154 525.39 o
396.034 526.251 o
410.914 523.025 o
425.794 520.356 o
440.674 524.749 o
455.554 523.01 o
470.434 526.089 o
485.314 525.576 o
500.194 524.055 o
515.074 524.064 o
529.954 521.684 o
544.834 520.807 o
559.714 520.241 o
574.594 520.178 o
589.474 521.596 o
604.354 525.302 o
619.234 522.782 o
634.114 523.915 o
648.994 523.407 o
663.874 519.547 o
678.754 522.484 o
693.634 521.765 o
708.514 519.17 o
723.394 519.354 o
738.274 518.956 o
753.154 532.337 o
768.034 540.949 o
grestore
3.000 setlinewidth
1 setlinejoin
2 setlinecap
0.000 0.000 1.000 setrgbcolor
gsave
669.6 499 98.43 64.67 clipbox
98.434375 395.729799 m
113.314375 400.8735 l
128.194375 411.185829 l
143.074375 398.892459 l
157.954375 398.23922 l
172.834375 397.735102 l
187.714375 397.543554 l
202.594375 396.125243 l
217.474375 393.627587 l
232.354375 393.154056 l
247.234375 393.030259 l
262.114375 392.057315 l
276.994375 389.806381 l
291.874375 387.967255 l
306.754375 388.129083 l
321.634375 387.795859 l
336.514375 384.310919 l
351.394375 382.88422 l
366.274375 384.321224 l
381.154375 382.137404 l
396.034375 381.307223 l
410.914375 378.642587 l
425.794375 376.841577 l
440.674375 375.610679 l
455.554375 374.585592 l
470.434375 374.025794 l
485.314375 374.269045 l
500.194375 370.767935 l
515.074375 373.058922 l
529.954375 371.683918 l
544.834375 370.27839 l
559.714375 369.78787 l
574.594375 367.857746 l
589.474375 368.463036 l
604.354375 367.910351 l
619.234375 364.857372 l
634.114375 365.195379 l
648.994375 362.912077 l
663.874375 362.411592 l
678.754375 361.516178 l
693.634375 358.921803 l
708.514375 358.121377 l
723.394375 358.036677 l
738.274375 355.895397 l
753.154375 353.495758 l
768.034375 351.859539 l
stroke
grestore
1.000 setlinewidth
0 setlinejoin
0 setlinecap
gsave
669.6 499 98.43 64.67 clipbox
/o {
gsave
newpath
translate
1.0 setlinewidth
0 setlinejoin
0 setlinecap
0 10 m
-10 -10 l
10 -10 l
cl

gsave
grestore
stroke
grestore
} bind def
98.4344 395.73 o
113.314 400.873 o
128.194 411.186 o
143.074 398.892 o
157.954 398.239 o
172.834 397.735 o
187.714 397.544 o
202.594 396.125 o
217.474 393.628 o
232.354 393.154 o
247.234 393.03 o
262.114 392.057 o
276.994 389.806 o
291.874 387.967 o
306.754 388.129 o
321.634 387.796 o
336.514 384.311 o
351.394 382.884 o
366.274 384.321 o
381.154 382.137 o
396.034 381.307 o
410.914 378.643 o
425.794 376.842 o
440.674 375.611 o
455.554 374.586 o
470.434 374.026 o
485.314 374.269 o
500.194 370.768 o
515.074 373.059 o
529.954 371.684 o
544.834 370.278 o
559.714 369.788 o
574.594 367.858 o
589.474 368.463 o
604.354 367.91 o
619.234 364.857 o
634.114 365.195 o
648.994 362.912 o
663.874 362.412 o
678.754 361.516 o
693.634 358.922 o
708.514 358.121 o
723.394 358.037 o
738.274 355.895 o
753.154 353.496 o
768.034 351.86 o
grestore
0.800 setlinewidth
2 setlinecap
[] 0 setdash
0.000 setgray
gsave
98.434375 64.66875 m
98.434375 563.62875 l
stroke
grestore
gsave
768.034375 64.66875 m
768.034375 563.62875 l
stroke
grestore
gsave
98.434375 64.66875 m
768.034375 64.66875 l
stroke
grestore
gsave
98.434375 563.62875 m
768.034375 563.62875 l
stroke
grestore
gsave
162.234375 569.628750 translate
0.000000 rotate
/DejaVuSans findfont
24.0 scalefont
setfont
0.000000 0.765625 moveto
/M glyphshow

20.707031 0.765625 moveto
/e glyphshow

35.472656 0.765625 moveto
/a glyphshow

50.179688 0.765625 moveto
/n glyphshow

65.390625 0.765625 moveto
/space glyphshow

73.019531 0.765625 moveto
/e glyphshow

87.785156 0.765625 moveto
/r glyphshow

97.652344 0.765625 moveto
/r glyphshow

107.519531 0.765625 moveto
/o glyphshow

122.203125 0.765625 moveto
/r glyphshow

132.070312 0.765625 moveto
/space glyphshow

139.699219 0.765625 moveto
/o glyphshow

154.382812 0.765625 moveto
/f glyphshow

162.832031 0.765625 moveto
/space glyphshow

170.460938 0.765625 moveto
/d glyphshow

185.695312 0.765625 moveto
/e glyphshow

200.460938 0.765625 moveto
/t glyphshow

209.871094 0.765625 moveto
/e glyphshow

224.636719 0.765625 moveto
/c glyphshow

237.832031 0.765625 moveto
/t glyphshow

247.242188 0.765625 moveto
/e glyphshow

262.007812 0.765625 moveto
/d glyphshow

277.242188 0.765625 moveto
/space glyphshow

284.871094 0.765625 moveto
/p glyphshow

300.105469 0.765625 moveto
/a glyphshow

314.812500 0.765625 moveto
/r glyphshow

324.679688 0.765625 moveto
/t glyphshow

334.089844 0.765625 moveto
/i glyphshow

340.757812 0.765625 moveto
/c glyphshow

353.953125 0.765625 moveto
/l glyphshow

360.621094 0.765625 moveto
/e glyphshow

375.386719 0.765625 moveto
/s glyphshow

387.890625 0.765625 moveto
/space glyphshow

395.519531 0.765625 moveto
/three glyphshow

410.789062 0.765625 moveto
/zero glyphshow

426.058594 0.765625 moveto
/zero glyphshow

441.328125 0.765625 moveto
/zero glyphshow

456.597656 0.765625 moveto
/zero glyphshow

471.867188 0.765625 moveto
/space glyphshow

479.496094 0.765625 moveto
/seven glyphshow

494.765625 0.765625 moveto
/period glyphshow

502.394531 0.765625 moveto
/five glyphshow

/DejaVuSans-Oblique findfont
24.0 scalefont
setfont
517.664062 0.765625 moveto
/delta glyphshow

532.347656 0.765625 moveto
/t glyphshow


grestore
1.000 setlinewidth
0 setlinecap
0.800 setgray
gsave
200.774375 375.50375 m
355.774375 375.50375 l
357.774375 375.50375 358.774375 376.50375 358.774375 378.50375 c
358.774375 553.12875 l
358.774375 555.12875 357.774375 556.12875 355.774375 556.12875 c
200.774375 556.12875 l
198.774375 556.12875 197.774375 555.12875 197.774375 553.12875 c
197.774375 378.50375 l
197.774375 376.50375 198.774375 375.50375 200.774375 375.50375 c
cl
gsave
1.000 setgray
fill
grestore
stroke
grestore
3.000 setlinewidth
1 setlinejoin
2 setlinecap
[] 0 setdash
1.000 0.000 0.000 setrgbcolor
gsave
203.774375 543.988125 m
233.774375 543.988125 l
stroke
grestore
0.000 setgray
gsave
245.774375 538.738125 translate
0.000000 rotate
/DejaVuSans findfont
15.0 scalefont
setfont
0.000000 0.859375 moveto
/S glyphshow

9.521484 0.859375 moveto
/T glyphshow

18.684082 0.859375 moveto
/B glyphshow

28.974609 0.859375 moveto
/comma glyphshow

33.742676 0.859375 moveto
/space glyphshow

/DejaVuSans-Oblique findfont
15.0 scalefont
setfont
38.510742 0.859375 moveto
/sigma glyphshow

/DejaVuSans findfont
15.0 scalefont
setfont
50.939941 0.859375 moveto
/equal glyphshow

66.430664 0.859375 moveto
/zero glyphshow


grestore
0.000 0.000 1.000 setrgbcolor
gsave
203.774375 521.9725 m
233.774375 521.9725 l
stroke
grestore
0.000 setgray
gsave
245.774375 516.722500 translate
0.000000 rotate
/DejaVuSans findfont
15.0 scalefont
setfont
0.000000 0.859375 moveto
/O glyphshow

11.806641 0.859375 moveto
/u glyphshow

21.313477 0.859375 moveto
/r glyphshow

27.480469 0.859375 moveto
/s glyphshow

35.295410 0.859375 moveto
/comma glyphshow

40.063477 0.859375 moveto
/space glyphshow

/DejaVuSans-Oblique findfont
15.0 scalefont
setfont
44.831543 0.859375 moveto
/sigma glyphshow

/DejaVuSans findfont
15.0 scalefont
setfont
57.260742 0.859375 moveto
/equal glyphshow

72.751465 0.859375 moveto
/zero glyphshow


grestore
1.000 0.000 0.000 setrgbcolor
gsave
203.774375 499.956875 m
233.774375 499.956875 l
stroke
grestore
1.000 setlinewidth
0 setlinejoin
0 setlinecap
gsave
/o {
gsave
newpath
translate
1.0 setlinewidth
0 setlinejoin
0 setlinecap
-10 -10 m
10 -10 l
10 10 l
-10 10 l
cl

gsave
grestore
stroke
grestore
} bind def
218.774 499.957 o
grestore
0.000 setgray
gsave
245.774375 494.706875 translate
0.000000 rotate
/DejaVuSans findfont
15.0 scalefont
setfont
0.000000 0.859375 moveto
/S glyphshow

9.521484 0.859375 moveto
/T glyphshow

18.684082 0.859375 moveto
/B glyphshow

28.974609 0.859375 moveto
/comma glyphshow

33.742676 0.859375 moveto
/space glyphshow

/DejaVuSans-Oblique findfont
15.0 scalefont
setfont
38.510742 0.859375 moveto
/sigma glyphshow

/DejaVuSans findfont
15.0 scalefont
setfont
50.939941 0.859375 moveto
/equal glyphshow

66.430664 0.859375 moveto
/zero glyphshow

75.974121 0.859375 moveto
/period glyphshow

80.742188 0.859375 moveto
/zero glyphshow

90.285645 0.859375 moveto
/one glyphshow


grestore
3.000 setlinewidth
1 setlinejoin
2 setlinecap
0.000 0.000 1.000 setrgbcolor
gsave
203.774375 477.94125 m
233.774375 477.94125 l
stroke
grestore
1.000 setlinewidth
0 setlinejoin
0 setlinecap
gsave
/o {
gsave
newpath
translate
1.0 setlinewidth
0 setlinejoin
0 setlinecap
-10 -10 m
10 -10 l
10 10 l
-10 10 l
cl

gsave
grestore
stroke
grestore
} bind def
218.774 477.941 o
grestore
0.000 setgray
gsave
245.774375 472.691250 translate
0.000000 rotate
/DejaVuSans findfont
15.0 scalefont
setfont
0.000000 0.859375 moveto
/O glyphshow

11.806641 0.859375 moveto
/u glyphshow

21.313477 0.859375 moveto
/r glyphshow

27.480469 0.859375 moveto
/s glyphshow

35.295410 0.859375 moveto
/comma glyphshow

40.063477 0.859375 moveto
/space glyphshow

/DejaVuSans-Oblique findfont
15.0 scalefont
setfont
44.831543 0.859375 moveto
/sigma glyphshow

/DejaVuSans findfont
15.0 scalefont
setfont
57.260742 0.859375 moveto
/equal glyphshow

72.751465 0.859375 moveto
/zero glyphshow

82.294922 0.859375 moveto
/period glyphshow

87.062988 0.859375 moveto
/zero glyphshow

96.606445 0.859375 moveto
/one glyphshow


grestore
3.000 setlinewidth
1 setlinejoin
2 setlinecap
1.000 0.000 0.000 setrgbcolor
gsave
203.774375 455.925625 m
233.774375 455.925625 l
stroke
grestore
1.000 setlinewidth
0 setlinecap
gsave
/o {
gsave
newpath
translate
1.0 setlinewidth
1 setlinejoin
0 setlinecap
0 -10 m
2.652031 -10 5.195799 -8.946337 7.071068 -7.071068 c
8.946337 -5.195799 10 -2.652031 10 0 c
10 2.652031 8.946337 5.195799 7.071068 7.071068 c
5.195799 8.946337 2.652031 10 0 10 c
-2.652031 10 -5.195799 8.946337 -7.071068 7.071068 c
-8.946337 5.195799 -10 2.652031 -10 0 c
-10 -2.652031 -8.946337 -5.195799 -7.071068 -7.071068 c
-5.195799 -8.946337 -2.652031 -10 0 -10 c
cl

gsave
grestore
stroke
grestore
} bind def
218.774 455.926 o
grestore
0.000 setgray
gsave
245.774375 450.675625 translate
0.000000 rotate
/DejaVuSans findfont
15.0 scalefont
setfont
0.000000 0.859375 moveto
/S glyphshow

9.521484 0.859375 moveto
/T glyphshow

18.684082 0.859375 moveto
/B glyphshow

28.974609 0.859375 moveto
/comma glyphshow

33.742676 0.859375 moveto
/space glyphshow

/DejaVuSans-Oblique findfont
15.0 scalefont
setfont
38.510742 0.859375 moveto
/sigma glyphshow

/DejaVuSans findfont
15.0 scalefont
setfont
50.939941 0.859375 moveto
/equal glyphshow

66.430664 0.859375 moveto
/zero glyphshow

75.974121 0.859375 moveto
/period glyphshow

80.742188 0.859375 moveto
/zero glyphshow

90.285645 0.859375 moveto
/three glyphshow


grestore
3.000 setlinewidth
2 setlinecap
0.000 0.000 1.000 setrgbcolor
gsave
203.774375 433.91 m
233.774375 433.91 l
stroke
grestore
1.000 setlinewidth
0 setlinecap
gsave
/o {
gsave
newpath
translate
1.0 setlinewidth
1 setlinejoin
0 setlinecap
0 -10 m
2.652031 -10 5.195799 -8.946337 7.071068 -7.071068 c
8.946337 -5.195799 10 -2.652031 10 0 c
10 2.652031 8.946337 5.195799 7.071068 7.071068 c
5.195799 8.946337 2.652031 10 0 10 c
-2.652031 10 -5.195799 8.946337 -7.071068 7.071068 c
-8.946337 5.195799 -10 2.652031 -10 0 c
-10 -2.652031 -8.946337 -5.195799 -7.071068 -7.071068 c
-5.195799 -8.946337 -2.652031 -10 0 -10 c
cl

gsave
grestore
stroke
grestore
} bind def
218.774 433.91 o
grestore
0.000 setgray
gsave
245.774375 428.660000 translate
0.000000 rotate
/DejaVuSans findfont
15.0 scalefont
setfont
0.000000 0.859375 moveto
/O glyphshow

11.806641 0.859375 moveto
/u glyphshow

21.313477 0.859375 moveto
/r glyphshow

27.480469 0.859375 moveto
/s glyphshow

35.295410 0.859375 moveto
/comma glyphshow

40.063477 0.859375 moveto
/space glyphshow

/DejaVuSans-Oblique findfont
15.0 scalefont
setfont
44.831543 0.859375 moveto
/sigma glyphshow

/DejaVuSans findfont
15.0 scalefont
setfont
57.260742 0.859375 moveto
/equal glyphshow

72.751465 0.859375 moveto
/zero glyphshow

82.294922 0.859375 moveto
/period glyphshow

87.062988 0.859375 moveto
/zero glyphshow

96.606445 0.859375 moveto
/three glyphshow


grestore
3.000 setlinewidth
2 setlinecap
1.000 0.000 0.000 setrgbcolor
gsave
203.774375 411.894375 m
233.774375 411.894375 l
stroke
grestore
1.000 setlinewidth
0 setlinejoin
0 setlinecap
gsave
/o {
gsave
newpath
translate
1.0 setlinewidth
0 setlinejoin
0 setlinecap
0 10 m
-10 -10 l
10 -10 l
cl

gsave
grestore
stroke
grestore
} bind def
218.774 411.894 o
grestore
0.000 setgray
gsave
245.774375 406.644375 translate
0.000000 rotate
/DejaVuSans findfont
15.0 scalefont
setfont
0.000000 0.859375 moveto
/S glyphshow

9.521484 0.859375 moveto
/T glyphshow

18.684082 0.859375 moveto
/B glyphshow

28.974609 0.859375 moveto
/comma glyphshow

33.742676 0.859375 moveto
/space glyphshow

/DejaVuSans-Oblique findfont
15.0 scalefont
setfont
38.510742 0.859375 moveto
/sigma glyphshow

/DejaVuSans findfont
15.0 scalefont
setfont
50.939941 0.859375 moveto
/equal glyphshow

66.430664 0.859375 moveto
/zero glyphshow

75.974121 0.859375 moveto
/period glyphshow

80.742188 0.859375 moveto
/one glyphshow


grestore
3.000 setlinewidth
1 setlinejoin
2 setlinecap
0.000 0.000 1.000 setrgbcolor
gsave
203.774375 389.87875 m
233.774375 389.87875 l
stroke
grestore
1.000 setlinewidth
0 setlinejoin
0 setlinecap
gsave
/o {
gsave
newpath
translate
1.0 setlinewidth
0 setlinejoin
0 setlinecap
0 10 m
-10 -10 l
10 -10 l
cl

gsave
grestore
stroke
grestore
} bind def
218.774 389.879 o
grestore
0.000 setgray
gsave
245.774375 384.628750 translate
0.000000 rotate
/DejaVuSans findfont
15.0 scalefont
setfont
0.000000 0.859375 moveto
/O glyphshow

11.806641 0.859375 moveto
/u glyphshow

21.313477 0.859375 moveto
/r glyphshow

27.480469 0.859375 moveto
/s glyphshow

35.295410 0.859375 moveto
/comma glyphshow

40.063477 0.859375 moveto
/space glyphshow

/DejaVuSans-Oblique findfont
15.0 scalefont
setfont
44.831543 0.859375 moveto
/sigma glyphshow

/DejaVuSans findfont
15.0 scalefont
setfont
57.260742 0.859375 moveto
/equal glyphshow

72.751465 0.859375 moveto
/zero glyphshow

82.294922 0.859375 moveto
/period glyphshow

87.062988 0.859375 moveto
/one glyphshow


grestore

end
showpage
