%!PS-Adobe-3.0 EPSF-3.0
%%Title: /home/yin/030000_undetected_thin_part_noise.eps
%%Creator: matplotlib version 3.1.0, http://matplotlib.org/
%%CreationDate: Tue Jan 21 12:34:59 2020
%%Orientation: portrait
%%BoundingBox: -79.82812499999997 98.46843750000004 691.828125 693.5315625
%%EndComments
%%BeginProlog
/mpldict 9 dict def
mpldict begin
/m { moveto } bind def
/l { lineto } bind def
/r { rlineto } bind def
/c { curveto } bind def
/cl { closepath } bind def
/box {
m
1 index 0 r
0 exch r
neg 0 r
cl
} bind def
/clipbox {
box
clip
newpath
} bind def
%!PS-Adobe-3.0 Resource-Font
%%Title: DejaVu Sans
%%Copyright: Copyright (c) 2003 by Bitstream, Inc. All Rights Reserved. Copyright (c) 2006 by Tavmjong Bah. All Rights Reserved. DejaVu changes are in public domain 
%%Creator: Converted from TrueType to type 3 by PPR
25 dict begin
/_d{bind def}bind def
/_m{moveto}_d
/_l{lineto}_d
/_cl{closepath eofill}_d
/_c{curveto}_d
/_sc{7 -1 roll{setcachedevice}{pop pop pop pop pop pop}ifelse}_d
/_e{exec}_d
/FontName /DejaVuSans def
/PaintType 0 def
/FontMatrix[.001 0 0 .001 0 0]def
/FontBBox[-1021 -463 1793 1232]def
/FontType 3 def
/Encoding [ /space /comma /period /slash /zero /one /two /three /four /five /six /seven /eight /equal /B /F /O /P /S /T /U /a /c /d /e /f /h /i /k /l /n /o /p /r /s /t /u ] def
/FontInfo 10 dict dup begin
/FamilyName (DejaVu Sans) def
/FullName (DejaVu Sans) def
/Notice (Copyright (c) 2003 by Bitstream, Inc. All Rights Reserved. Copyright (c) 2006 by Tavmjong Bah. All Rights Reserved. DejaVu changes are in public domain ) def
/Weight (Book) def
/Version (Version 2.35) def
/ItalicAngle 0.0 def
/isFixedPitch false def
/UnderlinePosition -130 def
/UnderlineThickness 90 def
end readonly def
/CharStrings 38 dict dup begin
/.notdef 0 def
/space{318 0 0 0 0 0 _sc
}_d
/comma{318 0 77 -115 220 124 _sc
117 124 _m
220 124 _l
220 40 _l
140 -115 _l
77 -115 _l
117 40 _l
117 124 _l
_cl}_d
/period{318 0 107 0 210 124 _sc
107 124 _m
210 124 _l
210 0 _l
107 0 _l
107 124 _l
_cl}_d
/slash{337 0 0 -92 337 729 _sc
254 729 _m
337 729 _l
83 -92 _l
0 -92 _l
254 729 _l
_cl}_d
/zero{636 0 66 -13 570 742 _sc
318 664 _m
267 664 229 639 203 589 _c
177 539 165 464 165 364 _c
165 264 177 189 203 139 _c
229 89 267 64 318 64 _c
369 64 407 89 433 139 _c
458 189 471 264 471 364 _c
471 464 458 539 433 589 _c
407 639 369 664 318 664 _c
318 742 _m
399 742 461 709 505 645 _c
548 580 570 486 570 364 _c
570 241 548 147 505 83 _c
461 19 399 -13 318 -13 _c
236 -13 173 19 130 83 _c
87 147 66 241 66 364 _c
66 486 87 580 130 645 _c
173 709 236 742 318 742 _c
_cl}_d
/one{636 0 110 0 544 729 _sc
124 83 _m
285 83 _l
285 639 _l
110 604 _l
110 694 _l
284 729 _l
383 729 _l
383 83 _l
544 83 _l
544 0 _l
124 0 _l
124 83 _l
_cl}_d
/two{{636 0 73 0 536 742 _sc
192 83 _m
536 83 _l
536 0 _l
73 0 _l
73 83 _l
110 121 161 173 226 239 _c
290 304 331 346 348 365 _c
380 400 402 430 414 455 _c
426 479 433 504 433 528 _c
433 566 419 598 392 622 _c
365 646 330 659 286 659 _c
255 659 222 653 188 643 _c
154 632 117 616 78 594 _c
78 694 _l
118 710 155 722 189 730 _c
223 738 255 742 284 742 _c
}_e{359 742 419 723 464 685 _c
509 647 532 597 532 534 _c
532 504 526 475 515 449 _c
504 422 484 390 454 354 _c
446 344 420 317 376 272 _c
332 227 271 164 192 83 _c
_cl}_e}_d
/three{{636 0 76 -13 556 742 _sc
406 393 _m
453 383 490 362 516 330 _c
542 298 556 258 556 212 _c
556 140 531 84 482 45 _c
432 6 362 -13 271 -13 _c
240 -13 208 -10 176 -4 _c
144 1 110 10 76 22 _c
76 117 _l
103 101 133 89 166 81 _c
198 73 232 69 268 69 _c
330 69 377 81 409 105 _c
441 129 458 165 458 212 _c
458 254 443 288 413 312 _c
383 336 341 349 287 349 _c
}_e{202 349 _l
202 430 _l
291 430 _l
339 430 376 439 402 459 _c
428 478 441 506 441 543 _c
441 580 427 609 401 629 _c
374 649 336 659 287 659 _c
260 659 231 656 200 650 _c
169 644 135 635 98 623 _c
98 711 _l
135 721 170 729 203 734 _c
235 739 266 742 296 742 _c
370 742 429 725 473 691 _c
517 657 539 611 539 553 _c
539 513 527 479 504 451 _c
481 423 448 403 406 393 _c
_cl}_e}_d
/four{636 0 49 0 580 729 _sc
378 643 _m
129 254 _l
378 254 _l
378 643 _l
352 729 _m
476 729 _l
476 254 _l
580 254 _l
580 172 _l
476 172 _l
476 0 _l
378 0 _l
378 172 _l
49 172 _l
49 267 _l
352 729 _l
_cl}_d
/five{{636 0 77 -13 549 729 _sc
108 729 _m
495 729 _l
495 646 _l
198 646 _l
198 467 _l
212 472 227 476 241 478 _c
255 480 270 482 284 482 _c
365 482 429 459 477 415 _c
525 370 549 310 549 234 _c
549 155 524 94 475 51 _c
426 8 357 -13 269 -13 _c
238 -13 207 -10 175 -6 _c
143 -1 111 6 77 17 _c
77 116 _l
106 100 136 88 168 80 _c
199 72 232 69 267 69 _c
}_e{323 69 368 83 401 113 _c
433 143 450 183 450 234 _c
450 284 433 324 401 354 _c
368 384 323 399 267 399 _c
241 399 214 396 188 390 _c
162 384 135 375 108 363 _c
108 729 _l
_cl}_e}_d
/six{{636 0 70 -13 573 742 _sc
330 404 _m
286 404 251 388 225 358 _c
199 328 186 286 186 234 _c
186 181 199 139 225 109 _c
251 79 286 64 330 64 _c
374 64 409 79 435 109 _c
461 139 474 181 474 234 _c
474 286 461 328 435 358 _c
409 388 374 404 330 404 _c
526 713 _m
526 623 _l
501 635 476 644 451 650 _c
425 656 400 659 376 659 _c
310 659 260 637 226 593 _c
}_e{192 549 172 482 168 394 _c
187 422 211 444 240 459 _c
269 474 301 482 336 482 _c
409 482 467 459 509 415 _c
551 371 573 310 573 234 _c
573 159 550 99 506 54 _c
462 9 403 -13 330 -13 _c
246 -13 181 19 137 83 _c
92 147 70 241 70 364 _c
70 479 97 571 152 639 _c
206 707 280 742 372 742 _c
396 742 421 739 447 735 _c
472 730 498 723 526 713 _c
_cl}_e}_d
/seven{636 0 82 0 551 729 _sc
82 729 _m
551 729 _l
551 687 _l
286 0 _l
183 0 _l
432 646 _l
82 646 _l
82 729 _l
_cl}_d
/eight{{636 0 68 -13 568 742 _sc
318 346 _m
271 346 234 333 207 308 _c
180 283 167 249 167 205 _c
167 161 180 126 207 101 _c
234 76 271 64 318 64 _c
364 64 401 76 428 102 _c
455 127 469 161 469 205 _c
469 249 455 283 429 308 _c
402 333 365 346 318 346 _c
219 388 _m
177 398 144 418 120 447 _c
96 476 85 511 85 553 _c
85 611 105 657 147 691 _c
188 725 245 742 318 742 _c
}_e{390 742 447 725 489 691 _c
530 657 551 611 551 553 _c
551 511 539 476 515 447 _c
491 418 459 398 417 388 _c
464 377 501 355 528 323 _c
554 291 568 251 568 205 _c
568 134 546 80 503 43 _c
459 5 398 -13 318 -13 _c
237 -13 175 5 132 43 _c
89 80 68 134 68 205 _c
68 251 81 291 108 323 _c
134 355 171 377 219 388 _c
183 544 _m
183 506 194 476 218 455 _c
}_e{242 434 275 424 318 424 _c
360 424 393 434 417 455 _c
441 476 453 506 453 544 _c
453 582 441 611 417 632 _c
393 653 360 664 318 664 _c
275 664 242 653 218 632 _c
194 611 183 582 183 544 _c
_cl}_e}_d
/equal{838 0 106 172 732 454 _sc
106 454 _m
732 454 _l
732 372 _l
106 372 _l
106 454 _l
106 255 _m
732 255 _l
732 172 _l
106 172 _l
106 255 _l
_cl}_d
/B{{686 0 98 0 615 729 _sc
197 348 _m
197 81 _l
355 81 _l
408 81 447 92 473 114 _c
498 136 511 169 511 215 _c
511 260 498 293 473 315 _c
447 337 408 348 355 348 _c
197 348 _l
197 648 _m
197 428 _l
343 428 _l
391 428 426 437 450 455 _c
474 473 486 500 486 538 _c
486 574 474 602 450 620 _c
426 638 391 648 343 648 _c
197 648 _l
98 729 _m
350 729 _l
}_e{425 729 483 713 524 682 _c
564 650 585 606 585 549 _c
585 504 574 468 553 442 _c
532 416 502 399 462 393 _c
510 382 548 360 575 327 _c
601 294 615 253 615 204 _c
615 138 592 88 548 53 _c
504 17 441 0 360 0 _c
98 0 _l
98 729 _l
_cl}_e}_d
/F{575 0 98 0 517 729 _sc
98 729 _m
517 729 _l
517 646 _l
197 646 _l
197 431 _l
486 431 _l
486 348 _l
197 348 _l
197 0 _l
98 0 _l
98 729 _l
_cl}_d
/O{787 0 56 -13 731 742 _sc
394 662 _m
322 662 265 635 223 582 _c
181 528 160 456 160 364 _c
160 272 181 199 223 146 _c
265 92 322 66 394 66 _c
465 66 522 92 564 146 _c
606 199 627 272 627 364 _c
627 456 606 528 564 582 _c
522 635 465 662 394 662 _c
394 742 _m
496 742 577 707 639 639 _c
700 571 731 479 731 364 _c
731 248 700 157 639 89 _c
577 21 496 -13 394 -13 _c
291 -13 209 21 148 89 _c
86 157 56 248 56 364 _c
56 479 86 571 148 639 _c
209 707 291 742 394 742 _c
_cl}_d
/P{603 0 98 0 569 729 _sc
197 648 _m
197 374 _l
321 374 _l
367 374 402 385 427 409 _c
452 433 465 467 465 511 _c
465 555 452 588 427 612 _c
402 636 367 648 321 648 _c
197 648 _l
98 729 _m
321 729 _l
402 729 464 710 506 673 _c
548 636 569 582 569 511 _c
569 439 548 384 506 348 _c
464 311 402 293 321 293 _c
197 293 _l
197 0 _l
98 0 _l
98 729 _l
_cl}_d
/S{{635 0 66 -13 579 742 _sc
535 705 _m
535 609 _l
497 627 462 640 429 649 _c
395 657 363 662 333 662 _c
279 662 237 651 208 631 _c
179 610 165 580 165 542 _c
165 510 174 485 194 469 _c
213 452 250 439 304 429 _c
364 417 _l
437 403 491 378 526 343 _c
561 307 579 260 579 201 _c
579 130 555 77 508 41 _c
460 5 391 -13 300 -13 _c
265 -13 228 -9 189 -2 _c
}_e{150 5 110 16 69 32 _c
69 134 _l
109 111 148 94 186 83 _c
224 71 262 66 300 66 _c
356 66 399 77 430 99 _c
460 121 476 152 476 194 _c
476 230 465 258 443 278 _c
421 298 385 313 335 323 _c
275 335 _l
201 349 148 372 115 404 _c
82 435 66 478 66 534 _c
66 598 88 649 134 686 _c
179 723 242 742 322 742 _c
356 742 390 739 426 733 _c
461 727 497 717 535 705 _c
}_e{_cl}_e}_d
/T{611 0 -2 0 614 729 _sc
-2 729 _m
614 729 _l
614 646 _l
355 646 _l
355 0 _l
256 0 _l
256 646 _l
-2 646 _l
-2 729 _l
_cl}_d
/U{732 0 87 -13 645 729 _sc
87 729 _m
186 729 _l
186 286 _l
186 208 200 151 228 117 _c
256 83 302 66 366 66 _c
429 66 475 83 503 117 _c
531 151 546 208 546 286 _c
546 729 _l
645 729 _l
645 274 _l
645 178 621 107 574 59 _c
527 11 458 -13 366 -13 _c
274 -13 204 11 157 59 _c
110 107 87 178 87 274 _c
87 729 _l
_cl}_d
/a{{613 0 60 -13 522 560 _sc
343 275 _m
270 275 220 266 192 250 _c
164 233 150 205 150 165 _c
150 133 160 107 181 89 _c
202 70 231 61 267 61 _c
317 61 357 78 387 114 _c
417 149 432 196 432 255 _c
432 275 _l
343 275 _l
522 312 _m
522 0 _l
432 0 _l
432 83 _l
411 49 385 25 355 10 _c
325 -5 287 -13 243 -13 _c
187 -13 142 2 109 33 _c
76 64 60 106 60 159 _c
}_e{60 220 80 266 122 298 _c
163 329 224 345 306 345 _c
432 345 _l
432 354 _l
432 395 418 427 391 450 _c
364 472 326 484 277 484 _c
245 484 215 480 185 472 _c
155 464 127 453 100 439 _c
100 522 _l
132 534 164 544 195 550 _c
226 556 256 560 286 560 _c
365 560 424 539 463 498 _c
502 457 522 395 522 312 _c
_cl}_e}_d
/c{{550 0 55 -13 488 560 _sc
488 526 _m
488 442 _l
462 456 437 466 411 473 _c
385 480 360 484 334 484 _c
276 484 230 465 198 428 _c
166 391 150 339 150 273 _c
150 206 166 154 198 117 _c
230 80 276 62 334 62 _c
360 62 385 65 411 72 _c
437 79 462 90 488 104 _c
488 21 _l
462 9 436 0 410 -5 _c
383 -10 354 -13 324 -13 _c
242 -13 176 12 128 64 _c
}_e{79 115 55 185 55 273 _c
55 362 79 432 128 483 _c
177 534 244 560 330 560 _c
358 560 385 557 411 551 _c
437 545 463 537 488 526 _c
_cl}_e}_d
/d{{635 0 55 -13 544 760 _sc
454 464 _m
454 760 _l
544 760 _l
544 0 _l
454 0 _l
454 82 _l
435 49 411 25 382 10 _c
353 -5 319 -13 279 -13 _c
213 -13 159 13 117 65 _c
75 117 55 187 55 273 _c
55 359 75 428 117 481 _c
159 533 213 560 279 560 _c
319 560 353 552 382 536 _c
411 520 435 496 454 464 _c
148 273 _m
148 207 161 155 188 117 _c
215 79 253 61 301 61 _c
}_e{348 61 385 79 413 117 _c
440 155 454 207 454 273 _c
454 339 440 390 413 428 _c
385 466 348 485 301 485 _c
253 485 215 466 188 428 _c
161 390 148 339 148 273 _c
_cl}_e}_d
/e{{615 0 55 -13 562 560 _sc
562 296 _m
562 252 _l
149 252 _l
153 190 171 142 205 110 _c
238 78 284 62 344 62 _c
378 62 412 66 444 74 _c
476 82 509 95 541 113 _c
541 28 _l
509 14 476 3 442 -3 _c
408 -9 373 -13 339 -13 _c
251 -13 182 12 131 62 _c
80 112 55 181 55 268 _c
55 357 79 428 127 481 _c
175 533 241 560 323 560 _c
397 560 455 536 498 489 _c
}_e{540 441 562 377 562 296 _c
472 322 _m
471 371 457 410 431 440 _c
404 469 368 484 324 484 _c
274 484 234 469 204 441 _c
174 413 156 373 152 322 _c
472 322 _l
_cl}_e}_d
/f{352 0 23 0 371 760 _sc
371 760 _m
371 685 _l
285 685 _l
253 685 230 678 218 665 _c
205 652 199 629 199 595 _c
199 547 _l
347 547 _l
347 477 _l
199 477 _l
199 0 _l
109 0 _l
109 477 _l
23 477 _l
23 547 _l
109 547 _l
109 585 _l
109 645 123 690 151 718 _c
179 746 224 760 286 760 _c
371 760 _l
_cl}_d
/h{634 0 91 0 549 760 _sc
549 330 _m
549 0 _l
459 0 _l
459 327 _l
459 379 448 417 428 443 _c
408 469 378 482 338 482 _c
289 482 251 466 223 435 _c
195 404 181 362 181 309 _c
181 0 _l
91 0 _l
91 760 _l
181 760 _l
181 462 _l
202 494 227 519 257 535 _c
286 551 320 560 358 560 _c
420 560 468 540 500 501 _c
532 462 549 405 549 330 _c
_cl}_d
/i{278 0 94 0 184 760 _sc
94 547 _m
184 547 _l
184 0 _l
94 0 _l
94 547 _l
94 760 _m
184 760 _l
184 646 _l
94 646 _l
94 760 _l
_cl}_d
/k{579 0 91 0 576 760 _sc
91 760 _m
181 760 _l
181 311 _l
449 547 _l
564 547 _l
274 291 _l
576 0 _l
459 0 _l
181 267 _l
181 0 _l
91 0 _l
91 760 _l
_cl}_d
/l{278 0 94 0 184 760 _sc
94 760 _m
184 760 _l
184 0 _l
94 0 _l
94 760 _l
_cl}_d
/n{634 0 91 0 549 560 _sc
549 330 _m
549 0 _l
459 0 _l
459 327 _l
459 379 448 417 428 443 _c
408 469 378 482 338 482 _c
289 482 251 466 223 435 _c
195 404 181 362 181 309 _c
181 0 _l
91 0 _l
91 547 _l
181 547 _l
181 462 _l
202 494 227 519 257 535 _c
286 551 320 560 358 560 _c
420 560 468 540 500 501 _c
532 462 549 405 549 330 _c
_cl}_d
/o{612 0 55 -13 557 560 _sc
306 484 _m
258 484 220 465 192 427 _c
164 389 150 338 150 273 _c
150 207 163 156 191 118 _c
219 80 257 62 306 62 _c
354 62 392 80 420 118 _c
448 156 462 207 462 273 _c
462 337 448 389 420 427 _c
392 465 354 484 306 484 _c
306 560 _m
384 560 445 534 490 484 _c
534 433 557 363 557 273 _c
557 183 534 113 490 63 _c
445 12 384 -13 306 -13 _c
227 -13 165 12 121 63 _c
77 113 55 183 55 273 _c
55 363 77 433 121 484 _c
165 534 227 560 306 560 _c
_cl}_d
/p{{635 0 91 -207 580 560 _sc
181 82 _m
181 -207 _l
91 -207 _l
91 547 _l
181 547 _l
181 464 _l
199 496 223 520 252 536 _c
281 552 316 560 356 560 _c
422 560 476 533 518 481 _c
559 428 580 359 580 273 _c
580 187 559 117 518 65 _c
476 13 422 -13 356 -13 _c
316 -13 281 -5 252 10 _c
223 25 199 49 181 82 _c
487 273 _m
487 339 473 390 446 428 _c
418 466 381 485 334 485 _c
}_e{286 485 249 466 222 428 _c
194 390 181 339 181 273 _c
181 207 194 155 222 117 _c
249 79 286 61 334 61 _c
381 61 418 79 446 117 _c
473 155 487 207 487 273 _c
_cl}_e}_d
/r{411 0 91 0 411 560 _sc
411 463 _m
401 469 390 473 378 476 _c
366 478 353 480 339 480 _c
288 480 249 463 222 430 _c
194 397 181 350 181 288 _c
181 0 _l
91 0 _l
91 547 _l
181 547 _l
181 462 _l
199 495 224 520 254 536 _c
284 552 321 560 365 560 _c
371 560 378 559 386 559 _c
393 558 401 557 411 555 _c
411 463 _l
_cl}_d
/s{{521 0 54 -13 472 560 _sc
443 531 _m
443 446 _l
417 458 391 468 364 475 _c
336 481 308 485 279 485 _c
234 485 200 478 178 464 _c
156 450 145 430 145 403 _c
145 382 153 366 169 354 _c
185 342 217 330 265 320 _c
296 313 _l
360 299 405 279 432 255 _c
458 230 472 195 472 151 _c
472 100 452 60 412 31 _c
372 1 316 -13 246 -13 _c
216 -13 186 -10 154 -5 _c
}_e{122 0 89 8 54 20 _c
54 113 _l
87 95 120 82 152 74 _c
184 65 216 61 248 61 _c
290 61 323 68 346 82 _c
368 96 380 117 380 144 _c
380 168 371 187 355 200 _c
339 213 303 226 247 238 _c
216 245 _l
160 257 119 275 95 299 _c
70 323 58 356 58 399 _c
58 450 76 490 112 518 _c
148 546 200 560 268 560 _c
301 560 332 557 362 552 _c
391 547 418 540 443 531 _c
}_e{_cl}_e}_d
/t{392 0 27 0 368 702 _sc
183 702 _m
183 547 _l
368 547 _l
368 477 _l
183 477 _l
183 180 _l
183 135 189 106 201 94 _c
213 81 238 75 276 75 _c
368 75 _l
368 0 _l
276 0 _l
206 0 158 13 132 39 _c
106 65 93 112 93 180 _c
93 477 _l
27 477 _l
27 547 _l
93 547 _l
93 702 _l
183 702 _l
_cl}_d
/u{634 0 85 -13 543 560 _sc
85 216 _m
85 547 _l
175 547 _l
175 219 _l
175 167 185 129 205 103 _c
225 77 255 64 296 64 _c
344 64 383 79 411 110 _c
439 141 453 183 453 237 _c
453 547 _l
543 547 _l
543 0 _l
453 0 _l
453 84 _l
431 50 405 26 377 10 _c
348 -5 315 -13 277 -13 _c
214 -13 166 6 134 45 _c
101 83 85 140 85 216 _c
311 560 _m
311 560 _l
_cl}_d
end readonly def

/BuildGlyph
 {exch begin
 CharStrings exch
 2 copy known not{pop /.notdef}if
 true 3 1 roll get exec
 end}_d

/BuildChar {
 1 index /Encoding get exch get
 1 index /BuildGlyph get exec
}_d

FontName currentdict end definefont pop
%!PS-Adobe-3.0 Resource-Font
%%Title: DejaVu Sans Oblique
%%Copyright: Copyright (c) 2003 by Bitstream, Inc. All Rights Reserved. Copyright (c) 2006 by Tavmjong Bah. All Rights Reserved. DejaVu changes are in public domain 
%%Creator: Converted from TrueType to type 3 by PPR
25 dict begin
/_d{bind def}bind def
/_m{moveto}_d
/_l{lineto}_d
/_cl{closepath eofill}_d
/_c{curveto}_d
/_sc{7 -1 roll{setcachedevice}{pop pop pop pop pop pop}ifelse}_d
/_e{exec}_d
/FontName /DejaVuSans-Oblique def
/PaintType 0 def
/FontMatrix[.001 0 0 .001 0 0]def
/FontBBox[-1016 -350 1659 1068]def
/FontType 3 def
/Encoding [ /t /delta /sigma ] def
/FontInfo 10 dict dup begin
/FamilyName (DejaVu Sans) def
/FullName (DejaVu Sans Oblique) def
/Notice (Copyright (c) 2003 by Bitstream, Inc. All Rights Reserved. Copyright (c) 2006 by Tavmjong Bah. All Rights Reserved. DejaVu changes are in public domain ) def
/Weight (Oblique) def
/Version (Version 2.35) def
/ItalicAngle -11.0 def
/isFixedPitch false def
/UnderlinePosition -130 def
/UnderlineThickness 90 def
end readonly def
/CharStrings 4 dict dup begin
/.notdef 0 def
/t{{392 0 64 0 423 702 _sc
423 547 _m
409 477 _l
230 477 _l
172 180 _l
170 169 168 160 167 152 _c
166 144 166 139 166 135 _c
166 114 172 99 185 89 _c
197 79 217 75 245 75 _c
336 75 _l
321 0 _l
235 0 _l
181 0 141 10 115 31 _c
89 52 76 84 76 126 _c
76 133 76 141 77 150 _c
78 159 80 169 82 180 _c
140 477 _l
64 477 _l
78 547 _l
153 547 _l
183 702 _l
}_e{273 702 _l
243 547 _l
423 547 _l
_cl}_e}_d
/delta{{612 0 38 -13 557 742 _sc
542 633 _m
514 655 461 667 383 667 _c
300 667 255 648 248 610 _c
242 580 280 557 364 542 _c
428 530 476 505 508 469 _c
546 425 556 358 539 268 _c
521 182 486 113 432 63 _c
377 12 310 -13 232 -13 _c
154 -13 98 12 63 63 _c
28 113 20 183 38 273 _c
50 339 84 399 139 453 _c
160 473 184 490 211 502 _c
165 528 147 563 156 609 _c
}_e{173 697 253 742 397 742 _c
469 742 522 730 557 708 _c
542 633 _l
274 478 _m
250 468 226 451 204 428 _c
168 391 144 339 132 273 _c
119 207 123 155 144 118 _c
164 80 199 62 248 62 _c
295 62 336 81 372 119 _c
407 156 431 206 443 268 _c
455 332 450 380 427 412 _c
401 445 369 464 329 468 _c
308 470 290 473 274 478 _c
_cl}_e}_d
/sigma{{634 0 57 -13 659 547 _sc
347 476 _m
297 476 255 458 222 422 _c
186 384 163 335 151 273 _c
138 207 142 156 163 118 _c
183 80 218 62 267 62 _c
314 62 355 81 391 119 _c
426 156 450 207 463 273 _c
474 332 470 382 450 422 _c
431 458 397 476 347 476 _c
361 547 _m
659 547 _l
642 457 _l
541 457 _l
566 406 572 345 559 273 _c
541 183 505 113 451 63 _c
396 12 329 -13 251 -13 _c
}_e{173 -13 116 12 82 63 _c
47 113 39 183 57 273 _c
74 363 110 433 164 484 _c
209 526 275 547 361 547 _c
_cl}_e}_d
end readonly def

/BuildGlyph
 {exch begin
 CharStrings exch
 2 copy known not{pop /.notdef}if
 true 3 1 roll get exec
 end}_d

/BuildChar {
 1 index /Encoding get exch get
 1 index /BuildGlyph get exec
}_d

FontName currentdict end definefont pop
end
%%EndProlog
mpldict begin
-79.828 98.468 translate
771.656 595.063 0 0 clipbox
gsave
0 0 m
771.65625 0 l
771.65625 595.063125 l
0 595.063125 l
cl
1.000 setgray
fill
grestore
gsave
79.590625 64.66875 m
749.190625 64.66875 l
749.190625 563.62875 l
79.590625 563.62875 l
cl
1.000 setgray
fill
grestore
0.800 setlinewidth
1 setlinejoin
0 setlinecap
[] 0 setdash
0.000 setgray
gsave
/o {
gsave
newpath
translate
0.8 setlinewidth
1 setlinejoin
0 setlinecap
0 0 m
0 -3.5 l

gsave
0.000 setgray
fill
grestore
stroke
grestore
} bind def
79.5906 64.6688 o
grestore
/DejaVuSans findfont
24.000 scalefont
setfont
gsave
71.957813 39.434375 translate
0.000000 rotate
0.000000 0.000000 m /five glyphshow
grestore
gsave
/o {
gsave
newpath
translate
0.8 setlinewidth
1 setlinejoin
0 setlinecap
0 0 m
0 -3.5 l

gsave
0.000 setgray
fill
grestore
stroke
grestore
} bind def
153.991 64.6688 o
grestore
gsave
138.725000 39.434375 translate
0.000000 rotate
0.000000 0.000000 m /one glyphshow
15.269531 0.000000 m /zero glyphshow
grestore
gsave
/o {
gsave
newpath
translate
0.8 setlinewidth
1 setlinejoin
0 setlinecap
0 0 m
0 -3.5 l

gsave
0.000 setgray
fill
grestore
stroke
grestore
} bind def
228.391 64.6688 o
grestore
gsave
213.125000 39.434375 translate
0.000000 rotate
0.000000 0.000000 m /one glyphshow
15.269531 0.000000 m /five glyphshow
grestore
gsave
/o {
gsave
newpath
translate
0.8 setlinewidth
1 setlinejoin
0 setlinecap
0 0 m
0 -3.5 l

gsave
0.000 setgray
fill
grestore
stroke
grestore
} bind def
302.791 64.6688 o
grestore
gsave
287.525000 39.434375 translate
0.000000 rotate
0.000000 0.000000 m /two glyphshow
15.269531 0.000000 m /zero glyphshow
grestore
gsave
/o {
gsave
newpath
translate
0.8 setlinewidth
1 setlinejoin
0 setlinecap
0 0 m
0 -3.5 l

gsave
0.000 setgray
fill
grestore
stroke
grestore
} bind def
377.191 64.6688 o
grestore
gsave
361.925000 39.434375 translate
0.000000 rotate
0.000000 0.000000 m /two glyphshow
15.269531 0.000000 m /five glyphshow
grestore
gsave
/o {
gsave
newpath
translate
0.8 setlinewidth
1 setlinejoin
0 setlinecap
0 0 m
0 -3.5 l

gsave
0.000 setgray
fill
grestore
stroke
grestore
} bind def
451.591 64.6688 o
grestore
gsave
436.325000 39.434375 translate
0.000000 rotate
0.000000 0.000000 m /three glyphshow
15.269531 0.000000 m /zero glyphshow
grestore
gsave
/o {
gsave
newpath
translate
0.8 setlinewidth
1 setlinejoin
0 setlinecap
0 0 m
0 -3.5 l

gsave
0.000 setgray
fill
grestore
stroke
grestore
} bind def
525.991 64.6688 o
grestore
gsave
510.725000 39.434375 translate
0.000000 rotate
0.000000 0.000000 m /three glyphshow
15.269531 0.000000 m /five glyphshow
grestore
gsave
/o {
gsave
newpath
translate
0.8 setlinewidth
1 setlinejoin
0 setlinecap
0 0 m
0 -3.5 l

gsave
0.000 setgray
fill
grestore
stroke
grestore
} bind def
600.391 64.6688 o
grestore
gsave
585.125000 39.434375 translate
0.000000 rotate
0.000000 0.000000 m /four glyphshow
15.269531 0.000000 m /zero glyphshow
grestore
gsave
/o {
gsave
newpath
translate
0.8 setlinewidth
1 setlinejoin
0 setlinecap
0 0 m
0 -3.5 l

gsave
0.000 setgray
fill
grestore
stroke
grestore
} bind def
674.791 64.6688 o
grestore
gsave
659.525000 39.434375 translate
0.000000 rotate
0.000000 0.000000 m /four glyphshow
15.269531 0.000000 m /five glyphshow
grestore
gsave
/o {
gsave
newpath
translate
0.8 setlinewidth
1 setlinejoin
0 setlinecap
0 0 m
0 -3.5 l

gsave
0.000 setgray
fill
grestore
stroke
grestore
} bind def
749.191 64.6688 o
grestore
gsave
733.925000 39.434375 translate
0.000000 rotate
0.000000 0.000000 m /five glyphshow
15.269531 0.000000 m /zero glyphshow
grestore
gsave
352.039062 12.200000 translate
0.000000 rotate
0.000000 0.000000 m /S glyphshow
15.234375 0.000000 m /n glyphshow
30.445312 0.000000 m /a glyphshow
45.152344 0.000000 m /p glyphshow
60.386719 0.000000 m /s glyphshow
72.890625 0.000000 m /h glyphshow
88.101562 0.000000 m /o glyphshow
102.785156 0.000000 m /t glyphshow
112.195312 0.000000 m /s glyphshow
grestore
gsave
/o {
gsave
newpath
translate
0.8 setlinewidth
1 setlinejoin
0 setlinecap
0 0 m
-3.5 0 l

gsave
0.000 setgray
fill
grestore
stroke
grestore
} bind def
79.5906 86.1421 o
grestore
gsave
34.434375 77.024888 translate
0.000000 rotate
0.000000 0.000000 m /zero glyphshow
15.269531 0.000000 m /period glyphshow
22.898438 0.000000 m /zero glyphshow
grestore
gsave
/o {
gsave
newpath
translate
0.8 setlinewidth
1 setlinejoin
0 setlinecap
0 0 m
-3.5 0 l

gsave
0.000 setgray
fill
grestore
stroke
grestore
} bind def
79.5906 180.169 o
grestore
gsave
34.434375 171.051490 translate
0.000000 rotate
0.000000 0.000000 m /zero glyphshow
15.269531 0.000000 m /period glyphshow
22.898438 0.000000 m /two glyphshow
grestore
gsave
/o {
gsave
newpath
translate
0.8 setlinewidth
1 setlinejoin
0 setlinecap
0 0 m
-3.5 0 l

gsave
0.000 setgray
fill
grestore
stroke
grestore
} bind def
79.5906 274.195 o
grestore
gsave
34.434375 265.078092 translate
0.000000 rotate
0.000000 0.000000 m /zero glyphshow
15.269531 0.000000 m /period glyphshow
22.898438 0.000000 m /four glyphshow
grestore
gsave
/o {
gsave
newpath
translate
0.8 setlinewidth
1 setlinejoin
0 setlinecap
0 0 m
-3.5 0 l

gsave
0.000 setgray
fill
grestore
stroke
grestore
} bind def
79.5906 368.222 o
grestore
gsave
34.434375 359.104694 translate
0.000000 rotate
0.000000 0.000000 m /zero glyphshow
15.269531 0.000000 m /period glyphshow
22.898438 0.000000 m /six glyphshow
grestore
gsave
/o {
gsave
newpath
translate
0.8 setlinewidth
1 setlinejoin
0 setlinecap
0 0 m
-3.5 0 l

gsave
0.000 setgray
fill
grestore
stroke
grestore
} bind def
79.5906 462.248 o
grestore
gsave
34.434375 453.131296 translate
0.000000 rotate
0.000000 0.000000 m /zero glyphshow
15.269531 0.000000 m /period glyphshow
22.898438 0.000000 m /eight glyphshow
grestore
gsave
/o {
gsave
newpath
translate
0.8 setlinewidth
1 setlinejoin
0 setlinecap
0 0 m
-3.5 0 l

gsave
0.000 setgray
fill
grestore
stroke
grestore
} bind def
79.5906 556.275 o
grestore
gsave
34.434375 547.157899 translate
0.000000 rotate
0.000000 0.000000 m /one glyphshow
15.269531 0.000000 m /period glyphshow
22.898438 0.000000 m /zero glyphshow
grestore
gsave
25.434375 265.367500 translate
90.000000 rotate
0.000000 0.000000 m /F glyphshow
13.789062 0.000000 m /r glyphshow
23.656250 0.000000 m /a glyphshow
38.363281 0.000000 m /c glyphshow
51.558594 0.000000 m /t glyphshow
60.968750 0.000000 m /i glyphshow
67.636719 0.000000 m /o glyphshow
82.320312 0.000000 m /n glyphshow
grestore
3.000 setlinewidth
2 setlinecap
1.000 0.000 0.000 setrgbcolor
gsave
669.6 499 79.59 64.67 clipbox
79.590625 95.591749 m
94.470625 89.385993 l
109.350625 88.853176 l
124.230625 88.3517 l
139.110625 88.085292 l
153.990625 88.085292 l
168.870625 88.242003 l
183.750625 88.147976 l
198.630625 88.006936 l
213.510625 88.116634 l
228.390625 88.132305 l
243.270625 88.273345 l
258.150625 88.49274 l
273.030625 88.978544 l
287.910625 88.790491 l
302.790625 88.790491 l
317.670625 89.041229 l
332.550625 89.276295 l
347.430625 89.495691 l
362.310625 89.903139 l
377.190625 89.809113 l
392.070625 90.529983 l
406.950625 91.266525 l
421.830625 92.144107 l
436.710625 92.974675 l
451.590625 94.165679 l
466.470625 95.215642 l
481.350625 96.296948 l
496.230625 97.566307 l
511.110625 98.772982 l
525.990625 100.199052 l
540.870625 101.578109 l
555.750625 104.038472 l
570.630625 106.201084 l
585.510625 108.959197 l
600.390625 111.905364 l
615.270625 115.682099 l
630.150625 119.020044 l
645.030625 123.596005 l
659.910625 127.686162 l
674.790625 131.541253 l
689.670625 136.320939 l
704.550625 139.517843 l
719.430625 142.479681 l
734.310625 149.657045 l
749.190625 156.944107 l
stroke
grestore
0.000 0.000 1.000 setrgbcolor
gsave
669.6 499 79.59 64.67 clipbox
79.590625 95.638762 m
94.470625 88.947202 l
109.350625 88.242003 l
124.230625 87.975594 l
139.110625 87.521132 l
153.990625 87.693514 l
168.870625 87.552474 l
183.750625 87.568145 l
198.630625 87.34875 l
213.510625 87.615159 l
228.390625 87.552474 l
243.270625 87.521132 l
258.150625 87.756199 l
273.030625 87.91291 l
287.910625 87.91291 l
302.790625 87.77187 l
317.670625 87.91291 l
332.550625 87.865896 l
347.430625 87.865896 l
362.310625 88.022607 l
377.190625 87.787541 l
392.070625 87.91291 l
406.950625 88.085292 l
421.830625 87.77187 l
436.710625 87.928581 l
451.590625 88.132305 l
466.470625 88.727807 l
481.350625 88.665122 l
496.230625 88.602438 l
511.110625 88.696465 l
525.990625 88.524083 l
540.870625 88.524083 l
555.750625 88.618109 l
570.630625 88.63378 l
585.510625 88.884518 l
600.390625 88.790491 l
615.270625 88.978544 l
630.150625 89.0569 l
645.030625 88.978544 l
659.910625 89.072571 l
674.790625 89.33898 l
689.670625 89.33898 l
704.550625 89.260624 l
719.430625 89.088242 l
734.310625 93.413466 l
749.190625 97.785703 l
stroke
grestore
1.000 0.000 0.000 setrgbcolor
gsave
669.6 499 79.59 64.67 clipbox
79.590625 96.155908 m
94.470625 89.589717 l
109.350625 89.041229 l
124.230625 88.63378 l
139.110625 88.383043 l
153.990625 87.928581 l
168.870625 88.242003 l
183.750625 87.865896 l
198.630625 87.850225 l
213.510625 88.022607 l
228.390625 87.975594 l
243.270625 88.210661 l
258.150625 88.383043 l
273.030625 88.63378 l
287.910625 88.555425 l
302.790625 88.712136 l
317.670625 89.072571 l
332.550625 89.0569 l
347.430625 89.229282 l
362.310625 89.652402 l
377.190625 89.636731 l
392.070625 90.153877 l
406.950625 90.576997 l
421.830625 91.125485 l
436.710625 91.830685 l
451.590625 92.692595 l
466.470625 93.601519 l
481.350625 94.745509 l
496.230625 95.952184 l
511.110625 97.080503 l
525.990625 98.678956 l
540.870625 100.559488 l
555.750625 103.317601 l
570.630625 105.386187 l
585.510625 108.395038 l
600.390625 110.980769 l
615.270625 114.616465 l
630.150625 117.499947 l
645.030625 121.637118 l
659.910625 125.288484 l
674.790625 128.814482 l
689.670625 133.468798 l
704.550625 135.976174 l
719.430625 139.04771 l
734.310625 145.974336 l
749.190625 152.524856 l
stroke
grestore
1.000 setlinewidth
0 setlinejoin
0 setlinecap
gsave
669.6 499 79.59 64.67 clipbox
/o {
gsave
newpath
translate
1.0 setlinewidth
0 setlinejoin
0 setlinecap
-10 -10 m
10 -10 l
10 10 l
-10 10 l
cl

gsave
grestore
stroke
grestore
} bind def
79.5906 96.1559 o
94.4706 89.5897 o
109.351 89.0412 o
124.231 88.6338 o
139.111 88.383 o
153.991 87.9286 o
168.871 88.242 o
183.751 87.8659 o
198.631 87.8502 o
213.511 88.0226 o
228.391 87.9756 o
243.271 88.2107 o
258.151 88.383 o
273.031 88.6338 o
287.911 88.5554 o
302.791 88.7121 o
317.671 89.0726 o
332.551 89.0569 o
347.431 89.2293 o
362.311 89.6524 o
377.191 89.6367 o
392.071 90.1539 o
406.951 90.577 o
421.831 91.1255 o
436.711 91.8307 o
451.591 92.6926 o
466.471 93.6015 o
481.351 94.7455 o
496.231 95.9522 o
511.111 97.0805 o
525.991 98.679 o
540.871 100.559 o
555.751 103.318 o
570.631 105.386 o
585.511 108.395 o
600.391 110.981 o
615.271 114.616 o
630.151 117.5 o
645.031 121.637 o
659.911 125.288 o
674.791 128.814 o
689.671 133.469 o
704.551 135.976 o
719.431 139.048 o
734.311 145.974 o
749.191 152.525 o
grestore
3.000 setlinewidth
1 setlinejoin
2 setlinecap
0.000 0.000 1.000 setrgbcolor
gsave
669.6 499 79.59 64.67 clipbox
79.590625 95.858157 m
94.470625 88.978544 l
109.350625 88.414385 l
124.230625 88.069621 l
139.110625 87.756199 l
153.990625 87.709185 l
168.870625 87.787541 l
183.750625 87.63083 l
198.630625 87.724856 l
213.510625 87.615159 l
228.390625 87.521132 l
243.270625 87.787541 l
258.150625 87.709185 l
273.030625 87.928581 l
287.910625 87.787541 l
302.790625 87.818883 l
317.670625 88.085292 l
332.550625 87.944252 l
347.430625 87.865896 l
362.310625 88.179318 l
377.190625 87.865896 l
392.070625 87.865896 l
406.950625 88.100963 l
421.830625 87.991265 l
436.710625 88.257674 l
451.590625 88.539754 l
466.470625 88.821833 l
481.350625 88.77482 l
496.230625 88.868847 l
511.110625 88.931531 l
525.990625 88.77482 l
540.870625 88.665122 l
555.750625 88.696465 l
570.630625 88.978544 l
585.510625 89.009887 l
600.390625 88.837505 l
615.270625 89.088242 l
630.150625 89.0569 l
645.030625 88.91586 l
659.910625 88.978544 l
674.790625 89.088242 l
689.670625 89.041229 l
704.550625 88.900189 l
719.430625 88.727807 l
734.310625 93.100044 l
749.190625 97.346912 l
stroke
grestore
1.000 setlinewidth
0 setlinejoin
0 setlinecap
gsave
669.6 499 79.59 64.67 clipbox
/o {
gsave
newpath
translate
1.0 setlinewidth
0 setlinejoin
0 setlinecap
-10 -10 m
10 -10 l
10 10 l
-10 10 l
cl

gsave
grestore
stroke
grestore
} bind def
79.5906 95.8582 o
94.4706 88.9785 o
109.351 88.4144 o
124.231 88.0696 o
139.111 87.7562 o
153.991 87.7092 o
168.871 87.7875 o
183.751 87.6308 o
198.631 87.7249 o
213.511 87.6152 o
228.391 87.5211 o
243.271 87.7875 o
258.151 87.7092 o
273.031 87.9286 o
287.911 87.7875 o
302.791 87.8189 o
317.671 88.0853 o
332.551 87.9443 o
347.431 87.8659 o
362.311 88.1793 o
377.191 87.8659 o
392.071 87.8659 o
406.951 88.101 o
421.831 87.9913 o
436.711 88.2577 o
451.591 88.5398 o
466.471 88.8218 o
481.351 88.7748 o
496.231 88.8688 o
511.111 88.9315 o
525.991 88.7748 o
540.871 88.6651 o
555.751 88.6965 o
570.631 88.9785 o
585.511 89.0099 o
600.391 88.8375 o
615.271 89.0882 o
630.151 89.0569 o
645.031 88.9159 o
659.911 88.9785 o
674.791 89.0882 o
689.671 89.0412 o
704.551 88.9002 o
719.431 88.7278 o
734.311 93.1 o
749.191 97.3469 o
grestore
3.000 setlinewidth
1 setlinejoin
2 setlinecap
1.000 0.000 0.000 setrgbcolor
gsave
669.6 499 79.59 64.67 clipbox
79.590625 100.214723 m
94.470625 92.535884 l
109.350625 91.48592 l
124.230625 90.561326 l
139.110625 89.683744 l
153.990625 89.495691 l
168.870625 89.182269 l
183.750625 88.931531 l
198.630625 88.821833 l
213.510625 88.994216 l
228.390625 89.182269 l
243.270625 89.33898 l
258.150625 89.527033 l
273.030625 89.840455 l
287.910625 90.075521 l
302.790625 90.48297 l
317.670625 90.608339 l
332.550625 90.953103 l
347.430625 91.235183 l
362.310625 92.159778 l
377.190625 92.535884 l
392.070625 93.006017 l
406.950625 94.244034 l
421.830625 94.964905 l
436.710625 96.46933 l
451.590625 98.287178 l
466.470625 100.512474 l
481.350625 102.361664 l
496.230625 104.226525 l
511.110625 106.028702 l
525.990625 108.959197 l
540.870625 112.046404 l
555.750625 115.023913 l
570.630625 119.098399 l
585.510625 122.655739 l
600.390625 126.416803 l
615.270625 129.880116 l
630.150625 133.750878 l
645.030625 136.822414 l
659.910625 140.379754 l
674.790625 144.046791 l
689.670625 148.340673 l
704.550625 152.634554 l
719.430625 155.941156 l
734.310625 163.25956 l
749.190625 169.888436 l
stroke
grestore
1.000 setlinewidth
0 setlinecap
gsave
669.6 499 79.59 64.67 clipbox
/o {
gsave
newpath
translate
1.0 setlinewidth
1 setlinejoin
0 setlinecap
0 -10 m
2.652031 -10 5.195799 -8.946337 7.071068 -7.071068 c
8.946337 -5.195799 10 -2.652031 10 0 c
10 2.652031 8.946337 5.195799 7.071068 7.071068 c
5.195799 8.946337 2.652031 10 0 10 c
-2.652031 10 -5.195799 8.946337 -7.071068 7.071068 c
-8.946337 5.195799 -10 2.652031 -10 0 c
-10 -2.652031 -8.946337 -5.195799 -7.071068 -7.071068 c
-5.195799 -8.946337 -2.652031 -10 0 -10 c
cl

gsave
grestore
stroke
grestore
} bind def
79.5906 100.215 o
94.4706 92.5359 o
109.351 91.4859 o
124.231 90.5613 o
139.111 89.6837 o
153.991 89.4957 o
168.871 89.1823 o
183.751 88.9315 o
198.631 88.8218 o
213.511 88.9942 o
228.391 89.1823 o
243.271 89.339 o
258.151 89.527 o
273.031 89.8405 o
287.911 90.0755 o
302.791 90.483 o
317.671 90.6083 o
332.551 90.9531 o
347.431 91.2352 o
362.311 92.1598 o
377.191 92.5359 o
392.071 93.006 o
406.951 94.244 o
421.831 94.9649 o
436.711 96.4693 o
451.591 98.2872 o
466.471 100.512 o
481.351 102.362 o
496.231 104.227 o
511.111 106.029 o
525.991 108.959 o
540.871 112.046 o
555.751 115.024 o
570.631 119.098 o
585.511 122.656 o
600.391 126.417 o
615.271 129.88 o
630.151 133.751 o
645.031 136.822 o
659.911 140.38 o
674.791 144.047 o
689.671 148.341 o
704.551 152.635 o
719.431 155.941 o
734.311 163.26 o
749.191 169.888 o
grestore
3.000 setlinewidth
2 setlinecap
0.000 0.000 1.000 setrgbcolor
gsave
669.6 499 79.59 64.67 clipbox
79.590625 96.343962 m
94.470625 89.511362 l
109.350625 89.527033 l
124.230625 88.759149 l
139.110625 88.320358 l
153.990625 88.289016 l
168.870625 88.242003 l
183.750625 88.069621 l
198.630625 88.038278 l
213.510625 88.116634 l
228.390625 88.273345 l
243.270625 88.210661 l
258.150625 88.257674 l
273.030625 88.242003 l
287.910625 88.3517 l
302.790625 88.336029 l
317.670625 88.555425 l
332.550625 88.383043 l
347.430625 88.727807 l
362.310625 88.680794 l
377.190625 88.461398 l
392.070625 88.49274 l
406.950625 88.680794 l
421.830625 88.63378 l
436.710625 88.743478 l
451.590625 89.088242 l
466.470625 89.370322 l
481.350625 89.088242 l
496.230625 89.385993 l
511.110625 89.62106 l
525.990625 89.542704 l
540.870625 89.652402 l
555.750625 89.934482 l
570.630625 89.934482 l
585.510625 89.730757 l
600.390625 89.558375 l
615.270625 89.668073 l
630.150625 89.448677 l
645.030625 89.668073 l
659.910625 89.699415 l
674.790625 89.824784 l
689.670625 89.824784 l
704.550625 90.138206 l
719.430625 89.746428 l
734.310625 94.46343 l
749.190625 98.6006 l
stroke
grestore
1.000 setlinewidth
0 setlinecap
gsave
669.6 499 79.59 64.67 clipbox
/o {
gsave
newpath
translate
1.0 setlinewidth
1 setlinejoin
0 setlinecap
0 -10 m
2.652031 -10 5.195799 -8.946337 7.071068 -7.071068 c
8.946337 -5.195799 10 -2.652031 10 0 c
10 2.652031 8.946337 5.195799 7.071068 7.071068 c
5.195799 8.946337 2.652031 10 0 10 c
-2.652031 10 -5.195799 8.946337 -7.071068 7.071068 c
-8.946337 5.195799 -10 2.652031 -10 0 c
-10 -2.652031 -8.946337 -5.195799 -7.071068 -7.071068 c
-5.195799 -8.946337 -2.652031 -10 0 -10 c
cl

gsave
grestore
stroke
grestore
} bind def
79.5906 96.344 o
94.4706 89.5114 o
109.351 89.527 o
124.231 88.7591 o
139.111 88.3204 o
153.991 88.289 o
168.871 88.242 o
183.751 88.0696 o
198.631 88.0383 o
213.511 88.1166 o
228.391 88.2733 o
243.271 88.2107 o
258.151 88.2577 o
273.031 88.242 o
287.911 88.3517 o
302.791 88.336 o
317.671 88.5554 o
332.551 88.383 o
347.431 88.7278 o
362.311 88.6808 o
377.191 88.4614 o
392.071 88.4927 o
406.951 88.6808 o
421.831 88.6338 o
436.711 88.7435 o
451.591 89.0882 o
466.471 89.3703 o
481.351 89.0882 o
496.231 89.386 o
511.111 89.6211 o
525.991 89.5427 o
540.871 89.6524 o
555.751 89.9345 o
570.631 89.9345 o
585.511 89.7308 o
600.391 89.5584 o
615.271 89.6681 o
630.151 89.4487 o
645.031 89.6681 o
659.911 89.6994 o
674.791 89.8248 o
689.671 89.8248 o
704.551 90.1382 o
719.431 89.7464 o
734.311 94.4634 o
749.191 98.6006 o
grestore
3.000 setlinewidth
2 setlinecap
1.000 0.000 0.000 setrgbcolor
gsave
669.6 499 79.59 64.67 clipbox
79.590625 344.605534 m
94.470625 352.347057 l
109.350625 382.043792 l
124.230625 413.934482 l
139.110625 441.907396 l
153.990625 466.166259 l
168.870625 484.658157 l
183.750625 497.994264 l
198.630625 508.728968 l
213.510625 514.950394 l
228.390625 518.648774 l
243.270625 520.106187 l
258.150625 522.832958 l
273.030625 524.337384 l
287.910625 524.196344 l
302.790625 524.885872 l
317.670625 526.390298 l
332.550625 526.42164 l
347.430625 527.048484 l
362.310625 526.202245 l
377.190625 528.302172 l
392.070625 527.032813 l
406.950625 527.173853 l
421.830625 527.267879 l
436.710625 526.358956 l
451.590625 527.126839 l
466.470625 526.970128 l
481.350625 527.393248 l
496.230625 527.926066 l
511.110625 527.408919 l
525.990625 528.380528 l
540.870625 526.233587 l
555.750625 526.343284 l
570.630625 526.9858 l
585.510625 528.55291 l
600.390625 526.061205 l
615.270625 526.625364 l
630.150625 526.437311 l
645.030625 526.186573 l
659.910625 526.672378 l
674.790625 527.753683 l
689.670625 526.594022 l
704.550625 527.440261 l
719.430625 527.471604 l
734.310625 534.460914 l
749.190625 540.94875 l
stroke
grestore
1.000 setlinewidth
0 setlinejoin
0 setlinecap
gsave
669.6 499 79.59 64.67 clipbox
/o {
gsave
newpath
translate
1.0 setlinewidth
0 setlinejoin
0 setlinecap
0 10 m
-10 -10 l
10 -10 l
cl

gsave
grestore
stroke
grestore
} bind def
79.5906 344.606 o
94.4706 352.347 o
109.351 382.044 o
124.231 413.934 o
139.111 441.907 o
153.991 466.166 o
168.871 484.658 o
183.751 497.994 o
198.631 508.729 o
213.511 514.95 o
228.391 518.649 o
243.271 520.106 o
258.151 522.833 o
273.031 524.337 o
287.911 524.196 o
302.791 524.886 o
317.671 526.39 o
332.551 526.422 o
347.431 527.048 o
362.311 526.202 o
377.191 528.302 o
392.071 527.033 o
406.951 527.174 o
421.831 527.268 o
436.711 526.359 o
451.591 527.127 o
466.471 526.97 o
481.351 527.393 o
496.231 527.926 o
511.111 527.409 o
525.991 528.381 o
540.871 526.234 o
555.751 526.343 o
570.631 526.986 o
585.511 528.553 o
600.391 526.061 o
615.271 526.625 o
630.151 526.437 o
645.031 526.187 o
659.911 526.672 o
674.791 527.754 o
689.671 526.594 o
704.551 527.44 o
719.431 527.472 o
734.311 534.461 o
749.191 540.949 o
grestore
3.000 setlinewidth
1 setlinejoin
2 setlinecap
0.000 0.000 1.000 setrgbcolor
gsave
669.6 499 79.59 64.67 clipbox
79.590625 332.664155 m
94.470625 325.596489 l
109.350625 352.143333 l
124.230625 351.81424 l
139.110625 347.300963 l
153.990625 342.677988 l
168.870625 336.174482 l
183.750625 330.219463 l
198.630625 323.668943 l
213.510625 317.055739 l
228.390625 311.492498 l
243.270625 306.321035 l
258.150625 301.54135 l
273.030625 296.369887 l
287.910625 291.135739 l
302.790625 283.300189 l
317.670625 277.815304 l
332.550625 270.011096 l
347.430625 264.150104 l
362.310625 258.524179 l
377.190625 253.086307 l
392.070625 247.9932 l
406.950625 242.743381 l
421.830625 237.007758 l
436.710625 231.851966 l
451.590625 227.495401 l
466.470625 222.386622 l
481.350625 216.917408 l
496.230625 212.012353 l
511.110625 207.169983 l
525.990625 202.186573 l
540.870625 196.513635 l
555.750625 193.269717 l
570.630625 189.430298 l
585.510625 185.841616 l
600.390625 182.409645 l
615.270625 177.990394 l
630.150625 175.812112 l
645.030625 172.489838 l
659.910625 169.888436 l
674.790625 166.190056 l
689.670625 164.168484 l
704.550625 162.146912 l
719.430625 160.752184 l
734.310625 173.492789 l
749.190625 185.966985 l
stroke
grestore
1.000 setlinewidth
0 setlinejoin
0 setlinecap
gsave
669.6 499 79.59 64.67 clipbox
/o {
gsave
newpath
translate
1.0 setlinewidth
0 setlinejoin
0 setlinecap
0 10 m
-10 -10 l
10 -10 l
cl

gsave
grestore
stroke
grestore
} bind def
79.5906 332.664 o
94.4706 325.596 o
109.351 352.143 o
124.231 351.814 o
139.111 347.301 o
153.991 342.678 o
168.871 336.174 o
183.751 330.219 o
198.631 323.669 o
213.511 317.056 o
228.391 311.492 o
243.271 306.321 o
258.151 301.541 o
273.031 296.37 o
287.911 291.136 o
302.791 283.3 o
317.671 277.815 o
332.551 270.011 o
347.431 264.15 o
362.311 258.524 o
377.191 253.086 o
392.071 247.993 o
406.951 242.743 o
421.831 237.008 o
436.711 231.852 o
451.591 227.495 o
466.471 222.387 o
481.351 216.917 o
496.231 212.012 o
511.111 207.17 o
525.991 202.187 o
540.871 196.514 o
555.751 193.27 o
570.631 189.43 o
585.511 185.842 o
600.391 182.41 o
615.271 177.99 o
630.151 175.812 o
645.031 172.49 o
659.911 169.888 o
674.791 166.19 o
689.671 164.168 o
704.551 162.147 o
719.431 160.752 o
734.311 173.493 o
749.191 185.967 o
grestore
0.800 setlinewidth
2 setlinecap
[] 0 setdash
0.000 setgray
gsave
79.590625 64.66875 m
79.590625 563.62875 l
stroke
grestore
gsave
749.190625 64.66875 m
749.190625 563.62875 l
stroke
grestore
gsave
79.590625 64.66875 m
749.190625 64.66875 l
stroke
grestore
gsave
79.590625 563.62875 m
749.190625 563.62875 l
stroke
grestore
gsave
97.390625 569.628750 translate
0.000000 rotate
/DejaVuSans findfont
24.0 scalefont
setfont
0.000000 0.765625 moveto
/F glyphshow

13.804688 0.765625 moveto
/r glyphshow

23.671875 0.765625 moveto
/a glyphshow

38.378906 0.765625 moveto
/c glyphshow

51.574219 0.765625 moveto
/t glyphshow

60.984375 0.765625 moveto
/i glyphshow

67.652344 0.765625 moveto
/o glyphshow

82.335938 0.765625 moveto
/n glyphshow

97.546875 0.765625 moveto
/space glyphshow

105.175781 0.765625 moveto
/o glyphshow

119.859375 0.765625 moveto
/f glyphshow

128.308594 0.765625 moveto
/space glyphshow

135.937500 0.765625 moveto
/U glyphshow

153.503906 0.765625 moveto
/n glyphshow

168.714844 0.765625 moveto
/d glyphshow

183.949219 0.765625 moveto
/e glyphshow

198.714844 0.765625 moveto
/t glyphshow

208.125000 0.765625 moveto
/e glyphshow

222.890625 0.765625 moveto
/c glyphshow

236.085938 0.765625 moveto
/t glyphshow

245.496094 0.765625 moveto
/e glyphshow

260.261719 0.765625 moveto
/d glyphshow

275.496094 0.765625 moveto
/space glyphshow

283.125000 0.765625 moveto
/T glyphshow

297.785156 0.765625 moveto
/r glyphshow

307.652344 0.765625 moveto
/a glyphshow

322.359375 0.765625 moveto
/c glyphshow

335.554688 0.765625 moveto
/k glyphshow

349.453125 0.765625 moveto
/s glyphshow

361.957031 0.765625 moveto
/slash glyphshow

370.042969 0.765625 moveto
/P glyphshow

384.515625 0.765625 moveto
/a glyphshow

399.222656 0.765625 moveto
/r glyphshow

409.089844 0.765625 moveto
/t glyphshow

418.500000 0.765625 moveto
/i glyphshow

425.167969 0.765625 moveto
/c glyphshow

438.363281 0.765625 moveto
/l glyphshow

445.031250 0.765625 moveto
/e glyphshow

459.796875 0.765625 moveto
/s glyphshow

472.300781 0.765625 moveto
/comma glyphshow

479.929688 0.765625 moveto
/space glyphshow

487.558594 0.765625 moveto
/three glyphshow

502.828125 0.765625 moveto
/zero glyphshow

518.097656 0.765625 moveto
/zero glyphshow

533.367188 0.765625 moveto
/zero glyphshow

548.636719 0.765625 moveto
/zero glyphshow

563.906250 0.765625 moveto
/space glyphshow

571.535156 0.765625 moveto
/seven glyphshow

586.804688 0.765625 moveto
/period glyphshow

594.433594 0.765625 moveto
/five glyphshow

/DejaVuSans-Oblique findfont
24.0 scalefont
setfont
609.703125 0.765625 moveto
/delta glyphshow

624.386719 0.765625 moveto
/t glyphshow


grestore
1.000 setlinewidth
0 setlinecap
0.800 setgray
gsave
181.930625 375.50375 m
336.930625 375.50375 l
338.930625 375.50375 339.930625 376.50375 339.930625 378.50375 c
339.930625 553.12875 l
339.930625 555.12875 338.930625 556.12875 336.930625 556.12875 c
181.930625 556.12875 l
179.930625 556.12875 178.930625 555.12875 178.930625 553.12875 c
178.930625 378.50375 l
178.930625 376.50375 179.930625 375.50375 181.930625 375.50375 c
cl
gsave
1.000 setgray
fill
grestore
stroke
grestore
3.000 setlinewidth
1 setlinejoin
2 setlinecap
[] 0 setdash
1.000 0.000 0.000 setrgbcolor
gsave
184.930625 543.988125 m
214.930625 543.988125 l
stroke
grestore
0.000 setgray
gsave
226.930625 538.738125 translate
0.000000 rotate
/DejaVuSans findfont
15.0 scalefont
setfont
0.000000 0.859375 moveto
/S glyphshow

9.521484 0.859375 moveto
/T glyphshow

18.684082 0.859375 moveto
/B glyphshow

28.974609 0.859375 moveto
/comma glyphshow

33.742676 0.859375 moveto
/space glyphshow

/DejaVuSans-Oblique findfont
15.0 scalefont
setfont
38.510742 0.859375 moveto
/sigma glyphshow

/DejaVuSans findfont
15.0 scalefont
setfont
50.939941 0.859375 moveto
/equal glyphshow

66.430664 0.859375 moveto
/zero glyphshow


grestore
0.000 0.000 1.000 setrgbcolor
gsave
184.930625 521.9725 m
214.930625 521.9725 l
stroke
grestore
0.000 setgray
gsave
226.930625 516.722500 translate
0.000000 rotate
/DejaVuSans findfont
15.0 scalefont
setfont
0.000000 0.859375 moveto
/O glyphshow

11.806641 0.859375 moveto
/u glyphshow

21.313477 0.859375 moveto
/r glyphshow

27.480469 0.859375 moveto
/s glyphshow

35.295410 0.859375 moveto
/comma glyphshow

40.063477 0.859375 moveto
/space glyphshow

/DejaVuSans-Oblique findfont
15.0 scalefont
setfont
44.831543 0.859375 moveto
/sigma glyphshow

/DejaVuSans findfont
15.0 scalefont
setfont
57.260742 0.859375 moveto
/equal glyphshow

72.751465 0.859375 moveto
/zero glyphshow


grestore
1.000 0.000 0.000 setrgbcolor
gsave
184.930625 499.956875 m
214.930625 499.956875 l
stroke
grestore
1.000 setlinewidth
0 setlinejoin
0 setlinecap
gsave
/o {
gsave
newpath
translate
1.0 setlinewidth
0 setlinejoin
0 setlinecap
-10 -10 m
10 -10 l
10 10 l
-10 10 l
cl

gsave
grestore
stroke
grestore
} bind def
199.931 499.957 o
grestore
0.000 setgray
gsave
226.930625 494.706875 translate
0.000000 rotate
/DejaVuSans findfont
15.0 scalefont
setfont
0.000000 0.859375 moveto
/S glyphshow

9.521484 0.859375 moveto
/T glyphshow

18.684082 0.859375 moveto
/B glyphshow

28.974609 0.859375 moveto
/comma glyphshow

33.742676 0.859375 moveto
/space glyphshow

/DejaVuSans-Oblique findfont
15.0 scalefont
setfont
38.510742 0.859375 moveto
/sigma glyphshow

/DejaVuSans findfont
15.0 scalefont
setfont
50.939941 0.859375 moveto
/equal glyphshow

66.430664 0.859375 moveto
/zero glyphshow

75.974121 0.859375 moveto
/period glyphshow

80.742188 0.859375 moveto
/zero glyphshow

90.285645 0.859375 moveto
/one glyphshow


grestore
3.000 setlinewidth
1 setlinejoin
2 setlinecap
0.000 0.000 1.000 setrgbcolor
gsave
184.930625 477.94125 m
214.930625 477.94125 l
stroke
grestore
1.000 setlinewidth
0 setlinejoin
0 setlinecap
gsave
/o {
gsave
newpath
translate
1.0 setlinewidth
0 setlinejoin
0 setlinecap
-10 -10 m
10 -10 l
10 10 l
-10 10 l
cl

gsave
grestore
stroke
grestore
} bind def
199.931 477.941 o
grestore
0.000 setgray
gsave
226.930625 472.691250 translate
0.000000 rotate
/DejaVuSans findfont
15.0 scalefont
setfont
0.000000 0.859375 moveto
/O glyphshow

11.806641 0.859375 moveto
/u glyphshow

21.313477 0.859375 moveto
/r glyphshow

27.480469 0.859375 moveto
/s glyphshow

35.295410 0.859375 moveto
/comma glyphshow

40.063477 0.859375 moveto
/space glyphshow

/DejaVuSans-Oblique findfont
15.0 scalefont
setfont
44.831543 0.859375 moveto
/sigma glyphshow

/DejaVuSans findfont
15.0 scalefont
setfont
57.260742 0.859375 moveto
/equal glyphshow

72.751465 0.859375 moveto
/zero glyphshow

82.294922 0.859375 moveto
/period glyphshow

87.062988 0.859375 moveto
/zero glyphshow

96.606445 0.859375 moveto
/one glyphshow


grestore
3.000 setlinewidth
1 setlinejoin
2 setlinecap
1.000 0.000 0.000 setrgbcolor
gsave
184.930625 455.925625 m
214.930625 455.925625 l
stroke
grestore
1.000 setlinewidth
0 setlinecap
gsave
/o {
gsave
newpath
translate
1.0 setlinewidth
1 setlinejoin
0 setlinecap
0 -10 m
2.652031 -10 5.195799 -8.946337 7.071068 -7.071068 c
8.946337 -5.195799 10 -2.652031 10 0 c
10 2.652031 8.946337 5.195799 7.071068 7.071068 c
5.195799 8.946337 2.652031 10 0 10 c
-2.652031 10 -5.195799 8.946337 -7.071068 7.071068 c
-8.946337 5.195799 -10 2.652031 -10 0 c
-10 -2.652031 -8.946337 -5.195799 -7.071068 -7.071068 c
-5.195799 -8.946337 -2.652031 -10 0 -10 c
cl

gsave
grestore
stroke
grestore
} bind def
199.931 455.926 o
grestore
0.000 setgray
gsave
226.930625 450.675625 translate
0.000000 rotate
/DejaVuSans findfont
15.0 scalefont
setfont
0.000000 0.859375 moveto
/S glyphshow

9.521484 0.859375 moveto
/T glyphshow

18.684082 0.859375 moveto
/B glyphshow

28.974609 0.859375 moveto
/comma glyphshow

33.742676 0.859375 moveto
/space glyphshow

/DejaVuSans-Oblique findfont
15.0 scalefont
setfont
38.510742 0.859375 moveto
/sigma glyphshow

/DejaVuSans findfont
15.0 scalefont
setfont
50.939941 0.859375 moveto
/equal glyphshow

66.430664 0.859375 moveto
/zero glyphshow

75.974121 0.859375 moveto
/period glyphshow

80.742188 0.859375 moveto
/zero glyphshow

90.285645 0.859375 moveto
/three glyphshow


grestore
3.000 setlinewidth
2 setlinecap
0.000 0.000 1.000 setrgbcolor
gsave
184.930625 433.91 m
214.930625 433.91 l
stroke
grestore
1.000 setlinewidth
0 setlinecap
gsave
/o {
gsave
newpath
translate
1.0 setlinewidth
1 setlinejoin
0 setlinecap
0 -10 m
2.652031 -10 5.195799 -8.946337 7.071068 -7.071068 c
8.946337 -5.195799 10 -2.652031 10 0 c
10 2.652031 8.946337 5.195799 7.071068 7.071068 c
5.195799 8.946337 2.652031 10 0 10 c
-2.652031 10 -5.195799 8.946337 -7.071068 7.071068 c
-8.946337 5.195799 -10 2.652031 -10 0 c
-10 -2.652031 -8.946337 -5.195799 -7.071068 -7.071068 c
-5.195799 -8.946337 -2.652031 -10 0 -10 c
cl

gsave
grestore
stroke
grestore
} bind def
199.931 433.91 o
grestore
0.000 setgray
gsave
226.930625 428.660000 translate
0.000000 rotate
/DejaVuSans findfont
15.0 scalefont
setfont
0.000000 0.859375 moveto
/O glyphshow

11.806641 0.859375 moveto
/u glyphshow

21.313477 0.859375 moveto
/r glyphshow

27.480469 0.859375 moveto
/s glyphshow

35.295410 0.859375 moveto
/comma glyphshow

40.063477 0.859375 moveto
/space glyphshow

/DejaVuSans-Oblique findfont
15.0 scalefont
setfont
44.831543 0.859375 moveto
/sigma glyphshow

/DejaVuSans findfont
15.0 scalefont
setfont
57.260742 0.859375 moveto
/equal glyphshow

72.751465 0.859375 moveto
/zero glyphshow

82.294922 0.859375 moveto
/period glyphshow

87.062988 0.859375 moveto
/zero glyphshow

96.606445 0.859375 moveto
/three glyphshow


grestore
3.000 setlinewidth
2 setlinecap
1.000 0.000 0.000 setrgbcolor
gsave
184.930625 411.894375 m
214.930625 411.894375 l
stroke
grestore
1.000 setlinewidth
0 setlinejoin
0 setlinecap
gsave
/o {
gsave
newpath
translate
1.0 setlinewidth
0 setlinejoin
0 setlinecap
0 10 m
-10 -10 l
10 -10 l
cl

gsave
grestore
stroke
grestore
} bind def
199.931 411.894 o
grestore
0.000 setgray
gsave
226.930625 406.644375 translate
0.000000 rotate
/DejaVuSans findfont
15.0 scalefont
setfont
0.000000 0.859375 moveto
/S glyphshow

9.521484 0.859375 moveto
/T glyphshow

18.684082 0.859375 moveto
/B glyphshow

28.974609 0.859375 moveto
/comma glyphshow

33.742676 0.859375 moveto
/space glyphshow

/DejaVuSans-Oblique findfont
15.0 scalefont
setfont
38.510742 0.859375 moveto
/sigma glyphshow

/DejaVuSans findfont
15.0 scalefont
setfont
50.939941 0.859375 moveto
/equal glyphshow

66.430664 0.859375 moveto
/zero glyphshow

75.974121 0.859375 moveto
/period glyphshow

80.742188 0.859375 moveto
/one glyphshow


grestore
3.000 setlinewidth
1 setlinejoin
2 setlinecap
0.000 0.000 1.000 setrgbcolor
gsave
184.930625 389.87875 m
214.930625 389.87875 l
stroke
grestore
1.000 setlinewidth
0 setlinejoin
0 setlinecap
gsave
/o {
gsave
newpath
translate
1.0 setlinewidth
0 setlinejoin
0 setlinecap
0 10 m
-10 -10 l
10 -10 l
cl

gsave
grestore
stroke
grestore
} bind def
199.931 389.879 o
grestore
0.000 setgray
gsave
226.930625 384.628750 translate
0.000000 rotate
/DejaVuSans findfont
15.0 scalefont
setfont
0.000000 0.859375 moveto
/O glyphshow

11.806641 0.859375 moveto
/u glyphshow

21.313477 0.859375 moveto
/r glyphshow

27.480469 0.859375 moveto
/s glyphshow

35.295410 0.859375 moveto
/comma glyphshow

40.063477 0.859375 moveto
/space glyphshow

/DejaVuSans-Oblique findfont
15.0 scalefont
setfont
44.831543 0.859375 moveto
/sigma glyphshow

/DejaVuSans findfont
15.0 scalefont
setfont
57.260742 0.859375 moveto
/equal glyphshow

72.751465 0.859375 moveto
/zero glyphshow

82.294922 0.859375 moveto
/period glyphshow

87.062988 0.859375 moveto
/one glyphshow


grestore

end
showpage
