%!PS-Adobe-3.0 EPSF-3.0
%%Title: /home/yin/030000_trackedghost_thin_noise.eps
%%Creator: matplotlib version 3.1.1, http://matplotlib.org/
%%CreationDate: Mon May 11 23:59:10 2020
%%Orientation: portrait
%%BoundingBox: -132.0609374999999 98.08562500000005 744.0609374999999 693.914375
%%EndComments
%%BeginProlog
/mpldict 9 dict def
mpldict begin
/m { moveto } bind def
/l { lineto } bind def
/r { rlineto } bind def
/c { curveto } bind def
/cl { closepath } bind def
/box {
m
1 index 0 r
0 exch r
neg 0 r
cl
} bind def
/clipbox {
box
clip
newpath
} bind def
%!PS-Adobe-3.0 Resource-Font
%%Title: DejaVu Sans
%%Copyright: Copyright (c) 2003 by Bitstream, Inc. All Rights Reserved. Copyright (c) 2006 by Tavmjong Bah. All Rights Reserved. DejaVu changes are in public domain 
%%Creator: Converted from TrueType to type 3 by PPR
25 dict begin
/_d{bind def}bind def
/_m{moveto}_d
/_l{lineto}_d
/_cl{closepath eofill}_d
/_c{curveto}_d
/_sc{7 -1 roll{setcachedevice}{pop pop pop pop pop pop}ifelse}_d
/_e{exec}_d
/FontName /DejaVuSans def
/PaintType 0 def
/FontMatrix[.001 0 0 .001 0 0]def
/FontBBox[-1021 -463 1793 1232]def
/FontType 3 def
/Encoding [ /space /comma /period /zero /one /two /three /four /five /seven /equal /B /F /K /L /N /P /R /S /T /a /c /d /e /f /g /h /i /k /l /m /n /o /p /r /s /t ] def
/FontInfo 10 dict dup begin
/FamilyName (DejaVu Sans) def
/FullName (DejaVu Sans) def
/Notice (Copyright (c) 2003 by Bitstream, Inc. All Rights Reserved. Copyright (c) 2006 by Tavmjong Bah. All Rights Reserved. DejaVu changes are in public domain ) def
/Weight (Book) def
/Version (Version 2.35) def
/ItalicAngle 0.0 def
/isFixedPitch false def
/UnderlinePosition -130 def
/UnderlineThickness 90 def
end readonly def
/CharStrings 38 dict dup begin
/.notdef 0 def
/space{318 0 0 0 0 0 _sc
}_d
/comma{318 0 77 -115 220 124 _sc
117 124 _m
220 124 _l
220 40 _l
140 -115 _l
77 -115 _l
117 40 _l
117 124 _l
_cl}_d
/period{318 0 107 0 210 124 _sc
107 124 _m
210 124 _l
210 0 _l
107 0 _l
107 124 _l
_cl}_d
/zero{636 0 66 -13 570 742 _sc
318 664 _m
267 664 229 639 203 589 _c
177 539 165 464 165 364 _c
165 264 177 189 203 139 _c
229 89 267 64 318 64 _c
369 64 407 89 433 139 _c
458 189 471 264 471 364 _c
471 464 458 539 433 589 _c
407 639 369 664 318 664 _c
318 742 _m
399 742 461 709 505 645 _c
548 580 570 486 570 364 _c
570 241 548 147 505 83 _c
461 19 399 -13 318 -13 _c
236 -13 173 19 130 83 _c
87 147 66 241 66 364 _c
66 486 87 580 130 645 _c
173 709 236 742 318 742 _c
_cl}_d
/one{636 0 110 0 544 729 _sc
124 83 _m
285 83 _l
285 639 _l
110 604 _l
110 694 _l
284 729 _l
383 729 _l
383 83 _l
544 83 _l
544 0 _l
124 0 _l
124 83 _l
_cl}_d
/two{{636 0 73 0 536 742 _sc
192 83 _m
536 83 _l
536 0 _l
73 0 _l
73 83 _l
110 121 161 173 226 239 _c
290 304 331 346 348 365 _c
380 400 402 430 414 455 _c
426 479 433 504 433 528 _c
433 566 419 598 392 622 _c
365 646 330 659 286 659 _c
255 659 222 653 188 643 _c
154 632 117 616 78 594 _c
78 694 _l
118 710 155 722 189 730 _c
223 738 255 742 284 742 _c
}_e{359 742 419 723 464 685 _c
509 647 532 597 532 534 _c
532 504 526 475 515 449 _c
504 422 484 390 454 354 _c
446 344 420 317 376 272 _c
332 227 271 164 192 83 _c
_cl}_e}_d
/three{{636 0 76 -13 556 742 _sc
406 393 _m
453 383 490 362 516 330 _c
542 298 556 258 556 212 _c
556 140 531 84 482 45 _c
432 6 362 -13 271 -13 _c
240 -13 208 -10 176 -4 _c
144 1 110 10 76 22 _c
76 117 _l
103 101 133 89 166 81 _c
198 73 232 69 268 69 _c
330 69 377 81 409 105 _c
441 129 458 165 458 212 _c
458 254 443 288 413 312 _c
383 336 341 349 287 349 _c
}_e{202 349 _l
202 430 _l
291 430 _l
339 430 376 439 402 459 _c
428 478 441 506 441 543 _c
441 580 427 609 401 629 _c
374 649 336 659 287 659 _c
260 659 231 656 200 650 _c
169 644 135 635 98 623 _c
98 711 _l
135 721 170 729 203 734 _c
235 739 266 742 296 742 _c
370 742 429 725 473 691 _c
517 657 539 611 539 553 _c
539 513 527 479 504 451 _c
481 423 448 403 406 393 _c
_cl}_e}_d
/four{636 0 49 0 580 729 _sc
378 643 _m
129 254 _l
378 254 _l
378 643 _l
352 729 _m
476 729 _l
476 254 _l
580 254 _l
580 172 _l
476 172 _l
476 0 _l
378 0 _l
378 172 _l
49 172 _l
49 267 _l
352 729 _l
_cl}_d
/five{{636 0 77 -13 549 729 _sc
108 729 _m
495 729 _l
495 646 _l
198 646 _l
198 467 _l
212 472 227 476 241 478 _c
255 480 270 482 284 482 _c
365 482 429 459 477 415 _c
525 370 549 310 549 234 _c
549 155 524 94 475 51 _c
426 8 357 -13 269 -13 _c
238 -13 207 -10 175 -6 _c
143 -1 111 6 77 17 _c
77 116 _l
106 100 136 88 168 80 _c
199 72 232 69 267 69 _c
}_e{323 69 368 83 401 113 _c
433 143 450 183 450 234 _c
450 284 433 324 401 354 _c
368 384 323 399 267 399 _c
241 399 214 396 188 390 _c
162 384 135 375 108 363 _c
108 729 _l
_cl}_e}_d
/seven{636 0 82 0 551 729 _sc
82 729 _m
551 729 _l
551 687 _l
286 0 _l
183 0 _l
432 646 _l
82 646 _l
82 729 _l
_cl}_d
/equal{838 0 106 172 732 454 _sc
106 454 _m
732 454 _l
732 372 _l
106 372 _l
106 454 _l
106 255 _m
732 255 _l
732 172 _l
106 172 _l
106 255 _l
_cl}_d
/B{{686 0 98 0 615 729 _sc
197 348 _m
197 81 _l
355 81 _l
408 81 447 92 473 114 _c
498 136 511 169 511 215 _c
511 260 498 293 473 315 _c
447 337 408 348 355 348 _c
197 348 _l
197 648 _m
197 428 _l
343 428 _l
391 428 426 437 450 455 _c
474 473 486 500 486 538 _c
486 574 474 602 450 620 _c
426 638 391 648 343 648 _c
197 648 _l
98 729 _m
350 729 _l
}_e{425 729 483 713 524 682 _c
564 650 585 606 585 549 _c
585 504 574 468 553 442 _c
532 416 502 399 462 393 _c
510 382 548 360 575 327 _c
601 294 615 253 615 204 _c
615 138 592 88 548 53 _c
504 17 441 0 360 0 _c
98 0 _l
98 729 _l
_cl}_e}_d
/F{575 0 98 0 517 729 _sc
98 729 _m
517 729 _l
517 646 _l
197 646 _l
197 431 _l
486 431 _l
486 348 _l
197 348 _l
197 0 _l
98 0 _l
98 729 _l
_cl}_d
/K{656 0 98 0 677 729 _sc
98 729 _m
197 729 _l
197 421 _l
524 729 _l
651 729 _l
289 389 _l
677 0 _l
547 0 _l
197 351 _l
197 0 _l
98 0 _l
98 729 _l
_cl}_d
/L{557 0 98 0 552 729 _sc
98 729 _m
197 729 _l
197 83 _l
552 83 _l
552 0 _l
98 0 _l
98 729 _l
_cl}_d
/N{748 0 98 0 650 729 _sc
98 729 _m
231 729 _l
554 119 _l
554 729 _l
650 729 _l
650 0 _l
517 0 _l
194 610 _l
194 0 _l
98 0 _l
98 729 _l
_cl}_d
/P{603 0 98 0 569 729 _sc
197 648 _m
197 374 _l
321 374 _l
367 374 402 385 427 409 _c
452 433 465 467 465 511 _c
465 555 452 588 427 612 _c
402 636 367 648 321 648 _c
197 648 _l
98 729 _m
321 729 _l
402 729 464 710 506 673 _c
548 636 569 582 569 511 _c
569 439 548 384 506 348 _c
464 311 402 293 321 293 _c
197 293 _l
197 0 _l
98 0 _l
98 729 _l
_cl}_d
/R{{695 0 98 0 666 729 _sc
444 342 _m
465 334 486 319 506 296 _c
526 272 546 240 566 199 _c
666 0 _l
560 0 _l
467 187 _l
443 235 419 268 397 284 _c
374 300 343 308 304 308 _c
197 308 _l
197 0 _l
98 0 _l
98 729 _l
321 729 _l
404 729 466 711 507 677 _c
548 642 569 589 569 519 _c
569 473 558 434 537 404 _c
515 374 484 353 444 342 _c
197 648 _m
197 389 _l
321 389 _l
}_e{368 389 404 400 428 422 _c
452 444 465 476 465 519 _c
465 561 452 593 428 615 _c
404 637 368 648 321 648 _c
197 648 _l
_cl}_e}_d
/S{{635 0 66 -13 579 742 _sc
535 705 _m
535 609 _l
497 627 462 640 429 649 _c
395 657 363 662 333 662 _c
279 662 237 651 208 631 _c
179 610 165 580 165 542 _c
165 510 174 485 194 469 _c
213 452 250 439 304 429 _c
364 417 _l
437 403 491 378 526 343 _c
561 307 579 260 579 201 _c
579 130 555 77 508 41 _c
460 5 391 -13 300 -13 _c
265 -13 228 -9 189 -2 _c
}_e{150 5 110 16 69 32 _c
69 134 _l
109 111 148 94 186 83 _c
224 71 262 66 300 66 _c
356 66 399 77 430 99 _c
460 121 476 152 476 194 _c
476 230 465 258 443 278 _c
421 298 385 313 335 323 _c
275 335 _l
201 349 148 372 115 404 _c
82 435 66 478 66 534 _c
66 598 88 649 134 686 _c
179 723 242 742 322 742 _c
356 742 390 739 426 733 _c
461 727 497 717 535 705 _c
}_e{_cl}_e}_d
/T{611 0 -2 0 614 729 _sc
-2 729 _m
614 729 _l
614 646 _l
355 646 _l
355 0 _l
256 0 _l
256 646 _l
-2 646 _l
-2 729 _l
_cl}_d
/a{{613 0 60 -13 522 560 _sc
343 275 _m
270 275 220 266 192 250 _c
164 233 150 205 150 165 _c
150 133 160 107 181 89 _c
202 70 231 61 267 61 _c
317 61 357 78 387 114 _c
417 149 432 196 432 255 _c
432 275 _l
343 275 _l
522 312 _m
522 0 _l
432 0 _l
432 83 _l
411 49 385 25 355 10 _c
325 -5 287 -13 243 -13 _c
187 -13 142 2 109 33 _c
76 64 60 106 60 159 _c
}_e{60 220 80 266 122 298 _c
163 329 224 345 306 345 _c
432 345 _l
432 354 _l
432 395 418 427 391 450 _c
364 472 326 484 277 484 _c
245 484 215 480 185 472 _c
155 464 127 453 100 439 _c
100 522 _l
132 534 164 544 195 550 _c
226 556 256 560 286 560 _c
365 560 424 539 463 498 _c
502 457 522 395 522 312 _c
_cl}_e}_d
/c{{550 0 55 -13 488 560 _sc
488 526 _m
488 442 _l
462 456 437 466 411 473 _c
385 480 360 484 334 484 _c
276 484 230 465 198 428 _c
166 391 150 339 150 273 _c
150 206 166 154 198 117 _c
230 80 276 62 334 62 _c
360 62 385 65 411 72 _c
437 79 462 90 488 104 _c
488 21 _l
462 9 436 0 410 -5 _c
383 -10 354 -13 324 -13 _c
242 -13 176 12 128 64 _c
}_e{79 115 55 185 55 273 _c
55 362 79 432 128 483 _c
177 534 244 560 330 560 _c
358 560 385 557 411 551 _c
437 545 463 537 488 526 _c
_cl}_e}_d
/d{{635 0 55 -13 544 760 _sc
454 464 _m
454 760 _l
544 760 _l
544 0 _l
454 0 _l
454 82 _l
435 49 411 25 382 10 _c
353 -5 319 -13 279 -13 _c
213 -13 159 13 117 65 _c
75 117 55 187 55 273 _c
55 359 75 428 117 481 _c
159 533 213 560 279 560 _c
319 560 353 552 382 536 _c
411 520 435 496 454 464 _c
148 273 _m
148 207 161 155 188 117 _c
215 79 253 61 301 61 _c
}_e{348 61 385 79 413 117 _c
440 155 454 207 454 273 _c
454 339 440 390 413 428 _c
385 466 348 485 301 485 _c
253 485 215 466 188 428 _c
161 390 148 339 148 273 _c
_cl}_e}_d
/e{{615 0 55 -13 562 560 _sc
562 296 _m
562 252 _l
149 252 _l
153 190 171 142 205 110 _c
238 78 284 62 344 62 _c
378 62 412 66 444 74 _c
476 82 509 95 541 113 _c
541 28 _l
509 14 476 3 442 -3 _c
408 -9 373 -13 339 -13 _c
251 -13 182 12 131 62 _c
80 112 55 181 55 268 _c
55 357 79 428 127 481 _c
175 533 241 560 323 560 _c
397 560 455 536 498 489 _c
}_e{540 441 562 377 562 296 _c
472 322 _m
471 371 457 410 431 440 _c
404 469 368 484 324 484 _c
274 484 234 469 204 441 _c
174 413 156 373 152 322 _c
472 322 _l
_cl}_e}_d
/f{352 0 23 0 371 760 _sc
371 760 _m
371 685 _l
285 685 _l
253 685 230 678 218 665 _c
205 652 199 629 199 595 _c
199 547 _l
347 547 _l
347 477 _l
199 477 _l
199 0 _l
109 0 _l
109 477 _l
23 477 _l
23 547 _l
109 547 _l
109 585 _l
109 645 123 690 151 718 _c
179 746 224 760 286 760 _c
371 760 _l
_cl}_d
/g{{635 0 55 -207 544 560 _sc
454 280 _m
454 344 440 395 414 431 _c
387 467 349 485 301 485 _c
253 485 215 467 188 431 _c
161 395 148 344 148 280 _c
148 215 161 165 188 129 _c
215 93 253 75 301 75 _c
349 75 387 93 414 129 _c
440 165 454 215 454 280 _c
544 68 _m
544 -24 523 -93 482 -139 _c
440 -184 377 -207 292 -207 _c
260 -207 231 -204 203 -200 _c
175 -195 147 -188 121 -178 _c
}_e{121 -91 _l
147 -105 173 -115 199 -122 _c
225 -129 251 -133 278 -133 _c
336 -133 380 -117 410 -87 _c
439 -56 454 -10 454 52 _c
454 96 _l
435 64 411 40 382 24 _c
353 8 319 0 279 0 _c
211 0 157 25 116 76 _c
75 127 55 195 55 280 _c
55 364 75 432 116 483 _c
157 534 211 560 279 560 _c
319 560 353 552 382 536 _c
411 520 435 496 454 464 _c
454 547 _l
544 547 _l
}_e{544 68 _l
_cl}_e}_d
/h{634 0 91 0 549 760 _sc
549 330 _m
549 0 _l
459 0 _l
459 327 _l
459 379 448 417 428 443 _c
408 469 378 482 338 482 _c
289 482 251 466 223 435 _c
195 404 181 362 181 309 _c
181 0 _l
91 0 _l
91 760 _l
181 760 _l
181 462 _l
202 494 227 519 257 535 _c
286 551 320 560 358 560 _c
420 560 468 540 500 501 _c
532 462 549 405 549 330 _c
_cl}_d
/i{278 0 94 0 184 760 _sc
94 547 _m
184 547 _l
184 0 _l
94 0 _l
94 547 _l
94 760 _m
184 760 _l
184 646 _l
94 646 _l
94 760 _l
_cl}_d
/k{579 0 91 0 576 760 _sc
91 760 _m
181 760 _l
181 311 _l
449 547 _l
564 547 _l
274 291 _l
576 0 _l
459 0 _l
181 267 _l
181 0 _l
91 0 _l
91 760 _l
_cl}_d
/l{278 0 94 0 184 760 _sc
94 760 _m
184 760 _l
184 0 _l
94 0 _l
94 760 _l
_cl}_d
/m{{974 0 91 0 889 560 _sc
520 442 _m
542 482 569 511 600 531 _c
631 550 668 560 711 560 _c
767 560 811 540 842 500 _c
873 460 889 403 889 330 _c
889 0 _l
799 0 _l
799 327 _l
799 379 789 418 771 444 _c
752 469 724 482 686 482 _c
639 482 602 466 575 435 _c
548 404 535 362 535 309 _c
535 0 _l
445 0 _l
445 327 _l
445 379 435 418 417 444 _c
398 469 369 482 331 482 _c
}_e{285 482 248 466 221 435 _c
194 404 181 362 181 309 _c
181 0 _l
91 0 _l
91 547 _l
181 547 _l
181 462 _l
201 495 226 520 255 536 _c
283 552 317 560 357 560 _c
397 560 430 550 458 530 _c
486 510 506 480 520 442 _c
_cl}_e}_d
/n{634 0 91 0 549 560 _sc
549 330 _m
549 0 _l
459 0 _l
459 327 _l
459 379 448 417 428 443 _c
408 469 378 482 338 482 _c
289 482 251 466 223 435 _c
195 404 181 362 181 309 _c
181 0 _l
91 0 _l
91 547 _l
181 547 _l
181 462 _l
202 494 227 519 257 535 _c
286 551 320 560 358 560 _c
420 560 468 540 500 501 _c
532 462 549 405 549 330 _c
_cl}_d
/o{612 0 55 -13 557 560 _sc
306 484 _m
258 484 220 465 192 427 _c
164 389 150 338 150 273 _c
150 207 163 156 191 118 _c
219 80 257 62 306 62 _c
354 62 392 80 420 118 _c
448 156 462 207 462 273 _c
462 337 448 389 420 427 _c
392 465 354 484 306 484 _c
306 560 _m
384 560 445 534 490 484 _c
534 433 557 363 557 273 _c
557 183 534 113 490 63 _c
445 12 384 -13 306 -13 _c
227 -13 165 12 121 63 _c
77 113 55 183 55 273 _c
55 363 77 433 121 484 _c
165 534 227 560 306 560 _c
_cl}_d
/p{{635 0 91 -207 580 560 _sc
181 82 _m
181 -207 _l
91 -207 _l
91 547 _l
181 547 _l
181 464 _l
199 496 223 520 252 536 _c
281 552 316 560 356 560 _c
422 560 476 533 518 481 _c
559 428 580 359 580 273 _c
580 187 559 117 518 65 _c
476 13 422 -13 356 -13 _c
316 -13 281 -5 252 10 _c
223 25 199 49 181 82 _c
487 273 _m
487 339 473 390 446 428 _c
418 466 381 485 334 485 _c
}_e{286 485 249 466 222 428 _c
194 390 181 339 181 273 _c
181 207 194 155 222 117 _c
249 79 286 61 334 61 _c
381 61 418 79 446 117 _c
473 155 487 207 487 273 _c
_cl}_e}_d
/r{411 0 91 0 411 560 _sc
411 463 _m
401 469 390 473 378 476 _c
366 478 353 480 339 480 _c
288 480 249 463 222 430 _c
194 397 181 350 181 288 _c
181 0 _l
91 0 _l
91 547 _l
181 547 _l
181 462 _l
199 495 224 520 254 536 _c
284 552 321 560 365 560 _c
371 560 378 559 386 559 _c
393 558 401 557 411 555 _c
411 463 _l
_cl}_d
/s{{521 0 54 -13 472 560 _sc
443 531 _m
443 446 _l
417 458 391 468 364 475 _c
336 481 308 485 279 485 _c
234 485 200 478 178 464 _c
156 450 145 430 145 403 _c
145 382 153 366 169 354 _c
185 342 217 330 265 320 _c
296 313 _l
360 299 405 279 432 255 _c
458 230 472 195 472 151 _c
472 100 452 60 412 31 _c
372 1 316 -13 246 -13 _c
216 -13 186 -10 154 -5 _c
}_e{122 0 89 8 54 20 _c
54 113 _l
87 95 120 82 152 74 _c
184 65 216 61 248 61 _c
290 61 323 68 346 82 _c
368 96 380 117 380 144 _c
380 168 371 187 355 200 _c
339 213 303 226 247 238 _c
216 245 _l
160 257 119 275 95 299 _c
70 323 58 356 58 399 _c
58 450 76 490 112 518 _c
148 546 200 560 268 560 _c
301 560 332 557 362 552 _c
391 547 418 540 443 531 _c
}_e{_cl}_e}_d
/t{392 0 27 0 368 702 _sc
183 702 _m
183 547 _l
368 547 _l
368 477 _l
183 477 _l
183 180 _l
183 135 189 106 201 94 _c
213 81 238 75 276 75 _c
368 75 _l
368 0 _l
276 0 _l
206 0 158 13 132 39 _c
106 65 93 112 93 180 _c
93 477 _l
27 477 _l
27 547 _l
93 547 _l
93 702 _l
183 702 _l
_cl}_d
end readonly def

/BuildGlyph
 {exch begin
 CharStrings exch
 2 copy known not{pop /.notdef}if
 true 3 1 roll get exec
 end}_d

/BuildChar {
 1 index /Encoding get exch get
 1 index /BuildGlyph get exec
}_d

FontName currentdict end definefont pop
%!PS-Adobe-3.0 Resource-Font
%%Title: DejaVu Sans Oblique
%%Copyright: Copyright (c) 2003 by Bitstream, Inc. All Rights Reserved. Copyright (c) 2006 by Tavmjong Bah. All Rights Reserved. DejaVu changes are in public domain 
%%Creator: Converted from TrueType to type 3 by PPR
25 dict begin
/_d{bind def}bind def
/_m{moveto}_d
/_l{lineto}_d
/_cl{closepath eofill}_d
/_c{curveto}_d
/_sc{7 -1 roll{setcachedevice}{pop pop pop pop pop pop}ifelse}_d
/_e{exec}_d
/FontName /DejaVuSans-Oblique def
/PaintType 0 def
/FontMatrix[.001 0 0 .001 0 0]def
/FontBBox[-1016 -350 1659 1068]def
/FontType 3 def
/Encoding [ /t /delta ] def
/FontInfo 10 dict dup begin
/FamilyName (DejaVu Sans) def
/FullName (DejaVu Sans Oblique) def
/Notice (Copyright (c) 2003 by Bitstream, Inc. All Rights Reserved. Copyright (c) 2006 by Tavmjong Bah. All Rights Reserved. DejaVu changes are in public domain ) def
/Weight (Oblique) def
/Version (Version 2.35) def
/ItalicAngle -11.0 def
/isFixedPitch false def
/UnderlinePosition -130 def
/UnderlineThickness 90 def
end readonly def
/CharStrings 3 dict dup begin
/.notdef 0 def
/t{{392 0 64 0 423 702 _sc
423 547 _m
409 477 _l
230 477 _l
172 180 _l
170 169 168 160 167 152 _c
166 144 166 139 166 135 _c
166 114 172 99 185 89 _c
197 79 217 75 245 75 _c
336 75 _l
321 0 _l
235 0 _l
181 0 141 10 115 31 _c
89 52 76 84 76 126 _c
76 133 76 141 77 150 _c
78 159 80 169 82 180 _c
140 477 _l
64 477 _l
78 547 _l
153 547 _l
183 702 _l
}_e{273 702 _l
243 547 _l
423 547 _l
_cl}_e}_d
/delta{{612 0 38 -13 557 742 _sc
542 633 _m
514 655 461 667 383 667 _c
300 667 255 648 248 610 _c
242 580 280 557 364 542 _c
428 530 476 505 508 469 _c
546 425 556 358 539 268 _c
521 182 486 113 432 63 _c
377 12 310 -13 232 -13 _c
154 -13 98 12 63 63 _c
28 113 20 183 38 273 _c
50 339 84 399 139 453 _c
160 473 184 490 211 502 _c
165 528 147 563 156 609 _c
}_e{173 697 253 742 397 742 _c
469 742 522 730 557 708 _c
542 633 _l
274 478 _m
250 468 226 451 204 428 _c
168 391 144 339 132 273 _c
119 207 123 155 144 118 _c
164 80 199 62 248 62 _c
295 62 336 81 372 119 _c
407 156 431 206 443 268 _c
455 332 450 380 427 412 _c
401 445 369 464 329 468 _c
308 470 290 473 274 478 _c
_cl}_e}_d
end readonly def

/BuildGlyph
 {exch begin
 CharStrings exch
 2 copy known not{pop /.notdef}if
 true 3 1 roll get exec
 end}_d

/BuildChar {
 1 index /Encoding get exch get
 1 index /BuildGlyph get exec
}_d

FontName currentdict end definefont pop
end
%%EndProlog
mpldict begin
-132.061 98.086 translate
876.122 595.829 0 0 clipbox
gsave
0 0 m
876.121875 0 l
876.121875 595.82875 l
0 595.82875 l
cl
1.000 setgray
fill
grestore
gsave
110.121875 64.66875 m
779.721875 64.66875 l
779.721875 563.62875 l
110.121875 563.62875 l
cl
1.000 setgray
fill
grestore
0.800 setlinewidth
1 setlinejoin
0 setlinecap
[] 0 setdash
0.000 setgray
gsave
/o {
gsave
newpath
translate
0.8 setlinewidth
1 setlinejoin
0 setlinecap
0 0 m
0 -3.5 l

gsave
0.000 setgray
fill
grestore
stroke
grestore
} bind def
110.122 64.6688 o
grestore
/DejaVuSans findfont
24.000 scalefont
setfont
gsave
102.489063 39.434375 translate
0.000000 rotate
0.000000 0.000000 m /five glyphshow
grestore
gsave
/o {
gsave
newpath
translate
0.8 setlinewidth
1 setlinejoin
0 setlinecap
0 0 m
0 -3.5 l

gsave
0.000 setgray
fill
grestore
stroke
grestore
} bind def
184.522 64.6688 o
grestore
gsave
169.256250 39.434375 translate
0.000000 rotate
0.000000 0.000000 m /one glyphshow
15.269531 0.000000 m /zero glyphshow
grestore
gsave
/o {
gsave
newpath
translate
0.8 setlinewidth
1 setlinejoin
0 setlinecap
0 0 m
0 -3.5 l

gsave
0.000 setgray
fill
grestore
stroke
grestore
} bind def
258.922 64.6688 o
grestore
gsave
243.656250 39.434375 translate
0.000000 rotate
0.000000 0.000000 m /one glyphshow
15.269531 0.000000 m /five glyphshow
grestore
gsave
/o {
gsave
newpath
translate
0.8 setlinewidth
1 setlinejoin
0 setlinecap
0 0 m
0 -3.5 l

gsave
0.000 setgray
fill
grestore
stroke
grestore
} bind def
333.322 64.6688 o
grestore
gsave
318.056250 39.434375 translate
0.000000 rotate
0.000000 0.000000 m /two glyphshow
15.269531 0.000000 m /zero glyphshow
grestore
gsave
/o {
gsave
newpath
translate
0.8 setlinewidth
1 setlinejoin
0 setlinecap
0 0 m
0 -3.5 l

gsave
0.000 setgray
fill
grestore
stroke
grestore
} bind def
407.722 64.6688 o
grestore
gsave
392.456250 39.434375 translate
0.000000 rotate
0.000000 0.000000 m /two glyphshow
15.269531 0.000000 m /five glyphshow
grestore
gsave
/o {
gsave
newpath
translate
0.8 setlinewidth
1 setlinejoin
0 setlinecap
0 0 m
0 -3.5 l

gsave
0.000 setgray
fill
grestore
stroke
grestore
} bind def
482.122 64.6688 o
grestore
gsave
466.856250 39.434375 translate
0.000000 rotate
0.000000 0.000000 m /three glyphshow
15.269531 0.000000 m /zero glyphshow
grestore
gsave
/o {
gsave
newpath
translate
0.8 setlinewidth
1 setlinejoin
0 setlinecap
0 0 m
0 -3.5 l

gsave
0.000 setgray
fill
grestore
stroke
grestore
} bind def
556.522 64.6688 o
grestore
gsave
541.256250 39.434375 translate
0.000000 rotate
0.000000 0.000000 m /three glyphshow
15.269531 0.000000 m /five glyphshow
grestore
gsave
/o {
gsave
newpath
translate
0.8 setlinewidth
1 setlinejoin
0 setlinecap
0 0 m
0 -3.5 l

gsave
0.000 setgray
fill
grestore
stroke
grestore
} bind def
630.922 64.6688 o
grestore
gsave
615.656250 39.434375 translate
0.000000 rotate
0.000000 0.000000 m /four glyphshow
15.269531 0.000000 m /zero glyphshow
grestore
gsave
/o {
gsave
newpath
translate
0.8 setlinewidth
1 setlinejoin
0 setlinecap
0 0 m
0 -3.5 l

gsave
0.000 setgray
fill
grestore
stroke
grestore
} bind def
705.322 64.6688 o
grestore
gsave
690.056250 39.434375 translate
0.000000 rotate
0.000000 0.000000 m /four glyphshow
15.269531 0.000000 m /five glyphshow
grestore
gsave
/o {
gsave
newpath
translate
0.8 setlinewidth
1 setlinejoin
0 setlinecap
0 0 m
0 -3.5 l

gsave
0.000 setgray
fill
grestore
stroke
grestore
} bind def
779.722 64.6688 o
grestore
gsave
764.456250 39.434375 translate
0.000000 rotate
0.000000 0.000000 m /five glyphshow
15.269531 0.000000 m /zero glyphshow
grestore
gsave
382.570312 12.200000 translate
0.000000 rotate
0.000000 0.000000 m /S glyphshow
15.234375 0.000000 m /n glyphshow
30.445312 0.000000 m /a glyphshow
45.152344 0.000000 m /p glyphshow
60.386719 0.000000 m /s glyphshow
72.890625 0.000000 m /h glyphshow
88.101562 0.000000 m /o glyphshow
102.785156 0.000000 m /t glyphshow
112.195312 0.000000 m /s glyphshow
grestore
gsave
/o {
gsave
newpath
translate
0.8 setlinewidth
1 setlinejoin
0 setlinecap
0 0 m
-3.5 0 l

gsave
0.000 setgray
fill
grestore
stroke
grestore
} bind def
110.122 230.86 o
grestore
gsave
34.434375 221.743191 translate
0.000000 rotate
0.000000 0.000000 m /zero glyphshow
15.269531 0.000000 m /period glyphshow
22.898438 0.000000 m /zero glyphshow
38.167969 0.000000 m /zero glyphshow
53.437500 0.000000 m /one glyphshow
grestore
gsave
/o {
gsave
newpath
translate
0.8 setlinewidth
1 setlinejoin
0 setlinecap
0 0 m
-3.5 0 l

gsave
0.000 setgray
fill
grestore
stroke
grestore
} bind def
110.122 317.04 o
grestore
gsave
34.434375 307.922404 translate
0.000000 rotate
0.000000 0.000000 m /zero glyphshow
15.269531 0.000000 m /period glyphshow
22.898438 0.000000 m /zero glyphshow
38.167969 0.000000 m /zero glyphshow
53.437500 0.000000 m /five glyphshow
grestore
gsave
/o {
gsave
newpath
translate
0.8 setlinewidth
1 setlinejoin
0 setlinecap
0 0 m
-3.5 0 l

gsave
0.000 setgray
fill
grestore
stroke
grestore
} bind def
110.122 354.155 o
grestore
gsave
34.434375 345.037771 translate
0.000000 rotate
0.000000 0.000000 m /zero glyphshow
15.269531 0.000000 m /period glyphshow
22.898438 0.000000 m /zero glyphshow
38.167969 0.000000 m /one glyphshow
53.437500 0.000000 m /zero glyphshow
grestore
gsave
/o {
gsave
newpath
translate
0.8 setlinewidth
1 setlinejoin
0 setlinecap
0 0 m
-3.5 0 l

gsave
0.000 setgray
fill
grestore
stroke
grestore
} bind def
110.122 440.334 o
grestore
gsave
34.434375 431.216983 translate
0.000000 rotate
0.000000 0.000000 m /zero glyphshow
15.269531 0.000000 m /period glyphshow
22.898438 0.000000 m /zero glyphshow
38.167969 0.000000 m /five glyphshow
53.437500 0.000000 m /zero glyphshow
grestore
gsave
/o {
gsave
newpath
translate
0.8 setlinewidth
1 setlinejoin
0 setlinecap
0 0 m
-3.5 0 l

gsave
0.000 setgray
fill
grestore
stroke
grestore
} bind def
110.122 477.45 o
grestore
gsave
34.434375 468.332350 translate
0.000000 rotate
0.000000 0.000000 m /zero glyphshow
15.269531 0.000000 m /period glyphshow
22.898438 0.000000 m /one glyphshow
38.167969 0.000000 m /zero glyphshow
53.437500 0.000000 m /zero glyphshow
grestore
gsave
/o {
gsave
newpath
translate
0.8 setlinewidth
1 setlinejoin
0 setlinecap
0 0 m
-3.5 0 l

gsave
0.000 setgray
fill
grestore
stroke
grestore
} bind def
110.122 563.629 o
grestore
gsave
34.434375 554.511562 translate
0.000000 rotate
0.000000 0.000000 m /zero glyphshow
15.269531 0.000000 m /period glyphshow
22.898438 0.000000 m /five glyphshow
38.167969 0.000000 m /zero glyphshow
53.437500 0.000000 m /zero glyphshow
grestore
0.600 setlinewidth
gsave
/o {
gsave
newpath
translate
0.6 setlinewidth
1 setlinejoin
0 setlinecap
0 0 m
-2 0 l

gsave
0.000 setgray
fill
grestore
stroke
grestore
} bind def
110.122 70.4504 o
grestore
gsave
/o {
gsave
newpath
translate
0.6 setlinewidth
1 setlinejoin
0 setlinecap
0 0 m
-2 0 l

gsave
0.000 setgray
fill
grestore
stroke
grestore
} bind def
110.122 80.2131 o
grestore
gsave
/o {
gsave
newpath
translate
0.6 setlinewidth
1 setlinejoin
0 setlinecap
0 0 m
-2 0 l

gsave
0.000 setgray
fill
grestore
stroke
grestore
} bind def
110.122 88.4672 o
grestore
gsave
/o {
gsave
newpath
translate
0.6 setlinewidth
1 setlinejoin
0 setlinecap
0 0 m
-2 0 l

gsave
0.000 setgray
fill
grestore
stroke
grestore
} bind def
110.122 95.6173 o
grestore
gsave
/o {
gsave
newpath
translate
0.6 setlinewidth
1 setlinejoin
0 setlinecap
0 0 m
-2 0 l

gsave
0.000 setgray
fill
grestore
stroke
grestore
} bind def
110.122 101.924 o
grestore
gsave
/o {
gsave
newpath
translate
0.6 setlinewidth
1 setlinejoin
0 setlinecap
0 0 m
-2 0 l

gsave
0.000 setgray
fill
grestore
stroke
grestore
} bind def
110.122 144.681 o
grestore
gsave
/o {
gsave
newpath
translate
0.6 setlinewidth
1 setlinejoin
0 setlinecap
0 0 m
-2 0 l

gsave
0.000 setgray
fill
grestore
stroke
grestore
} bind def
110.122 166.392 o
grestore
gsave
/o {
gsave
newpath
translate
0.6 setlinewidth
1 setlinejoin
0 setlinecap
0 0 m
-2 0 l

gsave
0.000 setgray
fill
grestore
stroke
grestore
} bind def
110.122 181.797 o
grestore
gsave
/o {
gsave
newpath
translate
0.6 setlinewidth
1 setlinejoin
0 setlinecap
0 0 m
-2 0 l

gsave
0.000 setgray
fill
grestore
stroke
grestore
} bind def
110.122 193.745 o
grestore
gsave
/o {
gsave
newpath
translate
0.6 setlinewidth
1 setlinejoin
0 setlinecap
0 0 m
-2 0 l

gsave
0.000 setgray
fill
grestore
stroke
grestore
} bind def
110.122 203.508 o
grestore
gsave
/o {
gsave
newpath
translate
0.6 setlinewidth
1 setlinejoin
0 setlinecap
0 0 m
-2 0 l

gsave
0.000 setgray
fill
grestore
stroke
grestore
} bind def
110.122 211.762 o
grestore
gsave
/o {
gsave
newpath
translate
0.6 setlinewidth
1 setlinejoin
0 setlinecap
0 0 m
-2 0 l

gsave
0.000 setgray
fill
grestore
stroke
grestore
} bind def
110.122 218.912 o
grestore
gsave
/o {
gsave
newpath
translate
0.6 setlinewidth
1 setlinejoin
0 setlinecap
0 0 m
-2 0 l

gsave
0.000 setgray
fill
grestore
stroke
grestore
} bind def
110.122 225.219 o
grestore
gsave
/o {
gsave
newpath
translate
0.6 setlinewidth
1 setlinejoin
0 setlinecap
0 0 m
-2 0 l

gsave
0.000 setgray
fill
grestore
stroke
grestore
} bind def
110.122 267.976 o
grestore
gsave
/o {
gsave
newpath
translate
0.6 setlinewidth
1 setlinejoin
0 setlinecap
0 0 m
-2 0 l

gsave
0.000 setgray
fill
grestore
stroke
grestore
} bind def
110.122 289.687 o
grestore
gsave
/o {
gsave
newpath
translate
0.6 setlinewidth
1 setlinejoin
0 setlinecap
0 0 m
-2 0 l

gsave
0.000 setgray
fill
grestore
stroke
grestore
} bind def
110.122 305.091 o
grestore
gsave
/o {
gsave
newpath
translate
0.6 setlinewidth
1 setlinejoin
0 setlinecap
0 0 m
-2 0 l

gsave
0.000 setgray
fill
grestore
stroke
grestore
} bind def
110.122 326.802 o
grestore
gsave
/o {
gsave
newpath
translate
0.6 setlinewidth
1 setlinejoin
0 setlinecap
0 0 m
-2 0 l

gsave
0.000 setgray
fill
grestore
stroke
grestore
} bind def
110.122 335.056 o
grestore
gsave
/o {
gsave
newpath
translate
0.6 setlinewidth
1 setlinejoin
0 setlinecap
0 0 m
-2 0 l

gsave
0.000 setgray
fill
grestore
stroke
grestore
} bind def
110.122 342.206 o
grestore
gsave
/o {
gsave
newpath
translate
0.6 setlinewidth
1 setlinejoin
0 setlinecap
0 0 m
-2 0 l

gsave
0.000 setgray
fill
grestore
stroke
grestore
} bind def
110.122 348.513 o
grestore
gsave
/o {
gsave
newpath
translate
0.6 setlinewidth
1 setlinejoin
0 setlinecap
0 0 m
-2 0 l

gsave
0.000 setgray
fill
grestore
stroke
grestore
} bind def
110.122 391.27 o
grestore
gsave
/o {
gsave
newpath
translate
0.6 setlinewidth
1 setlinejoin
0 setlinecap
0 0 m
-2 0 l

gsave
0.000 setgray
fill
grestore
stroke
grestore
} bind def
110.122 412.981 o
grestore
gsave
/o {
gsave
newpath
translate
0.6 setlinewidth
1 setlinejoin
0 setlinecap
0 0 m
-2 0 l

gsave
0.000 setgray
fill
grestore
stroke
grestore
} bind def
110.122 428.386 o
grestore
gsave
/o {
gsave
newpath
translate
0.6 setlinewidth
1 setlinejoin
0 setlinecap
0 0 m
-2 0 l

gsave
0.000 setgray
fill
grestore
stroke
grestore
} bind def
110.122 450.097 o
grestore
gsave
/o {
gsave
newpath
translate
0.6 setlinewidth
1 setlinejoin
0 setlinecap
0 0 m
-2 0 l

gsave
0.000 setgray
fill
grestore
stroke
grestore
} bind def
110.122 458.351 o
grestore
gsave
/o {
gsave
newpath
translate
0.6 setlinewidth
1 setlinejoin
0 setlinecap
0 0 m
-2 0 l

gsave
0.000 setgray
fill
grestore
stroke
grestore
} bind def
110.122 465.501 o
grestore
gsave
/o {
gsave
newpath
translate
0.6 setlinewidth
1 setlinejoin
0 setlinecap
0 0 m
-2 0 l

gsave
0.000 setgray
fill
grestore
stroke
grestore
} bind def
110.122 471.808 o
grestore
gsave
/o {
gsave
newpath
translate
0.6 setlinewidth
1 setlinejoin
0 setlinecap
0 0 m
-2 0 l

gsave
0.000 setgray
fill
grestore
stroke
grestore
} bind def
110.122 514.565 o
grestore
gsave
/o {
gsave
newpath
translate
0.6 setlinewidth
1 setlinejoin
0 setlinecap
0 0 m
-2 0 l

gsave
0.000 setgray
fill
grestore
stroke
grestore
} bind def
110.122 536.276 o
grestore
gsave
/o {
gsave
newpath
translate
0.6 setlinewidth
1 setlinejoin
0 setlinecap
0 0 m
-2 0 l

gsave
0.000 setgray
fill
grestore
stroke
grestore
} bind def
110.122 551.68 o
grestore
gsave
25.434375 265.367500 translate
90.000000 rotate
0.000000 0.000000 m /F glyphshow
13.789062 0.000000 m /r glyphshow
23.656250 0.000000 m /a glyphshow
38.363281 0.000000 m /c glyphshow
51.558594 0.000000 m /t glyphshow
60.968750 0.000000 m /i glyphshow
67.636719 0.000000 m /o glyphshow
82.320312 0.000000 m /n glyphshow
grestore
3.000 setlinewidth
2 setlinecap
0.000 0.000 1.000 setrgbcolor
gsave
669.6 499 110.1 64.67 clipbox
110.121875 85.854702 m
125.001875 166.392264 l
139.881875 229.045081 l
154.761875 279.205474 l
169.641875 247.586842 l
184.521875 229.045081 l
199.401875 232.616148 l
214.281875 235.963873 l
229.161875 221.09776 l
244.041875 234.316169 l
258.921875 227.166076 l
273.801875 229.045081 l
288.681875 244.908977 l
303.561875 256.027266 l
318.441875 268.860826 l
333.321875 277.738364 l
348.201875 279.205474 l
363.081875 279.205474 l
377.961875 282.024343 l
392.841875 289.088556 l
407.721875 294.790337 l
422.601875 293.142633 l
437.481875 299.942978 l
452.361875 305.976193 l
467.241875 303.275814 l
482.121875 311.397941 l
497.001875 315.224294 l
511.881875 320.159667 l
526.761875 330.812887 l
541.641875 333.504215 l
556.521875 334.285925 l
571.401875 336.812155 l
586.281875 338.750689 l
601.161875 347.512416 l
616.041875 348.71126 l
630.921875 351.78285 l
645.801875 352.523985 l
660.681875 358.275926 l
675.561875 358.605442 l
690.441875 361.793655 l
705.321875 363.01762 l
720.201875 365.52921 l
735.081875 363.619268 l
749.961875 361.948189 l
764.841875 360.699242 l
779.721875 353.255002 l
stroke
grestore
1.000 0.000 0.000 setrgbcolor
gsave
669.6 499 110.1 64.67 clipbox
110.121875 177.137408 m
125.001875 177.137408 l
139.881875 197.200802 l
154.761875 214.252775 l
169.641875 172.033914 l
184.521875 172.033914 l
199.401875 193.745012 l
214.281875 190.050709 l
229.161875 152.935342 l
244.041875 177.137408 l
258.921875 172.033914 l
273.801875 152.935342 l
288.681875 193.745012 l
303.561875 152.935342 l
318.441875 186.082512 l
333.321875 166.392264 l
348.201875 200.447017 l
363.081875 200.447017 l
377.961875 197.200802 l
392.841875 160.085435 l
407.721875 181.796533 l
422.601875 203.507631 l
437.481875 214.252775 l
452.361875 214.252775 l
467.241875 193.745012 l
482.121875 211.761807 l
497.001875 209.149281 l
511.881875 221.09776 l
526.761875 232.616148 l
541.641875 232.616148 l
556.521875 229.045081 l
571.401875 235.963873 l
586.281875 235.963873 l
601.161875 237.562384 l
616.041875 242.090107 l
630.921875 254.899937 l
645.801875 250.137141 l
660.681875 263.316621 l
675.561875 262.334095 l
690.441875 263.316621 l
705.321875 260.313245 l
720.201875 264.281442 l
735.081875 271.431535 l
749.961875 270.588271 l
764.841875 267.075789 l
779.721875 262.334095 l
stroke
grestore
0 setlinecap
[11.1 4.8] 0 setdash
0.000 0.000 1.000 setrgbcolor
gsave
669.6 499 110.1 64.67 clipbox
110.121875 166.392264 m
125.001875 243.518089 l
139.881875 320.829003 l
154.761875 349.495833 l
169.641875 315.957814 l
184.521875 314.853731 l
199.401875 308.546902 l
214.281875 303.735441 l
229.161875 298.44857 l
244.041875 297.428612 l
258.921875 296.911254 l
273.801875 294.246716 l
288.681875 296.911254 l
303.561875 298.951354 l
318.441875 304.191156 l
333.321875 300.431987 l
348.201875 303.275814 l
363.081875 311.397941 l
377.961875 318.448782 l
392.841875 325.293768 l
407.721875 325.598875 l
422.601875 327.098865 l
437.481875 325.902253 l
452.361875 324.367875 l
467.241875 322.788227 l
482.121875 331.634583 l
497.001875 334.026621 l
511.881875 341.07915 l
526.761875 344.819005 l
541.641875 345.242297 l
556.521875 351.220188 l
571.401875 351.969097 l
586.281875 351.220188 l
601.161875 357.610748 l
616.041875 361.171018 l
630.921875 361.793655 l
645.801875 365.239771 l
660.681875 366.388258 l
675.561875 368.74995 l
690.441875 369.156117 l
705.321875 371.530474 l
720.201875 375.026569 l
735.081875 373.182088 l
749.961875 374.784279 l
764.841875 371.011863 l
779.721875 367.651529 l
stroke
grestore
1.000 0.000 0.000 setrgbcolor
gsave
669.6 499 110.1 64.67 clipbox
110.121875 144.681166 m
125.001875 166.392264 l
139.881875 193.745012 l
154.761875 237.562384 l
169.641875 166.392264 l
184.521875 203.507631 l
199.401875 177.137408 l
214.281875 200.447017 l
229.161875 200.447017 l
244.041875 186.082512 l
258.921875 177.137408 l
273.801875 193.745012 l
288.681875 172.033914 l
303.561875 190.050709 l
318.441875 203.507631 l
333.321875 206.402722 l
348.201875 181.796533 l
363.081875 203.507631 l
377.961875 172.033914 l
392.841875 172.033914 l
407.721875 190.050709 l
422.601875 172.033914 l
437.481875 172.033914 l
452.361875 190.050709 l
467.241875 193.745012 l
482.121875 203.507631 l
497.001875 206.402722 l
511.881875 229.045081 l
526.761875 235.963873 l
541.641875 247.586842 l
556.521875 254.899937 l
571.401875 263.316621 l
586.281875 254.899937 l
601.161875 250.137141 l
616.041875 250.137141 l
630.921875 254.899937 l
645.801875 258.213127 l
660.681875 267.075789 l
675.561875 271.431535 l
690.441875 266.160448 l
705.321875 252.571477 l
720.201875 270.588271 l
735.081875 264.281442 l
749.961875 275.45946 l
764.841875 265.229187 l
779.721875 262.334095 l
stroke
grestore
[3 4.95] 0 setdash
0.000 0.000 1.000 setrgbcolor
gsave
669.6 499 110.1 64.67 clipbox
110.121875 247.586842 m
125.001875 313.726401 l
139.881875 360.541056 l
154.761875 381.828023 l
169.641875 386.023851 l
184.521875 391.803127 l
199.401875 395.638619 l
214.281875 400.208563 l
229.161875 400.883997 l
244.041875 403.290151 l
258.921875 405.318922 l
273.801875 405.318922 l
288.681875 408.387163 l
303.561875 406.204003 l
318.441875 407.074691 l
333.321875 404.418966 l
348.201875 402.572364 l
363.081875 403.147362 l
377.961875 402.282533 l
392.841875 402.355138 l
407.721875 400.434656 l
422.601875 398.520723 l
437.481875 396.777942 l
452.361875 395.556304 l
467.241875 394.306142 l
482.121875 395.966621 l
497.001875 397.418263 l
511.881875 395.473862 l
526.761875 394.642383 l
541.641875 396.697361 l
556.521875 397.09906 l
571.401875 394.642383 l
586.281875 393.88285 l
601.161875 395.966621 l
616.041875 399.371293 l
630.921875 398.208043 l
645.801875 398.909021 l
660.681875 398.986344 l
675.561875 397.97233 l
690.441875 400.734635 l
705.321875 399.524501 l
720.201875 398.909021 l
735.081875 399.447952 l
749.961875 398.208043 l
764.841875 396.938742 l
779.721875 395.720808 l
stroke
grestore
1.000 0.000 0.000 setrgbcolor
gsave
669.6 499 110.1 64.67 clipbox
110.121875 144.681166 m
125.001875 144.681166 l
139.881875 261.333203 l
154.761875 312.961443 l
169.641875 284.702209 l
184.521875 271.431535 l
199.401875 273.079239 l
214.281875 260.313245 l
229.161875 252.571477 l
244.041875 246.264648 l
258.921875 260.313245 l
273.801875 239.114555 l
288.681875 242.090107 l
303.561875 257.13135 l
318.441875 260.313245 l
333.321875 271.431535 l
348.201875 267.975746 l
363.081875 264.281442 l
377.961875 261.333203 l
392.841875 275.45946 l
407.721875 270.588271 l
422.601875 273.079239 l
437.481875 271.431535 l
452.361875 260.313245 l
467.241875 265.229187 l
482.121875 271.431535 l
497.001875 261.333203 l
511.881875 283.380014 l
526.761875 278.476943 l
541.641875 285.351261 l
556.521875 287.871545 l
571.401875 296.911254 l
586.281875 294.246716 l
601.161875 296.911254 l
616.041875 295.328494 l
630.921875 284.702209 l
645.801875 292.015304 l
660.681875 292.015304 l
675.561875 296.388848 l
690.441875 298.951354 l
705.321875 306.413307 l
720.201875 308.963606 l
735.081875 312.574827 l
749.961875 314.104821 l
764.841875 305.091112 l
779.721875 307.703638 l
stroke
grestore
[19.2 4.8 3 4.8] 0 setdash
0.000 0.000 1.000 setrgbcolor
gsave
669.6 499 110.1 64.67 clipbox
110.121875 400.734635 m
125.001875 434.414151 l
139.881875 465.41174 l
154.761875 485.396858 l
169.641875 496.738751 l
184.521875 503.049729 l
199.401875 507.486159 l
214.281875 509.288893 l
229.161875 509.573739 l
244.041875 507.770601 l
258.921875 504.802286 l
273.801875 500.697165 l
288.681875 496.514186 l
303.561875 490.862811 l
318.441875 487.19728 l
333.321875 484.261671 l
348.201875 480.670549 l
363.081875 478.404796 l
377.961875 475.80016 l
392.841875 474.834334 l
407.721875 473.812575 l
422.601875 472.712471 l
437.481875 472.419173 l
452.361875 472.536685 l
467.241875 471.309779 l
482.121875 471.748358 l
497.001875 472.222746 l
511.881875 472.692967 l
526.761875 472.868241 l
541.641875 472.751456 l
556.521875 473.042944 l
571.401875 473.236391 l
586.281875 473.736107 l
601.161875 474.965368 l
616.041875 476.112169 l
630.921875 475.928855 l
645.801875 475.671155 l
660.681875 475.615772 l
675.561875 475.78175 l
690.441875 475.928855 l
705.321875 475.763333 l
720.201875 475.040101 l
735.081875 474.477045 l
749.961875 471.549449 l
764.841875 470.340226 l
779.721875 466.757913 l
stroke
grestore
1.000 0.000 0.000 setrgbcolor
gsave
669.6 499 110.1 64.67 clipbox
110.121875 401.624619 m
125.001875 431.631907 l
139.881875 461.42291 l
154.761875 477.592137 l
169.641875 483.978024 l
184.521875 488.679266 l
199.401875 490.44437 l
214.281875 491.539309 l
229.161875 491.264219 l
244.041875 490.036746 l
258.921875 489.625994 l
273.801875 489.426567 l
288.681875 489.824682 l
303.561875 488.924725 l
318.441875 488.708202 l
333.321875 488.082604 l
348.201875 489.068589 l
363.081875 489.140376 l
377.961875 489.082954 l
392.841875 489.640211 l
407.721875 489.082954 l
422.601875 488.867071 l
437.481875 488.766027 l
452.361875 488.693736 l
467.241875 489.838845 l
482.121875 488.519837 l
497.001875 487.582719 l
511.881875 488.693736 l
526.761875 488.461745 l
541.641875 489.039847 l
556.521875 488.635832 l
571.401875 489.398017 l
586.281875 489.29797 l
601.161875 489.782168 l
616.041875 489.966151 l
630.921875 489.711236 l
645.801875 489.05422 l
660.681875 489.73962 l
675.561875 490.121337 l
690.441875 489.881314 l
705.321875 489.02547 l
720.201875 489.039847 l
735.081875 489.412294 l
749.961875 487.671274 l
764.841875 486.175892 l
779.721875 485.535161 l
stroke
grestore
0.800 setlinewidth
0 setlinejoin
2 setlinecap
[] 0 setdash
0.000 setgray
gsave
110.121875 64.66875 m
110.121875 563.62875 l
stroke
grestore
gsave
779.721875 64.66875 m
779.721875 563.62875 l
stroke
grestore
gsave
110.121875 64.66875 m
779.721875 64.66875 l
stroke
grestore
gsave
110.121875 563.62875 m
779.721875 563.62875 l
stroke
grestore
gsave
20.921875 569.628750 translate
0.000000 rotate
/DejaVuSans findfont
24.0 scalefont
setfont
0.000000 0.765625 moveto
/F glyphshow

13.804688 0.765625 moveto
/r glyphshow

23.671875 0.765625 moveto
/a glyphshow

38.378906 0.765625 moveto
/c glyphshow

51.574219 0.765625 moveto
/t glyphshow

60.984375 0.765625 moveto
/i glyphshow

67.652344 0.765625 moveto
/o glyphshow

82.335938 0.765625 moveto
/n glyphshow

97.546875 0.765625 moveto
/space glyphshow

105.175781 0.765625 moveto
/o glyphshow

119.859375 0.765625 moveto
/f glyphshow

128.308594 0.765625 moveto
/space glyphshow

135.937500 0.765625 moveto
/T glyphshow

150.597656 0.765625 moveto
/r glyphshow

160.464844 0.765625 moveto
/a glyphshow

175.171875 0.765625 moveto
/c glyphshow

188.367188 0.765625 moveto
/k glyphshow

202.265625 0.765625 moveto
/e glyphshow

217.031250 0.765625 moveto
/d glyphshow

232.265625 0.765625 moveto
/space glyphshow

239.894531 0.765625 moveto
/g glyphshow

255.128906 0.765625 moveto
/h glyphshow

270.339844 0.765625 moveto
/o glyphshow

285.023438 0.765625 moveto
/s glyphshow

297.527344 0.765625 moveto
/t glyphshow

306.937500 0.765625 moveto
/space glyphshow

314.566406 0.765625 moveto
/p glyphshow

329.800781 0.765625 moveto
/a glyphshow

344.507812 0.765625 moveto
/r glyphshow

354.375000 0.765625 moveto
/t glyphshow

363.785156 0.765625 moveto
/i glyphshow

370.453125 0.765625 moveto
/c glyphshow

383.648438 0.765625 moveto
/l glyphshow

390.316406 0.765625 moveto
/e glyphshow

405.082031 0.765625 moveto
/s glyphshow

417.585938 0.765625 moveto
/comma glyphshow

425.214844 0.765625 moveto
/space glyphshow

432.843750 0.765625 moveto
/P glyphshow

447.316406 0.765625 moveto
/P glyphshow

461.789062 0.765625 moveto
/P glyphshow

476.261719 0.765625 moveto
/space glyphshow

483.890625 0.765625 moveto
/equal glyphshow

504.000000 0.765625 moveto
/space glyphshow

511.628906 0.765625 moveto
/zero glyphshow

526.898438 0.765625 moveto
/period glyphshow

534.527344 0.765625 moveto
/zero glyphshow

549.796875 0.765625 moveto
/seven glyphshow

565.066406 0.765625 moveto
/five glyphshow

580.335938 0.765625 moveto
/comma glyphshow

587.964844 0.765625 moveto
/space glyphshow

595.593750 0.765625 moveto
/t glyphshow

605.003906 0.765625 moveto
/i glyphshow

611.671875 0.765625 moveto
/m glyphshow

635.050781 0.765625 moveto
/e glyphshow

649.816406 0.765625 moveto
/space glyphshow

657.445312 0.765625 moveto
/s glyphshow

669.949219 0.765625 moveto
/e glyphshow

684.714844 0.765625 moveto
/p glyphshow

699.949219 0.765625 moveto
/a glyphshow

714.656250 0.765625 moveto
/r glyphshow

724.523438 0.765625 moveto
/a glyphshow

739.230469 0.765625 moveto
/t glyphshow

748.640625 0.765625 moveto
/i glyphshow

755.308594 0.765625 moveto
/o glyphshow

769.992188 0.765625 moveto
/n glyphshow

785.203125 0.765625 moveto
/seven glyphshow

800.472656 0.765625 moveto
/period glyphshow

808.101562 0.765625 moveto
/five glyphshow

/DejaVuSans-Oblique findfont
24.0 scalefont
setfont
823.371094 0.765625 moveto
/delta glyphshow

838.054688 0.765625 moveto
/t glyphshow


grestore
1.000 setlinewidth
0 setlinecap
0.800 setgray
gsave
583.6125 275.71175 m
769.221875 275.71175 l
771.221875 275.71175 772.221875 276.71175 772.221875 278.71175 c
772.221875 453.33675 l
772.221875 455.33675 771.221875 456.33675 769.221875 456.33675 c
583.6125 456.33675 l
581.6125 456.33675 580.6125 455.33675 580.6125 453.33675 c
580.6125 278.71175 l
580.6125 276.71175 581.6125 275.71175 583.6125 275.71175 c
cl
gsave
1.000 setgray
fill
grestore
stroke
grestore
3.000 setlinewidth
1 setlinejoin
2 setlinecap
[] 0 setdash
0.000 0.000 1.000 setrgbcolor
gsave
586.6125 444.196125 m
616.6125 444.196125 l
stroke
grestore
0.000 setgray
/DejaVuSans findfont
15.000 scalefont
setfont
gsave
628.612500 438.946125 translate
0.000000 rotate
0.000000 0.000000 m /S glyphshow
9.521484 0.000000 m /T glyphshow
18.684082 0.000000 m /B glyphshow
28.974609 0.000000 m /comma glyphshow
33.742676 0.000000 m /space glyphshow
38.510742 0.000000 m /N glyphshow
49.731445 0.000000 m /o glyphshow
58.908691 0.000000 m /i glyphshow
63.076172 0.000000 m /s glyphshow
70.891113 0.000000 m /e glyphshow
80.119629 0.000000 m /space glyphshow
84.887695 0.000000 m /F glyphshow
93.500000 0.000000 m /r glyphshow
99.666992 0.000000 m /e glyphshow
108.895508 0.000000 m /e glyphshow
grestore
1.000 0.000 0.000 setrgbcolor
gsave
586.6125 422.1805 m
616.6125 422.1805 l
stroke
grestore
0.000 setgray
gsave
628.612500 416.930500 translate
0.000000 rotate
0.000000 0.000000 m /K glyphshow
9.836426 0.000000 m /L glyphshow
18.193359 0.000000 m /P glyphshow
27.238770 0.000000 m /T glyphshow
36.401367 0.000000 m /comma glyphshow
41.169434 0.000000 m /space glyphshow
45.937500 0.000000 m /N glyphshow
57.158203 0.000000 m /o glyphshow
66.335449 0.000000 m /i glyphshow
70.502930 0.000000 m /s glyphshow
78.317871 0.000000 m /e glyphshow
87.546387 0.000000 m /space glyphshow
92.314453 0.000000 m /F glyphshow
100.926758 0.000000 m /r glyphshow
107.093750 0.000000 m /e glyphshow
116.322266 0.000000 m /e glyphshow
grestore
0 setlinecap
[11.1 4.8] 0 setdash
0.000 0.000 1.000 setrgbcolor
gsave
586.6125 400.164875 m
616.6125 400.164875 l
stroke
grestore
0.000 setgray
gsave
628.612500 394.914875 translate
0.000000 rotate
0.000000 0.000000 m /S glyphshow
9.521484 0.000000 m /T glyphshow
18.684082 0.000000 m /B glyphshow
28.974609 0.000000 m /comma glyphshow
33.742676 0.000000 m /space glyphshow
38.510742 0.000000 m /P glyphshow
47.556152 0.000000 m /S glyphshow
57.077637 0.000000 m /N glyphshow
68.298340 0.000000 m /R glyphshow
78.720703 0.000000 m /equal glyphshow
91.289062 0.000000 m /four glyphshow
100.832520 0.000000 m /zero glyphshow
110.375977 0.000000 m /d glyphshow
119.897461 0.000000 m /B glyphshow
grestore
1.000 0.000 0.000 setrgbcolor
gsave
586.6125 378.14925 m
616.6125 378.14925 l
stroke
grestore
0.000 setgray
gsave
628.612500 372.899250 translate
0.000000 rotate
0.000000 0.000000 m /K glyphshow
9.836426 0.000000 m /L glyphshow
18.193359 0.000000 m /P glyphshow
27.238770 0.000000 m /T glyphshow
36.401367 0.000000 m /comma glyphshow
41.169434 0.000000 m /space glyphshow
45.937500 0.000000 m /P glyphshow
54.982910 0.000000 m /S glyphshow
64.504395 0.000000 m /N glyphshow
75.725098 0.000000 m /R glyphshow
86.147461 0.000000 m /equal glyphshow
98.715820 0.000000 m /four glyphshow
108.259277 0.000000 m /zero glyphshow
117.802734 0.000000 m /d glyphshow
127.324219 0.000000 m /B glyphshow
grestore
[3 4.95] 0 setdash
0.000 0.000 1.000 setrgbcolor
gsave
586.6125 356.133625 m
616.6125 356.133625 l
stroke
grestore
0.000 setgray
gsave
628.612500 350.883625 translate
0.000000 rotate
0.000000 0.000000 m /S glyphshow
9.521484 0.000000 m /T glyphshow
18.684082 0.000000 m /B glyphshow
28.974609 0.000000 m /comma glyphshow
33.742676 0.000000 m /space glyphshow
38.510742 0.000000 m /P glyphshow
47.556152 0.000000 m /S glyphshow
57.077637 0.000000 m /N glyphshow
68.298340 0.000000 m /R glyphshow
78.720703 0.000000 m /equal glyphshow
91.289062 0.000000 m /three glyphshow
100.832520 0.000000 m /zero glyphshow
110.375977 0.000000 m /d glyphshow
119.897461 0.000000 m /B glyphshow
grestore
1.000 0.000 0.000 setrgbcolor
gsave
586.6125 334.118 m
616.6125 334.118 l
stroke
grestore
0.000 setgray
gsave
628.612500 328.868000 translate
0.000000 rotate
0.000000 0.000000 m /K glyphshow
9.836426 0.000000 m /L glyphshow
18.193359 0.000000 m /P glyphshow
27.238770 0.000000 m /T glyphshow
36.401367 0.000000 m /comma glyphshow
41.169434 0.000000 m /space glyphshow
45.937500 0.000000 m /P glyphshow
54.982910 0.000000 m /S glyphshow
64.504395 0.000000 m /N glyphshow
75.725098 0.000000 m /R glyphshow
86.147461 0.000000 m /equal glyphshow
98.715820 0.000000 m /three glyphshow
108.259277 0.000000 m /zero glyphshow
117.802734 0.000000 m /d glyphshow
127.324219 0.000000 m /B glyphshow
grestore
[19.2 4.8 3 4.8] 0 setdash
0.000 0.000 1.000 setrgbcolor
gsave
586.6125 312.102375 m
616.6125 312.102375 l
stroke
grestore
0.000 setgray
gsave
628.612500 306.852375 translate
0.000000 rotate
0.000000 0.000000 m /S glyphshow
9.521484 0.000000 m /T glyphshow
18.684082 0.000000 m /B glyphshow
28.974609 0.000000 m /comma glyphshow
33.742676 0.000000 m /space glyphshow
38.510742 0.000000 m /P glyphshow
47.556152 0.000000 m /S glyphshow
57.077637 0.000000 m /N glyphshow
68.298340 0.000000 m /R glyphshow
78.720703 0.000000 m /equal glyphshow
91.289062 0.000000 m /two glyphshow
100.832520 0.000000 m /zero glyphshow
110.375977 0.000000 m /d glyphshow
119.897461 0.000000 m /B glyphshow
grestore
1.000 0.000 0.000 setrgbcolor
gsave
586.6125 290.08675 m
616.6125 290.08675 l
stroke
grestore
0.000 setgray
gsave
628.612500 284.836750 translate
0.000000 rotate
0.000000 0.000000 m /K glyphshow
9.836426 0.000000 m /L glyphshow
18.193359 0.000000 m /P glyphshow
27.238770 0.000000 m /T glyphshow
36.401367 0.000000 m /comma glyphshow
41.169434 0.000000 m /space glyphshow
45.937500 0.000000 m /P glyphshow
54.982910 0.000000 m /S glyphshow
64.504395 0.000000 m /N glyphshow
75.725098 0.000000 m /R glyphshow
86.147461 0.000000 m /equal glyphshow
98.715820 0.000000 m /two glyphshow
108.259277 0.000000 m /zero glyphshow
117.802734 0.000000 m /d glyphshow
127.324219 0.000000 m /B glyphshow
grestore

end
showpage
