%!PS-Adobe-3.0 EPSF-3.0
%%Title: /home/yin/030000_error_thin_noise.eps
%%Creator: matplotlib version 3.1.1, http://matplotlib.org/
%%CreationDate: Mon May 11 23:48:15 2020
%%Orientation: portrait
%%BoundingBox: -126.5609374999999 98.08562500000005 738.5609374999999 693.914375
%%EndComments
%%BeginProlog
/mpldict 9 dict def
mpldict begin
/m { moveto } bind def
/l { lineto } bind def
/r { rlineto } bind def
/c { curveto } bind def
/cl { closepath } bind def
/box {
m
1 index 0 r
0 exch r
neg 0 r
cl
} bind def
/clipbox {
box
clip
newpath
} bind def
%!PS-Adobe-3.0 Resource-Font
%%Title: DejaVu Sans
%%Copyright: Copyright (c) 2003 by Bitstream, Inc. All Rights Reserved. Copyright (c) 2006 by Tavmjong Bah. All Rights Reserved. DejaVu changes are in public domain 
%%Creator: Converted from TrueType to type 3 by PPR
25 dict begin
/_d{bind def}bind def
/_m{moveto}_d
/_l{lineto}_d
/_cl{closepath eofill}_d
/_c{curveto}_d
/_sc{7 -1 roll{setcachedevice}{pop pop pop pop pop pop}ifelse}_d
/_e{exec}_d
/FontName /DejaVuSans def
/PaintType 0 def
/FontMatrix[.001 0 0 .001 0 0]def
/FontBBox[-1021 -463 1793 1232]def
/FontType 3 def
/Encoding [ /space /parenleft /parenright /comma /period /zero /one /two /three /four /five /seven /equal /B /E /F /K /L /M /N /P /R /S /T /a /c /d /e /f /h /i /l /m /n /o /p /r /s /t /x ] def
/FontInfo 10 dict dup begin
/FamilyName (DejaVu Sans) def
/FullName (DejaVu Sans) def
/Notice (Copyright (c) 2003 by Bitstream, Inc. All Rights Reserved. Copyright (c) 2006 by Tavmjong Bah. All Rights Reserved. DejaVu changes are in public domain ) def
/Weight (Book) def
/Version (Version 2.35) def
/ItalicAngle 0.0 def
/isFixedPitch false def
/UnderlinePosition -130 def
/UnderlineThickness 90 def
end readonly def
/CharStrings 41 dict dup begin
/.notdef 0 def
/space{318 0 0 0 0 0 _sc
}_d
/parenleft{390 0 86 -131 310 759 _sc
310 759 _m
266 683 234 609 213 536 _c
191 463 181 389 181 314 _c
181 238 191 164 213 91 _c
234 17 266 -56 310 -131 _c
232 -131 _l
183 -54 146 20 122 94 _c
98 168 86 241 86 314 _c
86 386 98 459 122 533 _c
146 607 182 682 232 759 _c
310 759 _l
_cl}_d
/parenright{390 0 80 -131 304 759 _sc
80 759 _m
158 759 _l
206 682 243 607 267 533 _c
291 459 304 386 304 314 _c
304 241 291 168 267 94 _c
243 20 206 -54 158 -131 _c
80 -131 _l
123 -56 155 17 177 91 _c
198 164 209 238 209 314 _c
209 389 198 463 177 536 _c
155 609 123 683 80 759 _c
_cl}_d
/comma{318 0 77 -115 220 124 _sc
117 124 _m
220 124 _l
220 40 _l
140 -115 _l
77 -115 _l
117 40 _l
117 124 _l
_cl}_d
/period{318 0 107 0 210 124 _sc
107 124 _m
210 124 _l
210 0 _l
107 0 _l
107 124 _l
_cl}_d
/zero{636 0 66 -13 570 742 _sc
318 664 _m
267 664 229 639 203 589 _c
177 539 165 464 165 364 _c
165 264 177 189 203 139 _c
229 89 267 64 318 64 _c
369 64 407 89 433 139 _c
458 189 471 264 471 364 _c
471 464 458 539 433 589 _c
407 639 369 664 318 664 _c
318 742 _m
399 742 461 709 505 645 _c
548 580 570 486 570 364 _c
570 241 548 147 505 83 _c
461 19 399 -13 318 -13 _c
236 -13 173 19 130 83 _c
87 147 66 241 66 364 _c
66 486 87 580 130 645 _c
173 709 236 742 318 742 _c
_cl}_d
/one{636 0 110 0 544 729 _sc
124 83 _m
285 83 _l
285 639 _l
110 604 _l
110 694 _l
284 729 _l
383 729 _l
383 83 _l
544 83 _l
544 0 _l
124 0 _l
124 83 _l
_cl}_d
/two{{636 0 73 0 536 742 _sc
192 83 _m
536 83 _l
536 0 _l
73 0 _l
73 83 _l
110 121 161 173 226 239 _c
290 304 331 346 348 365 _c
380 400 402 430 414 455 _c
426 479 433 504 433 528 _c
433 566 419 598 392 622 _c
365 646 330 659 286 659 _c
255 659 222 653 188 643 _c
154 632 117 616 78 594 _c
78 694 _l
118 710 155 722 189 730 _c
223 738 255 742 284 742 _c
}_e{359 742 419 723 464 685 _c
509 647 532 597 532 534 _c
532 504 526 475 515 449 _c
504 422 484 390 454 354 _c
446 344 420 317 376 272 _c
332 227 271 164 192 83 _c
_cl}_e}_d
/three{{636 0 76 -13 556 742 _sc
406 393 _m
453 383 490 362 516 330 _c
542 298 556 258 556 212 _c
556 140 531 84 482 45 _c
432 6 362 -13 271 -13 _c
240 -13 208 -10 176 -4 _c
144 1 110 10 76 22 _c
76 117 _l
103 101 133 89 166 81 _c
198 73 232 69 268 69 _c
330 69 377 81 409 105 _c
441 129 458 165 458 212 _c
458 254 443 288 413 312 _c
383 336 341 349 287 349 _c
}_e{202 349 _l
202 430 _l
291 430 _l
339 430 376 439 402 459 _c
428 478 441 506 441 543 _c
441 580 427 609 401 629 _c
374 649 336 659 287 659 _c
260 659 231 656 200 650 _c
169 644 135 635 98 623 _c
98 711 _l
135 721 170 729 203 734 _c
235 739 266 742 296 742 _c
370 742 429 725 473 691 _c
517 657 539 611 539 553 _c
539 513 527 479 504 451 _c
481 423 448 403 406 393 _c
_cl}_e}_d
/four{636 0 49 0 580 729 _sc
378 643 _m
129 254 _l
378 254 _l
378 643 _l
352 729 _m
476 729 _l
476 254 _l
580 254 _l
580 172 _l
476 172 _l
476 0 _l
378 0 _l
378 172 _l
49 172 _l
49 267 _l
352 729 _l
_cl}_d
/five{{636 0 77 -13 549 729 _sc
108 729 _m
495 729 _l
495 646 _l
198 646 _l
198 467 _l
212 472 227 476 241 478 _c
255 480 270 482 284 482 _c
365 482 429 459 477 415 _c
525 370 549 310 549 234 _c
549 155 524 94 475 51 _c
426 8 357 -13 269 -13 _c
238 -13 207 -10 175 -6 _c
143 -1 111 6 77 17 _c
77 116 _l
106 100 136 88 168 80 _c
199 72 232 69 267 69 _c
}_e{323 69 368 83 401 113 _c
433 143 450 183 450 234 _c
450 284 433 324 401 354 _c
368 384 323 399 267 399 _c
241 399 214 396 188 390 _c
162 384 135 375 108 363 _c
108 729 _l
_cl}_e}_d
/seven{636 0 82 0 551 729 _sc
82 729 _m
551 729 _l
551 687 _l
286 0 _l
183 0 _l
432 646 _l
82 646 _l
82 729 _l
_cl}_d
/equal{838 0 106 172 732 454 _sc
106 454 _m
732 454 _l
732 372 _l
106 372 _l
106 454 _l
106 255 _m
732 255 _l
732 172 _l
106 172 _l
106 255 _l
_cl}_d
/B{{686 0 98 0 615 729 _sc
197 348 _m
197 81 _l
355 81 _l
408 81 447 92 473 114 _c
498 136 511 169 511 215 _c
511 260 498 293 473 315 _c
447 337 408 348 355 348 _c
197 348 _l
197 648 _m
197 428 _l
343 428 _l
391 428 426 437 450 455 _c
474 473 486 500 486 538 _c
486 574 474 602 450 620 _c
426 638 391 648 343 648 _c
197 648 _l
98 729 _m
350 729 _l
}_e{425 729 483 713 524 682 _c
564 650 585 606 585 549 _c
585 504 574 468 553 442 _c
532 416 502 399 462 393 _c
510 382 548 360 575 327 _c
601 294 615 253 615 204 _c
615 138 592 88 548 53 _c
504 17 441 0 360 0 _c
98 0 _l
98 729 _l
_cl}_e}_d
/E{632 0 98 0 568 729 _sc
98 729 _m
559 729 _l
559 646 _l
197 646 _l
197 430 _l
544 430 _l
544 347 _l
197 347 _l
197 83 _l
568 83 _l
568 0 _l
98 0 _l
98 729 _l
_cl}_d
/F{575 0 98 0 517 729 _sc
98 729 _m
517 729 _l
517 646 _l
197 646 _l
197 431 _l
486 431 _l
486 348 _l
197 348 _l
197 0 _l
98 0 _l
98 729 _l
_cl}_d
/K{656 0 98 0 677 729 _sc
98 729 _m
197 729 _l
197 421 _l
524 729 _l
651 729 _l
289 389 _l
677 0 _l
547 0 _l
197 351 _l
197 0 _l
98 0 _l
98 729 _l
_cl}_d
/L{557 0 98 0 552 729 _sc
98 729 _m
197 729 _l
197 83 _l
552 83 _l
552 0 _l
98 0 _l
98 729 _l
_cl}_d
/M{863 0 98 0 765 729 _sc
98 729 _m
245 729 _l
431 233 _l
618 729 _l
765 729 _l
765 0 _l
669 0 _l
669 640 _l
481 140 _l
382 140 _l
194 640 _l
194 0 _l
98 0 _l
98 729 _l
_cl}_d
/N{748 0 98 0 650 729 _sc
98 729 _m
231 729 _l
554 119 _l
554 729 _l
650 729 _l
650 0 _l
517 0 _l
194 610 _l
194 0 _l
98 0 _l
98 729 _l
_cl}_d
/P{603 0 98 0 569 729 _sc
197 648 _m
197 374 _l
321 374 _l
367 374 402 385 427 409 _c
452 433 465 467 465 511 _c
465 555 452 588 427 612 _c
402 636 367 648 321 648 _c
197 648 _l
98 729 _m
321 729 _l
402 729 464 710 506 673 _c
548 636 569 582 569 511 _c
569 439 548 384 506 348 _c
464 311 402 293 321 293 _c
197 293 _l
197 0 _l
98 0 _l
98 729 _l
_cl}_d
/R{{695 0 98 0 666 729 _sc
444 342 _m
465 334 486 319 506 296 _c
526 272 546 240 566 199 _c
666 0 _l
560 0 _l
467 187 _l
443 235 419 268 397 284 _c
374 300 343 308 304 308 _c
197 308 _l
197 0 _l
98 0 _l
98 729 _l
321 729 _l
404 729 466 711 507 677 _c
548 642 569 589 569 519 _c
569 473 558 434 537 404 _c
515 374 484 353 444 342 _c
197 648 _m
197 389 _l
321 389 _l
}_e{368 389 404 400 428 422 _c
452 444 465 476 465 519 _c
465 561 452 593 428 615 _c
404 637 368 648 321 648 _c
197 648 _l
_cl}_e}_d
/S{{635 0 66 -13 579 742 _sc
535 705 _m
535 609 _l
497 627 462 640 429 649 _c
395 657 363 662 333 662 _c
279 662 237 651 208 631 _c
179 610 165 580 165 542 _c
165 510 174 485 194 469 _c
213 452 250 439 304 429 _c
364 417 _l
437 403 491 378 526 343 _c
561 307 579 260 579 201 _c
579 130 555 77 508 41 _c
460 5 391 -13 300 -13 _c
265 -13 228 -9 189 -2 _c
}_e{150 5 110 16 69 32 _c
69 134 _l
109 111 148 94 186 83 _c
224 71 262 66 300 66 _c
356 66 399 77 430 99 _c
460 121 476 152 476 194 _c
476 230 465 258 443 278 _c
421 298 385 313 335 323 _c
275 335 _l
201 349 148 372 115 404 _c
82 435 66 478 66 534 _c
66 598 88 649 134 686 _c
179 723 242 742 322 742 _c
356 742 390 739 426 733 _c
461 727 497 717 535 705 _c
}_e{_cl}_e}_d
/T{611 0 -2 0 614 729 _sc
-2 729 _m
614 729 _l
614 646 _l
355 646 _l
355 0 _l
256 0 _l
256 646 _l
-2 646 _l
-2 729 _l
_cl}_d
/a{{613 0 60 -13 522 560 _sc
343 275 _m
270 275 220 266 192 250 _c
164 233 150 205 150 165 _c
150 133 160 107 181 89 _c
202 70 231 61 267 61 _c
317 61 357 78 387 114 _c
417 149 432 196 432 255 _c
432 275 _l
343 275 _l
522 312 _m
522 0 _l
432 0 _l
432 83 _l
411 49 385 25 355 10 _c
325 -5 287 -13 243 -13 _c
187 -13 142 2 109 33 _c
76 64 60 106 60 159 _c
}_e{60 220 80 266 122 298 _c
163 329 224 345 306 345 _c
432 345 _l
432 354 _l
432 395 418 427 391 450 _c
364 472 326 484 277 484 _c
245 484 215 480 185 472 _c
155 464 127 453 100 439 _c
100 522 _l
132 534 164 544 195 550 _c
226 556 256 560 286 560 _c
365 560 424 539 463 498 _c
502 457 522 395 522 312 _c
_cl}_e}_d
/c{{550 0 55 -13 488 560 _sc
488 526 _m
488 442 _l
462 456 437 466 411 473 _c
385 480 360 484 334 484 _c
276 484 230 465 198 428 _c
166 391 150 339 150 273 _c
150 206 166 154 198 117 _c
230 80 276 62 334 62 _c
360 62 385 65 411 72 _c
437 79 462 90 488 104 _c
488 21 _l
462 9 436 0 410 -5 _c
383 -10 354 -13 324 -13 _c
242 -13 176 12 128 64 _c
}_e{79 115 55 185 55 273 _c
55 362 79 432 128 483 _c
177 534 244 560 330 560 _c
358 560 385 557 411 551 _c
437 545 463 537 488 526 _c
_cl}_e}_d
/d{{635 0 55 -13 544 760 _sc
454 464 _m
454 760 _l
544 760 _l
544 0 _l
454 0 _l
454 82 _l
435 49 411 25 382 10 _c
353 -5 319 -13 279 -13 _c
213 -13 159 13 117 65 _c
75 117 55 187 55 273 _c
55 359 75 428 117 481 _c
159 533 213 560 279 560 _c
319 560 353 552 382 536 _c
411 520 435 496 454 464 _c
148 273 _m
148 207 161 155 188 117 _c
215 79 253 61 301 61 _c
}_e{348 61 385 79 413 117 _c
440 155 454 207 454 273 _c
454 339 440 390 413 428 _c
385 466 348 485 301 485 _c
253 485 215 466 188 428 _c
161 390 148 339 148 273 _c
_cl}_e}_d
/e{{615 0 55 -13 562 560 _sc
562 296 _m
562 252 _l
149 252 _l
153 190 171 142 205 110 _c
238 78 284 62 344 62 _c
378 62 412 66 444 74 _c
476 82 509 95 541 113 _c
541 28 _l
509 14 476 3 442 -3 _c
408 -9 373 -13 339 -13 _c
251 -13 182 12 131 62 _c
80 112 55 181 55 268 _c
55 357 79 428 127 481 _c
175 533 241 560 323 560 _c
397 560 455 536 498 489 _c
}_e{540 441 562 377 562 296 _c
472 322 _m
471 371 457 410 431 440 _c
404 469 368 484 324 484 _c
274 484 234 469 204 441 _c
174 413 156 373 152 322 _c
472 322 _l
_cl}_e}_d
/f{352 0 23 0 371 760 _sc
371 760 _m
371 685 _l
285 685 _l
253 685 230 678 218 665 _c
205 652 199 629 199 595 _c
199 547 _l
347 547 _l
347 477 _l
199 477 _l
199 0 _l
109 0 _l
109 477 _l
23 477 _l
23 547 _l
109 547 _l
109 585 _l
109 645 123 690 151 718 _c
179 746 224 760 286 760 _c
371 760 _l
_cl}_d
/h{634 0 91 0 549 760 _sc
549 330 _m
549 0 _l
459 0 _l
459 327 _l
459 379 448 417 428 443 _c
408 469 378 482 338 482 _c
289 482 251 466 223 435 _c
195 404 181 362 181 309 _c
181 0 _l
91 0 _l
91 760 _l
181 760 _l
181 462 _l
202 494 227 519 257 535 _c
286 551 320 560 358 560 _c
420 560 468 540 500 501 _c
532 462 549 405 549 330 _c
_cl}_d
/i{278 0 94 0 184 760 _sc
94 547 _m
184 547 _l
184 0 _l
94 0 _l
94 547 _l
94 760 _m
184 760 _l
184 646 _l
94 646 _l
94 760 _l
_cl}_d
/l{278 0 94 0 184 760 _sc
94 760 _m
184 760 _l
184 0 _l
94 0 _l
94 760 _l
_cl}_d
/m{{974 0 91 0 889 560 _sc
520 442 _m
542 482 569 511 600 531 _c
631 550 668 560 711 560 _c
767 560 811 540 842 500 _c
873 460 889 403 889 330 _c
889 0 _l
799 0 _l
799 327 _l
799 379 789 418 771 444 _c
752 469 724 482 686 482 _c
639 482 602 466 575 435 _c
548 404 535 362 535 309 _c
535 0 _l
445 0 _l
445 327 _l
445 379 435 418 417 444 _c
398 469 369 482 331 482 _c
}_e{285 482 248 466 221 435 _c
194 404 181 362 181 309 _c
181 0 _l
91 0 _l
91 547 _l
181 547 _l
181 462 _l
201 495 226 520 255 536 _c
283 552 317 560 357 560 _c
397 560 430 550 458 530 _c
486 510 506 480 520 442 _c
_cl}_e}_d
/n{634 0 91 0 549 560 _sc
549 330 _m
549 0 _l
459 0 _l
459 327 _l
459 379 448 417 428 443 _c
408 469 378 482 338 482 _c
289 482 251 466 223 435 _c
195 404 181 362 181 309 _c
181 0 _l
91 0 _l
91 547 _l
181 547 _l
181 462 _l
202 494 227 519 257 535 _c
286 551 320 560 358 560 _c
420 560 468 540 500 501 _c
532 462 549 405 549 330 _c
_cl}_d
/o{612 0 55 -13 557 560 _sc
306 484 _m
258 484 220 465 192 427 _c
164 389 150 338 150 273 _c
150 207 163 156 191 118 _c
219 80 257 62 306 62 _c
354 62 392 80 420 118 _c
448 156 462 207 462 273 _c
462 337 448 389 420 427 _c
392 465 354 484 306 484 _c
306 560 _m
384 560 445 534 490 484 _c
534 433 557 363 557 273 _c
557 183 534 113 490 63 _c
445 12 384 -13 306 -13 _c
227 -13 165 12 121 63 _c
77 113 55 183 55 273 _c
55 363 77 433 121 484 _c
165 534 227 560 306 560 _c
_cl}_d
/p{{635 0 91 -207 580 560 _sc
181 82 _m
181 -207 _l
91 -207 _l
91 547 _l
181 547 _l
181 464 _l
199 496 223 520 252 536 _c
281 552 316 560 356 560 _c
422 560 476 533 518 481 _c
559 428 580 359 580 273 _c
580 187 559 117 518 65 _c
476 13 422 -13 356 -13 _c
316 -13 281 -5 252 10 _c
223 25 199 49 181 82 _c
487 273 _m
487 339 473 390 446 428 _c
418 466 381 485 334 485 _c
}_e{286 485 249 466 222 428 _c
194 390 181 339 181 273 _c
181 207 194 155 222 117 _c
249 79 286 61 334 61 _c
381 61 418 79 446 117 _c
473 155 487 207 487 273 _c
_cl}_e}_d
/r{411 0 91 0 411 560 _sc
411 463 _m
401 469 390 473 378 476 _c
366 478 353 480 339 480 _c
288 480 249 463 222 430 _c
194 397 181 350 181 288 _c
181 0 _l
91 0 _l
91 547 _l
181 547 _l
181 462 _l
199 495 224 520 254 536 _c
284 552 321 560 365 560 _c
371 560 378 559 386 559 _c
393 558 401 557 411 555 _c
411 463 _l
_cl}_d
/s{{521 0 54 -13 472 560 _sc
443 531 _m
443 446 _l
417 458 391 468 364 475 _c
336 481 308 485 279 485 _c
234 485 200 478 178 464 _c
156 450 145 430 145 403 _c
145 382 153 366 169 354 _c
185 342 217 330 265 320 _c
296 313 _l
360 299 405 279 432 255 _c
458 230 472 195 472 151 _c
472 100 452 60 412 31 _c
372 1 316 -13 246 -13 _c
216 -13 186 -10 154 -5 _c
}_e{122 0 89 8 54 20 _c
54 113 _l
87 95 120 82 152 74 _c
184 65 216 61 248 61 _c
290 61 323 68 346 82 _c
368 96 380 117 380 144 _c
380 168 371 187 355 200 _c
339 213 303 226 247 238 _c
216 245 _l
160 257 119 275 95 299 _c
70 323 58 356 58 399 _c
58 450 76 490 112 518 _c
148 546 200 560 268 560 _c
301 560 332 557 362 552 _c
391 547 418 540 443 531 _c
}_e{_cl}_e}_d
/t{392 0 27 0 368 702 _sc
183 702 _m
183 547 _l
368 547 _l
368 477 _l
183 477 _l
183 180 _l
183 135 189 106 201 94 _c
213 81 238 75 276 75 _c
368 75 _l
368 0 _l
276 0 _l
206 0 158 13 132 39 _c
106 65 93 112 93 180 _c
93 477 _l
27 477 _l
27 547 _l
93 547 _l
93 702 _l
183 702 _l
_cl}_d
/x{592 0 29 0 559 547 _sc
549 547 _m
351 281 _l
559 0 _l
453 0 _l
294 215 _l
135 0 _l
29 0 _l
241 286 _l
47 547 _l
153 547 _l
298 352 _l
443 547 _l
549 547 _l
_cl}_d
end readonly def

/BuildGlyph
 {exch begin
 CharStrings exch
 2 copy known not{pop /.notdef}if
 true 3 1 roll get exec
 end}_d

/BuildChar {
 1 index /Encoding get exch get
 1 index /BuildGlyph get exec
}_d

FontName currentdict end definefont pop
%!PS-Adobe-3.0 Resource-Font
%%Title: DejaVu Sans Oblique
%%Copyright: Copyright (c) 2003 by Bitstream, Inc. All Rights Reserved. Copyright (c) 2006 by Tavmjong Bah. All Rights Reserved. DejaVu changes are in public domain 
%%Creator: Converted from TrueType to type 3 by PPR
25 dict begin
/_d{bind def}bind def
/_m{moveto}_d
/_l{lineto}_d
/_cl{closepath eofill}_d
/_c{curveto}_d
/_sc{7 -1 roll{setcachedevice}{pop pop pop pop pop pop}ifelse}_d
/_e{exec}_d
/FontName /DejaVuSans-Oblique def
/PaintType 0 def
/FontMatrix[.001 0 0 .001 0 0]def
/FontBBox[-1016 -350 1659 1068]def
/FontType 3 def
/Encoding [ /t /delta ] def
/FontInfo 10 dict dup begin
/FamilyName (DejaVu Sans) def
/FullName (DejaVu Sans Oblique) def
/Notice (Copyright (c) 2003 by Bitstream, Inc. All Rights Reserved. Copyright (c) 2006 by Tavmjong Bah. All Rights Reserved. DejaVu changes are in public domain ) def
/Weight (Oblique) def
/Version (Version 2.35) def
/ItalicAngle -11.0 def
/isFixedPitch false def
/UnderlinePosition -130 def
/UnderlineThickness 90 def
end readonly def
/CharStrings 3 dict dup begin
/.notdef 0 def
/t{{392 0 64 0 423 702 _sc
423 547 _m
409 477 _l
230 477 _l
172 180 _l
170 169 168 160 167 152 _c
166 144 166 139 166 135 _c
166 114 172 99 185 89 _c
197 79 217 75 245 75 _c
336 75 _l
321 0 _l
235 0 _l
181 0 141 10 115 31 _c
89 52 76 84 76 126 _c
76 133 76 141 77 150 _c
78 159 80 169 82 180 _c
140 477 _l
64 477 _l
78 547 _l
153 547 _l
183 702 _l
}_e{273 702 _l
243 547 _l
423 547 _l
_cl}_e}_d
/delta{{612 0 38 -13 557 742 _sc
542 633 _m
514 655 461 667 383 667 _c
300 667 255 648 248 610 _c
242 580 280 557 364 542 _c
428 530 476 505 508 469 _c
546 425 556 358 539 268 _c
521 182 486 113 432 63 _c
377 12 310 -13 232 -13 _c
154 -13 98 12 63 63 _c
28 113 20 183 38 273 _c
50 339 84 399 139 453 _c
160 473 184 490 211 502 _c
165 528 147 563 156 609 _c
}_e{173 697 253 742 397 742 _c
469 742 522 730 557 708 _c
542 633 _l
274 478 _m
250 468 226 451 204 428 _c
168 391 144 339 132 273 _c
119 207 123 155 144 118 _c
164 80 199 62 248 62 _c
295 62 336 81 372 119 _c
407 156 431 206 443 268 _c
455 332 450 380 427 412 _c
401 445 369 464 329 468 _c
308 470 290 473 274 478 _c
_cl}_e}_d
end readonly def

/BuildGlyph
 {exch begin
 CharStrings exch
 2 copy known not{pop /.notdef}if
 true 3 1 roll get exec
 end}_d

/BuildChar {
 1 index /Encoding get exch get
 1 index /BuildGlyph get exec
}_d

FontName currentdict end definefont pop
end
%%EndProlog
mpldict begin
-126.561 98.086 translate
865.122 595.829 0 0 clipbox
gsave
0 0 m
865.121875 0 l
865.121875 595.82875 l
0 595.82875 l
cl
1.000 setgray
fill
grestore
gsave
110.121875 64.66875 m
779.721875 64.66875 l
779.721875 563.62875 l
110.121875 563.62875 l
cl
1.000 setgray
fill
grestore
0.800 setlinewidth
1 setlinejoin
0 setlinecap
[] 0 setdash
0.000 setgray
gsave
/o {
gsave
newpath
translate
0.8 setlinewidth
1 setlinejoin
0 setlinecap
0 0 m
0 -3.5 l

gsave
0.000 setgray
fill
grestore
stroke
grestore
} bind def
110.122 64.6688 o
grestore
/DejaVuSans findfont
24.000 scalefont
setfont
gsave
102.489063 39.434375 translate
0.000000 rotate
0.000000 0.000000 m /five glyphshow
grestore
gsave
/o {
gsave
newpath
translate
0.8 setlinewidth
1 setlinejoin
0 setlinecap
0 0 m
0 -3.5 l

gsave
0.000 setgray
fill
grestore
stroke
grestore
} bind def
184.522 64.6688 o
grestore
gsave
169.256250 39.434375 translate
0.000000 rotate
0.000000 0.000000 m /one glyphshow
15.269531 0.000000 m /zero glyphshow
grestore
gsave
/o {
gsave
newpath
translate
0.8 setlinewidth
1 setlinejoin
0 setlinecap
0 0 m
0 -3.5 l

gsave
0.000 setgray
fill
grestore
stroke
grestore
} bind def
258.922 64.6688 o
grestore
gsave
243.656250 39.434375 translate
0.000000 rotate
0.000000 0.000000 m /one glyphshow
15.269531 0.000000 m /five glyphshow
grestore
gsave
/o {
gsave
newpath
translate
0.8 setlinewidth
1 setlinejoin
0 setlinecap
0 0 m
0 -3.5 l

gsave
0.000 setgray
fill
grestore
stroke
grestore
} bind def
333.322 64.6688 o
grestore
gsave
318.056250 39.434375 translate
0.000000 rotate
0.000000 0.000000 m /two glyphshow
15.269531 0.000000 m /zero glyphshow
grestore
gsave
/o {
gsave
newpath
translate
0.8 setlinewidth
1 setlinejoin
0 setlinecap
0 0 m
0 -3.5 l

gsave
0.000 setgray
fill
grestore
stroke
grestore
} bind def
407.722 64.6688 o
grestore
gsave
392.456250 39.434375 translate
0.000000 rotate
0.000000 0.000000 m /two glyphshow
15.269531 0.000000 m /five glyphshow
grestore
gsave
/o {
gsave
newpath
translate
0.8 setlinewidth
1 setlinejoin
0 setlinecap
0 0 m
0 -3.5 l

gsave
0.000 setgray
fill
grestore
stroke
grestore
} bind def
482.122 64.6688 o
grestore
gsave
466.856250 39.434375 translate
0.000000 rotate
0.000000 0.000000 m /three glyphshow
15.269531 0.000000 m /zero glyphshow
grestore
gsave
/o {
gsave
newpath
translate
0.8 setlinewidth
1 setlinejoin
0 setlinecap
0 0 m
0 -3.5 l

gsave
0.000 setgray
fill
grestore
stroke
grestore
} bind def
556.522 64.6688 o
grestore
gsave
541.256250 39.434375 translate
0.000000 rotate
0.000000 0.000000 m /three glyphshow
15.269531 0.000000 m /five glyphshow
grestore
gsave
/o {
gsave
newpath
translate
0.8 setlinewidth
1 setlinejoin
0 setlinecap
0 0 m
0 -3.5 l

gsave
0.000 setgray
fill
grestore
stroke
grestore
} bind def
630.922 64.6688 o
grestore
gsave
615.656250 39.434375 translate
0.000000 rotate
0.000000 0.000000 m /four glyphshow
15.269531 0.000000 m /zero glyphshow
grestore
gsave
/o {
gsave
newpath
translate
0.8 setlinewidth
1 setlinejoin
0 setlinecap
0 0 m
0 -3.5 l

gsave
0.000 setgray
fill
grestore
stroke
grestore
} bind def
705.322 64.6688 o
grestore
gsave
690.056250 39.434375 translate
0.000000 rotate
0.000000 0.000000 m /four glyphshow
15.269531 0.000000 m /five glyphshow
grestore
gsave
/o {
gsave
newpath
translate
0.8 setlinewidth
1 setlinejoin
0 setlinecap
0 0 m
0 -3.5 l

gsave
0.000 setgray
fill
grestore
stroke
grestore
} bind def
779.722 64.6688 o
grestore
gsave
764.456250 39.434375 translate
0.000000 rotate
0.000000 0.000000 m /five glyphshow
15.269531 0.000000 m /zero glyphshow
grestore
gsave
382.570312 12.200000 translate
0.000000 rotate
0.000000 0.000000 m /S glyphshow
15.234375 0.000000 m /n glyphshow
30.445312 0.000000 m /a glyphshow
45.152344 0.000000 m /p glyphshow
60.386719 0.000000 m /s glyphshow
72.890625 0.000000 m /h glyphshow
88.101562 0.000000 m /o glyphshow
102.785156 0.000000 m /t glyphshow
112.195312 0.000000 m /s glyphshow
grestore
gsave
/o {
gsave
newpath
translate
0.8 setlinewidth
1 setlinejoin
0 setlinecap
0 0 m
-3.5 0 l

gsave
0.000 setgray
fill
grestore
stroke
grestore
} bind def
110.122 64.6688 o
grestore
gsave
34.434375 55.551563 translate
0.000000 rotate
0.000000 0.000000 m /zero glyphshow
15.269531 0.000000 m /period glyphshow
22.898438 0.000000 m /zero glyphshow
38.167969 0.000000 m /zero glyphshow
53.437500 0.000000 m /five glyphshow
grestore
gsave
/o {
gsave
newpath
translate
0.8 setlinewidth
1 setlinejoin
0 setlinecap
0 0 m
-3.5 0 l

gsave
0.000 setgray
fill
grestore
stroke
grestore
} bind def
110.122 139.136 o
grestore
gsave
34.434375 130.018706 translate
0.000000 rotate
0.000000 0.000000 m /zero glyphshow
15.269531 0.000000 m /period glyphshow
22.898438 0.000000 m /zero glyphshow
38.167969 0.000000 m /one glyphshow
53.437500 0.000000 m /zero glyphshow
grestore
gsave
/o {
gsave
newpath
translate
0.8 setlinewidth
1 setlinejoin
0 setlinecap
0 0 m
-3.5 0 l

gsave
0.000 setgray
fill
grestore
stroke
grestore
} bind def
110.122 213.603 o
grestore
gsave
34.434375 204.485849 translate
0.000000 rotate
0.000000 0.000000 m /zero glyphshow
15.269531 0.000000 m /period glyphshow
22.898438 0.000000 m /zero glyphshow
38.167969 0.000000 m /two glyphshow
53.437500 0.000000 m /zero glyphshow
grestore
gsave
/o {
gsave
newpath
translate
0.8 setlinewidth
1 setlinejoin
0 setlinecap
0 0 m
-3.5 0 l

gsave
0.000 setgray
fill
grestore
stroke
grestore
} bind def
110.122 312.043 o
grestore
gsave
34.434375 302.926058 translate
0.000000 rotate
0.000000 0.000000 m /zero glyphshow
15.269531 0.000000 m /period glyphshow
22.898438 0.000000 m /zero glyphshow
38.167969 0.000000 m /five glyphshow
53.437500 0.000000 m /zero glyphshow
grestore
gsave
/o {
gsave
newpath
translate
0.8 setlinewidth
1 setlinejoin
0 setlinecap
0 0 m
-3.5 0 l

gsave
0.000 setgray
fill
grestore
stroke
grestore
} bind def
110.122 386.51 o
grestore
gsave
34.434375 377.393201 translate
0.000000 rotate
0.000000 0.000000 m /zero glyphshow
15.269531 0.000000 m /period glyphshow
22.898438 0.000000 m /one glyphshow
38.167969 0.000000 m /zero glyphshow
53.437500 0.000000 m /zero glyphshow
grestore
gsave
/o {
gsave
newpath
translate
0.8 setlinewidth
1 setlinejoin
0 setlinecap
0 0 m
-3.5 0 l

gsave
0.000 setgray
fill
grestore
stroke
grestore
} bind def
110.122 460.978 o
grestore
gsave
34.434375 451.860344 translate
0.000000 rotate
0.000000 0.000000 m /zero glyphshow
15.269531 0.000000 m /period glyphshow
22.898438 0.000000 m /two glyphshow
38.167969 0.000000 m /zero glyphshow
53.437500 0.000000 m /zero glyphshow
grestore
gsave
/o {
gsave
newpath
translate
0.8 setlinewidth
1 setlinejoin
0 setlinecap
0 0 m
-3.5 0 l

gsave
0.000 setgray
fill
grestore
stroke
grestore
} bind def
110.122 559.418 o
grestore
gsave
34.434375 550.300553 translate
0.000000 rotate
0.000000 0.000000 m /zero glyphshow
15.269531 0.000000 m /period glyphshow
22.898438 0.000000 m /five glyphshow
38.167969 0.000000 m /zero glyphshow
53.437500 0.000000 m /zero glyphshow
grestore
0.600 setlinewidth
gsave
/o {
gsave
newpath
translate
0.6 setlinewidth
1 setlinejoin
0 setlinecap
0 0 m
-2 0 l

gsave
0.000 setgray
fill
grestore
stroke
grestore
} bind def
110.122 84.2562 o
grestore
gsave
/o {
gsave
newpath
translate
0.6 setlinewidth
1 setlinejoin
0 setlinecap
0 0 m
-2 0 l

gsave
0.000 setgray
fill
grestore
stroke
grestore
} bind def
110.122 100.817 o
grestore
gsave
/o {
gsave
newpath
translate
0.6 setlinewidth
1 setlinejoin
0 setlinecap
0 0 m
-2 0 l

gsave
0.000 setgray
fill
grestore
stroke
grestore
} bind def
110.122 115.163 o
grestore
gsave
/o {
gsave
newpath
translate
0.6 setlinewidth
1 setlinejoin
0 setlinecap
0 0 m
-2 0 l

gsave
0.000 setgray
fill
grestore
stroke
grestore
} bind def
110.122 127.817 o
grestore
gsave
/o {
gsave
newpath
translate
0.6 setlinewidth
1 setlinejoin
0 setlinecap
0 0 m
-2 0 l

gsave
0.000 setgray
fill
grestore
stroke
grestore
} bind def
110.122 257.164 o
grestore
gsave
/o {
gsave
newpath
translate
0.6 setlinewidth
1 setlinejoin
0 setlinecap
0 0 m
-2 0 l

gsave
0.000 setgray
fill
grestore
stroke
grestore
} bind def
110.122 288.07 o
grestore
gsave
/o {
gsave
newpath
translate
0.6 setlinewidth
1 setlinejoin
0 setlinecap
0 0 m
-2 0 l

gsave
0.000 setgray
fill
grestore
stroke
grestore
} bind def
110.122 331.631 o
grestore
gsave
/o {
gsave
newpath
translate
0.6 setlinewidth
1 setlinejoin
0 setlinecap
0 0 m
-2 0 l

gsave
0.000 setgray
fill
grestore
stroke
grestore
} bind def
110.122 348.192 o
grestore
gsave
/o {
gsave
newpath
translate
0.6 setlinewidth
1 setlinejoin
0 setlinecap
0 0 m
-2 0 l

gsave
0.000 setgray
fill
grestore
stroke
grestore
} bind def
110.122 362.537 o
grestore
gsave
/o {
gsave
newpath
translate
0.6 setlinewidth
1 setlinejoin
0 setlinecap
0 0 m
-2 0 l

gsave
0.000 setgray
fill
grestore
stroke
grestore
} bind def
110.122 375.191 o
grestore
gsave
/o {
gsave
newpath
translate
0.6 setlinewidth
1 setlinejoin
0 setlinecap
0 0 m
-2 0 l

gsave
0.000 setgray
fill
grestore
stroke
grestore
} bind def
110.122 504.538 o
grestore
gsave
/o {
gsave
newpath
translate
0.6 setlinewidth
1 setlinejoin
0 setlinecap
0 0 m
-2 0 l

gsave
0.000 setgray
fill
grestore
stroke
grestore
} bind def
110.122 535.445 o
grestore
gsave
25.434375 250.265938 translate
90.000000 rotate
0.000000 0.000000 m /E glyphshow
15.164062 0.000000 m /r glyphshow
25.031250 0.000000 m /r glyphshow
34.898438 0.000000 m /o glyphshow
49.582031 0.000000 m /r glyphshow
59.449219 0.000000 m /s glyphshow
71.953125 0.000000 m /space glyphshow
79.582031 0.000000 m /parenleft glyphshow
88.945312 0.000000 m /p glyphshow
104.179688 0.000000 m /x glyphshow
118.382812 0.000000 m /parenright glyphshow
grestore
3.000 setlinewidth
2 setlinecap
0.000 0.000 1.000 setrgbcolor
gsave
669.6 499 110.1 64.67 clipbox
110.121875 250.101508 m
125.001875 261.91879 l
139.881875 193.947481 l
154.761875 173.125542 l
169.641875 155.196862 l
184.521875 155.079304 l
199.401875 151.614822 l
214.281875 152.848319 l
229.161875 157.101423 l
244.041875 156.293107 l
258.921875 156.156572 l
273.801875 158.677645 l
288.681875 167.568561 l
303.561875 168.985595 l
318.441875 172.308166 l
333.321875 169.017325 l
348.201875 171.881294 l
363.081875 174.849024 l
377.961875 176.219435 l
392.841875 176.071752 l
407.721875 182.998915 l
422.601875 183.92623 l
437.481875 182.039029 l
452.361875 180.34673 l
467.241875 183.459306 l
482.121875 190.469364 l
497.001875 192.741015 l
511.881875 190.730875 l
526.761875 192.511162 l
541.641875 194.8755 l
556.521875 198.059061 l
571.401875 199.582798 l
586.281875 201.887956 l
601.161875 199.604829 l
616.041875 198.548987 l
630.921875 207.1143 l
645.801875 205.935826 l
660.681875 210.357833 l
675.561875 208.393382 l
690.441875 206.658558 l
705.321875 206.810305 l
720.201875 206.444029 l
735.081875 206.661996 l
749.961875 205.795547 l
764.841875 201.117812 l
779.721875 203.137479 l
stroke
grestore
1.000 0.000 0.000 setrgbcolor
gsave
669.6 499 110.1 64.67 clipbox
110.121875 142.786073 m
125.001875 150.974922 l
139.881875 121.746439 l
154.761875 101.259121 l
169.641875 96.482601 l
184.521875 102.934781 l
199.401875 104.124937 l
214.281875 107.939779 l
229.161875 102.262593 l
244.041875 111.469071 l
258.921875 113.287146 l
273.801875 111.322058 l
288.681875 116.746087 l
303.561875 122.609696 l
318.441875 118.793275 l
333.321875 116.712338 l
348.201875 123.453765 l
363.081875 126.045725 l
377.961875 124.728019 l
392.841875 126.33767 l
407.721875 134.265033 l
422.601875 132.502352 l
437.481875 135.198852 l
452.361875 133.112791 l
467.241875 136.845011 l
482.121875 140.974373 l
497.001875 142.009632 l
511.881875 142.857702 l
526.761875 138.739809 l
541.641875 144.800347 l
556.521875 140.186807 l
571.401875 138.641747 l
586.281875 149.025171 l
601.161875 149.268878 l
616.041875 147.879511 l
630.921875 154.883705 l
645.801875 152.519694 l
660.681875 159.045132 l
675.561875 158.683915 l
690.441875 154.2817 l
705.321875 161.067357 l
720.201875 161.954531 l
735.081875 159.674354 l
749.961875 156.203325 l
764.841875 147.481641 l
779.721875 153.848819 l
stroke
grestore
0 setlinecap
[11.1 4.8] 0 setdash
0.000 0.000 1.000 setrgbcolor
gsave
669.6 499 110.1 64.67 clipbox
110.121875 290.741331 m
125.001875 304.753129 l
139.881875 262.497261 l
154.761875 253.192263 l
169.641875 243.989263 l
184.521875 239.21712 l
199.401875 236.785932 l
214.281875 238.516102 l
229.161875 238.537826 l
244.041875 239.139219 l
258.921875 238.394627 l
273.801875 240.675744 l
288.681875 242.312798 l
303.561875 241.832681 l
318.441875 242.926605 l
333.321875 243.205083 l
348.201875 245.409696 l
363.081875 244.106196 l
377.961875 248.412826 l
392.841875 245.192941 l
407.721875 247.584464 l
422.601875 249.87563 l
437.481875 248.12456 l
452.361875 248.711556 l
467.241875 250.473743 l
482.121875 252.350654 l
497.001875 252.612497 l
511.881875 252.888984 l
526.761875 255.50927 l
541.641875 256.422909 l
556.521875 257.501049 l
571.401875 260.506229 l
586.281875 257.468201 l
601.161875 257.205056 l
616.041875 259.280102 l
630.921875 262.282364 l
645.801875 261.426021 l
660.681875 264.008781 l
675.561875 261.546761 l
690.441875 263.272089 l
705.321875 262.412036 l
720.201875 262.330156 l
735.081875 263.093309 l
749.961875 262.156979 l
764.841875 258.965384 l
779.721875 257.864561 l
stroke
grestore
1.000 0.000 0.000 setrgbcolor
gsave
669.6 499 110.1 64.67 clipbox
110.121875 203.524035 m
125.001875 207.704399 l
139.881875 199.184228 l
154.761875 194.841603 l
169.641875 192.10642 l
184.521875 192.033562 l
199.401875 190.919459 l
214.281875 195.977377 l
229.161875 195.536583 l
244.041875 195.173077 l
258.921875 195.96092 l
273.801875 201.08764 l
288.681875 199.14429 l
303.561875 201.666077 l
318.441875 201.796261 l
333.321875 202.376869 l
348.201875 202.647265 l
363.081875 204.132958 l
377.961875 204.352733 l
392.841875 207.460672 l
407.721875 207.332052 l
422.601875 209.159743 l
437.481875 208.386615 l
452.361875 208.299741 l
467.241875 209.5671 l
482.121875 212.59164 l
497.001875 212.700035 l
511.881875 212.221733 l
526.761875 215.649894 l
541.641875 214.197643 l
556.521875 215.496947 l
571.401875 217.239716 l
586.281875 219.627159 l
601.161875 221.745311 l
616.041875 221.95773 l
630.921875 223.208271 l
645.801875 223.538847 l
660.681875 228.877995 l
675.561875 230.197878 l
690.441875 228.873335 l
705.321875 224.788166 l
720.201875 224.880097 l
735.081875 225.129366 l
749.961875 226.432436 l
764.841875 221.520496 l
779.721875 220.358039 l
stroke
grestore
[3 4.95] 0 setdash
0.000 0.000 1.000 setrgbcolor
gsave
669.6 499 110.1 64.67 clipbox
110.121875 389.040498 m
125.001875 399.970042 l
139.881875 394.855142 l
154.761875 392.443563 l
169.641875 390.348363 l
184.521875 388.809398 l
199.401875 385.895726 l
214.281875 383.649719 l
229.161875 382.283091 l
244.041875 380.863646 l
258.921875 378.819292 l
273.801875 376.681492 l
288.681875 377.156876 l
303.561875 374.753126 l
318.441875 372.87627 l
333.321875 371.172814 l
348.201875 369.751134 l
363.081875 368.371333 l
377.961875 368.240498 l
392.841875 367.884862 l
407.721875 366.280274 l
422.601875 364.663075 l
437.481875 362.65852 l
452.361875 361.46789 l
467.241875 361.355526 l
482.121875 361.441303 l
497.001875 360.148363 l
511.881875 360.872432 l
526.761875 359.916744 l
541.641875 359.762651 l
556.521875 360.033235 l
571.401875 358.884004 l
586.281875 359.370016 l
601.161875 359.210842 l
616.041875 357.217801 l
630.921875 358.51491 l
645.801875 358.308936 l
660.681875 358.787956 l
675.561875 356.235299 l
690.441875 356.560486 l
705.321875 357.001829 l
720.201875 356.275023 l
735.081875 357.160213 l
749.961875 354.54627 l
764.841875 353.609421 l
779.721875 352.375985 l
stroke
grestore
1.000 0.000 0.000 setrgbcolor
gsave
669.6 499 110.1 64.67 clipbox
110.121875 301.130531 m
125.001875 299.854828 l
139.881875 296.388588 l
154.761875 287.668165 l
169.641875 287.12573 l
184.521875 286.453833 l
199.401875 287.730692 l
214.281875 285.625595 l
229.161875 287.580782 l
244.041875 288.033109 l
258.921875 288.589972 l
273.801875 288.472301 l
288.681875 288.449287 l
303.561875 289.06283 l
318.441875 289.740871 l
333.321875 291.676216 l
348.201875 292.026265 l
363.081875 291.743203 l
377.961875 291.695174 l
392.841875 292.713699 l
407.721875 293.830137 l
422.601875 293.691566 l
437.481875 294.531707 l
452.361875 295.244555 l
467.241875 295.837834 l
482.121875 297.377811 l
497.001875 294.81812 l
511.881875 295.086161 l
526.761875 295.279973 l
541.641875 296.051493 l
556.521875 296.239092 l
571.401875 296.303542 l
586.281875 297.086296 l
601.161875 297.839603 l
616.041875 296.722646 l
630.921875 299.043812 l
645.801875 298.72785 l
660.681875 298.268891 l
675.561875 299.086969 l
690.441875 300.132695 l
705.321875 298.466559 l
720.201875 299.305881 l
735.081875 300.584972 l
749.961875 298.745603 l
764.841875 297.152956 l
779.721875 296.685222 l
stroke
grestore
[19.2 4.8 3 4.8] 0 setdash
0.000 0.000 1.000 setrgbcolor
gsave
669.6 499 110.1 64.67 clipbox
110.121875 502.590613 m
125.001875 522.827233 l
139.881875 533.444837 l
154.761875 536.461273 l
169.641875 537.741844 l
184.521875 539.196056 l
199.401875 539.2601 l
214.281875 540.893361 l
229.161875 540.562492 l
244.041875 541.383695 l
258.921875 538.737295 l
273.801875 535.084708 l
288.681875 533.302181 l
303.561875 531.651077 l
318.441875 530.52136 l
333.321875 530.694426 l
348.201875 529.020398 l
363.081875 527.195526 l
377.961875 525.536638 l
392.841875 525.753489 l
407.721875 524.881372 l
422.601875 525.961102 l
437.481875 524.312389 l
452.361875 524.877224 l
467.241875 526.3076 l
482.121875 524.653547 l
497.001875 525.666154 l
511.881875 527.891055 l
526.761875 525.925598 l
541.641875 525.440283 l
556.521875 527.356076 l
571.401875 528.197494 l
586.281875 529.350645 l
601.161875 527.759579 l
616.041875 528.82576 l
630.921875 529.522201 l
645.801875 528.236851 l
660.681875 526.594087 l
675.561875 527.398637 l
690.441875 527.460855 l
705.321875 525.429375 l
720.201875 528.067544 l
735.081875 527.491806 l
749.961875 531.191282 l
764.841875 534.626687 l
779.721875 538.523491 l
stroke
grestore
1.000 0.000 0.000 setrgbcolor
gsave
669.6 499 110.1 64.67 clipbox
110.121875 467.439565 m
125.001875 472.868028 l
139.881875 475.983287 l
154.761875 470.820746 l
169.641875 470.86387 l
184.521875 468.81612 l
199.401875 468.928918 l
214.281875 466.832399 l
229.161875 467.677538 l
244.041875 468.123765 l
258.921875 468.135324 l
273.801875 467.893328 l
288.681875 467.151881 l
303.561875 466.353176 l
318.441875 466.203364 l
333.321875 467.613423 l
348.201875 467.236544 l
363.081875 465.876939 l
377.961875 466.799839 l
392.841875 465.665798 l
407.721875 466.37821 l
422.601875 465.181848 l
437.481875 464.967265 l
452.361875 462.87672 l
467.241875 463.775411 l
482.121875 464.67495 l
497.001875 463.41211 l
511.881875 463.183961 l
526.761875 464.1161 l
541.641875 462.846634 l
556.521875 461.669319 l
571.401875 462.009294 l
586.281875 463.875326 l
601.161875 464.739286 l
616.041875 463.910352 l
630.921875 463.30493 l
645.801875 464.813951 l
660.681875 463.243937 l
675.561875 462.974838 l
690.441875 464.711274 l
705.321875 463.66021 l
720.201875 464.303227 l
735.081875 463.045996 l
749.961875 462.600349 l
764.841875 464.380797 l
779.721875 463.689546 l
stroke
grestore
0.800 setlinewidth
0 setlinejoin
2 setlinecap
[] 0 setdash
0.000 setgray
gsave
110.121875 64.66875 m
110.121875 563.62875 l
stroke
grestore
gsave
779.721875 64.66875 m
779.721875 563.62875 l
stroke
grestore
gsave
110.121875 64.66875 m
779.721875 64.66875 l
stroke
grestore
gsave
110.121875 563.62875 m
779.721875 563.62875 l
stroke
grestore
gsave
31.921875 569.628750 translate
0.000000 rotate
/DejaVuSans findfont
24.0 scalefont
setfont
0.000000 0.765625 moveto
/M glyphshow

20.707031 0.765625 moveto
/e glyphshow

35.472656 0.765625 moveto
/a glyphshow

50.179688 0.765625 moveto
/n glyphshow

65.390625 0.765625 moveto
/space glyphshow

73.019531 0.765625 moveto
/e glyphshow

87.785156 0.765625 moveto
/r glyphshow

97.652344 0.765625 moveto
/r glyphshow

107.519531 0.765625 moveto
/o glyphshow

122.203125 0.765625 moveto
/r glyphshow

132.070312 0.765625 moveto
/space glyphshow

139.699219 0.765625 moveto
/o glyphshow

154.382812 0.765625 moveto
/f glyphshow

162.832031 0.765625 moveto
/space glyphshow

170.460938 0.765625 moveto
/d glyphshow

185.695312 0.765625 moveto
/e glyphshow

200.460938 0.765625 moveto
/t glyphshow

209.871094 0.765625 moveto
/e glyphshow

224.636719 0.765625 moveto
/c glyphshow

237.832031 0.765625 moveto
/t glyphshow

247.242188 0.765625 moveto
/e glyphshow

262.007812 0.765625 moveto
/d glyphshow

277.242188 0.765625 moveto
/space glyphshow

284.871094 0.765625 moveto
/p glyphshow

300.105469 0.765625 moveto
/a glyphshow

314.812500 0.765625 moveto
/r glyphshow

324.679688 0.765625 moveto
/t glyphshow

334.089844 0.765625 moveto
/i glyphshow

340.757812 0.765625 moveto
/c glyphshow

353.953125 0.765625 moveto
/l glyphshow

360.621094 0.765625 moveto
/e glyphshow

375.386719 0.765625 moveto
/s glyphshow

387.890625 0.765625 moveto
/comma glyphshow

395.519531 0.765625 moveto
/space glyphshow

403.148438 0.765625 moveto
/P glyphshow

417.621094 0.765625 moveto
/P glyphshow

432.093750 0.765625 moveto
/P glyphshow

446.566406 0.765625 moveto
/space glyphshow

454.195312 0.765625 moveto
/equal glyphshow

474.304688 0.765625 moveto
/space glyphshow

481.933594 0.765625 moveto
/zero glyphshow

497.203125 0.765625 moveto
/period glyphshow

504.832031 0.765625 moveto
/zero glyphshow

520.101562 0.765625 moveto
/seven glyphshow

535.371094 0.765625 moveto
/five glyphshow

550.640625 0.765625 moveto
/comma glyphshow

558.269531 0.765625 moveto
/space glyphshow

565.898438 0.765625 moveto
/t glyphshow

575.308594 0.765625 moveto
/i glyphshow

581.976562 0.765625 moveto
/m glyphshow

605.355469 0.765625 moveto
/e glyphshow

620.121094 0.765625 moveto
/space glyphshow

627.750000 0.765625 moveto
/s glyphshow

640.253906 0.765625 moveto
/e glyphshow

655.019531 0.765625 moveto
/p glyphshow

670.253906 0.765625 moveto
/a glyphshow

684.960938 0.765625 moveto
/r glyphshow

694.828125 0.765625 moveto
/a glyphshow

709.535156 0.765625 moveto
/t glyphshow

718.945312 0.765625 moveto
/i glyphshow

725.613281 0.765625 moveto
/o glyphshow

740.296875 0.765625 moveto
/n glyphshow

755.507812 0.765625 moveto
/space glyphshow

763.136719 0.765625 moveto
/seven glyphshow

778.406250 0.765625 moveto
/period glyphshow

786.035156 0.765625 moveto
/five glyphshow

/DejaVuSans-Oblique findfont
24.0 scalefont
setfont
801.304688 0.765625 moveto
/delta glyphshow

815.988281 0.765625 moveto
/t glyphshow


grestore
1.000 setlinewidth
0 setlinecap
0.800 setgray
gsave
181.8525 375.50375 m
367.461875 375.50375 l
369.461875 375.50375 370.461875 376.50375 370.461875 378.50375 c
370.461875 553.12875 l
370.461875 555.12875 369.461875 556.12875 367.461875 556.12875 c
181.8525 556.12875 l
179.8525 556.12875 178.8525 555.12875 178.8525 553.12875 c
178.8525 378.50375 l
178.8525 376.50375 179.8525 375.50375 181.8525 375.50375 c
cl
gsave
1.000 setgray
fill
grestore
stroke
grestore
3.000 setlinewidth
1 setlinejoin
2 setlinecap
[] 0 setdash
0.000 0.000 1.000 setrgbcolor
gsave
184.8525 543.988125 m
214.8525 543.988125 l
stroke
grestore
0.000 setgray
/DejaVuSans findfont
15.000 scalefont
setfont
gsave
226.852500 538.738125 translate
0.000000 rotate
0.000000 0.000000 m /S glyphshow
9.521484 0.000000 m /T glyphshow
18.684082 0.000000 m /B glyphshow
28.974609 0.000000 m /comma glyphshow
33.742676 0.000000 m /space glyphshow
38.510742 0.000000 m /N glyphshow
49.731445 0.000000 m /o glyphshow
58.908691 0.000000 m /i glyphshow
63.076172 0.000000 m /s glyphshow
70.891113 0.000000 m /e glyphshow
80.119629 0.000000 m /space glyphshow
84.887695 0.000000 m /F glyphshow
93.500000 0.000000 m /r glyphshow
99.666992 0.000000 m /e glyphshow
108.895508 0.000000 m /e glyphshow
grestore
1.000 0.000 0.000 setrgbcolor
gsave
184.8525 521.9725 m
214.8525 521.9725 l
stroke
grestore
0.000 setgray
gsave
226.852500 516.722500 translate
0.000000 rotate
0.000000 0.000000 m /K glyphshow
9.836426 0.000000 m /L glyphshow
18.193359 0.000000 m /P glyphshow
27.238770 0.000000 m /T glyphshow
36.401367 0.000000 m /comma glyphshow
41.169434 0.000000 m /space glyphshow
45.937500 0.000000 m /N glyphshow
57.158203 0.000000 m /o glyphshow
66.335449 0.000000 m /i glyphshow
70.502930 0.000000 m /s glyphshow
78.317871 0.000000 m /e glyphshow
87.546387 0.000000 m /space glyphshow
92.314453 0.000000 m /F glyphshow
100.926758 0.000000 m /r glyphshow
107.093750 0.000000 m /e glyphshow
116.322266 0.000000 m /e glyphshow
grestore
0 setlinecap
[11.1 4.8] 0 setdash
0.000 0.000 1.000 setrgbcolor
gsave
184.8525 499.956875 m
214.8525 499.956875 l
stroke
grestore
0.000 setgray
gsave
226.852500 494.706875 translate
0.000000 rotate
0.000000 0.000000 m /S glyphshow
9.521484 0.000000 m /T glyphshow
18.684082 0.000000 m /B glyphshow
28.974609 0.000000 m /comma glyphshow
33.742676 0.000000 m /space glyphshow
38.510742 0.000000 m /P glyphshow
47.556152 0.000000 m /S glyphshow
57.077637 0.000000 m /N glyphshow
68.298340 0.000000 m /R glyphshow
78.720703 0.000000 m /equal glyphshow
91.289062 0.000000 m /four glyphshow
100.832520 0.000000 m /zero glyphshow
110.375977 0.000000 m /d glyphshow
119.897461 0.000000 m /B glyphshow
grestore
1.000 0.000 0.000 setrgbcolor
gsave
184.8525 477.94125 m
214.8525 477.94125 l
stroke
grestore
0.000 setgray
gsave
226.852500 472.691250 translate
0.000000 rotate
0.000000 0.000000 m /K glyphshow
9.836426 0.000000 m /L glyphshow
18.193359 0.000000 m /P glyphshow
27.238770 0.000000 m /T glyphshow
36.401367 0.000000 m /comma glyphshow
41.169434 0.000000 m /space glyphshow
45.937500 0.000000 m /P glyphshow
54.982910 0.000000 m /S glyphshow
64.504395 0.000000 m /N glyphshow
75.725098 0.000000 m /R glyphshow
86.147461 0.000000 m /equal glyphshow
98.715820 0.000000 m /four glyphshow
108.259277 0.000000 m /zero glyphshow
117.802734 0.000000 m /d glyphshow
127.324219 0.000000 m /B glyphshow
grestore
[3 4.95] 0 setdash
0.000 0.000 1.000 setrgbcolor
gsave
184.8525 455.925625 m
214.8525 455.925625 l
stroke
grestore
0.000 setgray
gsave
226.852500 450.675625 translate
0.000000 rotate
0.000000 0.000000 m /S glyphshow
9.521484 0.000000 m /T glyphshow
18.684082 0.000000 m /B glyphshow
28.974609 0.000000 m /comma glyphshow
33.742676 0.000000 m /space glyphshow
38.510742 0.000000 m /P glyphshow
47.556152 0.000000 m /S glyphshow
57.077637 0.000000 m /N glyphshow
68.298340 0.000000 m /R glyphshow
78.720703 0.000000 m /equal glyphshow
91.289062 0.000000 m /three glyphshow
100.832520 0.000000 m /zero glyphshow
110.375977 0.000000 m /d glyphshow
119.897461 0.000000 m /B glyphshow
grestore
1.000 0.000 0.000 setrgbcolor
gsave
184.8525 433.91 m
214.8525 433.91 l
stroke
grestore
0.000 setgray
gsave
226.852500 428.660000 translate
0.000000 rotate
0.000000 0.000000 m /K glyphshow
9.836426 0.000000 m /L glyphshow
18.193359 0.000000 m /P glyphshow
27.238770 0.000000 m /T glyphshow
36.401367 0.000000 m /comma glyphshow
41.169434 0.000000 m /space glyphshow
45.937500 0.000000 m /P glyphshow
54.982910 0.000000 m /S glyphshow
64.504395 0.000000 m /N glyphshow
75.725098 0.000000 m /R glyphshow
86.147461 0.000000 m /equal glyphshow
98.715820 0.000000 m /three glyphshow
108.259277 0.000000 m /zero glyphshow
117.802734 0.000000 m /d glyphshow
127.324219 0.000000 m /B glyphshow
grestore
[19.2 4.8 3 4.8] 0 setdash
0.000 0.000 1.000 setrgbcolor
gsave
184.8525 411.894375 m
214.8525 411.894375 l
stroke
grestore
0.000 setgray
gsave
226.852500 406.644375 translate
0.000000 rotate
0.000000 0.000000 m /S glyphshow
9.521484 0.000000 m /T glyphshow
18.684082 0.000000 m /B glyphshow
28.974609 0.000000 m /comma glyphshow
33.742676 0.000000 m /space glyphshow
38.510742 0.000000 m /P glyphshow
47.556152 0.000000 m /S glyphshow
57.077637 0.000000 m /N glyphshow
68.298340 0.000000 m /R glyphshow
78.720703 0.000000 m /equal glyphshow
91.289062 0.000000 m /two glyphshow
100.832520 0.000000 m /zero glyphshow
110.375977 0.000000 m /d glyphshow
119.897461 0.000000 m /B glyphshow
grestore
1.000 0.000 0.000 setrgbcolor
gsave
184.8525 389.87875 m
214.8525 389.87875 l
stroke
grestore
0.000 setgray
gsave
226.852500 384.628750 translate
0.000000 rotate
0.000000 0.000000 m /K glyphshow
9.836426 0.000000 m /L glyphshow
18.193359 0.000000 m /P glyphshow
27.238770 0.000000 m /T glyphshow
36.401367 0.000000 m /comma glyphshow
41.169434 0.000000 m /space glyphshow
45.937500 0.000000 m /P glyphshow
54.982910 0.000000 m /S glyphshow
64.504395 0.000000 m /N glyphshow
75.725098 0.000000 m /R glyphshow
86.147461 0.000000 m /equal glyphshow
98.715820 0.000000 m /two glyphshow
108.259277 0.000000 m /zero glyphshow
117.802734 0.000000 m /d glyphshow
127.324219 0.000000 m /B glyphshow
grestore

end
showpage
