%!PS-Adobe-3.0 EPSF-3.0
%%Title: /home/yin/030000_undetected_thin_noise.eps
%%Creator: matplotlib version 3.1.1, http://matplotlib.org/
%%CreationDate: Mon May 11 23:49:49 2020
%%Orientation: portrait
%%BoundingBox: -125.81093749999994 98.08562500000005 737.8109374999999 693.914375
%%EndComments
%%BeginProlog
/mpldict 9 dict def
mpldict begin
/m { moveto } bind def
/l { lineto } bind def
/r { rlineto } bind def
/c { curveto } bind def
/cl { closepath } bind def
/box {
m
1 index 0 r
0 exch r
neg 0 r
cl
} bind def
/clipbox {
box
clip
newpath
} bind def
%!PS-Adobe-3.0 Resource-Font
%%Title: DejaVu Sans
%%Copyright: Copyright (c) 2003 by Bitstream, Inc. All Rights Reserved. Copyright (c) 2006 by Tavmjong Bah. All Rights Reserved. DejaVu changes are in public domain 
%%Creator: Converted from TrueType to type 3 by PPR
25 dict begin
/_d{bind def}bind def
/_m{moveto}_d
/_l{lineto}_d
/_cl{closepath eofill}_d
/_c{curveto}_d
/_sc{7 -1 roll{setcachedevice}{pop pop pop pop pop pop}ifelse}_d
/_e{exec}_d
/FontName /DejaVuSans def
/PaintType 0 def
/FontMatrix[.001 0 0 .001 0 0]def
/FontBBox[-1021 -463 1793 1232]def
/FontType 3 def
/Encoding [ /space /comma /period /zero /one /two /three /four /five /seven /equal /B /F /K /L /N /P /R /S /T /U /a /c /d /e /f /h /i /l /m /n /o /p /r /s /t ] def
/FontInfo 10 dict dup begin
/FamilyName (DejaVu Sans) def
/FullName (DejaVu Sans) def
/Notice (Copyright (c) 2003 by Bitstream, Inc. All Rights Reserved. Copyright (c) 2006 by Tavmjong Bah. All Rights Reserved. DejaVu changes are in public domain ) def
/Weight (Book) def
/Version (Version 2.35) def
/ItalicAngle 0.0 def
/isFixedPitch false def
/UnderlinePosition -130 def
/UnderlineThickness 90 def
end readonly def
/CharStrings 37 dict dup begin
/.notdef 0 def
/space{318 0 0 0 0 0 _sc
}_d
/comma{318 0 77 -115 220 124 _sc
117 124 _m
220 124 _l
220 40 _l
140 -115 _l
77 -115 _l
117 40 _l
117 124 _l
_cl}_d
/period{318 0 107 0 210 124 _sc
107 124 _m
210 124 _l
210 0 _l
107 0 _l
107 124 _l
_cl}_d
/zero{636 0 66 -13 570 742 _sc
318 664 _m
267 664 229 639 203 589 _c
177 539 165 464 165 364 _c
165 264 177 189 203 139 _c
229 89 267 64 318 64 _c
369 64 407 89 433 139 _c
458 189 471 264 471 364 _c
471 464 458 539 433 589 _c
407 639 369 664 318 664 _c
318 742 _m
399 742 461 709 505 645 _c
548 580 570 486 570 364 _c
570 241 548 147 505 83 _c
461 19 399 -13 318 -13 _c
236 -13 173 19 130 83 _c
87 147 66 241 66 364 _c
66 486 87 580 130 645 _c
173 709 236 742 318 742 _c
_cl}_d
/one{636 0 110 0 544 729 _sc
124 83 _m
285 83 _l
285 639 _l
110 604 _l
110 694 _l
284 729 _l
383 729 _l
383 83 _l
544 83 _l
544 0 _l
124 0 _l
124 83 _l
_cl}_d
/two{{636 0 73 0 536 742 _sc
192 83 _m
536 83 _l
536 0 _l
73 0 _l
73 83 _l
110 121 161 173 226 239 _c
290 304 331 346 348 365 _c
380 400 402 430 414 455 _c
426 479 433 504 433 528 _c
433 566 419 598 392 622 _c
365 646 330 659 286 659 _c
255 659 222 653 188 643 _c
154 632 117 616 78 594 _c
78 694 _l
118 710 155 722 189 730 _c
223 738 255 742 284 742 _c
}_e{359 742 419 723 464 685 _c
509 647 532 597 532 534 _c
532 504 526 475 515 449 _c
504 422 484 390 454 354 _c
446 344 420 317 376 272 _c
332 227 271 164 192 83 _c
_cl}_e}_d
/three{{636 0 76 -13 556 742 _sc
406 393 _m
453 383 490 362 516 330 _c
542 298 556 258 556 212 _c
556 140 531 84 482 45 _c
432 6 362 -13 271 -13 _c
240 -13 208 -10 176 -4 _c
144 1 110 10 76 22 _c
76 117 _l
103 101 133 89 166 81 _c
198 73 232 69 268 69 _c
330 69 377 81 409 105 _c
441 129 458 165 458 212 _c
458 254 443 288 413 312 _c
383 336 341 349 287 349 _c
}_e{202 349 _l
202 430 _l
291 430 _l
339 430 376 439 402 459 _c
428 478 441 506 441 543 _c
441 580 427 609 401 629 _c
374 649 336 659 287 659 _c
260 659 231 656 200 650 _c
169 644 135 635 98 623 _c
98 711 _l
135 721 170 729 203 734 _c
235 739 266 742 296 742 _c
370 742 429 725 473 691 _c
517 657 539 611 539 553 _c
539 513 527 479 504 451 _c
481 423 448 403 406 393 _c
_cl}_e}_d
/four{636 0 49 0 580 729 _sc
378 643 _m
129 254 _l
378 254 _l
378 643 _l
352 729 _m
476 729 _l
476 254 _l
580 254 _l
580 172 _l
476 172 _l
476 0 _l
378 0 _l
378 172 _l
49 172 _l
49 267 _l
352 729 _l
_cl}_d
/five{{636 0 77 -13 549 729 _sc
108 729 _m
495 729 _l
495 646 _l
198 646 _l
198 467 _l
212 472 227 476 241 478 _c
255 480 270 482 284 482 _c
365 482 429 459 477 415 _c
525 370 549 310 549 234 _c
549 155 524 94 475 51 _c
426 8 357 -13 269 -13 _c
238 -13 207 -10 175 -6 _c
143 -1 111 6 77 17 _c
77 116 _l
106 100 136 88 168 80 _c
199 72 232 69 267 69 _c
}_e{323 69 368 83 401 113 _c
433 143 450 183 450 234 _c
450 284 433 324 401 354 _c
368 384 323 399 267 399 _c
241 399 214 396 188 390 _c
162 384 135 375 108 363 _c
108 729 _l
_cl}_e}_d
/seven{636 0 82 0 551 729 _sc
82 729 _m
551 729 _l
551 687 _l
286 0 _l
183 0 _l
432 646 _l
82 646 _l
82 729 _l
_cl}_d
/equal{838 0 106 172 732 454 _sc
106 454 _m
732 454 _l
732 372 _l
106 372 _l
106 454 _l
106 255 _m
732 255 _l
732 172 _l
106 172 _l
106 255 _l
_cl}_d
/B{{686 0 98 0 615 729 _sc
197 348 _m
197 81 _l
355 81 _l
408 81 447 92 473 114 _c
498 136 511 169 511 215 _c
511 260 498 293 473 315 _c
447 337 408 348 355 348 _c
197 348 _l
197 648 _m
197 428 _l
343 428 _l
391 428 426 437 450 455 _c
474 473 486 500 486 538 _c
486 574 474 602 450 620 _c
426 638 391 648 343 648 _c
197 648 _l
98 729 _m
350 729 _l
}_e{425 729 483 713 524 682 _c
564 650 585 606 585 549 _c
585 504 574 468 553 442 _c
532 416 502 399 462 393 _c
510 382 548 360 575 327 _c
601 294 615 253 615 204 _c
615 138 592 88 548 53 _c
504 17 441 0 360 0 _c
98 0 _l
98 729 _l
_cl}_e}_d
/F{575 0 98 0 517 729 _sc
98 729 _m
517 729 _l
517 646 _l
197 646 _l
197 431 _l
486 431 _l
486 348 _l
197 348 _l
197 0 _l
98 0 _l
98 729 _l
_cl}_d
/K{656 0 98 0 677 729 _sc
98 729 _m
197 729 _l
197 421 _l
524 729 _l
651 729 _l
289 389 _l
677 0 _l
547 0 _l
197 351 _l
197 0 _l
98 0 _l
98 729 _l
_cl}_d
/L{557 0 98 0 552 729 _sc
98 729 _m
197 729 _l
197 83 _l
552 83 _l
552 0 _l
98 0 _l
98 729 _l
_cl}_d
/N{748 0 98 0 650 729 _sc
98 729 _m
231 729 _l
554 119 _l
554 729 _l
650 729 _l
650 0 _l
517 0 _l
194 610 _l
194 0 _l
98 0 _l
98 729 _l
_cl}_d
/P{603 0 98 0 569 729 _sc
197 648 _m
197 374 _l
321 374 _l
367 374 402 385 427 409 _c
452 433 465 467 465 511 _c
465 555 452 588 427 612 _c
402 636 367 648 321 648 _c
197 648 _l
98 729 _m
321 729 _l
402 729 464 710 506 673 _c
548 636 569 582 569 511 _c
569 439 548 384 506 348 _c
464 311 402 293 321 293 _c
197 293 _l
197 0 _l
98 0 _l
98 729 _l
_cl}_d
/R{{695 0 98 0 666 729 _sc
444 342 _m
465 334 486 319 506 296 _c
526 272 546 240 566 199 _c
666 0 _l
560 0 _l
467 187 _l
443 235 419 268 397 284 _c
374 300 343 308 304 308 _c
197 308 _l
197 0 _l
98 0 _l
98 729 _l
321 729 _l
404 729 466 711 507 677 _c
548 642 569 589 569 519 _c
569 473 558 434 537 404 _c
515 374 484 353 444 342 _c
197 648 _m
197 389 _l
321 389 _l
}_e{368 389 404 400 428 422 _c
452 444 465 476 465 519 _c
465 561 452 593 428 615 _c
404 637 368 648 321 648 _c
197 648 _l
_cl}_e}_d
/S{{635 0 66 -13 579 742 _sc
535 705 _m
535 609 _l
497 627 462 640 429 649 _c
395 657 363 662 333 662 _c
279 662 237 651 208 631 _c
179 610 165 580 165 542 _c
165 510 174 485 194 469 _c
213 452 250 439 304 429 _c
364 417 _l
437 403 491 378 526 343 _c
561 307 579 260 579 201 _c
579 130 555 77 508 41 _c
460 5 391 -13 300 -13 _c
265 -13 228 -9 189 -2 _c
}_e{150 5 110 16 69 32 _c
69 134 _l
109 111 148 94 186 83 _c
224 71 262 66 300 66 _c
356 66 399 77 430 99 _c
460 121 476 152 476 194 _c
476 230 465 258 443 278 _c
421 298 385 313 335 323 _c
275 335 _l
201 349 148 372 115 404 _c
82 435 66 478 66 534 _c
66 598 88 649 134 686 _c
179 723 242 742 322 742 _c
356 742 390 739 426 733 _c
461 727 497 717 535 705 _c
}_e{_cl}_e}_d
/T{611 0 -2 0 614 729 _sc
-2 729 _m
614 729 _l
614 646 _l
355 646 _l
355 0 _l
256 0 _l
256 646 _l
-2 646 _l
-2 729 _l
_cl}_d
/U{732 0 87 -13 645 729 _sc
87 729 _m
186 729 _l
186 286 _l
186 208 200 151 228 117 _c
256 83 302 66 366 66 _c
429 66 475 83 503 117 _c
531 151 546 208 546 286 _c
546 729 _l
645 729 _l
645 274 _l
645 178 621 107 574 59 _c
527 11 458 -13 366 -13 _c
274 -13 204 11 157 59 _c
110 107 87 178 87 274 _c
87 729 _l
_cl}_d
/a{{613 0 60 -13 522 560 _sc
343 275 _m
270 275 220 266 192 250 _c
164 233 150 205 150 165 _c
150 133 160 107 181 89 _c
202 70 231 61 267 61 _c
317 61 357 78 387 114 _c
417 149 432 196 432 255 _c
432 275 _l
343 275 _l
522 312 _m
522 0 _l
432 0 _l
432 83 _l
411 49 385 25 355 10 _c
325 -5 287 -13 243 -13 _c
187 -13 142 2 109 33 _c
76 64 60 106 60 159 _c
}_e{60 220 80 266 122 298 _c
163 329 224 345 306 345 _c
432 345 _l
432 354 _l
432 395 418 427 391 450 _c
364 472 326 484 277 484 _c
245 484 215 480 185 472 _c
155 464 127 453 100 439 _c
100 522 _l
132 534 164 544 195 550 _c
226 556 256 560 286 560 _c
365 560 424 539 463 498 _c
502 457 522 395 522 312 _c
_cl}_e}_d
/c{{550 0 55 -13 488 560 _sc
488 526 _m
488 442 _l
462 456 437 466 411 473 _c
385 480 360 484 334 484 _c
276 484 230 465 198 428 _c
166 391 150 339 150 273 _c
150 206 166 154 198 117 _c
230 80 276 62 334 62 _c
360 62 385 65 411 72 _c
437 79 462 90 488 104 _c
488 21 _l
462 9 436 0 410 -5 _c
383 -10 354 -13 324 -13 _c
242 -13 176 12 128 64 _c
}_e{79 115 55 185 55 273 _c
55 362 79 432 128 483 _c
177 534 244 560 330 560 _c
358 560 385 557 411 551 _c
437 545 463 537 488 526 _c
_cl}_e}_d
/d{{635 0 55 -13 544 760 _sc
454 464 _m
454 760 _l
544 760 _l
544 0 _l
454 0 _l
454 82 _l
435 49 411 25 382 10 _c
353 -5 319 -13 279 -13 _c
213 -13 159 13 117 65 _c
75 117 55 187 55 273 _c
55 359 75 428 117 481 _c
159 533 213 560 279 560 _c
319 560 353 552 382 536 _c
411 520 435 496 454 464 _c
148 273 _m
148 207 161 155 188 117 _c
215 79 253 61 301 61 _c
}_e{348 61 385 79 413 117 _c
440 155 454 207 454 273 _c
454 339 440 390 413 428 _c
385 466 348 485 301 485 _c
253 485 215 466 188 428 _c
161 390 148 339 148 273 _c
_cl}_e}_d
/e{{615 0 55 -13 562 560 _sc
562 296 _m
562 252 _l
149 252 _l
153 190 171 142 205 110 _c
238 78 284 62 344 62 _c
378 62 412 66 444 74 _c
476 82 509 95 541 113 _c
541 28 _l
509 14 476 3 442 -3 _c
408 -9 373 -13 339 -13 _c
251 -13 182 12 131 62 _c
80 112 55 181 55 268 _c
55 357 79 428 127 481 _c
175 533 241 560 323 560 _c
397 560 455 536 498 489 _c
}_e{540 441 562 377 562 296 _c
472 322 _m
471 371 457 410 431 440 _c
404 469 368 484 324 484 _c
274 484 234 469 204 441 _c
174 413 156 373 152 322 _c
472 322 _l
_cl}_e}_d
/f{352 0 23 0 371 760 _sc
371 760 _m
371 685 _l
285 685 _l
253 685 230 678 218 665 _c
205 652 199 629 199 595 _c
199 547 _l
347 547 _l
347 477 _l
199 477 _l
199 0 _l
109 0 _l
109 477 _l
23 477 _l
23 547 _l
109 547 _l
109 585 _l
109 645 123 690 151 718 _c
179 746 224 760 286 760 _c
371 760 _l
_cl}_d
/h{634 0 91 0 549 760 _sc
549 330 _m
549 0 _l
459 0 _l
459 327 _l
459 379 448 417 428 443 _c
408 469 378 482 338 482 _c
289 482 251 466 223 435 _c
195 404 181 362 181 309 _c
181 0 _l
91 0 _l
91 760 _l
181 760 _l
181 462 _l
202 494 227 519 257 535 _c
286 551 320 560 358 560 _c
420 560 468 540 500 501 _c
532 462 549 405 549 330 _c
_cl}_d
/i{278 0 94 0 184 760 _sc
94 547 _m
184 547 _l
184 0 _l
94 0 _l
94 547 _l
94 760 _m
184 760 _l
184 646 _l
94 646 _l
94 760 _l
_cl}_d
/l{278 0 94 0 184 760 _sc
94 760 _m
184 760 _l
184 0 _l
94 0 _l
94 760 _l
_cl}_d
/m{{974 0 91 0 889 560 _sc
520 442 _m
542 482 569 511 600 531 _c
631 550 668 560 711 560 _c
767 560 811 540 842 500 _c
873 460 889 403 889 330 _c
889 0 _l
799 0 _l
799 327 _l
799 379 789 418 771 444 _c
752 469 724 482 686 482 _c
639 482 602 466 575 435 _c
548 404 535 362 535 309 _c
535 0 _l
445 0 _l
445 327 _l
445 379 435 418 417 444 _c
398 469 369 482 331 482 _c
}_e{285 482 248 466 221 435 _c
194 404 181 362 181 309 _c
181 0 _l
91 0 _l
91 547 _l
181 547 _l
181 462 _l
201 495 226 520 255 536 _c
283 552 317 560 357 560 _c
397 560 430 550 458 530 _c
486 510 506 480 520 442 _c
_cl}_e}_d
/n{634 0 91 0 549 560 _sc
549 330 _m
549 0 _l
459 0 _l
459 327 _l
459 379 448 417 428 443 _c
408 469 378 482 338 482 _c
289 482 251 466 223 435 _c
195 404 181 362 181 309 _c
181 0 _l
91 0 _l
91 547 _l
181 547 _l
181 462 _l
202 494 227 519 257 535 _c
286 551 320 560 358 560 _c
420 560 468 540 500 501 _c
532 462 549 405 549 330 _c
_cl}_d
/o{612 0 55 -13 557 560 _sc
306 484 _m
258 484 220 465 192 427 _c
164 389 150 338 150 273 _c
150 207 163 156 191 118 _c
219 80 257 62 306 62 _c
354 62 392 80 420 118 _c
448 156 462 207 462 273 _c
462 337 448 389 420 427 _c
392 465 354 484 306 484 _c
306 560 _m
384 560 445 534 490 484 _c
534 433 557 363 557 273 _c
557 183 534 113 490 63 _c
445 12 384 -13 306 -13 _c
227 -13 165 12 121 63 _c
77 113 55 183 55 273 _c
55 363 77 433 121 484 _c
165 534 227 560 306 560 _c
_cl}_d
/p{{635 0 91 -207 580 560 _sc
181 82 _m
181 -207 _l
91 -207 _l
91 547 _l
181 547 _l
181 464 _l
199 496 223 520 252 536 _c
281 552 316 560 356 560 _c
422 560 476 533 518 481 _c
559 428 580 359 580 273 _c
580 187 559 117 518 65 _c
476 13 422 -13 356 -13 _c
316 -13 281 -5 252 10 _c
223 25 199 49 181 82 _c
487 273 _m
487 339 473 390 446 428 _c
418 466 381 485 334 485 _c
}_e{286 485 249 466 222 428 _c
194 390 181 339 181 273 _c
181 207 194 155 222 117 _c
249 79 286 61 334 61 _c
381 61 418 79 446 117 _c
473 155 487 207 487 273 _c
_cl}_e}_d
/r{411 0 91 0 411 560 _sc
411 463 _m
401 469 390 473 378 476 _c
366 478 353 480 339 480 _c
288 480 249 463 222 430 _c
194 397 181 350 181 288 _c
181 0 _l
91 0 _l
91 547 _l
181 547 _l
181 462 _l
199 495 224 520 254 536 _c
284 552 321 560 365 560 _c
371 560 378 559 386 559 _c
393 558 401 557 411 555 _c
411 463 _l
_cl}_d
/s{{521 0 54 -13 472 560 _sc
443 531 _m
443 446 _l
417 458 391 468 364 475 _c
336 481 308 485 279 485 _c
234 485 200 478 178 464 _c
156 450 145 430 145 403 _c
145 382 153 366 169 354 _c
185 342 217 330 265 320 _c
296 313 _l
360 299 405 279 432 255 _c
458 230 472 195 472 151 _c
472 100 452 60 412 31 _c
372 1 316 -13 246 -13 _c
216 -13 186 -10 154 -5 _c
}_e{122 0 89 8 54 20 _c
54 113 _l
87 95 120 82 152 74 _c
184 65 216 61 248 61 _c
290 61 323 68 346 82 _c
368 96 380 117 380 144 _c
380 168 371 187 355 200 _c
339 213 303 226 247 238 _c
216 245 _l
160 257 119 275 95 299 _c
70 323 58 356 58 399 _c
58 450 76 490 112 518 _c
148 546 200 560 268 560 _c
301 560 332 557 362 552 _c
391 547 418 540 443 531 _c
}_e{_cl}_e}_d
/t{392 0 27 0 368 702 _sc
183 702 _m
183 547 _l
368 547 _l
368 477 _l
183 477 _l
183 180 _l
183 135 189 106 201 94 _c
213 81 238 75 276 75 _c
368 75 _l
368 0 _l
276 0 _l
206 0 158 13 132 39 _c
106 65 93 112 93 180 _c
93 477 _l
27 477 _l
27 547 _l
93 547 _l
93 702 _l
183 702 _l
_cl}_d
end readonly def

/BuildGlyph
 {exch begin
 CharStrings exch
 2 copy known not{pop /.notdef}if
 true 3 1 roll get exec
 end}_d

/BuildChar {
 1 index /Encoding get exch get
 1 index /BuildGlyph get exec
}_d

FontName currentdict end definefont pop
%!PS-Adobe-3.0 Resource-Font
%%Title: DejaVu Sans Oblique
%%Copyright: Copyright (c) 2003 by Bitstream, Inc. All Rights Reserved. Copyright (c) 2006 by Tavmjong Bah. All Rights Reserved. DejaVu changes are in public domain 
%%Creator: Converted from TrueType to type 3 by PPR
25 dict begin
/_d{bind def}bind def
/_m{moveto}_d
/_l{lineto}_d
/_cl{closepath eofill}_d
/_c{curveto}_d
/_sc{7 -1 roll{setcachedevice}{pop pop pop pop pop pop}ifelse}_d
/_e{exec}_d
/FontName /DejaVuSans-Oblique def
/PaintType 0 def
/FontMatrix[.001 0 0 .001 0 0]def
/FontBBox[-1016 -350 1659 1068]def
/FontType 3 def
/Encoding [ /t /delta ] def
/FontInfo 10 dict dup begin
/FamilyName (DejaVu Sans) def
/FullName (DejaVu Sans Oblique) def
/Notice (Copyright (c) 2003 by Bitstream, Inc. All Rights Reserved. Copyright (c) 2006 by Tavmjong Bah. All Rights Reserved. DejaVu changes are in public domain ) def
/Weight (Oblique) def
/Version (Version 2.35) def
/ItalicAngle -11.0 def
/isFixedPitch false def
/UnderlinePosition -130 def
/UnderlineThickness 90 def
end readonly def
/CharStrings 3 dict dup begin
/.notdef 0 def
/t{{392 0 64 0 423 702 _sc
423 547 _m
409 477 _l
230 477 _l
172 180 _l
170 169 168 160 167 152 _c
166 144 166 139 166 135 _c
166 114 172 99 185 89 _c
197 79 217 75 245 75 _c
336 75 _l
321 0 _l
235 0 _l
181 0 141 10 115 31 _c
89 52 76 84 76 126 _c
76 133 76 141 77 150 _c
78 159 80 169 82 180 _c
140 477 _l
64 477 _l
78 547 _l
153 547 _l
183 702 _l
}_e{273 702 _l
243 547 _l
423 547 _l
_cl}_e}_d
/delta{{612 0 38 -13 557 742 _sc
542 633 _m
514 655 461 667 383 667 _c
300 667 255 648 248 610 _c
242 580 280 557 364 542 _c
428 530 476 505 508 469 _c
546 425 556 358 539 268 _c
521 182 486 113 432 63 _c
377 12 310 -13 232 -13 _c
154 -13 98 12 63 63 _c
28 113 20 183 38 273 _c
50 339 84 399 139 453 _c
160 473 184 490 211 502 _c
165 528 147 563 156 609 _c
}_e{173 697 253 742 397 742 _c
469 742 522 730 557 708 _c
542 633 _l
274 478 _m
250 468 226 451 204 428 _c
168 391 144 339 132 273 _c
119 207 123 155 144 118 _c
164 80 199 62 248 62 _c
295 62 336 81 372 119 _c
407 156 431 206 443 268 _c
455 332 450 380 427 412 _c
401 445 369 464 329 468 _c
308 470 290 473 274 478 _c
_cl}_e}_d
end readonly def

/BuildGlyph
 {exch begin
 CharStrings exch
 2 copy known not{pop /.notdef}if
 true 3 1 roll get exec
 end}_d

/BuildChar {
 1 index /Encoding get exch get
 1 index /BuildGlyph get exec
}_d

FontName currentdict end definefont pop
end
%%EndProlog
mpldict begin
-125.811 98.086 translate
863.622 595.829 0 0 clipbox
gsave
0 0 m
863.621875 0 l
863.621875 595.82875 l
0 595.82875 l
cl
1.000 setgray
fill
grestore
gsave
110.121875 64.66875 m
779.721875 64.66875 l
779.721875 563.62875 l
110.121875 563.62875 l
cl
1.000 setgray
fill
grestore
0.800 setlinewidth
1 setlinejoin
0 setlinecap
[] 0 setdash
0.000 setgray
gsave
/o {
gsave
newpath
translate
0.8 setlinewidth
1 setlinejoin
0 setlinecap
0 0 m
0 -3.5 l

gsave
0.000 setgray
fill
grestore
stroke
grestore
} bind def
110.122 64.6688 o
grestore
/DejaVuSans findfont
24.000 scalefont
setfont
gsave
102.489063 39.434375 translate
0.000000 rotate
0.000000 0.000000 m /five glyphshow
grestore
gsave
/o {
gsave
newpath
translate
0.8 setlinewidth
1 setlinejoin
0 setlinecap
0 0 m
0 -3.5 l

gsave
0.000 setgray
fill
grestore
stroke
grestore
} bind def
184.522 64.6688 o
grestore
gsave
169.256250 39.434375 translate
0.000000 rotate
0.000000 0.000000 m /one glyphshow
15.269531 0.000000 m /zero glyphshow
grestore
gsave
/o {
gsave
newpath
translate
0.8 setlinewidth
1 setlinejoin
0 setlinecap
0 0 m
0 -3.5 l

gsave
0.000 setgray
fill
grestore
stroke
grestore
} bind def
258.922 64.6688 o
grestore
gsave
243.656250 39.434375 translate
0.000000 rotate
0.000000 0.000000 m /one glyphshow
15.269531 0.000000 m /five glyphshow
grestore
gsave
/o {
gsave
newpath
translate
0.8 setlinewidth
1 setlinejoin
0 setlinecap
0 0 m
0 -3.5 l

gsave
0.000 setgray
fill
grestore
stroke
grestore
} bind def
333.322 64.6688 o
grestore
gsave
318.056250 39.434375 translate
0.000000 rotate
0.000000 0.000000 m /two glyphshow
15.269531 0.000000 m /zero glyphshow
grestore
gsave
/o {
gsave
newpath
translate
0.8 setlinewidth
1 setlinejoin
0 setlinecap
0 0 m
0 -3.5 l

gsave
0.000 setgray
fill
grestore
stroke
grestore
} bind def
407.722 64.6688 o
grestore
gsave
392.456250 39.434375 translate
0.000000 rotate
0.000000 0.000000 m /two glyphshow
15.269531 0.000000 m /five glyphshow
grestore
gsave
/o {
gsave
newpath
translate
0.8 setlinewidth
1 setlinejoin
0 setlinecap
0 0 m
0 -3.5 l

gsave
0.000 setgray
fill
grestore
stroke
grestore
} bind def
482.122 64.6688 o
grestore
gsave
466.856250 39.434375 translate
0.000000 rotate
0.000000 0.000000 m /three glyphshow
15.269531 0.000000 m /zero glyphshow
grestore
gsave
/o {
gsave
newpath
translate
0.8 setlinewidth
1 setlinejoin
0 setlinecap
0 0 m
0 -3.5 l

gsave
0.000 setgray
fill
grestore
stroke
grestore
} bind def
556.522 64.6688 o
grestore
gsave
541.256250 39.434375 translate
0.000000 rotate
0.000000 0.000000 m /three glyphshow
15.269531 0.000000 m /five glyphshow
grestore
gsave
/o {
gsave
newpath
translate
0.8 setlinewidth
1 setlinejoin
0 setlinecap
0 0 m
0 -3.5 l

gsave
0.000 setgray
fill
grestore
stroke
grestore
} bind def
630.922 64.6688 o
grestore
gsave
615.656250 39.434375 translate
0.000000 rotate
0.000000 0.000000 m /four glyphshow
15.269531 0.000000 m /zero glyphshow
grestore
gsave
/o {
gsave
newpath
translate
0.8 setlinewidth
1 setlinejoin
0 setlinecap
0 0 m
0 -3.5 l

gsave
0.000 setgray
fill
grestore
stroke
grestore
} bind def
705.322 64.6688 o
grestore
gsave
690.056250 39.434375 translate
0.000000 rotate
0.000000 0.000000 m /four glyphshow
15.269531 0.000000 m /five glyphshow
grestore
gsave
/o {
gsave
newpath
translate
0.8 setlinewidth
1 setlinejoin
0 setlinecap
0 0 m
0 -3.5 l

gsave
0.000 setgray
fill
grestore
stroke
grestore
} bind def
779.722 64.6688 o
grestore
gsave
764.456250 39.434375 translate
0.000000 rotate
0.000000 0.000000 m /five glyphshow
15.269531 0.000000 m /zero glyphshow
grestore
gsave
382.570312 12.200000 translate
0.000000 rotate
0.000000 0.000000 m /S glyphshow
15.234375 0.000000 m /n glyphshow
30.445312 0.000000 m /a glyphshow
45.152344 0.000000 m /p glyphshow
60.386719 0.000000 m /s glyphshow
72.890625 0.000000 m /h glyphshow
88.101562 0.000000 m /o glyphshow
102.785156 0.000000 m /t glyphshow
112.195312 0.000000 m /s glyphshow
grestore
gsave
/o {
gsave
newpath
translate
0.8 setlinewidth
1 setlinejoin
0 setlinecap
0 0 m
-3.5 0 l

gsave
0.000 setgray
fill
grestore
stroke
grestore
} bind def
110.122 92.0458 o
grestore
gsave
34.434375 82.928567 translate
0.000000 rotate
0.000000 0.000000 m /zero glyphshow
15.269531 0.000000 m /period glyphshow
22.898438 0.000000 m /zero glyphshow
38.167969 0.000000 m /zero glyphshow
53.437500 0.000000 m /five glyphshow
grestore
gsave
/o {
gsave
newpath
translate
0.8 setlinewidth
1 setlinejoin
0 setlinecap
0 0 m
-3.5 0 l

gsave
0.000 setgray
fill
grestore
stroke
grestore
} bind def
110.122 151.448 o
grestore
gsave
34.434375 142.330509 translate
0.000000 rotate
0.000000 0.000000 m /zero glyphshow
15.269531 0.000000 m /period glyphshow
22.898438 0.000000 m /zero glyphshow
38.167969 0.000000 m /one glyphshow
53.437500 0.000000 m /zero glyphshow
grestore
gsave
/o {
gsave
newpath
translate
0.8 setlinewidth
1 setlinejoin
0 setlinecap
0 0 m
-3.5 0 l

gsave
0.000 setgray
fill
grestore
stroke
grestore
} bind def
110.122 289.375 o
grestore
gsave
34.434375 280.257547 translate
0.000000 rotate
0.000000 0.000000 m /zero glyphshow
15.269531 0.000000 m /period glyphshow
22.898438 0.000000 m /zero glyphshow
38.167969 0.000000 m /five glyphshow
53.437500 0.000000 m /zero glyphshow
grestore
gsave
/o {
gsave
newpath
translate
0.8 setlinewidth
1 setlinejoin
0 setlinecap
0 0 m
-3.5 0 l

gsave
0.000 setgray
fill
grestore
stroke
grestore
} bind def
110.122 348.777 o
grestore
gsave
34.434375 339.659489 translate
0.000000 rotate
0.000000 0.000000 m /zero glyphshow
15.269531 0.000000 m /period glyphshow
22.898438 0.000000 m /one glyphshow
38.167969 0.000000 m /zero glyphshow
53.437500 0.000000 m /zero glyphshow
grestore
gsave
/o {
gsave
newpath
translate
0.8 setlinewidth
1 setlinejoin
0 setlinecap
0 0 m
-3.5 0 l

gsave
0.000 setgray
fill
grestore
stroke
grestore
} bind def
110.122 486.704 o
grestore
gsave
34.434375 477.586527 translate
0.000000 rotate
0.000000 0.000000 m /zero glyphshow
15.269531 0.000000 m /period glyphshow
22.898438 0.000000 m /five glyphshow
38.167969 0.000000 m /zero glyphshow
53.437500 0.000000 m /zero glyphshow
grestore
gsave
/o {
gsave
newpath
translate
0.8 setlinewidth
1 setlinejoin
0 setlinecap
0 0 m
-3.5 0 l

gsave
0.000 setgray
fill
grestore
stroke
grestore
} bind def
110.122 546.106 o
grestore
gsave
34.434375 536.988469 translate
0.000000 rotate
0.000000 0.000000 m /one glyphshow
15.269531 0.000000 m /period glyphshow
22.898438 0.000000 m /zero glyphshow
38.167969 0.000000 m /zero glyphshow
53.437500 0.000000 m /zero glyphshow
grestore
0.600 setlinewidth
gsave
/o {
gsave
newpath
translate
0.6 setlinewidth
1 setlinejoin
0 setlinecap
0 0 m
-2 0 l

gsave
0.000 setgray
fill
grestore
stroke
grestore
} bind def
110.122 72.9226 o
grestore
gsave
/o {
gsave
newpath
translate
0.6 setlinewidth
1 setlinejoin
0 setlinecap
0 0 m
-2 0 l

gsave
0.000 setgray
fill
grestore
stroke
grestore
} bind def
110.122 107.671 o
grestore
gsave
/o {
gsave
newpath
translate
0.6 setlinewidth
1 setlinejoin
0 setlinecap
0 0 m
-2 0 l

gsave
0.000 setgray
fill
grestore
stroke
grestore
} bind def
110.122 120.881 o
grestore
gsave
/o {
gsave
newpath
translate
0.6 setlinewidth
1 setlinejoin
0 setlinecap
0 0 m
-2 0 l

gsave
0.000 setgray
fill
grestore
stroke
grestore
} bind def
110.122 132.325 o
grestore
gsave
/o {
gsave
newpath
translate
0.6 setlinewidth
1 setlinejoin
0 setlinecap
0 0 m
-2 0 l

gsave
0.000 setgray
fill
grestore
stroke
grestore
} bind def
110.122 142.418 o
grestore
gsave
/o {
gsave
newpath
translate
0.6 setlinewidth
1 setlinejoin
0 setlinecap
0 0 m
-2 0 l

gsave
0.000 setgray
fill
grestore
stroke
grestore
} bind def
110.122 210.85 o
grestore
gsave
/o {
gsave
newpath
translate
0.6 setlinewidth
1 setlinejoin
0 setlinecap
0 0 m
-2 0 l

gsave
0.000 setgray
fill
grestore
stroke
grestore
} bind def
110.122 245.598 o
grestore
gsave
/o {
gsave
newpath
translate
0.6 setlinewidth
1 setlinejoin
0 setlinecap
0 0 m
-2 0 l

gsave
0.000 setgray
fill
grestore
stroke
grestore
} bind def
110.122 270.252 o
grestore
gsave
/o {
gsave
newpath
translate
0.6 setlinewidth
1 setlinejoin
0 setlinecap
0 0 m
-2 0 l

gsave
0.000 setgray
fill
grestore
stroke
grestore
} bind def
110.122 304.999 o
grestore
gsave
/o {
gsave
newpath
translate
0.6 setlinewidth
1 setlinejoin
0 setlinecap
0 0 m
-2 0 l

gsave
0.000 setgray
fill
grestore
stroke
grestore
} bind def
110.122 318.21 o
grestore
gsave
/o {
gsave
newpath
translate
0.6 setlinewidth
1 setlinejoin
0 setlinecap
0 0 m
-2 0 l

gsave
0.000 setgray
fill
grestore
stroke
grestore
} bind def
110.122 329.654 o
grestore
gsave
/o {
gsave
newpath
translate
0.6 setlinewidth
1 setlinejoin
0 setlinecap
0 0 m
-2 0 l

gsave
0.000 setgray
fill
grestore
stroke
grestore
} bind def
110.122 339.747 o
grestore
gsave
/o {
gsave
newpath
translate
0.6 setlinewidth
1 setlinejoin
0 setlinecap
0 0 m
-2 0 l

gsave
0.000 setgray
fill
grestore
stroke
grestore
} bind def
110.122 408.179 o
grestore
gsave
/o {
gsave
newpath
translate
0.6 setlinewidth
1 setlinejoin
0 setlinecap
0 0 m
-2 0 l

gsave
0.000 setgray
fill
grestore
stroke
grestore
} bind def
110.122 442.927 o
grestore
gsave
/o {
gsave
newpath
translate
0.6 setlinewidth
1 setlinejoin
0 setlinecap
0 0 m
-2 0 l

gsave
0.000 setgray
fill
grestore
stroke
grestore
} bind def
110.122 467.581 o
grestore
gsave
/o {
gsave
newpath
translate
0.6 setlinewidth
1 setlinejoin
0 setlinecap
0 0 m
-2 0 l

gsave
0.000 setgray
fill
grestore
stroke
grestore
} bind def
110.122 502.328 o
grestore
gsave
/o {
gsave
newpath
translate
0.6 setlinewidth
1 setlinejoin
0 setlinecap
0 0 m
-2 0 l

gsave
0.000 setgray
fill
grestore
stroke
grestore
} bind def
110.122 515.539 o
grestore
gsave
/o {
gsave
newpath
translate
0.6 setlinewidth
1 setlinejoin
0 setlinecap
0 0 m
-2 0 l

gsave
0.000 setgray
fill
grestore
stroke
grestore
} bind def
110.122 526.983 o
grestore
gsave
/o {
gsave
newpath
translate
0.6 setlinewidth
1 setlinejoin
0 setlinecap
0 0 m
-2 0 l

gsave
0.000 setgray
fill
grestore
stroke
grestore
} bind def
110.122 537.076 o
grestore
gsave
25.434375 265.367500 translate
90.000000 rotate
0.000000 0.000000 m /F glyphshow
13.789062 0.000000 m /r glyphshow
23.656250 0.000000 m /a glyphshow
38.363281 0.000000 m /c glyphshow
51.558594 0.000000 m /t glyphshow
60.968750 0.000000 m /i glyphshow
67.636719 0.000000 m /o glyphshow
82.320312 0.000000 m /n glyphshow
grestore
3.000 setlinewidth
2 setlinecap
0.000 0.000 1.000 setrgbcolor
gsave
669.6 499 110.1 64.67 clipbox
110.121875 290.9597 m
125.001875 269.028832 l
139.881875 221.070381 l
154.761875 213.382795 l
169.641875 200.86282 l
184.521875 192.967235 l
199.401875 188.82116 l
214.281875 189.005657 l
229.161875 184.269707 l
244.041875 188.265273 l
258.921875 191.189186 l
273.801875 192.260436 l
288.681875 200.056616 l
303.561875 202.610217 l
318.441875 206.604078 l
333.321875 210.706688 l
348.201875 217.312761 l
363.081875 218.365909 l
377.961875 221.701916 l
392.841875 226.83073 l
407.721875 229.053761 l
422.601875 231.557758 l
437.481875 234.64237 l
452.361875 239.070603 l
467.241875 244.060306 l
482.121875 251.128427 l
497.001875 256.826524 l
511.881875 260.264762 l
526.761875 264.720701 l
541.641875 267.788383 l
556.521875 270.750039 l
571.401875 273.199745 l
586.281875 278.159469 l
601.161875 282.538966 l
616.041875 284.314855 l
630.921875 287.409873 l
645.801875 289.830581 l
660.681875 294.206467 l
675.561875 297.750215 l
690.441875 300.803942 l
705.321875 303.993791 l
720.201875 307.208467 l
735.081875 309.044614 l
749.961875 321.256711 l
764.841875 331.978419 l
779.721875 340.757117 l
stroke
grestore
1.000 0.000 0.000 setrgbcolor
gsave
669.6 499 110.1 64.67 clipbox
110.121875 253.59222 m
125.001875 217.972494 l
139.881875 140.492519 l
154.761875 144.301986 l
169.641875 131.246555 l
184.521875 120.06096 l
199.401875 112.30401 l
214.281875 116.699788 l
229.161875 105.256297 l
244.041875 96.498647 l
258.921875 94.855806 l
273.801875 97.039335 l
288.681875 107.670509 l
303.561875 107.193077 l
318.441875 97.576634 l
333.321875 94.855806 l
348.201875 109.554077 l
363.081875 103.274731 l
377.961875 114.53008 l
392.841875 121.288172 l
407.721875 110.940073 l
422.601875 111.397135 l
437.481875 115.838486 l
452.361875 119.647952 l
467.241875 126.411931 l
482.121875 129.787816 l
497.001875 141.781249 l
511.881875 148.542372 l
526.761875 148.837377 l
541.641875 150.297359 l
556.521875 149.13137 l
571.401875 156.710348 l
586.281875 157.245968 l
601.161875 161.668439 l
616.041875 154.257748 l
630.921875 160.133493 l
645.801875 158.570552 l
660.681875 159.874974 l
675.561875 166.595019 l
690.441875 164.413034 l
705.321875 167.310174 l
720.201875 174.370381 l
735.081875 170.570851 l
749.961875 215.302531 l
764.841875 246.45028 l
779.721875 266.00602 l
stroke
grestore
0 setlinecap
[11.1 4.8] 0 setdash
0.000 0.000 1.000 setrgbcolor
gsave
669.6 499 110.1 64.67 clipbox
110.121875 301.401844 m
125.001875 282.786115 l
139.881875 251.839625 l
154.761875 243.768978 l
169.641875 227.538989 l
184.521875 221.070381 l
199.401875 218.103833 l
214.281875 216.246509 l
229.161875 214.485047 l
244.041875 212.965768 l
258.921875 211.560837 l
273.801875 214.758409 l
288.681875 218.757527 l
303.561875 220.561781 l
318.441875 222.328831 l
333.321875 224.060181 l
348.201875 228.590523 l
363.081875 233.443764 l
377.961875 239.27587 l
392.841875 246.638629 l
407.721875 247.387914 l
422.601875 250.680912 l
437.481875 251.395818 l
452.361875 256.491762 l
467.241875 261.380857 l
482.121875 266.529716 l
497.001875 270.322967 l
511.881875 273.612752 l
526.761875 276.316411 l
541.641875 279.195118 l
556.521875 283.032553 l
571.401875 285.518511 l
586.281875 290.114259 l
601.161875 293.501568 l
616.041875 297.178367 l
630.921875 299.290679 l
645.801875 302.487279 l
660.681875 304.951866 l
675.561875 307.947653 l
690.441875 309.361934 l
705.321875 312.384822 l
720.201875 315.809809 l
735.081875 317.142374 l
749.961875 328.683946 l
764.841875 339.1422 l
779.721875 347.684224 l
stroke
grestore
1.000 0.000 0.000 setrgbcolor
gsave
669.6 499 110.1 64.67 clipbox
110.121875 254.283343 m
125.001875 217.70921 l
139.881875 146.448403 l
154.761875 144.611928 l
169.641875 132.68088 l
184.521875 124.477336 l
199.401875 112.753874 l
214.281875 111.397135 l
229.161875 109.087052 l
244.041875 105.256297 l
258.921875 95.954525 l
273.801875 87.34875 l
288.681875 92.045755 l
303.561875 94.301119 l
318.441875 98.110585 l
333.321875 95.954525 l
348.201875 105.744611 l
363.081875 97.039335 l
377.961875 101.24626 l
392.841875 113.201389 l
407.721875 106.71297 l
422.601875 104.271241 l
437.481875 105.744611 l
452.361875 111.397135 l
467.241875 122.498059 l
482.121875 127.928765 l
497.001875 141.139306 l
511.881875 144.611928 l
526.761875 145.840607 l
541.641875 152.300429 l
556.521875 152.582798 l
571.401875 154.808868 l
586.281875 152.582798 l
601.161875 156.171359 l
616.041875 158.307268 l
630.921875 163.176377 l
645.801875 165.146553 l
660.681875 164.902743 l
675.561875 165.873846 l
690.441875 165.6321 l
705.321875 167.78365 l
720.201875 177.588489 l
735.081875 174.806508 l
749.961875 219.664402 l
764.841875 249.141641 l
779.721875 269.678342 l
stroke
grestore
[3 4.95] 0 setdash
0.000 0.000 1.000 setrgbcolor
gsave
669.6 499 110.1 64.67 clipbox
110.121875 408.918143 m
125.001875 404.486583 l
139.881875 399.687234 l
154.761875 396.244015 l
169.641875 392.742195 l
184.521875 389.305056 l
199.401875 386.665734 l
214.281875 384.791141 l
229.161875 381.929158 l
244.041875 379.62851 l
258.921875 377.917495 l
273.801875 375.232732 l
288.681875 374.6433 l
303.561875 372.135488 l
318.441875 371.282974 l
333.321875 368.944675 l
348.201875 367.831244 l
363.081875 367.303583 l
377.961875 367.693906 l
392.841875 367.80837 l
407.721875 366.284999 l
422.601875 365.841386 l
437.481875 365.583504 l
452.361875 365.700819 l
467.241875 366.075153 l
482.121875 367.762603 l
497.001875 368.105262 l
511.881875 368.105262 l
526.761875 368.560019 l
541.641875 369.798302 l
556.521875 370.132933 l
571.401875 369.282649 l
586.281875 370.199702 l
601.161875 371.436615 l
616.041875 372.591046 l
630.921875 372.979606 l
645.801875 373.237671 l
660.681875 373.64469 l
675.561875 373.32352 l
690.441875 374.368251 l
705.321875 375.295646 l
720.201875 376.296033 l
735.081875 377.50989 l
749.961875 383.333931 l
764.841875 389.091165 l
779.721875 394.435569 l
stroke
grestore
1.000 0.000 0.000 setrgbcolor
gsave
669.6 499 110.1 64.67 clipbox
110.121875 283.706627 m
125.001875 247.107699 l
139.881875 195.224884 l
154.761875 186.765035 l
169.641875 170.799077 l
184.521875 153.703061 l
199.401875 147.051919 l
214.281875 147.949297 l
229.161875 145.228469 l
244.041875 139.513093 l
258.921875 139.513093 l
273.801875 142.418418 l
288.681875 151.447697 l
303.561875 150.007346 l
318.441875 152.582798 l
333.321875 156.171359 l
348.201875 167.072451 l
363.081875 166.114912 l
377.961875 167.547239 l
392.841875 175.887215 l
407.721875 173.932022 l
422.601875 174.151482 l
437.481875 168.01941 l
452.361875 171.026697 l
467.241875 173.711999 l
482.121875 182.099999 l
497.001875 190.104375 l
511.881875 190.648497 l
526.761875 194.881401 l
541.641875 200.541248 l
556.521875 199.242755 l
571.401875 200.702185 l
586.281875 201.978915 l
601.161875 204.322695 l
616.041875 204.937027 l
630.921875 201.978915 l
645.801875 205.089924 l
660.681875 206.453861 l
675.561875 207.796429 l
690.441875 209.554417 l
705.321875 213.105003 l
720.201875 216.246509 l
735.081875 214.894764 l
749.961875 247.667215 l
764.841875 271.73834 l
779.721875 289.944165 l
stroke
grestore
[19.2 4.8 3 4.8] 0 setdash
0.000 0.000 1.000 setrgbcolor
gsave
669.6 499 110.1 64.67 clipbox
110.121875 516.955554 m
125.001875 517.603367 l
139.881875 520.567234 l
154.761875 523.588188 l
169.641875 526.484721 l
184.521875 528.903323 l
199.401875 531.258934 l
214.281875 533.07727 l
229.161875 534.753528 l
244.041875 536.118838 l
258.921875 537.047807 l
273.801875 537.623734 l
288.681875 538.173884 l
303.561875 538.183284 l
318.441875 538.364823 l
333.321875 538.533497 l
348.201875 538.464818 l
363.081875 538.533497 l
377.961875 538.314782 l
392.841875 538.117459 l
407.721875 537.875669 l
422.601875 537.718296 l
437.481875 537.409005 l
452.361875 537.114458 l
467.241875 536.799791 l
482.121875 536.837994 l
497.001875 536.780683 l
511.881875 536.790238 l
526.761875 536.981104 l
541.641875 536.888905 l
556.521875 536.748827 l
571.401875 536.637238 l
586.281875 536.672325 l
601.161875 536.790238 l
616.041875 536.822078 l
630.921875 536.694645 l
645.801875 536.665946 l
660.681875 536.713772 l
675.561875 536.927068 l
690.441875 537.03193 l
705.321875 536.981104 l
720.201875 536.866635 l
735.081875 536.990636 l
749.961875 538.302267 l
764.841875 539.714244 l
779.721875 540.94875 l
stroke
grestore
1.000 0.000 0.000 setrgbcolor
gsave
669.6 499 110.1 64.67 clipbox
110.121875 503.223616 m
125.001875 499.329514 l
139.881875 497.982793 l
154.761875 496.553477 l
169.641875 495.410159 l
184.521875 494.861303 l
199.401875 494.146685 l
214.281875 493.357361 l
229.161875 492.678008 l
244.041875 491.960993 l
258.921875 491.205409 l
273.801875 490.803321 l
288.681875 490.628859 l
303.561875 489.987942 l
318.441875 489.707062 l
333.321875 488.953514 l
348.201875 488.93125 l
363.081875 488.350352 l
377.961875 488.176435 l
392.841875 487.675155 l
407.721875 487.068586 l
422.601875 486.606534 l
437.481875 486.118972 l
452.361875 485.836641 l
467.241875 486.187973 l
482.121875 485.819325 l
497.001875 485.425892 l
511.881875 485.541795 l
526.761875 485.582324 l
541.641875 485.738472 l
556.521875 485.680673 l
571.401875 486.090205 l
586.281875 486.038401 l
601.161875 486.228197 l
616.041875 486.354495 l
630.921875 486.53787 l
645.801875 486.440501 l
660.681875 486.732276 l
675.561875 486.914845 l
690.441875 486.823609 l
705.321875 486.532145 l
720.201875 486.749409 l
735.081875 487.051517 l
749.961875 491.648773 l
764.841875 496.308666 l
779.721875 500.946199 l
stroke
grestore
0.800 setlinewidth
0 setlinejoin
2 setlinecap
[] 0 setdash
0.000 setgray
gsave
110.121875 64.66875 m
110.121875 563.62875 l
stroke
grestore
gsave
779.721875 64.66875 m
779.721875 563.62875 l
stroke
grestore
gsave
110.121875 64.66875 m
779.721875 64.66875 l
stroke
grestore
gsave
110.121875 563.62875 m
779.721875 563.62875 l
stroke
grestore
gsave
33.421875 569.628750 translate
0.000000 rotate
/DejaVuSans findfont
24.0 scalefont
setfont
0.000000 0.765625 moveto
/F glyphshow

13.804688 0.765625 moveto
/r glyphshow

23.671875 0.765625 moveto
/a glyphshow

38.378906 0.765625 moveto
/c glyphshow

51.574219 0.765625 moveto
/t glyphshow

60.984375 0.765625 moveto
/i glyphshow

67.652344 0.765625 moveto
/o glyphshow

82.335938 0.765625 moveto
/n glyphshow

97.546875 0.765625 moveto
/space glyphshow

105.175781 0.765625 moveto
/o glyphshow

119.859375 0.765625 moveto
/f glyphshow

128.308594 0.765625 moveto
/space glyphshow

135.937500 0.765625 moveto
/U glyphshow

153.503906 0.765625 moveto
/n glyphshow

168.714844 0.765625 moveto
/d glyphshow

183.949219 0.765625 moveto
/e glyphshow

198.714844 0.765625 moveto
/t glyphshow

208.125000 0.765625 moveto
/e glyphshow

222.890625 0.765625 moveto
/c glyphshow

236.085938 0.765625 moveto
/t glyphshow

245.496094 0.765625 moveto
/e glyphshow

260.261719 0.765625 moveto
/d glyphshow

275.496094 0.765625 moveto
/space glyphshow

283.125000 0.765625 moveto
/P glyphshow

297.597656 0.765625 moveto
/a glyphshow

312.304688 0.765625 moveto
/r glyphshow

322.171875 0.765625 moveto
/t glyphshow

331.582031 0.765625 moveto
/i glyphshow

338.250000 0.765625 moveto
/c glyphshow

351.445312 0.765625 moveto
/l glyphshow

358.113281 0.765625 moveto
/e glyphshow

372.878906 0.765625 moveto
/s glyphshow

385.382812 0.765625 moveto
/comma glyphshow

393.011719 0.765625 moveto
/space glyphshow

400.640625 0.765625 moveto
/P glyphshow

415.113281 0.765625 moveto
/P glyphshow

429.585938 0.765625 moveto
/P glyphshow

444.058594 0.765625 moveto
/space glyphshow

451.687500 0.765625 moveto
/equal glyphshow

471.796875 0.765625 moveto
/space glyphshow

479.425781 0.765625 moveto
/zero glyphshow

494.695312 0.765625 moveto
/period glyphshow

502.324219 0.765625 moveto
/zero glyphshow

517.593750 0.765625 moveto
/seven glyphshow

532.863281 0.765625 moveto
/five glyphshow

548.132812 0.765625 moveto
/comma glyphshow

555.761719 0.765625 moveto
/space glyphshow

563.390625 0.765625 moveto
/t glyphshow

572.800781 0.765625 moveto
/i glyphshow

579.468750 0.765625 moveto
/m glyphshow

602.847656 0.765625 moveto
/e glyphshow

617.613281 0.765625 moveto
/space glyphshow

625.242188 0.765625 moveto
/s glyphshow

637.746094 0.765625 moveto
/e glyphshow

652.511719 0.765625 moveto
/p glyphshow

667.746094 0.765625 moveto
/a glyphshow

682.453125 0.765625 moveto
/r glyphshow

692.320312 0.765625 moveto
/a glyphshow

707.027344 0.765625 moveto
/t glyphshow

716.437500 0.765625 moveto
/i glyphshow

723.105469 0.765625 moveto
/o glyphshow

737.789062 0.765625 moveto
/n glyphshow

753.000000 0.765625 moveto
/space glyphshow

760.628906 0.765625 moveto
/seven glyphshow

775.898438 0.765625 moveto
/period glyphshow

783.527344 0.765625 moveto
/five glyphshow

/DejaVuSans-Oblique findfont
24.0 scalefont
setfont
798.796875 0.765625 moveto
/delta glyphshow

813.480469 0.765625 moveto
/t glyphshow


grestore
1.000 setlinewidth
0 setlinecap
0.800 setgray
gsave
181.8525 375.50375 m
367.461875 375.50375 l
369.461875 375.50375 370.461875 376.50375 370.461875 378.50375 c
370.461875 553.12875 l
370.461875 555.12875 369.461875 556.12875 367.461875 556.12875 c
181.8525 556.12875 l
179.8525 556.12875 178.8525 555.12875 178.8525 553.12875 c
178.8525 378.50375 l
178.8525 376.50375 179.8525 375.50375 181.8525 375.50375 c
cl
gsave
1.000 setgray
fill
grestore
stroke
grestore
3.000 setlinewidth
1 setlinejoin
2 setlinecap
[] 0 setdash
0.000 0.000 1.000 setrgbcolor
gsave
184.8525 543.988125 m
214.8525 543.988125 l
stroke
grestore
0.000 setgray
/DejaVuSans findfont
15.000 scalefont
setfont
gsave
226.852500 538.738125 translate
0.000000 rotate
0.000000 0.000000 m /S glyphshow
9.521484 0.000000 m /T glyphshow
18.684082 0.000000 m /B glyphshow
28.974609 0.000000 m /comma glyphshow
33.742676 0.000000 m /space glyphshow
38.510742 0.000000 m /N glyphshow
49.731445 0.000000 m /o glyphshow
58.908691 0.000000 m /i glyphshow
63.076172 0.000000 m /s glyphshow
70.891113 0.000000 m /e glyphshow
80.119629 0.000000 m /space glyphshow
84.887695 0.000000 m /F glyphshow
93.500000 0.000000 m /r glyphshow
99.666992 0.000000 m /e glyphshow
108.895508 0.000000 m /e glyphshow
grestore
1.000 0.000 0.000 setrgbcolor
gsave
184.8525 521.9725 m
214.8525 521.9725 l
stroke
grestore
0.000 setgray
gsave
226.852500 516.722500 translate
0.000000 rotate
0.000000 0.000000 m /K glyphshow
9.836426 0.000000 m /L glyphshow
18.193359 0.000000 m /P glyphshow
27.238770 0.000000 m /T glyphshow
36.401367 0.000000 m /comma glyphshow
41.169434 0.000000 m /space glyphshow
45.937500 0.000000 m /N glyphshow
57.158203 0.000000 m /o glyphshow
66.335449 0.000000 m /i glyphshow
70.502930 0.000000 m /s glyphshow
78.317871 0.000000 m /e glyphshow
87.546387 0.000000 m /space glyphshow
92.314453 0.000000 m /F glyphshow
100.926758 0.000000 m /r glyphshow
107.093750 0.000000 m /e glyphshow
116.322266 0.000000 m /e glyphshow
grestore
0 setlinecap
[11.1 4.8] 0 setdash
0.000 0.000 1.000 setrgbcolor
gsave
184.8525 499.956875 m
214.8525 499.956875 l
stroke
grestore
0.000 setgray
gsave
226.852500 494.706875 translate
0.000000 rotate
0.000000 0.000000 m /S glyphshow
9.521484 0.000000 m /T glyphshow
18.684082 0.000000 m /B glyphshow
28.974609 0.000000 m /comma glyphshow
33.742676 0.000000 m /space glyphshow
38.510742 0.000000 m /P glyphshow
47.556152 0.000000 m /S glyphshow
57.077637 0.000000 m /N glyphshow
68.298340 0.000000 m /R glyphshow
78.720703 0.000000 m /equal glyphshow
91.289062 0.000000 m /four glyphshow
100.832520 0.000000 m /zero glyphshow
110.375977 0.000000 m /d glyphshow
119.897461 0.000000 m /B glyphshow
grestore
1.000 0.000 0.000 setrgbcolor
gsave
184.8525 477.94125 m
214.8525 477.94125 l
stroke
grestore
0.000 setgray
gsave
226.852500 472.691250 translate
0.000000 rotate
0.000000 0.000000 m /K glyphshow
9.836426 0.000000 m /L glyphshow
18.193359 0.000000 m /P glyphshow
27.238770 0.000000 m /T glyphshow
36.401367 0.000000 m /comma glyphshow
41.169434 0.000000 m /space glyphshow
45.937500 0.000000 m /P glyphshow
54.982910 0.000000 m /S glyphshow
64.504395 0.000000 m /N glyphshow
75.725098 0.000000 m /R glyphshow
86.147461 0.000000 m /equal glyphshow
98.715820 0.000000 m /four glyphshow
108.259277 0.000000 m /zero glyphshow
117.802734 0.000000 m /d glyphshow
127.324219 0.000000 m /B glyphshow
grestore
[3 4.95] 0 setdash
0.000 0.000 1.000 setrgbcolor
gsave
184.8525 455.925625 m
214.8525 455.925625 l
stroke
grestore
0.000 setgray
gsave
226.852500 450.675625 translate
0.000000 rotate
0.000000 0.000000 m /S glyphshow
9.521484 0.000000 m /T glyphshow
18.684082 0.000000 m /B glyphshow
28.974609 0.000000 m /comma glyphshow
33.742676 0.000000 m /space glyphshow
38.510742 0.000000 m /P glyphshow
47.556152 0.000000 m /S glyphshow
57.077637 0.000000 m /N glyphshow
68.298340 0.000000 m /R glyphshow
78.720703 0.000000 m /equal glyphshow
91.289062 0.000000 m /three glyphshow
100.832520 0.000000 m /zero glyphshow
110.375977 0.000000 m /d glyphshow
119.897461 0.000000 m /B glyphshow
grestore
1.000 0.000 0.000 setrgbcolor
gsave
184.8525 433.91 m
214.8525 433.91 l
stroke
grestore
0.000 setgray
gsave
226.852500 428.660000 translate
0.000000 rotate
0.000000 0.000000 m /K glyphshow
9.836426 0.000000 m /L glyphshow
18.193359 0.000000 m /P glyphshow
27.238770 0.000000 m /T glyphshow
36.401367 0.000000 m /comma glyphshow
41.169434 0.000000 m /space glyphshow
45.937500 0.000000 m /P glyphshow
54.982910 0.000000 m /S glyphshow
64.504395 0.000000 m /N glyphshow
75.725098 0.000000 m /R glyphshow
86.147461 0.000000 m /equal glyphshow
98.715820 0.000000 m /three glyphshow
108.259277 0.000000 m /zero glyphshow
117.802734 0.000000 m /d glyphshow
127.324219 0.000000 m /B glyphshow
grestore
[19.2 4.8 3 4.8] 0 setdash
0.000 0.000 1.000 setrgbcolor
gsave
184.8525 411.894375 m
214.8525 411.894375 l
stroke
grestore
0.000 setgray
gsave
226.852500 406.644375 translate
0.000000 rotate
0.000000 0.000000 m /S glyphshow
9.521484 0.000000 m /T glyphshow
18.684082 0.000000 m /B glyphshow
28.974609 0.000000 m /comma glyphshow
33.742676 0.000000 m /space glyphshow
38.510742 0.000000 m /P glyphshow
47.556152 0.000000 m /S glyphshow
57.077637 0.000000 m /N glyphshow
68.298340 0.000000 m /R glyphshow
78.720703 0.000000 m /equal glyphshow
91.289062 0.000000 m /two glyphshow
100.832520 0.000000 m /zero glyphshow
110.375977 0.000000 m /d glyphshow
119.897461 0.000000 m /B glyphshow
grestore
1.000 0.000 0.000 setrgbcolor
gsave
184.8525 389.87875 m
214.8525 389.87875 l
stroke
grestore
0.000 setgray
gsave
226.852500 384.628750 translate
0.000000 rotate
0.000000 0.000000 m /K glyphshow
9.836426 0.000000 m /L glyphshow
18.193359 0.000000 m /P glyphshow
27.238770 0.000000 m /T glyphshow
36.401367 0.000000 m /comma glyphshow
41.169434 0.000000 m /space glyphshow
45.937500 0.000000 m /P glyphshow
54.982910 0.000000 m /S glyphshow
64.504395 0.000000 m /N glyphshow
75.725098 0.000000 m /R glyphshow
86.147461 0.000000 m /equal glyphshow
98.715820 0.000000 m /two glyphshow
108.259277 0.000000 m /zero glyphshow
117.802734 0.000000 m /d glyphshow
127.324219 0.000000 m /B glyphshow
grestore

end
showpage
