%!PS-Adobe-3.0 EPSF-3.0
%%Title: /home/yin/030000_trackedghost_thin_part_noise.eps
%%Creator: matplotlib version 3.1.0, http://matplotlib.org/
%%CreationDate: Tue Jan 21 12:35:42 2020
%%Orientation: portrait
%%BoundingBox: -79.82812499999997 98.08562500000005 691.828125 693.914375
%%EndComments
%%BeginProlog
/mpldict 9 dict def
mpldict begin
/m { moveto } bind def
/l { lineto } bind def
/r { rlineto } bind def
/c { curveto } bind def
/cl { closepath } bind def
/box {
m
1 index 0 r
0 exch r
neg 0 r
cl
} bind def
/clipbox {
box
clip
newpath
} bind def
%!PS-Adobe-3.0 Resource-Font
%%Title: DejaVu Sans
%%Copyright: Copyright (c) 2003 by Bitstream, Inc. All Rights Reserved. Copyright (c) 2006 by Tavmjong Bah. All Rights Reserved. DejaVu changes are in public domain 
%%Creator: Converted from TrueType to type 3 by PPR
25 dict begin
/_d{bind def}bind def
/_m{moveto}_d
/_l{lineto}_d
/_cl{closepath eofill}_d
/_c{curveto}_d
/_sc{7 -1 roll{setcachedevice}{pop pop pop pop pop pop}ifelse}_d
/_e{exec}_d
/FontName /DejaVuSans def
/PaintType 0 def
/FontMatrix[.001 0 0 .001 0 0]def
/FontBBox[-1021 -463 1793 1232]def
/FontType 3 def
/Encoding [ /space /comma /period /zero /one /two /three /four /five /seven /equal /B /F /O /S /T /a /c /d /e /f /g /h /i /k /l /n /o /p /r /s /t /u ] def
/FontInfo 10 dict dup begin
/FamilyName (DejaVu Sans) def
/FullName (DejaVu Sans) def
/Notice (Copyright (c) 2003 by Bitstream, Inc. All Rights Reserved. Copyright (c) 2006 by Tavmjong Bah. All Rights Reserved. DejaVu changes are in public domain ) def
/Weight (Book) def
/Version (Version 2.35) def
/ItalicAngle 0.0 def
/isFixedPitch false def
/UnderlinePosition -130 def
/UnderlineThickness 90 def
end readonly def
/CharStrings 34 dict dup begin
/.notdef 0 def
/space{318 0 0 0 0 0 _sc
}_d
/comma{318 0 77 -115 220 124 _sc
117 124 _m
220 124 _l
220 40 _l
140 -115 _l
77 -115 _l
117 40 _l
117 124 _l
_cl}_d
/period{318 0 107 0 210 124 _sc
107 124 _m
210 124 _l
210 0 _l
107 0 _l
107 124 _l
_cl}_d
/zero{636 0 66 -13 570 742 _sc
318 664 _m
267 664 229 639 203 589 _c
177 539 165 464 165 364 _c
165 264 177 189 203 139 _c
229 89 267 64 318 64 _c
369 64 407 89 433 139 _c
458 189 471 264 471 364 _c
471 464 458 539 433 589 _c
407 639 369 664 318 664 _c
318 742 _m
399 742 461 709 505 645 _c
548 580 570 486 570 364 _c
570 241 548 147 505 83 _c
461 19 399 -13 318 -13 _c
236 -13 173 19 130 83 _c
87 147 66 241 66 364 _c
66 486 87 580 130 645 _c
173 709 236 742 318 742 _c
_cl}_d
/one{636 0 110 0 544 729 _sc
124 83 _m
285 83 _l
285 639 _l
110 604 _l
110 694 _l
284 729 _l
383 729 _l
383 83 _l
544 83 _l
544 0 _l
124 0 _l
124 83 _l
_cl}_d
/two{{636 0 73 0 536 742 _sc
192 83 _m
536 83 _l
536 0 _l
73 0 _l
73 83 _l
110 121 161 173 226 239 _c
290 304 331 346 348 365 _c
380 400 402 430 414 455 _c
426 479 433 504 433 528 _c
433 566 419 598 392 622 _c
365 646 330 659 286 659 _c
255 659 222 653 188 643 _c
154 632 117 616 78 594 _c
78 694 _l
118 710 155 722 189 730 _c
223 738 255 742 284 742 _c
}_e{359 742 419 723 464 685 _c
509 647 532 597 532 534 _c
532 504 526 475 515 449 _c
504 422 484 390 454 354 _c
446 344 420 317 376 272 _c
332 227 271 164 192 83 _c
_cl}_e}_d
/three{{636 0 76 -13 556 742 _sc
406 393 _m
453 383 490 362 516 330 _c
542 298 556 258 556 212 _c
556 140 531 84 482 45 _c
432 6 362 -13 271 -13 _c
240 -13 208 -10 176 -4 _c
144 1 110 10 76 22 _c
76 117 _l
103 101 133 89 166 81 _c
198 73 232 69 268 69 _c
330 69 377 81 409 105 _c
441 129 458 165 458 212 _c
458 254 443 288 413 312 _c
383 336 341 349 287 349 _c
}_e{202 349 _l
202 430 _l
291 430 _l
339 430 376 439 402 459 _c
428 478 441 506 441 543 _c
441 580 427 609 401 629 _c
374 649 336 659 287 659 _c
260 659 231 656 200 650 _c
169 644 135 635 98 623 _c
98 711 _l
135 721 170 729 203 734 _c
235 739 266 742 296 742 _c
370 742 429 725 473 691 _c
517 657 539 611 539 553 _c
539 513 527 479 504 451 _c
481 423 448 403 406 393 _c
_cl}_e}_d
/four{636 0 49 0 580 729 _sc
378 643 _m
129 254 _l
378 254 _l
378 643 _l
352 729 _m
476 729 _l
476 254 _l
580 254 _l
580 172 _l
476 172 _l
476 0 _l
378 0 _l
378 172 _l
49 172 _l
49 267 _l
352 729 _l
_cl}_d
/five{{636 0 77 -13 549 729 _sc
108 729 _m
495 729 _l
495 646 _l
198 646 _l
198 467 _l
212 472 227 476 241 478 _c
255 480 270 482 284 482 _c
365 482 429 459 477 415 _c
525 370 549 310 549 234 _c
549 155 524 94 475 51 _c
426 8 357 -13 269 -13 _c
238 -13 207 -10 175 -6 _c
143 -1 111 6 77 17 _c
77 116 _l
106 100 136 88 168 80 _c
199 72 232 69 267 69 _c
}_e{323 69 368 83 401 113 _c
433 143 450 183 450 234 _c
450 284 433 324 401 354 _c
368 384 323 399 267 399 _c
241 399 214 396 188 390 _c
162 384 135 375 108 363 _c
108 729 _l
_cl}_e}_d
/seven{636 0 82 0 551 729 _sc
82 729 _m
551 729 _l
551 687 _l
286 0 _l
183 0 _l
432 646 _l
82 646 _l
82 729 _l
_cl}_d
/equal{838 0 106 172 732 454 _sc
106 454 _m
732 454 _l
732 372 _l
106 372 _l
106 454 _l
106 255 _m
732 255 _l
732 172 _l
106 172 _l
106 255 _l
_cl}_d
/B{{686 0 98 0 615 729 _sc
197 348 _m
197 81 _l
355 81 _l
408 81 447 92 473 114 _c
498 136 511 169 511 215 _c
511 260 498 293 473 315 _c
447 337 408 348 355 348 _c
197 348 _l
197 648 _m
197 428 _l
343 428 _l
391 428 426 437 450 455 _c
474 473 486 500 486 538 _c
486 574 474 602 450 620 _c
426 638 391 648 343 648 _c
197 648 _l
98 729 _m
350 729 _l
}_e{425 729 483 713 524 682 _c
564 650 585 606 585 549 _c
585 504 574 468 553 442 _c
532 416 502 399 462 393 _c
510 382 548 360 575 327 _c
601 294 615 253 615 204 _c
615 138 592 88 548 53 _c
504 17 441 0 360 0 _c
98 0 _l
98 729 _l
_cl}_e}_d
/F{575 0 98 0 517 729 _sc
98 729 _m
517 729 _l
517 646 _l
197 646 _l
197 431 _l
486 431 _l
486 348 _l
197 348 _l
197 0 _l
98 0 _l
98 729 _l
_cl}_d
/O{787 0 56 -13 731 742 _sc
394 662 _m
322 662 265 635 223 582 _c
181 528 160 456 160 364 _c
160 272 181 199 223 146 _c
265 92 322 66 394 66 _c
465 66 522 92 564 146 _c
606 199 627 272 627 364 _c
627 456 606 528 564 582 _c
522 635 465 662 394 662 _c
394 742 _m
496 742 577 707 639 639 _c
700 571 731 479 731 364 _c
731 248 700 157 639 89 _c
577 21 496 -13 394 -13 _c
291 -13 209 21 148 89 _c
86 157 56 248 56 364 _c
56 479 86 571 148 639 _c
209 707 291 742 394 742 _c
_cl}_d
/S{{635 0 66 -13 579 742 _sc
535 705 _m
535 609 _l
497 627 462 640 429 649 _c
395 657 363 662 333 662 _c
279 662 237 651 208 631 _c
179 610 165 580 165 542 _c
165 510 174 485 194 469 _c
213 452 250 439 304 429 _c
364 417 _l
437 403 491 378 526 343 _c
561 307 579 260 579 201 _c
579 130 555 77 508 41 _c
460 5 391 -13 300 -13 _c
265 -13 228 -9 189 -2 _c
}_e{150 5 110 16 69 32 _c
69 134 _l
109 111 148 94 186 83 _c
224 71 262 66 300 66 _c
356 66 399 77 430 99 _c
460 121 476 152 476 194 _c
476 230 465 258 443 278 _c
421 298 385 313 335 323 _c
275 335 _l
201 349 148 372 115 404 _c
82 435 66 478 66 534 _c
66 598 88 649 134 686 _c
179 723 242 742 322 742 _c
356 742 390 739 426 733 _c
461 727 497 717 535 705 _c
}_e{_cl}_e}_d
/T{611 0 -2 0 614 729 _sc
-2 729 _m
614 729 _l
614 646 _l
355 646 _l
355 0 _l
256 0 _l
256 646 _l
-2 646 _l
-2 729 _l
_cl}_d
/a{{613 0 60 -13 522 560 _sc
343 275 _m
270 275 220 266 192 250 _c
164 233 150 205 150 165 _c
150 133 160 107 181 89 _c
202 70 231 61 267 61 _c
317 61 357 78 387 114 _c
417 149 432 196 432 255 _c
432 275 _l
343 275 _l
522 312 _m
522 0 _l
432 0 _l
432 83 _l
411 49 385 25 355 10 _c
325 -5 287 -13 243 -13 _c
187 -13 142 2 109 33 _c
76 64 60 106 60 159 _c
}_e{60 220 80 266 122 298 _c
163 329 224 345 306 345 _c
432 345 _l
432 354 _l
432 395 418 427 391 450 _c
364 472 326 484 277 484 _c
245 484 215 480 185 472 _c
155 464 127 453 100 439 _c
100 522 _l
132 534 164 544 195 550 _c
226 556 256 560 286 560 _c
365 560 424 539 463 498 _c
502 457 522 395 522 312 _c
_cl}_e}_d
/c{{550 0 55 -13 488 560 _sc
488 526 _m
488 442 _l
462 456 437 466 411 473 _c
385 480 360 484 334 484 _c
276 484 230 465 198 428 _c
166 391 150 339 150 273 _c
150 206 166 154 198 117 _c
230 80 276 62 334 62 _c
360 62 385 65 411 72 _c
437 79 462 90 488 104 _c
488 21 _l
462 9 436 0 410 -5 _c
383 -10 354 -13 324 -13 _c
242 -13 176 12 128 64 _c
}_e{79 115 55 185 55 273 _c
55 362 79 432 128 483 _c
177 534 244 560 330 560 _c
358 560 385 557 411 551 _c
437 545 463 537 488 526 _c
_cl}_e}_d
/d{{635 0 55 -13 544 760 _sc
454 464 _m
454 760 _l
544 760 _l
544 0 _l
454 0 _l
454 82 _l
435 49 411 25 382 10 _c
353 -5 319 -13 279 -13 _c
213 -13 159 13 117 65 _c
75 117 55 187 55 273 _c
55 359 75 428 117 481 _c
159 533 213 560 279 560 _c
319 560 353 552 382 536 _c
411 520 435 496 454 464 _c
148 273 _m
148 207 161 155 188 117 _c
215 79 253 61 301 61 _c
}_e{348 61 385 79 413 117 _c
440 155 454 207 454 273 _c
454 339 440 390 413 428 _c
385 466 348 485 301 485 _c
253 485 215 466 188 428 _c
161 390 148 339 148 273 _c
_cl}_e}_d
/e{{615 0 55 -13 562 560 _sc
562 296 _m
562 252 _l
149 252 _l
153 190 171 142 205 110 _c
238 78 284 62 344 62 _c
378 62 412 66 444 74 _c
476 82 509 95 541 113 _c
541 28 _l
509 14 476 3 442 -3 _c
408 -9 373 -13 339 -13 _c
251 -13 182 12 131 62 _c
80 112 55 181 55 268 _c
55 357 79 428 127 481 _c
175 533 241 560 323 560 _c
397 560 455 536 498 489 _c
}_e{540 441 562 377 562 296 _c
472 322 _m
471 371 457 410 431 440 _c
404 469 368 484 324 484 _c
274 484 234 469 204 441 _c
174 413 156 373 152 322 _c
472 322 _l
_cl}_e}_d
/f{352 0 23 0 371 760 _sc
371 760 _m
371 685 _l
285 685 _l
253 685 230 678 218 665 _c
205 652 199 629 199 595 _c
199 547 _l
347 547 _l
347 477 _l
199 477 _l
199 0 _l
109 0 _l
109 477 _l
23 477 _l
23 547 _l
109 547 _l
109 585 _l
109 645 123 690 151 718 _c
179 746 224 760 286 760 _c
371 760 _l
_cl}_d
/g{{635 0 55 -207 544 560 _sc
454 280 _m
454 344 440 395 414 431 _c
387 467 349 485 301 485 _c
253 485 215 467 188 431 _c
161 395 148 344 148 280 _c
148 215 161 165 188 129 _c
215 93 253 75 301 75 _c
349 75 387 93 414 129 _c
440 165 454 215 454 280 _c
544 68 _m
544 -24 523 -93 482 -139 _c
440 -184 377 -207 292 -207 _c
260 -207 231 -204 203 -200 _c
175 -195 147 -188 121 -178 _c
}_e{121 -91 _l
147 -105 173 -115 199 -122 _c
225 -129 251 -133 278 -133 _c
336 -133 380 -117 410 -87 _c
439 -56 454 -10 454 52 _c
454 96 _l
435 64 411 40 382 24 _c
353 8 319 0 279 0 _c
211 0 157 25 116 76 _c
75 127 55 195 55 280 _c
55 364 75 432 116 483 _c
157 534 211 560 279 560 _c
319 560 353 552 382 536 _c
411 520 435 496 454 464 _c
454 547 _l
544 547 _l
}_e{544 68 _l
_cl}_e}_d
/h{634 0 91 0 549 760 _sc
549 330 _m
549 0 _l
459 0 _l
459 327 _l
459 379 448 417 428 443 _c
408 469 378 482 338 482 _c
289 482 251 466 223 435 _c
195 404 181 362 181 309 _c
181 0 _l
91 0 _l
91 760 _l
181 760 _l
181 462 _l
202 494 227 519 257 535 _c
286 551 320 560 358 560 _c
420 560 468 540 500 501 _c
532 462 549 405 549 330 _c
_cl}_d
/i{278 0 94 0 184 760 _sc
94 547 _m
184 547 _l
184 0 _l
94 0 _l
94 547 _l
94 760 _m
184 760 _l
184 646 _l
94 646 _l
94 760 _l
_cl}_d
/k{579 0 91 0 576 760 _sc
91 760 _m
181 760 _l
181 311 _l
449 547 _l
564 547 _l
274 291 _l
576 0 _l
459 0 _l
181 267 _l
181 0 _l
91 0 _l
91 760 _l
_cl}_d
/l{278 0 94 0 184 760 _sc
94 760 _m
184 760 _l
184 0 _l
94 0 _l
94 760 _l
_cl}_d
/n{634 0 91 0 549 560 _sc
549 330 _m
549 0 _l
459 0 _l
459 327 _l
459 379 448 417 428 443 _c
408 469 378 482 338 482 _c
289 482 251 466 223 435 _c
195 404 181 362 181 309 _c
181 0 _l
91 0 _l
91 547 _l
181 547 _l
181 462 _l
202 494 227 519 257 535 _c
286 551 320 560 358 560 _c
420 560 468 540 500 501 _c
532 462 549 405 549 330 _c
_cl}_d
/o{612 0 55 -13 557 560 _sc
306 484 _m
258 484 220 465 192 427 _c
164 389 150 338 150 273 _c
150 207 163 156 191 118 _c
219 80 257 62 306 62 _c
354 62 392 80 420 118 _c
448 156 462 207 462 273 _c
462 337 448 389 420 427 _c
392 465 354 484 306 484 _c
306 560 _m
384 560 445 534 490 484 _c
534 433 557 363 557 273 _c
557 183 534 113 490 63 _c
445 12 384 -13 306 -13 _c
227 -13 165 12 121 63 _c
77 113 55 183 55 273 _c
55 363 77 433 121 484 _c
165 534 227 560 306 560 _c
_cl}_d
/p{{635 0 91 -207 580 560 _sc
181 82 _m
181 -207 _l
91 -207 _l
91 547 _l
181 547 _l
181 464 _l
199 496 223 520 252 536 _c
281 552 316 560 356 560 _c
422 560 476 533 518 481 _c
559 428 580 359 580 273 _c
580 187 559 117 518 65 _c
476 13 422 -13 356 -13 _c
316 -13 281 -5 252 10 _c
223 25 199 49 181 82 _c
487 273 _m
487 339 473 390 446 428 _c
418 466 381 485 334 485 _c
}_e{286 485 249 466 222 428 _c
194 390 181 339 181 273 _c
181 207 194 155 222 117 _c
249 79 286 61 334 61 _c
381 61 418 79 446 117 _c
473 155 487 207 487 273 _c
_cl}_e}_d
/r{411 0 91 0 411 560 _sc
411 463 _m
401 469 390 473 378 476 _c
366 478 353 480 339 480 _c
288 480 249 463 222 430 _c
194 397 181 350 181 288 _c
181 0 _l
91 0 _l
91 547 _l
181 547 _l
181 462 _l
199 495 224 520 254 536 _c
284 552 321 560 365 560 _c
371 560 378 559 386 559 _c
393 558 401 557 411 555 _c
411 463 _l
_cl}_d
/s{{521 0 54 -13 472 560 _sc
443 531 _m
443 446 _l
417 458 391 468 364 475 _c
336 481 308 485 279 485 _c
234 485 200 478 178 464 _c
156 450 145 430 145 403 _c
145 382 153 366 169 354 _c
185 342 217 330 265 320 _c
296 313 _l
360 299 405 279 432 255 _c
458 230 472 195 472 151 _c
472 100 452 60 412 31 _c
372 1 316 -13 246 -13 _c
216 -13 186 -10 154 -5 _c
}_e{122 0 89 8 54 20 _c
54 113 _l
87 95 120 82 152 74 _c
184 65 216 61 248 61 _c
290 61 323 68 346 82 _c
368 96 380 117 380 144 _c
380 168 371 187 355 200 _c
339 213 303 226 247 238 _c
216 245 _l
160 257 119 275 95 299 _c
70 323 58 356 58 399 _c
58 450 76 490 112 518 _c
148 546 200 560 268 560 _c
301 560 332 557 362 552 _c
391 547 418 540 443 531 _c
}_e{_cl}_e}_d
/t{392 0 27 0 368 702 _sc
183 702 _m
183 547 _l
368 547 _l
368 477 _l
183 477 _l
183 180 _l
183 135 189 106 201 94 _c
213 81 238 75 276 75 _c
368 75 _l
368 0 _l
276 0 _l
206 0 158 13 132 39 _c
106 65 93 112 93 180 _c
93 477 _l
27 477 _l
27 547 _l
93 547 _l
93 702 _l
183 702 _l
_cl}_d
/u{634 0 85 -13 543 560 _sc
85 216 _m
85 547 _l
175 547 _l
175 219 _l
175 167 185 129 205 103 _c
225 77 255 64 296 64 _c
344 64 383 79 411 110 _c
439 141 453 183 453 237 _c
453 547 _l
543 547 _l
543 0 _l
453 0 _l
453 84 _l
431 50 405 26 377 10 _c
348 -5 315 -13 277 -13 _c
214 -13 166 6 134 45 _c
101 83 85 140 85 216 _c
311 560 _m
311 560 _l
_cl}_d
end readonly def

/BuildGlyph
 {exch begin
 CharStrings exch
 2 copy known not{pop /.notdef}if
 true 3 1 roll get exec
 end}_d

/BuildChar {
 1 index /Encoding get exch get
 1 index /BuildGlyph get exec
}_d

FontName currentdict end definefont pop
%!PS-Adobe-3.0 Resource-Font
%%Title: DejaVu Sans Oblique
%%Copyright: Copyright (c) 2003 by Bitstream, Inc. All Rights Reserved. Copyright (c) 2006 by Tavmjong Bah. All Rights Reserved. DejaVu changes are in public domain 
%%Creator: Converted from TrueType to type 3 by PPR
25 dict begin
/_d{bind def}bind def
/_m{moveto}_d
/_l{lineto}_d
/_cl{closepath eofill}_d
/_c{curveto}_d
/_sc{7 -1 roll{setcachedevice}{pop pop pop pop pop pop}ifelse}_d
/_e{exec}_d
/FontName /DejaVuSans-Oblique def
/PaintType 0 def
/FontMatrix[.001 0 0 .001 0 0]def
/FontBBox[-1016 -350 1659 1068]def
/FontType 3 def
/Encoding [ /t /delta /sigma ] def
/FontInfo 10 dict dup begin
/FamilyName (DejaVu Sans) def
/FullName (DejaVu Sans Oblique) def
/Notice (Copyright (c) 2003 by Bitstream, Inc. All Rights Reserved. Copyright (c) 2006 by Tavmjong Bah. All Rights Reserved. DejaVu changes are in public domain ) def
/Weight (Oblique) def
/Version (Version 2.35) def
/ItalicAngle -11.0 def
/isFixedPitch false def
/UnderlinePosition -130 def
/UnderlineThickness 90 def
end readonly def
/CharStrings 4 dict dup begin
/.notdef 0 def
/t{{392 0 64 0 423 702 _sc
423 547 _m
409 477 _l
230 477 _l
172 180 _l
170 169 168 160 167 152 _c
166 144 166 139 166 135 _c
166 114 172 99 185 89 _c
197 79 217 75 245 75 _c
336 75 _l
321 0 _l
235 0 _l
181 0 141 10 115 31 _c
89 52 76 84 76 126 _c
76 133 76 141 77 150 _c
78 159 80 169 82 180 _c
140 477 _l
64 477 _l
78 547 _l
153 547 _l
183 702 _l
}_e{273 702 _l
243 547 _l
423 547 _l
_cl}_e}_d
/delta{{612 0 38 -13 557 742 _sc
542 633 _m
514 655 461 667 383 667 _c
300 667 255 648 248 610 _c
242 580 280 557 364 542 _c
428 530 476 505 508 469 _c
546 425 556 358 539 268 _c
521 182 486 113 432 63 _c
377 12 310 -13 232 -13 _c
154 -13 98 12 63 63 _c
28 113 20 183 38 273 _c
50 339 84 399 139 453 _c
160 473 184 490 211 502 _c
165 528 147 563 156 609 _c
}_e{173 697 253 742 397 742 _c
469 742 522 730 557 708 _c
542 633 _l
274 478 _m
250 468 226 451 204 428 _c
168 391 144 339 132 273 _c
119 207 123 155 144 118 _c
164 80 199 62 248 62 _c
295 62 336 81 372 119 _c
407 156 431 206 443 268 _c
455 332 450 380 427 412 _c
401 445 369 464 329 468 _c
308 470 290 473 274 478 _c
_cl}_e}_d
/sigma{{634 0 57 -13 659 547 _sc
347 476 _m
297 476 255 458 222 422 _c
186 384 163 335 151 273 _c
138 207 142 156 163 118 _c
183 80 218 62 267 62 _c
314 62 355 81 391 119 _c
426 156 450 207 463 273 _c
474 332 470 382 450 422 _c
431 458 397 476 347 476 _c
361 547 _m
659 547 _l
642 457 _l
541 457 _l
566 406 572 345 559 273 _c
541 183 505 113 451 63 _c
396 12 329 -13 251 -13 _c
}_e{173 -13 116 12 82 63 _c
47 113 39 183 57 273 _c
74 363 110 433 164 484 _c
209 526 275 547 361 547 _c
_cl}_e}_d
end readonly def

/BuildGlyph
 {exch begin
 CharStrings exch
 2 copy known not{pop /.notdef}if
 true 3 1 roll get exec
 end}_d

/BuildChar {
 1 index /Encoding get exch get
 1 index /BuildGlyph get exec
}_d

FontName currentdict end definefont pop
end
%%EndProlog
mpldict begin
-79.828 98.086 translate
771.656 595.829 0 0 clipbox
gsave
0 0 m
771.65625 0 l
771.65625 595.82875 l
0 595.82875 l
cl
1.000 setgray
fill
grestore
gsave
79.590625 64.66875 m
749.190625 64.66875 l
749.190625 563.62875 l
79.590625 563.62875 l
cl
1.000 setgray
fill
grestore
0.800 setlinewidth
1 setlinejoin
0 setlinecap
[] 0 setdash
0.000 setgray
gsave
/o {
gsave
newpath
translate
0.8 setlinewidth
1 setlinejoin
0 setlinecap
0 0 m
0 -3.5 l

gsave
0.000 setgray
fill
grestore
stroke
grestore
} bind def
79.5906 64.6688 o
grestore
/DejaVuSans findfont
24.000 scalefont
setfont
gsave
71.957813 39.434375 translate
0.000000 rotate
0.000000 0.000000 m /five glyphshow
grestore
gsave
/o {
gsave
newpath
translate
0.8 setlinewidth
1 setlinejoin
0 setlinecap
0 0 m
0 -3.5 l

gsave
0.000 setgray
fill
grestore
stroke
grestore
} bind def
153.991 64.6688 o
grestore
gsave
138.725000 39.434375 translate
0.000000 rotate
0.000000 0.000000 m /one glyphshow
15.269531 0.000000 m /zero glyphshow
grestore
gsave
/o {
gsave
newpath
translate
0.8 setlinewidth
1 setlinejoin
0 setlinecap
0 0 m
0 -3.5 l

gsave
0.000 setgray
fill
grestore
stroke
grestore
} bind def
228.391 64.6688 o
grestore
gsave
213.125000 39.434375 translate
0.000000 rotate
0.000000 0.000000 m /one glyphshow
15.269531 0.000000 m /five glyphshow
grestore
gsave
/o {
gsave
newpath
translate
0.8 setlinewidth
1 setlinejoin
0 setlinecap
0 0 m
0 -3.5 l

gsave
0.000 setgray
fill
grestore
stroke
grestore
} bind def
302.791 64.6688 o
grestore
gsave
287.525000 39.434375 translate
0.000000 rotate
0.000000 0.000000 m /two glyphshow
15.269531 0.000000 m /zero glyphshow
grestore
gsave
/o {
gsave
newpath
translate
0.8 setlinewidth
1 setlinejoin
0 setlinecap
0 0 m
0 -3.5 l

gsave
0.000 setgray
fill
grestore
stroke
grestore
} bind def
377.191 64.6688 o
grestore
gsave
361.925000 39.434375 translate
0.000000 rotate
0.000000 0.000000 m /two glyphshow
15.269531 0.000000 m /five glyphshow
grestore
gsave
/o {
gsave
newpath
translate
0.8 setlinewidth
1 setlinejoin
0 setlinecap
0 0 m
0 -3.5 l

gsave
0.000 setgray
fill
grestore
stroke
grestore
} bind def
451.591 64.6688 o
grestore
gsave
436.325000 39.434375 translate
0.000000 rotate
0.000000 0.000000 m /three glyphshow
15.269531 0.000000 m /zero glyphshow
grestore
gsave
/o {
gsave
newpath
translate
0.8 setlinewidth
1 setlinejoin
0 setlinecap
0 0 m
0 -3.5 l

gsave
0.000 setgray
fill
grestore
stroke
grestore
} bind def
525.991 64.6688 o
grestore
gsave
510.725000 39.434375 translate
0.000000 rotate
0.000000 0.000000 m /three glyphshow
15.269531 0.000000 m /five glyphshow
grestore
gsave
/o {
gsave
newpath
translate
0.8 setlinewidth
1 setlinejoin
0 setlinecap
0 0 m
0 -3.5 l

gsave
0.000 setgray
fill
grestore
stroke
grestore
} bind def
600.391 64.6688 o
grestore
gsave
585.125000 39.434375 translate
0.000000 rotate
0.000000 0.000000 m /four glyphshow
15.269531 0.000000 m /zero glyphshow
grestore
gsave
/o {
gsave
newpath
translate
0.8 setlinewidth
1 setlinejoin
0 setlinecap
0 0 m
0 -3.5 l

gsave
0.000 setgray
fill
grestore
stroke
grestore
} bind def
674.791 64.6688 o
grestore
gsave
659.525000 39.434375 translate
0.000000 rotate
0.000000 0.000000 m /four glyphshow
15.269531 0.000000 m /five glyphshow
grestore
gsave
/o {
gsave
newpath
translate
0.8 setlinewidth
1 setlinejoin
0 setlinecap
0 0 m
0 -3.5 l

gsave
0.000 setgray
fill
grestore
stroke
grestore
} bind def
749.191 64.6688 o
grestore
gsave
733.925000 39.434375 translate
0.000000 rotate
0.000000 0.000000 m /five glyphshow
15.269531 0.000000 m /zero glyphshow
grestore
gsave
352.039062 12.200000 translate
0.000000 rotate
0.000000 0.000000 m /S glyphshow
15.234375 0.000000 m /n glyphshow
30.445312 0.000000 m /a glyphshow
45.152344 0.000000 m /p glyphshow
60.386719 0.000000 m /s glyphshow
72.890625 0.000000 m /h glyphshow
88.101562 0.000000 m /o glyphshow
102.785156 0.000000 m /t glyphshow
112.195312 0.000000 m /s glyphshow
grestore
gsave
/o {
gsave
newpath
translate
0.8 setlinewidth
1 setlinejoin
0 setlinecap
0 0 m
-3.5 0 l

gsave
0.000 setgray
fill
grestore
stroke
grestore
} bind def
79.5906 87.2674 o
grestore
gsave
34.434375 78.150224 translate
0.000000 rotate
0.000000 0.000000 m /zero glyphshow
15.269531 0.000000 m /period glyphshow
22.898438 0.000000 m /zero glyphshow
grestore
gsave
/o {
gsave
newpath
translate
0.8 setlinewidth
1 setlinejoin
0 setlinecap
0 0 m
-3.5 0 l

gsave
0.000 setgray
fill
grestore
stroke
grestore
} bind def
79.5906 168.606 o
grestore
gsave
34.434375 159.489136 translate
0.000000 rotate
0.000000 0.000000 m /zero glyphshow
15.269531 0.000000 m /period glyphshow
22.898438 0.000000 m /one glyphshow
grestore
gsave
/o {
gsave
newpath
translate
0.8 setlinewidth
1 setlinejoin
0 setlinecap
0 0 m
-3.5 0 l

gsave
0.000 setgray
fill
grestore
stroke
grestore
} bind def
79.5906 249.945 o
grestore
gsave
34.434375 240.828048 translate
0.000000 rotate
0.000000 0.000000 m /zero glyphshow
15.269531 0.000000 m /period glyphshow
22.898438 0.000000 m /two glyphshow
grestore
gsave
/o {
gsave
newpath
translate
0.8 setlinewidth
1 setlinejoin
0 setlinecap
0 0 m
-3.5 0 l

gsave
0.000 setgray
fill
grestore
stroke
grestore
} bind def
79.5906 331.284 o
grestore
gsave
34.434375 322.166960 translate
0.000000 rotate
0.000000 0.000000 m /zero glyphshow
15.269531 0.000000 m /period glyphshow
22.898438 0.000000 m /three glyphshow
grestore
gsave
/o {
gsave
newpath
translate
0.8 setlinewidth
1 setlinejoin
0 setlinecap
0 0 m
-3.5 0 l

gsave
0.000 setgray
fill
grestore
stroke
grestore
} bind def
79.5906 412.623 o
grestore
gsave
34.434375 403.505872 translate
0.000000 rotate
0.000000 0.000000 m /zero glyphshow
15.269531 0.000000 m /period glyphshow
22.898438 0.000000 m /four glyphshow
grestore
gsave
/o {
gsave
newpath
translate
0.8 setlinewidth
1 setlinejoin
0 setlinecap
0 0 m
-3.5 0 l

gsave
0.000 setgray
fill
grestore
stroke
grestore
} bind def
79.5906 493.962 o
grestore
gsave
34.434375 484.844784 translate
0.000000 rotate
0.000000 0.000000 m /zero glyphshow
15.269531 0.000000 m /period glyphshow
22.898438 0.000000 m /five glyphshow
grestore
gsave
25.434375 265.367500 translate
90.000000 rotate
0.000000 0.000000 m /F glyphshow
13.789062 0.000000 m /r glyphshow
23.656250 0.000000 m /a glyphshow
38.363281 0.000000 m /c glyphshow
51.558594 0.000000 m /t glyphshow
60.968750 0.000000 m /i glyphshow
67.636719 0.000000 m /o glyphshow
82.320312 0.000000 m /n glyphshow
grestore
3.000 setlinewidth
2 setlinecap
1.000 0.000 0.000 setrgbcolor
gsave
669.6 499 79.59 64.67 clipbox
79.590625 88.053687 m
94.470625 88.297704 l
109.350625 90.575194 l
124.230625 90.276951 l
139.110625 88.975528 l
153.990625 89.138206 l
168.870625 88.921302 l
183.750625 88.758624 l
198.630625 88.243478 l
213.510625 88.379043 l
228.390625 88.514608 l
243.270625 88.758624 l
258.150625 88.297704 l
273.030625 88.758624 l
287.910625 88.785737 l
302.790625 89.056867 l
317.670625 89.165319 l
332.550625 89.327997 l
347.430625 89.653353 l
362.310625 90.114273 l
377.190625 90.08716 l
392.070625 90.927662 l
406.950625 91.497035 l
421.830625 92.310424 l
436.710625 92.906909 l
451.590625 93.747411 l
466.470625 94.587913 l
481.350625 95.862223 l
496.230625 97.353436 l
511.110625 98.681972 l
525.990625 100.634106 l
540.870625 102.613353 l
555.750625 105.297537 l
570.630625 107.981721 l
585.510625 111.26239 l
600.390625 115.329336 l
615.270625 119.857202 l
630.150625 123.869922 l
645.030625 129.428081 l
659.910625 134.71511 l
674.790625 139.351428 l
689.670625 144.475779 l
704.550625 147.620884 l
719.430625 151.633604 l
734.310625 150.169503 l
749.190625 148.488499 l
stroke
grestore
0.000 0.000 1.000 setrgbcolor
gsave
669.6 499 79.59 64.67 clipbox
79.590625 87.511428 m
94.470625 87.863896 l
109.350625 88.406156 l
124.230625 87.891009 l
139.110625 87.592767 l
153.990625 87.646993 l
168.870625 87.809671 l
183.750625 87.61988 l
198.630625 87.457202 l
213.510625 87.565654 l
228.390625 87.484315 l
243.270625 87.61988 l
258.150625 87.565654 l
273.030625 87.511428 l
287.910625 87.674106 l
302.790625 87.701219 l
317.670625 87.755445 l
332.550625 87.782558 l
347.430625 87.836783 l
362.310625 87.701219 l
377.190625 87.863896 l
392.070625 87.701219 l
406.950625 87.674106 l
421.830625 87.34875 l
436.710625 87.674106 l
451.590625 87.891009 l
466.470625 88.135026 l
481.350625 88.243478 l
496.230625 88.35193 l
511.110625 88.677286 l
525.990625 88.406156 l
540.870625 88.216365 l
555.750625 88.62306 l
570.630625 88.487495 l
585.510625 88.921302 l
600.390625 88.785737 l
615.270625 88.81285 l
630.150625 88.975528 l
645.030625 88.514608 l
659.910625 88.514608 l
674.790625 88.921302 l
689.670625 88.595947 l
704.550625 89.056867 l
719.430625 89.138206 l
734.310625 88.35193 l
749.190625 88.541721 l
stroke
grestore
1.000 0.000 0.000 setrgbcolor
gsave
669.6 499 79.59 64.67 clipbox
79.590625 88.785737 m
94.470625 88.921302 l
109.350625 93.422055 l
124.230625 94.018541 l
139.110625 92.771344 l
153.990625 91.82239 l
168.870625 91.36147 l
183.750625 91.009001 l
198.630625 90.08716 l
213.510625 90.032934 l
228.390625 89.897369 l
243.270625 89.62624 l
258.150625 89.572014 l
273.030625 89.436449 l
287.910625 89.463562 l
302.790625 89.680465 l
317.670625 89.734691 l
332.550625 89.572014 l
347.430625 89.62624 l
362.310625 90.195612 l
377.190625 90.575194 l
392.070625 91.009001 l
406.950625 91.063227 l
421.830625 91.524147 l
436.710625 92.229085 l
451.590625 92.391763 l
466.470625 93.394942 l
481.350625 94.994608 l
496.230625 96.268917 l
511.110625 97.136532 l
525.990625 99.30557 l
540.870625 101.881302 l
555.750625 104.646825 l
570.630625 107.629252 l
585.510625 110.747244 l
600.390625 114.434608 l
615.270625 119.396281 l
630.150625 122.432934 l
645.030625 128.614691 l
659.910625 133.305235 l
674.790625 136.17921 l
689.670625 141.330675 l
704.550625 143.716616 l
719.430625 147.512432 l
734.310625 146.156783 l
749.190625 144.557118 l
stroke
grestore
1.000 setlinewidth
0 setlinejoin
0 setlinecap
gsave
669.6 499 79.59 64.67 clipbox
/o {
gsave
newpath
translate
1.0 setlinewidth
0 setlinejoin
0 setlinecap
-10 -10 m
10 -10 l
10 10 l
-10 10 l
cl

gsave
grestore
stroke
grestore
} bind def
79.5906 88.7857 o
94.4706 88.9213 o
109.351 93.4221 o
124.231 94.0185 o
139.111 92.7713 o
153.991 91.8224 o
168.871 91.3615 o
183.751 91.009 o
198.631 90.0872 o
213.511 90.0329 o
228.391 89.8974 o
243.271 89.6262 o
258.151 89.572 o
273.031 89.4364 o
287.911 89.4636 o
302.791 89.6805 o
317.671 89.7347 o
332.551 89.572 o
347.431 89.6262 o
362.311 90.1956 o
377.191 90.5752 o
392.071 91.009 o
406.951 91.0632 o
421.831 91.5241 o
436.711 92.2291 o
451.591 92.3918 o
466.471 93.3949 o
481.351 94.9946 o
496.231 96.2689 o
511.111 97.1365 o
525.991 99.3056 o
540.871 101.881 o
555.751 104.647 o
570.631 107.629 o
585.511 110.747 o
600.391 114.435 o
615.271 119.396 o
630.151 122.433 o
645.031 128.615 o
659.911 133.305 o
674.791 136.179 o
689.671 141.331 o
704.551 143.717 o
719.431 147.512 o
734.311 146.157 o
749.191 144.557 o
grestore
3.000 setlinewidth
1 setlinejoin
2 setlinecap
0.000 0.000 1.000 setrgbcolor
gsave
669.6 499 79.59 64.67 clipbox
79.590625 87.61988 m
94.470625 87.972348 l
109.350625 88.433269 l
124.230625 87.972348 l
139.110625 87.782558 l
153.990625 87.701219 l
168.870625 87.728332 l
183.750625 87.755445 l
198.630625 87.592767 l
213.510625 87.565654 l
228.390625 87.565654 l
243.270625 87.728332 l
258.150625 87.61988 l
273.030625 87.674106 l
287.910625 87.61988 l
302.790625 87.755445 l
317.670625 87.782558 l
332.550625 87.646993 l
347.430625 87.728332 l
362.310625 87.782558 l
377.190625 87.701219 l
392.070625 87.918122 l
406.950625 87.836783 l
421.830625 87.782558 l
436.710625 87.999461 l
451.590625 88.35193 l
466.470625 88.162139 l
481.350625 88.189252 l
496.230625 88.406156 l
511.110625 88.595947 l
525.990625 88.460382 l
540.870625 88.135026 l
555.750625 88.487495 l
570.630625 88.62306 l
585.510625 88.568834 l
600.390625 88.568834 l
615.270625 88.839963 l
630.150625 88.731512 l
645.030625 88.650173 l
659.910625 88.514608 l
674.790625 88.785737 l
689.670625 88.677286 l
704.550625 88.62306 l
719.430625 88.867076 l
734.310625 88.541721 l
749.190625 88.324817 l
stroke
grestore
1.000 setlinewidth
0 setlinejoin
0 setlinecap
gsave
669.6 499 79.59 64.67 clipbox
/o {
gsave
newpath
translate
1.0 setlinewidth
0 setlinejoin
0 setlinecap
-10 -10 m
10 -10 l
10 10 l
-10 10 l
cl

gsave
grestore
stroke
grestore
} bind def
79.5906 87.6199 o
94.4706 87.9723 o
109.351 88.4333 o
124.231 87.9723 o
139.111 87.7826 o
153.991 87.7012 o
168.871 87.7283 o
183.751 87.7554 o
198.631 87.5928 o
213.511 87.5657 o
228.391 87.5657 o
243.271 87.7283 o
258.151 87.6199 o
273.031 87.6741 o
287.911 87.6199 o
302.791 87.7554 o
317.671 87.7826 o
332.551 87.647 o
347.431 87.7283 o
362.311 87.7826 o
377.191 87.7012 o
392.071 87.9181 o
406.951 87.8368 o
421.831 87.7826 o
436.711 87.9995 o
451.591 88.3519 o
466.471 88.1621 o
481.351 88.1893 o
496.231 88.4062 o
511.111 88.5959 o
525.991 88.4604 o
540.871 88.135 o
555.751 88.4875 o
570.631 88.6231 o
585.511 88.5688 o
600.391 88.5688 o
615.271 88.84 o
630.151 88.7315 o
645.031 88.6502 o
659.911 88.5146 o
674.791 88.7857 o
689.671 88.6773 o
704.551 88.6231 o
719.431 88.8671 o
734.311 88.5417 o
749.191 88.3248 o
grestore
3.000 setlinewidth
1 setlinejoin
2 setlinecap
1.000 0.000 0.000 setrgbcolor
gsave
669.6 499 79.59 64.67 clipbox
79.590625 90.792097 m
94.470625 92.391763 l
109.350625 99.929168 l
124.230625 101.854189 l
139.110625 101.0408 l
153.990625 100.796783 l
168.870625 100.742558 l
183.750625 100.03762 l
198.630625 98.953101 l
213.510625 97.705905 l
228.390625 96.404482 l
243.270625 95.157286 l
258.150625 94.669252 l
273.030625 94.587913 l
287.910625 94.208332 l
302.790625 94.208332 l
317.670625 93.910089 l
332.550625 93.82875 l
347.430625 93.882976 l
362.310625 94.804817 l
377.190625 95.509754 l
392.070625 95.645319 l
406.950625 96.702725 l
421.830625 97.597453 l
436.710625 98.871763 l
451.590625 100.417202 l
466.470625 101.881302 l
481.350625 104.348583 l
496.230625 107.005654 l
511.110625 109.310256 l
525.990625 113.106072 l
540.870625 117.145905 l
555.750625 120.291009 l
570.630625 125.794942 l
585.510625 130.621051 l
600.390625 135.880968 l
615.270625 139.649671 l
630.150625 143.852181 l
645.030625 146.563478 l
659.910625 150.14239 l
674.790625 155.104064 l
689.670625 160.336867 l
704.550625 164.186909 l
719.430625 169.473938 l
734.310625 165.461219 l
749.190625 161.204482 l
stroke
grestore
1.000 setlinewidth
0 setlinecap
gsave
669.6 499 79.59 64.67 clipbox
/o {
gsave
newpath
translate
1.0 setlinewidth
1 setlinejoin
0 setlinecap
0 -10 m
2.652031 -10 5.195799 -8.946337 7.071068 -7.071068 c
8.946337 -5.195799 10 -2.652031 10 0 c
10 2.652031 8.946337 5.195799 7.071068 7.071068 c
5.195799 8.946337 2.652031 10 0 10 c
-2.652031 10 -5.195799 8.946337 -7.071068 7.071068 c
-8.946337 5.195799 -10 2.652031 -10 0 c
-10 -2.652031 -8.946337 -5.195799 -7.071068 -7.071068 c
-5.195799 -8.946337 -2.652031 -10 0 -10 c
cl

gsave
grestore
stroke
grestore
} bind def
79.5906 90.7921 o
94.4706 92.3918 o
109.351 99.9292 o
124.231 101.854 o
139.111 101.041 o
153.991 100.797 o
168.871 100.743 o
183.751 100.038 o
198.631 98.9531 o
213.511 97.7059 o
228.391 96.4045 o
243.271 95.1573 o
258.151 94.6693 o
273.031 94.5879 o
287.911 94.2083 o
302.791 94.2083 o
317.671 93.9101 o
332.551 93.8287 o
347.431 93.883 o
362.311 94.8048 o
377.191 95.5098 o
392.071 95.6453 o
406.951 96.7027 o
421.831 97.5975 o
436.711 98.8718 o
451.591 100.417 o
466.471 101.881 o
481.351 104.349 o
496.231 107.006 o
511.111 109.31 o
525.991 113.106 o
540.871 117.146 o
555.751 120.291 o
570.631 125.795 o
585.511 130.621 o
600.391 135.881 o
615.271 139.65 o
630.151 143.852 o
645.031 146.563 o
659.911 150.142 o
674.791 155.104 o
689.671 160.337 o
704.551 164.187 o
719.431 169.474 o
734.311 165.461 o
749.191 161.204 o
grestore
3.000 setlinewidth
2 setlinecap
0.000 0.000 1.000 setrgbcolor
gsave
669.6 499 79.59 64.67 clipbox
79.590625 87.782558 m
94.470625 88.216365 l
109.350625 90.981888 l
124.230625 89.056867 l
139.110625 88.189252 l
153.990625 88.379043 l
168.870625 88.243478 l
183.750625 88.189252 l
198.630625 88.216365 l
213.510625 87.863896 l
228.390625 88.135026 l
243.270625 88.0808 l
258.150625 88.379043 l
273.030625 88.026574 l
287.910625 88.487495 l
302.790625 88.406156 l
317.670625 88.162139 l
332.550625 87.945235 l
347.430625 88.460382 l
362.310625 88.35193 l
377.190625 88.243478 l
392.070625 88.026574 l
406.950625 88.026574 l
421.830625 88.406156 l
436.710625 88.026574 l
451.590625 88.243478 l
466.470625 88.297704 l
481.350625 88.379043 l
496.230625 88.487495 l
511.110625 88.650173 l
525.990625 89.192432 l
540.870625 88.894189 l
555.750625 89.029754 l
570.630625 88.921302 l
585.510625 89.273771 l
600.390625 88.975528 l
615.270625 89.572014 l
630.150625 89.246658 l
645.030625 89.35511 l
659.910625 88.894189 l
674.790625 89.382223 l
689.670625 89.029754 l
704.550625 89.192432 l
719.430625 89.436449 l
734.310625 89.138206 l
749.190625 88.81285 l
stroke
grestore
1.000 setlinewidth
0 setlinecap
gsave
669.6 499 79.59 64.67 clipbox
/o {
gsave
newpath
translate
1.0 setlinewidth
1 setlinejoin
0 setlinecap
0 -10 m
2.652031 -10 5.195799 -8.946337 7.071068 -7.071068 c
8.946337 -5.195799 10 -2.652031 10 0 c
10 2.652031 8.946337 5.195799 7.071068 7.071068 c
5.195799 8.946337 2.652031 10 0 10 c
-2.652031 10 -5.195799 8.946337 -7.071068 7.071068 c
-8.946337 5.195799 -10 2.652031 -10 0 c
-10 -2.652031 -8.946337 -5.195799 -7.071068 -7.071068 c
-5.195799 -8.946337 -2.652031 -10 0 -10 c
cl

gsave
grestore
stroke
grestore
} bind def
79.5906 87.7826 o
94.4706 88.2164 o
109.351 90.9819 o
124.231 89.0569 o
139.111 88.1893 o
153.991 88.379 o
168.871 88.2435 o
183.751 88.1893 o
198.631 88.2164 o
213.511 87.8639 o
228.391 88.135 o
243.271 88.0808 o
258.151 88.379 o
273.031 88.0266 o
287.911 88.4875 o
302.791 88.4062 o
317.671 88.1621 o
332.551 87.9452 o
347.431 88.4604 o
362.311 88.3519 o
377.191 88.2435 o
392.071 88.0266 o
406.951 88.0266 o
421.831 88.4062 o
436.711 88.0266 o
451.591 88.2435 o
466.471 88.2977 o
481.351 88.379 o
496.231 88.4875 o
511.111 88.6502 o
525.991 89.1924 o
540.871 88.8942 o
555.751 89.0298 o
570.631 88.9213 o
585.511 89.2738 o
600.391 88.9755 o
615.271 89.572 o
630.151 89.2467 o
645.031 89.3551 o
659.911 88.8942 o
674.791 89.3822 o
689.671 89.0298 o
704.551 89.1924 o
719.431 89.4364 o
734.311 89.1382 o
749.191 88.8129 o
grestore
3.000 setlinewidth
2 setlinecap
1.000 0.000 0.000 setrgbcolor
gsave
669.6 499 79.59 64.67 clipbox
79.590625 195.23126 m
94.470625 242.922976 l
109.350625 325.888666 l
124.230625 398.009168 l
139.110625 456.817202 l
153.990625 501.770507 l
168.870625 525.901051 l
183.750625 539.186407 l
198.630625 540.94875 l
213.510625 535.146574 l
228.390625 527.365152 l
243.270625 517.252014 l
258.150625 511.531177 l
273.030625 509.985737 l
287.910625 505.159629 l
302.790625 505.376532 l
317.670625 509.606156 l
332.550625 509.55193 l
347.430625 508.711428 l
362.310625 504.34624 l
377.190625 503.505737 l
392.070625 496.158122 l
406.950625 492.335194 l
421.830625 489.596783 l
436.710625 486.37034 l
451.590625 483.957286 l
466.470625 481.571344 l
481.350625 484.065737 l
496.230625 482.547411 l
511.110625 478.290675 l
525.990625 479.402306 l
540.870625 477.070591 l
555.750625 477.368834 l
570.630625 477.233269 l
585.510625 479.076951 l
600.390625 472.569838 l
615.270625 474.87444 l
630.150625 476.718122 l
645.030625 474.711763 l
659.910625 472.949419 l
674.790625 469.262055 l
689.670625 468.611344 l
704.550625 469.045152 l
719.430625 469.045152 l
734.310625 408.583227 l
749.190625 345.681135 l
stroke
grestore
1.000 setlinewidth
0 setlinejoin
0 setlinecap
gsave
669.6 499 79.59 64.67 clipbox
/o {
gsave
newpath
translate
1.0 setlinewidth
0 setlinejoin
0 setlinecap
0 10 m
-10 -10 l
10 -10 l
cl

gsave
grestore
stroke
grestore
} bind def
79.5906 195.231 o
94.4706 242.923 o
109.351 325.889 o
124.231 398.009 o
139.111 456.817 o
153.991 501.771 o
168.871 525.901 o
183.751 539.186 o
198.631 540.949 o
213.511 535.147 o
228.391 527.365 o
243.271 517.252 o
258.151 511.531 o
273.031 509.986 o
287.911 505.16 o
302.791 505.377 o
317.671 509.606 o
332.551 509.552 o
347.431 508.711 o
362.311 504.346 o
377.191 503.506 o
392.071 496.158 o
406.951 492.335 o
421.831 489.597 o
436.711 486.37 o
451.591 483.957 o
466.471 481.571 o
481.351 484.066 o
496.231 482.547 o
511.111 478.291 o
525.991 479.402 o
540.871 477.071 o
555.751 477.369 o
570.631 477.233 o
585.511 479.077 o
600.391 472.57 o
615.271 474.874 o
630.151 476.718 o
645.031 474.712 o
659.911 472.949 o
674.791 469.262 o
689.671 468.611 o
704.551 469.045 o
719.431 469.045 o
734.311 408.583 o
749.191 345.681 o
grestore
3.000 setlinewidth
1 setlinejoin
2 setlinecap
0.000 0.000 1.000 setrgbcolor
gsave
669.6 499 79.59 64.67 clipbox
79.590625 106.761637 m
94.470625 118.637118 l
109.350625 141.412014 l
124.230625 139.649671 l
139.110625 138.321135 l
153.990625 139.134524 l
168.870625 139.270089 l
183.750625 140.381721 l
198.630625 140.029252 l
213.510625 141.520465 l
228.390625 143.174357 l
243.270625 144.177537 l
258.150625 144.638457 l
273.030625 143.716616 l
287.910625 146.427913 l
302.790625 145.695863 l
317.670625 146.970173 l
332.550625 147.620884 l
347.430625 148.569838 l
362.310625 149.68147 l
377.190625 148.352934 l
392.070625 150.277955 l
406.950625 149.383227 l
421.830625 149.979712 l
436.710625 148.868081 l
451.590625 149.762809 l
466.470625 149.817035 l
481.350625 147.593771 l
496.230625 148.759629 l
511.110625 150.521972 l
525.990625 151.470926 l
540.870625 150.332181 l
555.750625 150.793101 l
570.630625 150.955779 l
585.510625 150.928666 l
600.390625 150.901553 l
615.270625 148.298708 l
630.150625 147.94624 l
645.030625 145.93988 l
659.910625 145.722976 l
674.790625 144.123311 l
689.670625 143.852181 l
704.550625 144.530005 l
719.430625 143.553938 l
734.310625 137.45352 l
749.190625 133.739043 l
stroke
grestore
1.000 setlinewidth
0 setlinejoin
0 setlinecap
gsave
669.6 499 79.59 64.67 clipbox
/o {
gsave
newpath
translate
1.0 setlinewidth
0 setlinejoin
0 setlinecap
0 10 m
-10 -10 l
10 -10 l
cl

gsave
grestore
stroke
grestore
} bind def
79.5906 106.762 o
94.4706 118.637 o
109.351 141.412 o
124.231 139.65 o
139.111 138.321 o
153.991 139.135 o
168.871 139.27 o
183.751 140.382 o
198.631 140.029 o
213.511 141.52 o
228.391 143.174 o
243.271 144.178 o
258.151 144.638 o
273.031 143.717 o
287.911 146.428 o
302.791 145.696 o
317.671 146.97 o
332.551 147.621 o
347.431 148.57 o
362.311 149.681 o
377.191 148.353 o
392.071 150.278 o
406.951 149.383 o
421.831 149.98 o
436.711 148.868 o
451.591 149.763 o
466.471 149.817 o
481.351 147.594 o
496.231 148.76 o
511.111 150.522 o
525.991 151.471 o
540.871 150.332 o
555.751 150.793 o
570.631 150.956 o
585.511 150.929 o
600.391 150.902 o
615.271 148.299 o
630.151 147.946 o
645.031 145.94 o
659.911 145.723 o
674.791 144.123 o
689.671 143.852 o
704.551 144.53 o
719.431 143.554 o
734.311 137.454 o
749.191 133.739 o
grestore
0.800 setlinewidth
2 setlinecap
[] 0 setdash
0.000 setgray
gsave
79.590625 64.66875 m
79.590625 563.62875 l
stroke
grestore
gsave
749.190625 64.66875 m
749.190625 563.62875 l
stroke
grestore
gsave
79.590625 64.66875 m
749.190625 64.66875 l
stroke
grestore
gsave
79.590625 563.62875 m
749.190625 563.62875 l
stroke
grestore
gsave
128.390625 569.628750 translate
0.000000 rotate
/DejaVuSans findfont
24.0 scalefont
setfont
0.000000 0.765625 moveto
/F glyphshow

13.804688 0.765625 moveto
/r glyphshow

23.671875 0.765625 moveto
/a glyphshow

38.378906 0.765625 moveto
/c glyphshow

51.574219 0.765625 moveto
/t glyphshow

60.984375 0.765625 moveto
/i glyphshow

67.652344 0.765625 moveto
/o glyphshow

82.335938 0.765625 moveto
/n glyphshow

97.546875 0.765625 moveto
/space glyphshow

105.175781 0.765625 moveto
/o glyphshow

119.859375 0.765625 moveto
/f glyphshow

128.308594 0.765625 moveto
/space glyphshow

135.937500 0.765625 moveto
/T glyphshow

150.597656 0.765625 moveto
/r glyphshow

160.464844 0.765625 moveto
/a glyphshow

175.171875 0.765625 moveto
/c glyphshow

188.367188 0.765625 moveto
/k glyphshow

202.265625 0.765625 moveto
/e glyphshow

217.031250 0.765625 moveto
/d glyphshow

232.265625 0.765625 moveto
/space glyphshow

239.894531 0.765625 moveto
/g glyphshow

255.128906 0.765625 moveto
/h glyphshow

270.339844 0.765625 moveto
/o glyphshow

285.023438 0.765625 moveto
/s glyphshow

297.527344 0.765625 moveto
/t glyphshow

306.937500 0.765625 moveto
/space glyphshow

314.566406 0.765625 moveto
/p glyphshow

329.800781 0.765625 moveto
/a glyphshow

344.507812 0.765625 moveto
/r glyphshow

354.375000 0.765625 moveto
/t glyphshow

363.785156 0.765625 moveto
/i glyphshow

370.453125 0.765625 moveto
/c glyphshow

383.648438 0.765625 moveto
/l glyphshow

390.316406 0.765625 moveto
/e glyphshow

405.082031 0.765625 moveto
/s glyphshow

417.585938 0.765625 moveto
/space glyphshow

425.214844 0.765625 moveto
/three glyphshow

440.484375 0.765625 moveto
/zero glyphshow

455.753906 0.765625 moveto
/zero glyphshow

471.023438 0.765625 moveto
/zero glyphshow

486.292969 0.765625 moveto
/zero glyphshow

501.562500 0.765625 moveto
/space glyphshow

509.191406 0.765625 moveto
/seven glyphshow

524.460938 0.765625 moveto
/period glyphshow

532.089844 0.765625 moveto
/five glyphshow

/DejaVuSans-Oblique findfont
24.0 scalefont
setfont
547.359375 0.765625 moveto
/delta glyphshow

562.042969 0.765625 moveto
/t glyphshow


grestore
1.000 setlinewidth
0 setlinecap
0.800 setgray
gsave
583.690625 275.71175 m
738.690625 275.71175 l
740.690625 275.71175 741.690625 276.71175 741.690625 278.71175 c
741.690625 453.33675 l
741.690625 455.33675 740.690625 456.33675 738.690625 456.33675 c
583.690625 456.33675 l
581.690625 456.33675 580.690625 455.33675 580.690625 453.33675 c
580.690625 278.71175 l
580.690625 276.71175 581.690625 275.71175 583.690625 275.71175 c
cl
gsave
1.000 setgray
fill
grestore
stroke
grestore
3.000 setlinewidth
1 setlinejoin
2 setlinecap
[] 0 setdash
1.000 0.000 0.000 setrgbcolor
gsave
586.690625 444.196125 m
616.690625 444.196125 l
stroke
grestore
0.000 setgray
gsave
628.690625 438.946125 translate
0.000000 rotate
/DejaVuSans findfont
15.0 scalefont
setfont
0.000000 0.859375 moveto
/S glyphshow

9.521484 0.859375 moveto
/T glyphshow

18.684082 0.859375 moveto
/B glyphshow

28.974609 0.859375 moveto
/comma glyphshow

33.742676 0.859375 moveto
/space glyphshow

/DejaVuSans-Oblique findfont
15.0 scalefont
setfont
38.510742 0.859375 moveto
/sigma glyphshow

/DejaVuSans findfont
15.0 scalefont
setfont
50.939941 0.859375 moveto
/equal glyphshow

66.430664 0.859375 moveto
/zero glyphshow


grestore
0.000 0.000 1.000 setrgbcolor
gsave
586.690625 422.1805 m
616.690625 422.1805 l
stroke
grestore
0.000 setgray
gsave
628.690625 416.930500 translate
0.000000 rotate
/DejaVuSans findfont
15.0 scalefont
setfont
0.000000 0.859375 moveto
/O glyphshow

11.806641 0.859375 moveto
/u glyphshow

21.313477 0.859375 moveto
/r glyphshow

27.480469 0.859375 moveto
/s glyphshow

35.295410 0.859375 moveto
/comma glyphshow

40.063477 0.859375 moveto
/space glyphshow

/DejaVuSans-Oblique findfont
15.0 scalefont
setfont
44.831543 0.859375 moveto
/sigma glyphshow

/DejaVuSans findfont
15.0 scalefont
setfont
57.260742 0.859375 moveto
/equal glyphshow

72.751465 0.859375 moveto
/zero glyphshow


grestore
1.000 0.000 0.000 setrgbcolor
gsave
586.690625 400.164875 m
616.690625 400.164875 l
stroke
grestore
1.000 setlinewidth
0 setlinejoin
0 setlinecap
gsave
/o {
gsave
newpath
translate
1.0 setlinewidth
0 setlinejoin
0 setlinecap
-10 -10 m
10 -10 l
10 10 l
-10 10 l
cl

gsave
grestore
stroke
grestore
} bind def
601.691 400.165 o
grestore
0.000 setgray
gsave
628.690625 394.914875 translate
0.000000 rotate
/DejaVuSans findfont
15.0 scalefont
setfont
0.000000 0.859375 moveto
/S glyphshow

9.521484 0.859375 moveto
/T glyphshow

18.684082 0.859375 moveto
/B glyphshow

28.974609 0.859375 moveto
/comma glyphshow

33.742676 0.859375 moveto
/space glyphshow

/DejaVuSans-Oblique findfont
15.0 scalefont
setfont
38.510742 0.859375 moveto
/sigma glyphshow

/DejaVuSans findfont
15.0 scalefont
setfont
50.939941 0.859375 moveto
/equal glyphshow

66.430664 0.859375 moveto
/zero glyphshow

75.974121 0.859375 moveto
/period glyphshow

80.742188 0.859375 moveto
/zero glyphshow

90.285645 0.859375 moveto
/one glyphshow


grestore
3.000 setlinewidth
1 setlinejoin
2 setlinecap
0.000 0.000 1.000 setrgbcolor
gsave
586.690625 378.14925 m
616.690625 378.14925 l
stroke
grestore
1.000 setlinewidth
0 setlinejoin
0 setlinecap
gsave
/o {
gsave
newpath
translate
1.0 setlinewidth
0 setlinejoin
0 setlinecap
-10 -10 m
10 -10 l
10 10 l
-10 10 l
cl

gsave
grestore
stroke
grestore
} bind def
601.691 378.149 o
grestore
0.000 setgray
gsave
628.690625 372.899250 translate
0.000000 rotate
/DejaVuSans findfont
15.0 scalefont
setfont
0.000000 0.859375 moveto
/O glyphshow

11.806641 0.859375 moveto
/u glyphshow

21.313477 0.859375 moveto
/r glyphshow

27.480469 0.859375 moveto
/s glyphshow

35.295410 0.859375 moveto
/comma glyphshow

40.063477 0.859375 moveto
/space glyphshow

/DejaVuSans-Oblique findfont
15.0 scalefont
setfont
44.831543 0.859375 moveto
/sigma glyphshow

/DejaVuSans findfont
15.0 scalefont
setfont
57.260742 0.859375 moveto
/equal glyphshow

72.751465 0.859375 moveto
/zero glyphshow

82.294922 0.859375 moveto
/period glyphshow

87.062988 0.859375 moveto
/zero glyphshow

96.606445 0.859375 moveto
/one glyphshow


grestore
3.000 setlinewidth
1 setlinejoin
2 setlinecap
1.000 0.000 0.000 setrgbcolor
gsave
586.690625 356.133625 m
616.690625 356.133625 l
stroke
grestore
1.000 setlinewidth
0 setlinecap
gsave
/o {
gsave
newpath
translate
1.0 setlinewidth
1 setlinejoin
0 setlinecap
0 -10 m
2.652031 -10 5.195799 -8.946337 7.071068 -7.071068 c
8.946337 -5.195799 10 -2.652031 10 0 c
10 2.652031 8.946337 5.195799 7.071068 7.071068 c
5.195799 8.946337 2.652031 10 0 10 c
-2.652031 10 -5.195799 8.946337 -7.071068 7.071068 c
-8.946337 5.195799 -10 2.652031 -10 0 c
-10 -2.652031 -8.946337 -5.195799 -7.071068 -7.071068 c
-5.195799 -8.946337 -2.652031 -10 0 -10 c
cl

gsave
grestore
stroke
grestore
} bind def
601.691 356.134 o
grestore
0.000 setgray
gsave
628.690625 350.883625 translate
0.000000 rotate
/DejaVuSans findfont
15.0 scalefont
setfont
0.000000 0.859375 moveto
/S glyphshow

9.521484 0.859375 moveto
/T glyphshow

18.684082 0.859375 moveto
/B glyphshow

28.974609 0.859375 moveto
/comma glyphshow

33.742676 0.859375 moveto
/space glyphshow

/DejaVuSans-Oblique findfont
15.0 scalefont
setfont
38.510742 0.859375 moveto
/sigma glyphshow

/DejaVuSans findfont
15.0 scalefont
setfont
50.939941 0.859375 moveto
/equal glyphshow

66.430664 0.859375 moveto
/zero glyphshow

75.974121 0.859375 moveto
/period glyphshow

80.742188 0.859375 moveto
/zero glyphshow

90.285645 0.859375 moveto
/three glyphshow


grestore
3.000 setlinewidth
2 setlinecap
0.000 0.000 1.000 setrgbcolor
gsave
586.690625 334.118 m
616.690625 334.118 l
stroke
grestore
1.000 setlinewidth
0 setlinecap
gsave
/o {
gsave
newpath
translate
1.0 setlinewidth
1 setlinejoin
0 setlinecap
0 -10 m
2.652031 -10 5.195799 -8.946337 7.071068 -7.071068 c
8.946337 -5.195799 10 -2.652031 10 0 c
10 2.652031 8.946337 5.195799 7.071068 7.071068 c
5.195799 8.946337 2.652031 10 0 10 c
-2.652031 10 -5.195799 8.946337 -7.071068 7.071068 c
-8.946337 5.195799 -10 2.652031 -10 0 c
-10 -2.652031 -8.946337 -5.195799 -7.071068 -7.071068 c
-5.195799 -8.946337 -2.652031 -10 0 -10 c
cl

gsave
grestore
stroke
grestore
} bind def
601.691 334.118 o
grestore
0.000 setgray
gsave
628.690625 328.868000 translate
0.000000 rotate
/DejaVuSans findfont
15.0 scalefont
setfont
0.000000 0.859375 moveto
/O glyphshow

11.806641 0.859375 moveto
/u glyphshow

21.313477 0.859375 moveto
/r glyphshow

27.480469 0.859375 moveto
/s glyphshow

35.295410 0.859375 moveto
/comma glyphshow

40.063477 0.859375 moveto
/space glyphshow

/DejaVuSans-Oblique findfont
15.0 scalefont
setfont
44.831543 0.859375 moveto
/sigma glyphshow

/DejaVuSans findfont
15.0 scalefont
setfont
57.260742 0.859375 moveto
/equal glyphshow

72.751465 0.859375 moveto
/zero glyphshow

82.294922 0.859375 moveto
/period glyphshow

87.062988 0.859375 moveto
/zero glyphshow

96.606445 0.859375 moveto
/three glyphshow


grestore
3.000 setlinewidth
2 setlinecap
1.000 0.000 0.000 setrgbcolor
gsave
586.690625 312.102375 m
616.690625 312.102375 l
stroke
grestore
1.000 setlinewidth
0 setlinejoin
0 setlinecap
gsave
/o {
gsave
newpath
translate
1.0 setlinewidth
0 setlinejoin
0 setlinecap
0 10 m
-10 -10 l
10 -10 l
cl

gsave
grestore
stroke
grestore
} bind def
601.691 312.102 o
grestore
0.000 setgray
gsave
628.690625 306.852375 translate
0.000000 rotate
/DejaVuSans findfont
15.0 scalefont
setfont
0.000000 0.859375 moveto
/S glyphshow

9.521484 0.859375 moveto
/T glyphshow

18.684082 0.859375 moveto
/B glyphshow

28.974609 0.859375 moveto
/comma glyphshow

33.742676 0.859375 moveto
/space glyphshow

/DejaVuSans-Oblique findfont
15.0 scalefont
setfont
38.510742 0.859375 moveto
/sigma glyphshow

/DejaVuSans findfont
15.0 scalefont
setfont
50.939941 0.859375 moveto
/equal glyphshow

66.430664 0.859375 moveto
/zero glyphshow

75.974121 0.859375 moveto
/period glyphshow

80.742188 0.859375 moveto
/one glyphshow


grestore
3.000 setlinewidth
1 setlinejoin
2 setlinecap
0.000 0.000 1.000 setrgbcolor
gsave
586.690625 290.08675 m
616.690625 290.08675 l
stroke
grestore
1.000 setlinewidth
0 setlinejoin
0 setlinecap
gsave
/o {
gsave
newpath
translate
1.0 setlinewidth
0 setlinejoin
0 setlinecap
0 10 m
-10 -10 l
10 -10 l
cl

gsave
grestore
stroke
grestore
} bind def
601.691 290.087 o
grestore
0.000 setgray
gsave
628.690625 284.836750 translate
0.000000 rotate
/DejaVuSans findfont
15.0 scalefont
setfont
0.000000 0.859375 moveto
/O glyphshow

11.806641 0.859375 moveto
/u glyphshow

21.313477 0.859375 moveto
/r glyphshow

27.480469 0.859375 moveto
/s glyphshow

35.295410 0.859375 moveto
/comma glyphshow

40.063477 0.859375 moveto
/space glyphshow

/DejaVuSans-Oblique findfont
15.0 scalefont
setfont
44.831543 0.859375 moveto
/sigma glyphshow

/DejaVuSans findfont
15.0 scalefont
setfont
57.260742 0.859375 moveto
/equal glyphshow

72.751465 0.859375 moveto
/zero glyphshow

82.294922 0.859375 moveto
/period glyphshow

87.062988 0.859375 moveto
/one glyphshow


grestore

end
showpage
