%!PS-Adobe-3.0 EPSF-3.0
%%Creator: MATLAB, The MathWorks, Inc. Version 7.12.0.635 (R2011a). Operating System: Darwin 11.4.2 Darwin Kernel Version 11.4.2: Thu Aug 23 16:25:48 PDT 2012; root:xnu-1699.32.7~1/RELEASE_X86_64 x86_64.
%%Title: /Users/yiyang/Dropbox/Thesis2014/chapter_envarpara/fig/1d.eps
%%CreationDate: 10/19/2014  23:02:06
%%DocumentNeededFonts: Helvetica
%%DocumentProcessColors: Cyan Magenta Yellow Black
%%LanguageLevel: 2
%%Pages: 1
%%BoundingBox:  -137   -17   751   807
%%EndComments

%%BeginProlog
% MathWorks dictionary
/MathWorks 160 dict begin
% definition operators
/bdef {bind def} bind def
/ldef {load def} bind def
/xdef {exch def} bdef
/xstore {exch store} bdef
% operator abbreviations
/c  /clip ldef
/cc /concat ldef
/cp /closepath ldef
/gr /grestore ldef
/gs /gsave ldef
/mt /moveto ldef
/np /newpath ldef
/cm /currentmatrix ldef
/sm /setmatrix ldef
/rm /rmoveto ldef
/rl /rlineto ldef
/s {show newpath} bdef
/sc {setcmykcolor} bdef
/sr /setrgbcolor ldef
/sg /setgray ldef
/w /setlinewidth ldef
/j /setlinejoin ldef
/cap /setlinecap ldef
/rc {rectclip} bdef
/rf {rectfill} bdef
% page state control
/pgsv () def
/bpage {/pgsv save def} bdef
/epage {pgsv restore} bdef
/bplot /gsave ldef
/eplot {stroke grestore} bdef
% orientation switch
/portraitMode 0 def /landscapeMode 1 def /rotateMode 2 def
% coordinate system mappings
/dpi2point 0 def
% font control
/FontSize 0 def
/FMS {/FontSize xstore findfont [FontSize 0 0 FontSize neg 0 0]
  makefont setfont} bdef
/reencode {exch dup where {pop load} {pop StandardEncoding} ifelse
  exch dup 3 1 roll findfont dup length dict begin
  { 1 index /FID ne {def}{pop pop} ifelse } forall
  /Encoding exch def currentdict end definefont pop} bdef
/isroman {findfont /CharStrings get /Agrave known} bdef
/FMSR {3 1 roll 1 index dup isroman {reencode} {pop pop} ifelse
  exch FMS} bdef
/csm {1 dpi2point div -1 dpi2point div scale neg translate
 dup landscapeMode eq {pop -90 rotate}
  {rotateMode eq {90 rotate} if} ifelse} bdef
% line types: solid, dotted, dashed, dotdash
/SO { [] 0 setdash } bdef
/DO { [.5 dpi2point mul 4 dpi2point mul] 0 setdash } bdef
/DA { [6 dpi2point mul] 0 setdash } bdef
/DD { [.5 dpi2point mul 4 dpi2point mul 6 dpi2point mul 4
  dpi2point mul] 0 setdash } bdef
% macros for lines and objects
/L {lineto stroke} bdef
/MP {3 1 roll moveto 1 sub {rlineto} repeat} bdef
/AP {{rlineto} repeat} bdef
/PDlw -1 def
/W {/PDlw currentlinewidth def setlinewidth} def
/PP {closepath eofill} bdef
/DP {closepath stroke} bdef
/MR {4 -2 roll moveto dup  0 exch rlineto exch 0 rlineto
  neg 0 exch rlineto closepath} bdef
/FR {MR stroke} bdef
/PR {MR fill} bdef
/L1i {{currentfile picstr readhexstring pop} image} bdef
/tMatrix matrix def
/MakeOval {newpath tMatrix currentmatrix pop translate scale
0 0 1 0 360 arc tMatrix setmatrix} bdef
/FO {MakeOval stroke} bdef
/PO {MakeOval fill} bdef
/PD {currentlinewidth 2 div 0 360 arc fill
   PDlw -1 eq not {PDlw w /PDlw -1 def} if} def
/FA {newpath tMatrix currentmatrix pop translate scale
  0 0 1 5 -2 roll arc tMatrix setmatrix stroke} bdef
/PA {newpath tMatrix currentmatrix pop	translate 0 0 moveto scale
  0 0 1 5 -2 roll arc closepath tMatrix setmatrix fill} bdef
/FAn {newpath tMatrix currentmatrix pop translate scale
  0 0 1 5 -2 roll arcn tMatrix setmatrix stroke} bdef
/PAn {newpath tMatrix currentmatrix pop translate 0 0 moveto scale
  0 0 1 5 -2 roll arcn closepath tMatrix setmatrix fill} bdef
/vradius 0 def /hradius 0 def /lry 0 def
/lrx 0 def /uly 0 def /ulx 0 def /rad 0 def
/MRR {/vradius xdef /hradius xdef /lry xdef /lrx xdef /uly xdef
  /ulx xdef newpath tMatrix currentmatrix pop ulx hradius add uly
  vradius add translate hradius vradius scale 0 0 1 180 270 arc 
  tMatrix setmatrix lrx hradius sub uly vradius add translate
  hradius vradius scale 0 0 1 270 360 arc tMatrix setmatrix
  lrx hradius sub lry vradius sub translate hradius vradius scale
  0 0 1 0 90 arc tMatrix setmatrix ulx hradius add lry vradius sub
  translate hradius vradius scale 0 0 1 90 180 arc tMatrix setmatrix
  closepath} bdef
/FRR {MRR stroke } bdef
/PRR {MRR fill } bdef
/MlrRR {/lry xdef /lrx xdef /uly xdef /ulx xdef /rad lry uly sub 2 div def
  newpath tMatrix currentmatrix pop ulx rad add uly rad add translate
  rad rad scale 0 0 1 90 270 arc tMatrix setmatrix lrx rad sub lry rad
  sub translate rad rad scale 0 0 1 270 90 arc tMatrix setmatrix
  closepath} bdef
/FlrRR {MlrRR stroke } bdef
/PlrRR {MlrRR fill } bdef
/MtbRR {/lry xdef /lrx xdef /uly xdef /ulx xdef /rad lrx ulx sub 2 div def
  newpath tMatrix currentmatrix pop ulx rad add uly rad add translate
  rad rad scale 0 0 1 180 360 arc tMatrix setmatrix lrx rad sub lry rad
  sub translate rad rad scale 0 0 1 0 180 arc tMatrix setmatrix
  closepath} bdef
/FtbRR {MtbRR stroke } bdef
/PtbRR {MtbRR fill } bdef
/stri 6 array def /dtri 6 array def
/smat 6 array def /dmat 6 array def
/tmat1 6 array def /tmat2 6 array def /dif 3 array def
/asub {/ind2 exch def /ind1 exch def dup dup
  ind1 get exch ind2 get sub exch } bdef
/tri_to_matrix {
  2 0 asub 3 1 asub 4 0 asub 5 1 asub
  dup 0 get exch 1 get 7 -1 roll astore } bdef
/compute_transform {
  dmat dtri tri_to_matrix tmat1 invertmatrix 
  smat stri tri_to_matrix tmat2 concatmatrix } bdef
/ds {stri astore pop} bdef
/dt {dtri astore pop} bdef
/db {2 copy /cols xdef /rows xdef mul dup 3 mul string
  currentfile 
  3 index 0 eq {/ASCIIHexDecode filter}
  {/ASCII85Decode filter 3 index 2 eq {/RunLengthDecode filter} if }
  ifelse exch readstring pop
  dup 0 3 index getinterval /rbmap xdef
  dup 2 index dup getinterval /gbmap xdef
  1 index dup 2 mul exch getinterval /bbmap xdef pop pop}bdef
/it {gs np dtri aload pop moveto lineto lineto cp c
  cols rows 8 compute_transform 
  rbmap gbmap bbmap true 3 colorimage gr}bdef
/il {newpath moveto lineto stroke}bdef
currentdict end def
%%EndProlog

%%BeginSetup
MathWorks begin

0 cap

end
%%EndSetup

%%Page: 1 1
%%BeginPageSetup
%%PageBoundingBox:  -137   -17   751   807
MathWorks begin
bpage
%%EndPageSetup

%%BeginObject: obj1
bplot

/dpi2point 12 def
portraitMode -1644 9684 csm

    0     0 10662  9898 rc
86 dict begin %Colortable dictionary
/c0 { 0.000000 0.000000 0.000000 sr} bdef
/c1 { 1.000000 1.000000 1.000000 sr} bdef
/c2 { 0.900000 0.000000 0.000000 sr} bdef
/c3 { 0.000000 0.820000 0.000000 sr} bdef
/c4 { 0.000000 0.000000 0.800000 sr} bdef
/c5 { 0.910000 0.820000 0.320000 sr} bdef
/c6 { 1.000000 0.260000 0.820000 sr} bdef
/c7 { 0.000000 0.820000 0.820000 sr} bdef
c0
1 j
1 sg
   0    0 10663 9899 rf
6 w
0 3378 8263 0 0 -3378 1386 4119 4 MP
PP
-8263 0 0 3378 8263 0 0 -3378 1386 4119 5 MP stroke
4 w
DO
SO
6 w
0 sg
1386 4119 mt 9649 4119 L
1386  741 mt 9649  741 L
1386 4119 mt 1386  741 L
9649 4119 mt 9649  741 L
1386 4119 mt 9649 4119 L
1386 4119 mt 1386  741 L
1386 4119 mt 1386 4036 L
1386  742 mt 1386  824 L
%%IncludeResource: font Helvetica
/Helvetica /ISOLatin1Encoding 120 FMSR

1253 4264 mt 
(6000) s
2304 4119 mt 2304 4036 L
2304  742 mt 2304  824 L
2171 4264 mt 
(6200) s
3222 4119 mt 3222 4036 L
3222  742 mt 3222  824 L
3089 4264 mt 
(6400) s
4140 4119 mt 4140 4036 L
4140  742 mt 4140  824 L
4007 4264 mt 
(6600) s
5058 4119 mt 5058 4036 L
5058  742 mt 5058  824 L
4925 4264 mt 
(6800) s
5976 4119 mt 5976 4036 L
5976  742 mt 5976  824 L
5843 4264 mt 
(7000) s
6894 4119 mt 6894 4036 L
6894  742 mt 6894  824 L
6761 4264 mt 
(7200) s
7812 4119 mt 7812 4036 L
7812  742 mt 7812  824 L
7679 4264 mt 
(7400) s
8730 4119 mt 8730 4036 L
8730  742 mt 8730  824 L
8597 4264 mt 
(7600) s
9649 4119 mt 9649 4036 L
9649  742 mt 9649  824 L
9516 4264 mt 
(7800) s
1386 4119 mt 1468 4119 L
9649 4119 mt 9566 4119 L
1285 4163 mt 
(0) s
1386 3443 mt 1468 3443 L
9649 3443 mt 9566 3443 L
1285 3487 mt 
(5) s
1386 2768 mt 1468 2768 L
9649 2768 mt 9566 2768 L
1218 2812 mt 
(10) s
1386 2092 mt 1468 2092 L
9649 2092 mt 9566 2092 L
1218 2136 mt 
(15) s
1386 1417 mt 1468 1417 L
9649 1417 mt 9566 1417 L
1218 1461 mt 
(20) s
1386  742 mt 1468  742 L
9649  742 mt 9566  742 L
1218  786 mt 
(25) s
1386 4119 mt 9649 4119 L
1386  741 mt 9649  741 L
1386 4119 mt 1386  741 L
9649 4119 mt 9649  741 L
gs 1386 742 8264 3378 rc
24 w
/c8 { 0.000000 1.000000 0.000000 sr} bdef
c8
173 -4 172 -4 172 -5 172 -4 172 -4 172 -5 173 -4 172 -4 
172 -5 172 -4 172 -4 172 -5 172 -4 173 -4 172 -5 172 -4 
172 -4 172 -5 172 -4 172 -4 173 -5 172 -4 172 -5 172 -4 
172 -4 172 -5 172 -4 173 -5 172 -4 172 -4 172 -5 172 -4 
172 -5 172 -4 173 -5 172 -4 172 -5 172 -4 172 -5 172 -4 
172 -5 173 -4 172 -5 172 -4 172 -5 172 -4 172 -5 172 -4 
1386 3157 49 MP stroke
gr

24 w
c8
/c9 { 0.000000 0.000000 1.000000 sr} bdef
c9
  36   36 1386 3989 FO
  36   36 4140 3993 FO
  36   36 6894 3976 FO
gs 1386 742 8264 3378 rc
0 sg
173 -31 172 -31 172 -32 172 -33 172 -33 172 -34 173 -36 172 -36 
172 -37 172 -38 172 -39 172 -40 172 -42 173 -43 172 -45 172 -46 
172 -48 172 -49 172 -52 172 -53 173 -56 172 -58 172 -60 172 -62 
172 -65 172 -68 172 -70 173 -74 172 -76 172 -79 172 -82 172 -84 
172 -87 172 -90 173 -91 172 -93 172 -93 172 -93 172 -90 172 -86 
172 -80 173 -69 172 -55 172 -38 172 -20 172 -5 172 3 172 4 
1386 3739 49 MP stroke
gr

0 sg
5499 4407 mt 
(t) s
1136 2638 mt  -90 rotate
(RMS\(h\)) s
90 rotate
gs 1386 742 8264 3378 rc
/c10 { 1.000000 0.000000 0.000000 sr} bdef
c10
173 -7 172 -7 172 -6 172 -8 172 -7 172 -7 173 -7 172 -7 
172 -7 172 -8 172 -7 172 -8 172 -7 173 -8 172 -8 172 -8 
172 -8 172 -8 172 -8 172 -9 173 -8 172 -9 172 -9 172 -9 
172 -9 172 -9 172 -9 173 -10 172 -9 172 -10 172 -10 172 -10 
172 -11 172 -10 173 -11 172 -11 172 -12 172 -12 172 -12 172 -12 
172 -13 173 -13 172 -13 172 -13 172 -12 172 -9 172 -5 172 3 
1386 4013 49 MP stroke
DA
0 sg
173 -16 172 -16 172 -16 172 -15 172 -16 172 -16 173 -15 172 -16 
172 -15 172 -15 172 -15 172 -15 172 -14 173 -15 172 -14 172 -14 
172 -13 172 -14 172 -13 172 -13 173 -12 172 -12 172 -11 172 -12 
172 -10 172 -11 172 -10 173 -9 172 -9 172 -8 172 -8 172 -7 
172 -7 172 -7 173 -6 172 -5 172 -5 172 -4 172 -4 172 -4 
172 -3 173 -3 172 -3 172 -3 172 -2 172 -3 172 -2 172 -3 
1386 3726 49 MP stroke
gr

DA
1369 4162 mt 
( ) s
9633  784 mt 
( ) s
SO
6 w
1 sg
0 3377 8263 0 0 -3377 1386 8809 4 MP
PP
-8263 0 0 3377 8263 0 0 -3377 1386 8809 5 MP stroke
4 w
DO
SO
6 w
0 sg
1386 8809 mt 9649 8809 L
1386 5432 mt 9649 5432 L
1386 8809 mt 1386 5432 L
9649 8809 mt 9649 5432 L
1386 8809 mt 9649 8809 L
1386 8809 mt 1386 5432 L
1386 8809 mt 1386 8726 L
1386 5432 mt 1386 5514 L
1253 8954 mt 
(6000) s
2304 8809 mt 2304 8726 L
2304 5432 mt 2304 5514 L
2171 8954 mt 
(6200) s
3222 8809 mt 3222 8726 L
3222 5432 mt 3222 5514 L
3089 8954 mt 
(6400) s
4140 8809 mt 4140 8726 L
4140 5432 mt 4140 5514 L
4007 8954 mt 
(6600) s
5058 8809 mt 5058 8726 L
5058 5432 mt 5058 5514 L
4925 8954 mt 
(6800) s
5976 8809 mt 5976 8726 L
5976 5432 mt 5976 5514 L
5843 8954 mt 
(7000) s
6894 8809 mt 6894 8726 L
6894 5432 mt 6894 5514 L
6761 8954 mt 
(7200) s
7812 8809 mt 7812 8726 L
7812 5432 mt 7812 5514 L
7679 8954 mt 
(7400) s
8730 8809 mt 8730 8726 L
8730 5432 mt 8730 5514 L
8597 8954 mt 
(7600) s
9649 8809 mt 9649 8726 L
9649 5432 mt 9649 5514 L
9516 8954 mt 
(7800) s
1386 8809 mt 1468 8809 L
9649 8809 mt 9566 8809 L
1285 8853 mt 
(0) s
1386 8471 mt 1468 8471 L
9649 8471 mt 9566 8471 L
1185 8515 mt 
(0.1) s
1386 8133 mt 1468 8133 L
9649 8133 mt 9566 8133 L
1185 8177 mt 
(0.2) s
1386 7795 mt 1468 7795 L
9649 7795 mt 9566 7795 L
1185 7839 mt 
(0.3) s
1386 7458 mt 1468 7458 L
9649 7458 mt 9566 7458 L
1185 7502 mt 
(0.4) s
1386 7120 mt 1468 7120 L
9649 7120 mt 9566 7120 L
1185 7164 mt 
(0.5) s
1386 6782 mt 1468 6782 L
9649 6782 mt 9566 6782 L
1185 6826 mt 
(0.6) s
1386 6445 mt 1468 6445 L
9649 6445 mt 9566 6445 L
1185 6489 mt 
(0.7) s
1386 6107 mt 1468 6107 L
9649 6107 mt 9566 6107 L
1185 6151 mt 
(0.8) s
1386 5769 mt 1468 5769 L
9649 5769 mt 9566 5769 L
1185 5813 mt 
(0.9) s
1386 5432 mt 1468 5432 L
9649 5432 mt 9566 5432 L
1285 5476 mt 
(1) s
1386 8809 mt 9649 8809 L
1386 5432 mt 9649 5432 L
1386 8809 mt 1386 5432 L
9649 8809 mt 9649 5432 L
gs 1386 5432 8264 3378 rc
24 w
c8
173 -5 172 -6 172 -5 172 -6 172 -6 172 -5 173 -6 172 -5 
172 -6 172 -6 172 -5 172 -6 172 -5 173 -6 172 -6 172 -5 
172 -6 172 -6 172 -5 172 -6 173 -6 172 -5 172 -6 172 -6 
172 -5 172 -6 172 -6 173 -6 172 -5 172 -6 172 -6 172 -6 
172 -5 172 -6 173 -6 172 -6 172 -5 172 -6 172 -6 172 -6 
172 -6 173 -6 172 -5 172 -6 172 -6 172 -6 172 -6 172 -6 
1386 7566 49 MP stroke
gr

24 w
c8
c9
  36   36 1386 8473 FO
  36   36 4140 8498 FO
  36   36 6894 8488 FO
gs 1386 5432 8264 3378 rc
0 sg
173 -22 172 -21 172 -20 172 -20 172 -20 172 -19 173 -19 172 -18 
172 -17 172 -17 172 -16 172 -16 172 -14 173 -15 172 -13 172 -13 
172 -12 172 -11 172 -11 172 -10 173 -10 172 -10 172 -10 172 -10 
172 -10 172 -10 172 -12 173 -13 172 -15 172 -18 172 -20 172 -25 
172 -29 172 -35 173 -42 172 -50 172 -60 172 -71 172 -84 172 -99 
172 -116 173 -134 172 -154 172 -174 172 -193 172 -204 172 -185 172 -83 
1386 7814 49 MP stroke
gr

0 sg
5499 9097 mt 
(t) s
1103 7328 mt  -90 rotate
(RMS\(u\)) s
90 rotate
gs 1386 5432 8264 3378 rc
c10
173 -10 172 -10 172 -9 172 -10 172 -10 172 -9 173 -10 172 -10 
172 -9 172 -10 172 -9 172 -10 172 -9 173 -10 172 -9 172 -9 
172 -9 172 -10 172 -9 172 -9 173 -8 172 -9 172 -9 172 -9 
172 -8 172 -9 172 -8 173 -8 172 -9 172 -8 172 -8 172 -8 
172 -7 172 -8 173 -7 172 -7 172 -6 172 -6 172 -5 172 -4 
172 -3 173 -2 172 -1 172 1 172 2 172 4 172 5 172 7 
1386 8508 49 MP stroke
DA
0 sg
173 -8 172 -9 172 -9 172 -9 172 -9 172 -9 173 -10 172 -9 
172 -10 172 -10 172 -9 172 -10 172 -10 173 -11 172 -10 172 -10 
172 -11 172 -10 172 -11 172 -11 173 -11 172 -11 172 -11 172 -12 
172 -11 172 -12 172 -12 173 -12 172 -12 172 -12 172 -12 172 -13 
172 -12 172 -13 173 -13 172 -12 172 -13 172 -13 172 -12 172 -12 
172 -12 173 -11 172 -10 172 -10 172 -9 172 -7 172 -5 172 -4 
1386 7919 49 MP stroke
SO
6 w
gr

6 w
1 sg
0 1335 2527 0 0 -1335 1704 2355 4 MP
PP
-2527 0 0 1335 2527 0 0 -1335 1704 2355 5 MP stroke
4 w
DO
SO
6 w
0 sg
1704 2355 mt 4231 2355 L
1704 1020 mt 4231 1020 L
1704 2355 mt 1704 1020 L
4231 2355 mt 4231 1020 L
1704 2355 mt 4231 2355 L
1704 2355 mt 1704 1020 L
1704 2355 mt 4231 2355 L
1704 1020 mt 4231 1020 L
1704 2355 mt 1704 1020 L
4231 2355 mt 4231 1020 L
%%IncludeResource: font Helvetica
/Helvetica /ISOLatin1Encoding 168 FMSR

2229 1232 mt 
(Large scale simulation) s
gs 1704 1020 2528 1336 rc
24 w
c8
404 0 1784 1172 2 MP stroke
gr

24 w
c8
0 sg
2229 1490 mt 
(Fine scale observation) s
gs 1704 1020 2528 1336 rc
gr

c9
  36   36 1986 1429 FO
gs 1704 1020 2528 1336 rc
gr

0 sg
2229 1748 mt 
(NoLocal, N=32) s
gs 1704 1020 2528 1336 rc
404 0 1784 1687 2 MP stroke
gr

2229 2006 mt 
(NoLocal, N=512) s
gs 1704 1020 2528 1336 rc
c10
404 0 1784 1945 2 MP stroke
gr

c10
0 sg
2229 2264 mt 
(LC,N=32) s
gs 1704 1020 2528 1336 rc
DA
404 0 1784 2202 2 MP stroke
SO
6 w
gr

6 w

end %%Color Dict

eplot
%%EndObject

epage
end

showpage

%%Trailer
%%EOF
