%!PS-Adobe-3.0 EPSF-3.0
%%Creator: MATLAB, The MathWorks, Inc. Version 7.12.0.635 (R2011a). Operating System: Darwin 11.4.2 Darwin Kernel Version 11.4.2: Thu Aug 23 16:25:48 PDT 2012; root:xnu-1699.32.7~1/RELEASE_X86_64 x86_64.
%%Title: /Users/yiyang/Dropbox/Thesis2014/chapter_envarpara/fig/1d3winv2.eps
%%CreationDate: 11/01/2014  21:00:59
%%DocumentNeededFonts: Helvetica
%%DocumentProcessColors: Cyan Magenta Yellow Black
%%LanguageLevel: 2
%%Pages: 1
%%BoundingBox:  -118   -35   731   825
%%EndComments

%%BeginProlog
% MathWorks dictionary
/MathWorks 160 dict begin
% definition operators
/bdef {bind def} bind def
/ldef {load def} bind def
/xdef {exch def} bdef
/xstore {exch store} bdef
% operator abbreviations
/c  /clip ldef
/cc /concat ldef
/cp /closepath ldef
/gr /grestore ldef
/gs /gsave ldef
/mt /moveto ldef
/np /newpath ldef
/cm /currentmatrix ldef
/sm /setmatrix ldef
/rm /rmoveto ldef
/rl /rlineto ldef
/s {show newpath} bdef
/sc {setcmykcolor} bdef
/sr /setrgbcolor ldef
/sg /setgray ldef
/w /setlinewidth ldef
/j /setlinejoin ldef
/cap /setlinecap ldef
/rc {rectclip} bdef
/rf {rectfill} bdef
% page state control
/pgsv () def
/bpage {/pgsv save def} bdef
/epage {pgsv restore} bdef
/bplot /gsave ldef
/eplot {stroke grestore} bdef
% orientation switch
/portraitMode 0 def /landscapeMode 1 def /rotateMode 2 def
% coordinate system mappings
/dpi2point 0 def
% font control
/FontSize 0 def
/FMS {/FontSize xstore findfont [FontSize 0 0 FontSize neg 0 0]
  makefont setfont} bdef
/reencode {exch dup where {pop load} {pop StandardEncoding} ifelse
  exch dup 3 1 roll findfont dup length dict begin
  { 1 index /FID ne {def}{pop pop} ifelse } forall
  /Encoding exch def currentdict end definefont pop} bdef
/isroman {findfont /CharStrings get /Agrave known} bdef
/FMSR {3 1 roll 1 index dup isroman {reencode} {pop pop} ifelse
  exch FMS} bdef
/csm {1 dpi2point div -1 dpi2point div scale neg translate
 dup landscapeMode eq {pop -90 rotate}
  {rotateMode eq {90 rotate} if} ifelse} bdef
% line types: solid, dotted, dashed, dotdash
/SO { [] 0 setdash } bdef
/DO { [.5 dpi2point mul 4 dpi2point mul] 0 setdash } bdef
/DA { [6 dpi2point mul] 0 setdash } bdef
/DD { [.5 dpi2point mul 4 dpi2point mul 6 dpi2point mul 4
  dpi2point mul] 0 setdash } bdef
% macros for lines and objects
/L {lineto stroke} bdef
/MP {3 1 roll moveto 1 sub {rlineto} repeat} bdef
/AP {{rlineto} repeat} bdef
/PDlw -1 def
/W {/PDlw currentlinewidth def setlinewidth} def
/PP {closepath eofill} bdef
/DP {closepath stroke} bdef
/MR {4 -2 roll moveto dup  0 exch rlineto exch 0 rlineto
  neg 0 exch rlineto closepath} bdef
/FR {MR stroke} bdef
/PR {MR fill} bdef
/L1i {{currentfile picstr readhexstring pop} image} bdef
/tMatrix matrix def
/MakeOval {newpath tMatrix currentmatrix pop translate scale
0 0 1 0 360 arc tMatrix setmatrix} bdef
/FO {MakeOval stroke} bdef
/PO {MakeOval fill} bdef
/PD {currentlinewidth 2 div 0 360 arc fill
   PDlw -1 eq not {PDlw w /PDlw -1 def} if} def
/FA {newpath tMatrix currentmatrix pop translate scale
  0 0 1 5 -2 roll arc tMatrix setmatrix stroke} bdef
/PA {newpath tMatrix currentmatrix pop	translate 0 0 moveto scale
  0 0 1 5 -2 roll arc closepath tMatrix setmatrix fill} bdef
/FAn {newpath tMatrix currentmatrix pop translate scale
  0 0 1 5 -2 roll arcn tMatrix setmatrix stroke} bdef
/PAn {newpath tMatrix currentmatrix pop translate 0 0 moveto scale
  0 0 1 5 -2 roll arcn closepath tMatrix setmatrix fill} bdef
/vradius 0 def /hradius 0 def /lry 0 def
/lrx 0 def /uly 0 def /ulx 0 def /rad 0 def
/MRR {/vradius xdef /hradius xdef /lry xdef /lrx xdef /uly xdef
  /ulx xdef newpath tMatrix currentmatrix pop ulx hradius add uly
  vradius add translate hradius vradius scale 0 0 1 180 270 arc 
  tMatrix setmatrix lrx hradius sub uly vradius add translate
  hradius vradius scale 0 0 1 270 360 arc tMatrix setmatrix
  lrx hradius sub lry vradius sub translate hradius vradius scale
  0 0 1 0 90 arc tMatrix setmatrix ulx hradius add lry vradius sub
  translate hradius vradius scale 0 0 1 90 180 arc tMatrix setmatrix
  closepath} bdef
/FRR {MRR stroke } bdef
/PRR {MRR fill } bdef
/MlrRR {/lry xdef /lrx xdef /uly xdef /ulx xdef /rad lry uly sub 2 div def
  newpath tMatrix currentmatrix pop ulx rad add uly rad add translate
  rad rad scale 0 0 1 90 270 arc tMatrix setmatrix lrx rad sub lry rad
  sub translate rad rad scale 0 0 1 270 90 arc tMatrix setmatrix
  closepath} bdef
/FlrRR {MlrRR stroke } bdef
/PlrRR {MlrRR fill } bdef
/MtbRR {/lry xdef /lrx xdef /uly xdef /ulx xdef /rad lrx ulx sub 2 div def
  newpath tMatrix currentmatrix pop ulx rad add uly rad add translate
  rad rad scale 0 0 1 180 360 arc tMatrix setmatrix lrx rad sub lry rad
  sub translate rad rad scale 0 0 1 0 180 arc tMatrix setmatrix
  closepath} bdef
/FtbRR {MtbRR stroke } bdef
/PtbRR {MtbRR fill } bdef
/stri 6 array def /dtri 6 array def
/smat 6 array def /dmat 6 array def
/tmat1 6 array def /tmat2 6 array def /dif 3 array def
/asub {/ind2 exch def /ind1 exch def dup dup
  ind1 get exch ind2 get sub exch } bdef
/tri_to_matrix {
  2 0 asub 3 1 asub 4 0 asub 5 1 asub
  dup 0 get exch 1 get 7 -1 roll astore } bdef
/compute_transform {
  dmat dtri tri_to_matrix tmat1 invertmatrix 
  smat stri tri_to_matrix tmat2 concatmatrix } bdef
/ds {stri astore pop} bdef
/dt {dtri astore pop} bdef
/db {2 copy /cols xdef /rows xdef mul dup 3 mul string
  currentfile 
  3 index 0 eq {/ASCIIHexDecode filter}
  {/ASCII85Decode filter 3 index 2 eq {/RunLengthDecode filter} if }
  ifelse exch readstring pop
  dup 0 3 index getinterval /rbmap xdef
  dup 2 index dup getinterval /gbmap xdef
  1 index dup 2 mul exch getinterval /bbmap xdef pop pop}bdef
/it {gs np dtri aload pop moveto lineto lineto cp c
  cols rows 8 compute_transform 
  rbmap gbmap bbmap true 3 colorimage gr}bdef
/il {newpath moveto lineto stroke}bdef
currentdict end def
%%EndProlog

%%BeginSetup
MathWorks begin

0 cap

end
%%EndSetup

%%Page: 1 1
%%BeginPageSetup
%%PageBoundingBox:  -118   -35   731   825
MathWorks begin
bpage
%%EndPageSetup

%%BeginObject: obj1
bplot

/dpi2point 12 def
portraitMode -1416 9900 csm

    0     0 10194 10330 rc
86 dict begin %Colortable dictionary
/c0 { 0.000000 0.000000 0.000000 sr} bdef
/c1 { 1.000000 1.000000 1.000000 sr} bdef
/c2 { 0.900000 0.000000 0.000000 sr} bdef
/c3 { 0.000000 0.820000 0.000000 sr} bdef
/c4 { 0.000000 0.000000 0.800000 sr} bdef
/c5 { 0.910000 0.820000 0.320000 sr} bdef
/c6 { 1.000000 0.260000 0.820000 sr} bdef
/c7 { 0.000000 0.820000 0.820000 sr} bdef
c0
1 j
1 sg
   0    0 10195 10331 rf
6 w
0 3524 7901 0 0 -3524 1325 4299 4 MP
PP
-7901 0 0 3524 7901 0 0 -3524 1325 4299 5 MP stroke
4 w
DO
SO
6 w
0 sg
1325 4299 mt 9226 4299 L
1325  775 mt 9226  775 L
1325 4299 mt 1325  775 L
9226 4299 mt 9226  775 L
1325 4299 mt 9226 4299 L
1325 4299 mt 1325  775 L
1325 4299 mt 1325 4219 L
1325  775 mt 1325  854 L
%%IncludeResource: font Helvetica
/Helvetica /ISOLatin1Encoding 120 FMSR

1192 4444 mt 
(6000) s
2056 4299 mt 2056 4219 L
2056  775 mt 2056  854 L
1923 4444 mt 
(6500) s
2788 4299 mt 2788 4219 L
2788  775 mt 2788  854 L
2655 4444 mt 
(7000) s
3519 4299 mt 3519 4219 L
3519  775 mt 3519  854 L
3386 4444 mt 
(7500) s
4251 4299 mt 4251 4219 L
4251  775 mt 4251  854 L
4118 4444 mt 
(8000) s
4982 4299 mt 4982 4219 L
4982  775 mt 4982  854 L
4849 4444 mt 
(8500) s
5714 4299 mt 5714 4219 L
5714  775 mt 5714  854 L
5581 4444 mt 
(9000) s
6446 4299 mt 6446 4219 L
6446  775 mt 6446  854 L
6313 4444 mt 
(9500) s
7177 4299 mt 7177 4219 L
7177  775 mt 7177  854 L
7011 4444 mt 
(10000) s
7909 4299 mt 7909 4219 L
7909  775 mt 7909  854 L
7743 4444 mt 
(10500) s
8640 4299 mt 8640 4219 L
8640  775 mt 8640  854 L
8474 4444 mt 
(11000) s
1325 4299 mt 1404 4299 L
9226 4299 mt 9146 4299 L
1224 4343 mt 
(0) s
1325 3907 mt 1404 3907 L
9226 3907 mt 9146 3907 L
1224 3951 mt 
(2) s
1325 3515 mt 1404 3515 L
9226 3515 mt 9146 3515 L
1224 3559 mt 
(4) s
1325 3124 mt 1404 3124 L
9226 3124 mt 9146 3124 L
1224 3168 mt 
(6) s
1325 2732 mt 1404 2732 L
9226 2732 mt 9146 2732 L
1224 2776 mt 
(8) s
1325 2341 mt 1404 2341 L
9226 2341 mt 9146 2341 L
1157 2385 mt 
(10) s
1325 1949 mt 1404 1949 L
9226 1949 mt 9146 1949 L
1157 1993 mt 
(12) s
1325 1558 mt 1404 1558 L
9226 1558 mt 9146 1558 L
1157 1602 mt 
(14) s
1325 1166 mt 1404 1166 L
9226 1166 mt 9146 1166 L
1157 1210 mt 
(16) s
1325  775 mt 1404  775 L
9226  775 mt 9146  775 L
1157  819 mt 
(18) s
1325 4299 mt 9226 4299 L
1325  775 mt 9226  775 L
1325 4299 mt 1325  775 L
9226 4299 mt 9226  775 L
gs 1325 775 7902 3525 rc
24 w
/c8 { 0.000000 1.000000 0.000000 sr} bdef
c8
55 -6 55 -6 55 -5 55 -6 55 -6 55 -5 55 -6 54 -6 
55 -6 55 -5 55 -6 55 -6 55 -6 55 -5 55 -6 54 -6 
55 -6 55 -6 55 -5 55 -6 55 -6 55 -6 54 -6 55 -6 
55 -5 55 -6 55 -6 55 -6 55 -6 55 -6 54 -5 55 -6 
55 -6 55 -6 55 -6 55 -6 55 -6 54 -6 55 -6 55 -5 
55 -6 55 -6 55 -6 55 -6 55 -6 54 -6 55 -6 55 -6 
55 -6 55 -6 55 -6 55 -6 55 -6 54 -6 55 -6 55 -5 
55 -6 55 -6 55 -6 55 -6 54 -6 55 -6 55 -6 55 -6 
55 -6 55 -7 55 -6 55 -6 54 -6 55 -6 55 -6 55 -6 
55 -6 55 -6 55 -6 54 -6 55 -6 55 -6 55 -6 55 -6 
55 -7 55 -6 55 -6 54 -6 55 -6 55 -6 55 -6 55 -6 
55 -7 55 -6 54 -6 55 -6 55 -6 55 -6 55 -7 55 -6 
55 -6 55 -6 54 -6 55 -7 55 -6 55 -6 55 -6 55 -7 
55 -6 55 -6 54 -7 55 -6 55 -6 55 -6 55 -7 55 -6 
55 -6 54 -7 55 -6 55 -6 55 -7 55 -6 55 -6 55 -7 
55 -6 54 -7 55 -6 55 -6 55 -7 55 -6 55 -7 55 -6 
54 -6 55 -7 55 -6 55 -7 55 -6 55 -7 55 -6 55 -7 
54 -6 55 -7 55 -6 55 -7 55 -6 55 -7 55 -7 54 -6 
1325 2905 145 MP stroke
gr

24 w
c8
gs 1227 3977 7220 254 rc
/c9 { 0.000000 0.000000 1.000000 sr} bdef
c9
  36   36 1325 4106 FO
  36   36 2202 4075 FO
  36   36 3080 4130 FO
  36   36 3958 4102 FO
  36   36 4836 4108 FO
  36   36 5714 4132 FO
  36   36 6592 4114 FO
  36   36 7470 4096 FO
  36   36 8348 4112 FO
gr

c9
gs 1325 775 7902 3525 rc
gr

0 sg
%%IncludeResource: font Helvetica
/Helvetica /ISOLatin1Encoding 168 FMSR

5153 4622 mt 
(t\(s\)) s
1065 2907 mt  -90 rotate
(RMSE\(m\)) s
90 rotate
4610  670 mt 
(Surface height \(a\)) s
gs 1325 775 7902 3525 rc
55 -6 55 -6 55 -6 55 -6 55 -6 55 -6 55 -6 54 -5 
55 -6 55 -6 55 -5 55 -5 55 -6 55 -5 55 -5 54 -5 
55 -5 55 -4 55 -5 55 -4 55 -5 55 -4 54 -4 55 -4 
55 -5 55 -4 55 -4 55 -3 55 -4 55 -4 54 -4 55 -4 
55 -5 55 -4 55 -4 55 -5 55 -4 54 -5 55 -5 55 -5 
55 -6 55 -5 55 -6 55 -6 55 -7 54 -6 55 -7 55 -7 
55 52 55 -11 55 -11 55 -11 55 -11 54 -11 55 -11 55 -11 
55 -11 55 -11 55 -10 55 -10 54 -10 55 -10 55 -9 55 -9 
55 -9 55 -8 55 -8 55 -9 54 -8 55 -8 55 -8 55 -8 
55 -8 55 -9 55 -9 54 -10 55 -10 55 -11 55 -12 55 -12 
55 -14 55 -14 55 -16 54 -16 55 -17 55 -18 55 -18 55 -19 
55 -18 55 -18 54 -17 55 -15 55 -13 55 -10 55 -6 55 -2 
55 873 55 31 54 33 55 36 55 38 55 40 55 43 55 44 
55 46 55 47 54 49 55 49 55 50 55 49 55 50 55 49 
55 47 54 46 55 44 55 41 55 38 55 34 55 29 55 24 
55 19 54 12 55 4 55 -3 55 -12 55 -21 55 -31 55 -42 
54 -52 55 -65 55 -76 55 -89 55 -102 55 -114 55 -127 55 -138 
54 -150 55 -158 55 -165 55 -166 55 -160 55 -142 55 -110 54 -57 
1325 3110 145 MP stroke
DA
55 -10 55 -9 55 -9 55 -10 55 -9 55 -10 55 -9 54 -10 
55 -10 55 -10 55 -9 55 -10 55 -10 55 -10 55 -11 54 -10 
55 -10 55 -11 55 -11 55 -11 55 -11 55 -11 54 -12 55 -11 
55 -12 55 -12 55 -13 55 -13 55 -13 55 -13 54 -14 55 -13 
55 -15 55 -14 55 -15 55 -15 55 -15 54 -16 55 -15 55 -16 
55 -15 55 -15 55 -14 55 -13 55 -12 54 -10 55 -7 55 -4 
55 663 55 -8 55 -9 55 -9 55 -9 54 -9 55 -9 55 -9 
55 -9 55 -10 55 -9 55 -9 54 -10 55 -9 55 -10 55 -10 
55 -10 55 -10 55 -11 55 -11 54 -11 55 -11 55 -11 55 -12 
55 -12 55 -13 55 -13 54 -13 55 -14 55 -14 55 -15 55 -15 
55 -15 55 -16 55 -17 54 -16 55 -17 55 -18 55 -17 55 -18 
55 -18 55 -17 54 -16 55 -16 55 -14 55 -13 55 -10 55 -7 
55 850 55 -8 54 -9 55 -9 55 -8 55 -9 55 -9 55 -9 
55 -9 55 -9 54 -9 55 -9 55 -9 55 -9 55 -9 55 -10 
55 -9 54 -10 55 -9 55 -10 55 -10 55 -10 55 -10 55 -10 
55 -11 54 -11 55 -11 55 -11 55 -12 55 -12 55 -12 55 -13 
54 -13 55 -13 55 -14 55 -14 55 -15 55 -15 55 -16 55 -16 
54 -16 55 -16 55 -17 55 -16 55 -17 55 -16 55 -15 54 -15 
1325 3652 145 MP stroke
DO
55 -11 55 -11 55 -11 55 -12 55 -11 55 -11 55 -12 54 -12 
55 -12 55 -12 55 -12 55 -12 55 -12 55 -13 55 -12 54 -13 
55 -13 55 -13 55 -13 55 -13 55 -13 55 -13 54 -13 55 -14 
55 -13 55 -13 55 -13 55 -13 55 -13 55 -14 54 -12 55 -13 
55 -13 55 -13 55 -13 55 -13 55 -13 54 -13 55 -13 55 -14 
55 -13 55 -14 55 -14 55 -12 55 -11 54 -7 55 -2 55 6 
55 584 55 -10 55 -10 55 -10 55 -11 54 -10 55 -10 55 -11 
55 -11 55 -11 55 -11 55 -12 54 -11 55 -12 55 -12 55 -12 
55 -12 55 -12 55 -12 55 -13 54 -13 55 -13 55 -13 55 -13 
55 -13 55 -14 55 -13 54 -14 55 -14 55 -14 55 -14 55 -15 
55 -15 55 -15 55 -15 54 -16 55 -16 55 -16 55 -17 55 -17 
55 -17 55 -17 54 -18 55 -16 55 -15 55 -11 55 -7 55 1 
55 589 55 -11 54 -11 55 -10 55 -11 55 -11 55 -11 55 -11 
55 -11 55 -11 54 -11 55 -11 55 -12 55 -11 55 -12 55 -12 
55 -12 54 -12 55 -12 55 -12 55 -13 55 -12 55 -13 55 -13 
55 -13 54 -14 55 -13 55 -14 55 -14 55 -14 55 -14 55 -15 
54 -15 55 -15 55 -15 55 -16 55 -16 55 -16 55 -16 55 -17 
54 -16 55 -17 55 -16 55 -15 55 -13 55 -9 55 -3 54 6 
1325 4167 145 MP stroke
SO
/c10 { 1.000000 0.000000 0.000000 sr} bdef
c10
55 -6 55 -6 55 -6 55 -6 55 -6 55 -5 55 -6 54 -6 
55 -6 55 -6 55 -6 55 -6 55 -6 55 -6 55 -5 54 -6 
55 -7 55 -6 55 -6 55 -6 55 -6 55 -6 54 -6 55 -6 
55 -7 55 -6 55 -6 55 -6 55 -7 55 -6 54 -6 55 -6 
55 -7 55 -6 55 -6 55 -6 55 -6 54 -6 55 -7 55 -6 
55 -6 55 -6 55 -6 55 -6 55 -6 54 -5 55 -6 55 -6 
55 136 55 -7 55 -6 55 -6 55 -6 54 -6 55 -6 55 -6 
55 -6 55 -5 55 -6 55 -6 54 -5 55 -5 55 -5 55 -5 
55 -5 55 -4 55 -5 55 -4 54 -4 55 -4 55 -4 55 -3 
55 -4 55 -3 55 -3 54 -3 55 -3 55 -2 55 -2 55 -3 
55 -2 55 -1 55 -2 54 -2 55 -1 55 -1 55 -1 55 -1 
55 -1 55 -1 54 -1 55 0 55 -1 55 0 55 -1 55 0 
55 268 55 -7 54 -8 55 -7 55 -7 55 -7 55 -7 55 -7 
55 -7 55 -7 54 -7 55 -7 55 -7 55 -7 55 -7 55 -7 
55 -7 54 -7 55 -6 55 -7 55 -7 55 -6 55 -6 55 -7 
55 -6 54 -6 55 -6 55 -6 55 -6 55 -5 55 -6 55 -5 
54 -5 55 -5 55 -5 55 -5 55 -4 55 -5 55 -4 55 -4 
54 -4 55 -4 55 -3 55 -3 55 -4 55 -3 55 -3 54 -3 
1325 3245 145 MP stroke
DA
55 -9 55 -9 55 -10 55 -9 55 -10 55 -10 55 -9 54 -10 
55 -10 55 -10 55 -10 55 -10 55 -10 55 -10 55 -10 54 -10 
55 -10 55 -10 55 -10 55 -10 55 -10 55 -10 54 -10 55 -10 
55 -10 55 -10 55 -10 55 -10 55 -9 55 -10 54 -10 55 -9 
55 -9 55 -10 55 -9 55 -9 55 -9 54 -9 55 -8 55 -9 
55 -8 55 -9 55 -8 55 -8 55 -8 54 -8 55 -7 55 -8 
55 269 55 -9 55 -9 55 -9 55 -10 54 -9 55 -9 55 -9 
55 -9 55 -9 55 -9 55 -10 54 -9 55 -9 55 -9 55 -9 
55 -9 55 -9 55 -9 55 -9 54 -8 55 -9 55 -9 55 -8 
55 -9 55 -8 55 -8 54 -8 55 -9 55 -8 55 -7 55 -8 
55 -8 55 -7 55 -8 54 -7 55 -8 55 -7 55 -7 55 -7 
55 -7 55 -7 54 -7 55 -7 55 -7 55 -7 55 -7 55 -7 
55 343 55 -9 54 -9 55 -9 55 -10 55 -9 55 -9 55 -10 
55 -9 55 -10 54 -10 55 -10 55 -9 55 -10 55 -10 55 -10 
55 -10 54 -10 55 -10 55 -11 55 -10 55 -10 55 -10 55 -11 
55 -10 54 -10 55 -10 55 -10 55 -10 55 -10 55 -10 55 -10 
54 -10 55 -10 55 -9 55 -9 55 -9 55 -9 55 -9 55 -8 
54 -9 55 -8 55 -7 55 -7 55 -8 55 -6 55 -7 54 -6 
1325 3518 145 MP stroke
SO
6 w
gr

6 w
c10
1 sg
0 3525 7901 0 0 -3525 1325 9194 4 MP
PP
-7901 0 0 3525 7901 0 0 -3525 1325 9194 5 MP stroke
4 w
DO
SO
6 w
0 sg
1325 9194 mt 9226 9194 L
1325 5669 mt 9226 5669 L
1325 9194 mt 1325 5669 L
9226 9194 mt 9226 5669 L
1325 9194 mt 9226 9194 L
1325 9194 mt 1325 5669 L
1325 9194 mt 1325 9114 L
1325 5669 mt 1325 5748 L
%%IncludeResource: font Helvetica
/Helvetica /ISOLatin1Encoding 120 FMSR

1192 9339 mt 
(6000) s
2056 9194 mt 2056 9114 L
2056 5669 mt 2056 5748 L
1923 9339 mt 
(6500) s
2788 9194 mt 2788 9114 L
2788 5669 mt 2788 5748 L
2655 9339 mt 
(7000) s
3519 9194 mt 3519 9114 L
3519 5669 mt 3519 5748 L
3386 9339 mt 
(7500) s
4251 9194 mt 4251 9114 L
4251 5669 mt 4251 5748 L
4118 9339 mt 
(8000) s
4982 9194 mt 4982 9114 L
4982 5669 mt 4982 5748 L
4849 9339 mt 
(8500) s
5714 9194 mt 5714 9114 L
5714 5669 mt 5714 5748 L
5581 9339 mt 
(9000) s
6446 9194 mt 6446 9114 L
6446 5669 mt 6446 5748 L
6313 9339 mt 
(9500) s
7177 9194 mt 7177 9114 L
7177 5669 mt 7177 5748 L
7011 9339 mt 
(10000) s
7909 9194 mt 7909 9114 L
7909 5669 mt 7909 5748 L
7743 9339 mt 
(10500) s
8640 9194 mt 8640 9114 L
8640 5669 mt 8640 5748 L
8474 9339 mt 
(11000) s
1325 9194 mt 1404 9194 L
9226 9194 mt 9146 9194 L
1224 9238 mt 
(0) s
1325 8690 mt 1404 8690 L
9226 8690 mt 9146 8690 L
1124 8734 mt 
(0.2) s
1325 8186 mt 1404 8186 L
9226 8186 mt 9146 8186 L
1124 8230 mt 
(0.4) s
1325 7683 mt 1404 7683 L
9226 7683 mt 9146 7683 L
1124 7727 mt 
(0.6) s
1325 7179 mt 1404 7179 L
9226 7179 mt 9146 7179 L
1124 7223 mt 
(0.8) s
1325 6676 mt 1404 6676 L
9226 6676 mt 9146 6676 L
1224 6720 mt 
(1) s
1325 6172 mt 1404 6172 L
9226 6172 mt 9146 6172 L
1124 6216 mt 
(1.2) s
1325 5669 mt 1404 5669 L
9226 5669 mt 9146 5669 L
1124 5713 mt 
(1.4) s
1325 9194 mt 9226 9194 L
1325 5669 mt 9226 5669 L
1325 9194 mt 1325 5669 L
9226 9194 mt 9226 5669 L
gs 1325 5669 7902 3526 rc
24 w
c8
55 -3 55 -4 55 -4 55 -4 55 -4 55 -4 55 -4 54 -4 
55 -4 55 -3 55 -4 55 -4 55 -4 55 -4 55 -4 54 -4 
55 -4 55 -4 55 -3 55 -4 55 -4 55 -4 54 -4 55 -4 
55 -4 55 -4 55 -4 55 -4 55 -3 55 -4 54 -4 55 -4 
55 -4 55 -4 55 -4 55 -4 55 -4 54 -4 55 -4 55 -4 
55 -4 55 -4 55 -4 55 -3 55 -4 54 -4 55 -4 55 -4 
55 -4 55 -4 55 -4 55 -4 55 -4 54 -4 55 -4 55 -4 
55 -4 55 -4 55 -4 55 -4 54 -4 55 -4 55 -4 55 -4 
55 -4 55 -4 55 -4 55 -4 54 -4 55 -4 55 -4 55 -4 
55 -4 55 -5 55 -4 54 -4 55 -4 55 -4 55 -4 55 -4 
55 -4 55 -4 55 -4 54 -4 55 -4 55 -4 55 -5 55 -4 
55 -4 55 -4 54 -4 55 -4 55 -4 55 -4 55 -4 55 -5 
55 -4 55 -4 54 -4 55 -4 55 -4 55 -5 55 -4 55 -4 
55 -4 55 -4 54 -4 55 -5 55 -4 55 -4 55 -4 55 -4 
55 -5 54 -4 55 -4 55 -4 55 -5 55 -4 55 -4 55 -4 
55 -5 54 -4 55 -4 55 -4 55 -5 55 -4 55 -4 55 -4 
54 -5 55 -4 55 -4 55 -5 55 -4 55 -4 55 -5 55 -4 
54 -4 55 -5 55 -4 55 -4 55 -5 55 -4 55 -5 54 -4 
1325 8267 145 MP stroke
gr

24 w
c8
gs 1227 8793 7220 279 rc
c9
  36   36 1325 8930 FO
  36   36 2202 8891 FO
  36   36 3080 8937 FO
  36   36 3958 8960 FO
  36   36 4836 8921 FO
  36   36 5714 8934 FO
  36   36 6592 8914 FO
  36   36 7470 8920 FO
  36   36 8348 8973 FO
gr

c9
gs 1325 5669 7902 3526 rc
gr

0 sg
%%IncludeResource: font Helvetica
/Helvetica /ISOLatin1Encoding 168 FMSR

5153 9517 mt 
(t\(s\)) s
1032 7866 mt  -90 rotate
(RMSE\(m/s\)) s
90 rotate
4862 5564 mt 
(Velocity \(b\)) s
gs 1325 5669 7902 3526 rc
55 -4 55 -4 55 -4 55 -4 55 -4 55 -4 55 -4 54 -3 
55 -4 55 -4 55 -3 55 -4 55 -4 55 -4 55 -3 54 -4 
55 -4 55 -3 55 -4 55 -4 55 -4 55 -3 54 -4 55 -4 
55 -4 55 -4 55 -4 55 -3 55 -4 55 -4 54 -4 55 -3 
55 -4 55 -3 55 -4 55 -3 55 -4 54 -3 55 -3 55 -3 
55 -3 55 -3 55 -3 55 -3 55 -2 54 -3 55 -2 55 -3 
55 20 55 -1 55 -1 55 -1 55 0 54 -2 55 -1 55 -1 
55 -2 55 -3 55 -2 55 -3 54 -3 55 -4 55 -4 55 -5 
55 -5 55 -6 55 -6 55 -6 54 -7 55 -8 55 -8 55 -8 
55 -9 55 -8 55 -9 54 -9 55 -9 55 -9 55 -9 55 -9 
55 -9 55 -8 55 -7 54 -8 55 -6 55 -7 55 -5 55 -6 
55 -4 55 -5 54 -4 55 -3 55 -4 55 -3 55 -4 55 -4 
55 1698 55 2 54 0 55 -2 55 -4 55 -7 55 -9 55 -12 
55 -14 55 -18 54 -20 55 -24 55 -27 55 -31 55 -35 55 -38 
55 -42 54 -45 55 -50 55 -53 55 -58 55 -61 55 -65 55 -68 
55 -71 54 -75 55 -77 55 -80 55 -82 55 -82 55 -84 55 -83 
54 -83 55 -81 55 -77 55 -74 55 -68 55 -61 55 -53 55 -44 
54 -35 55 -26 55 -17 55 -9 55 -4 55 0 55 2 54 3 
1325 8383 145 MP stroke
gr

%%IncludeResource: font Helvetica
/Helvetica /ISOLatin1Encoding 120 FMSR

1308 9237 mt 
( ) s
9210 5711 mt 
( ) s
gs 1325 5669 7902 3526 rc
DA
55 -6 55 -7 55 -6 55 -7 55 -6 55 -7 55 -6 54 -6 
55 -7 55 -6 55 -6 55 -7 55 -6 55 -6 55 -6 54 -5 
55 -6 55 -6 55 -5 55 -5 55 -6 55 -4 54 -5 55 -5 
55 -4 55 -4 55 -4 55 -3 55 -3 55 -3 54 -2 55 -3 
55 -1 55 -2 55 -1 55 -1 55 0 54 0 55 0 55 0 
55 1 55 1 55 0 55 1 55 1 54 1 55 0 55 0 
55 210 55 -7 55 -7 55 -6 55 -7 54 -7 55 -7 55 -7 
55 -6 55 -7 55 -6 55 -6 54 -7 55 -6 55 -6 55 -5 
55 -6 55 -5 55 -5 55 -4 54 -5 55 -4 55 -3 55 -4 
55 -2 55 -3 55 -2 54 -1 55 -1 55 -1 55 0 55 1 
55 0 55 2 55 1 54 2 55 3 55 2 55 3 55 4 
55 3 55 3 54 3 55 4 55 3 55 2 55 3 55 2 
55 215 55 -8 54 -7 55 -7 55 -7 55 -8 55 -7 55 -7 
55 -7 55 -7 54 -8 55 -7 55 -7 55 -7 55 -7 55 -7 
55 -7 54 -7 55 -7 55 -7 55 -6 55 -7 55 -6 55 -6 
55 -6 54 -6 55 -5 55 -6 55 -4 55 -5 55 -3 55 -4 
54 -3 55 -2 55 -2 55 -1 55 -1 55 0 55 0 55 1 
54 2 55 1 55 2 55 3 55 2 55 3 55 2 54 2 
1325 8711 145 MP stroke
DO
55 -7 55 -6 55 -7 55 -7 55 -6 55 -7 55 -6 54 -7 
55 -7 55 -6 55 -7 55 -6 55 -7 55 -6 55 -7 54 -6 
55 -7 55 -6 55 -7 55 -7 55 -7 55 -6 54 -7 55 -7 
55 -7 55 -8 55 -7 55 -7 55 -8 55 -8 54 -8 55 -7 
55 -8 55 -8 55 -8 55 -8 55 -7 54 -7 55 -6 55 -5 
55 -4 55 -4 55 -1 55 -1 55 1 54 2 55 4 55 4 
55 291 55 -8 55 -7 55 -8 55 -7 54 -8 55 -7 55 -8 
55 -7 55 -7 55 -8 55 -7 54 -7 55 -8 55 -7 55 -7 
55 -7 55 -7 55 -8 55 -7 54 -7 55 -7 55 -8 55 -7 
55 -7 55 -7 55 -8 54 -7 55 -7 55 -7 55 -8 55 -7 
55 -6 55 -7 55 -6 54 -6 55 -5 55 -5 55 -4 55 -4 
55 -3 55 -2 54 -1 55 0 55 0 55 1 55 2 55 2 
55 243 55 -7 54 -7 55 -7 55 -8 55 -7 55 -7 55 -7 
55 -8 55 -7 54 -7 55 -8 55 -7 55 -7 55 -7 55 -7 
55 -7 54 -7 55 -7 55 -7 55 -7 55 -6 55 -7 55 -6 
55 -6 54 -6 55 -6 55 -6 55 -5 55 -5 55 -5 55 -5 
54 -4 55 -4 55 -3 55 -3 55 -3 55 -2 55 -1 55 -1 
54 0 55 1 55 1 55 2 55 3 55 3 55 3 54 4 
1325 8966 145 MP stroke
SO
c10
55 -3 55 -3 55 -3 55 -3 55 -3 55 -3 55 -3 54 -3 
55 -3 55 -3 55 -3 55 -3 55 -3 55 -2 55 -3 54 -3 
55 -3 55 -2 55 -3 55 -3 55 -2 55 -3 54 -2 55 -3 
55 -3 55 -2 55 -3 55 -2 55 -2 55 -3 54 -2 55 -3 
55 -2 55 -2 55 -3 55 -2 55 -2 54 -3 55 -2 55 -2 
55 -2 55 -3 55 -2 55 -2 55 -2 54 -3 55 -2 55 -2 
55 16 55 -2 55 -3 55 -3 55 -2 54 -3 55 -2 55 -3 
55 -3 55 -3 55 -2 55 -3 54 -3 55 -3 55 -2 55 -3 
55 -3 55 -3 55 -3 55 -3 54 -3 55 -3 55 -4 55 -3 
55 -3 55 -3 55 -4 54 -3 55 -3 55 -4 55 -3 55 -4 
55 -3 55 -4 55 -4 54 -3 55 -4 55 -4 55 -3 55 -4 
55 -4 55 -4 54 -4 55 -3 55 -4 55 -4 55 -4 55 -3 
55 -14 55 -2 54 -2 55 -2 55 -2 55 -2 55 -2 55 -2 
55 -2 55 -2 54 -2 55 -2 55 -2 55 -2 55 -2 55 -2 
55 -2 54 -2 55 -3 55 -2 55 -2 55 -2 55 -2 55 -3 
55 -2 54 -2 55 -3 55 -2 55 -3 55 -2 55 -3 55 -2 
54 -3 55 -3 55 -3 55 -3 55 -3 55 -3 55 -3 55 -3 
54 -3 55 -3 55 -4 55 -3 55 -3 55 -4 55 -3 54 -4 
1325 8276 145 MP stroke
DA
55 -3 55 -3 55 -3 55 -3 55 -3 55 -3 55 -3 54 -3 
55 -3 55 -2 55 -3 55 -3 55 -3 55 -2 55 -3 54 -3 
55 -2 55 -3 55 -3 55 -2 55 -3 55 -3 54 -2 55 -3 
55 -3 55 -3 55 -2 55 -3 55 -3 55 -3 54 -3 55 -3 
55 -3 55 -3 55 -3 55 -4 55 -3 54 -3 55 -4 55 -3 
55 -4 55 -3 55 -4 55 -4 55 -4 54 -4 55 -4 55 -4 
55 55 55 -3 55 -3 55 -4 55 -3 54 -3 55 -3 55 -4 
55 -3 55 -3 55 -3 55 -3 54 -3 55 -4 55 -3 55 -3 
55 -3 55 -3 55 -4 55 -3 54 -3 55 -3 55 -4 55 -3 
55 -3 55 -4 55 -3 54 -3 55 -4 55 -3 55 -4 55 -3 
55 -4 55 -3 55 -4 54 -4 55 -3 55 -4 55 -4 55 -3 
55 -4 55 -4 54 -4 55 -3 55 -4 55 -4 55 -3 55 -4 
55 122 55 -2 54 -3 55 -3 55 -2 55 -3 55 -2 55 -3 
55 -2 55 -2 54 -3 55 -2 55 -2 55 -2 55 -2 55 -2 
55 -2 54 -3 55 -2 55 -2 55 -1 55 -2 55 -2 55 -2 
55 -2 54 -2 55 -2 55 -2 55 -3 55 -2 55 -2 55 -2 
54 -2 55 -3 55 -2 55 -3 55 -3 55 -3 55 -2 55 -4 
54 -3 55 -3 55 -4 55 -3 55 -4 55 -4 55 -5 54 -4 
1325 8458 145 MP stroke
SO
6 w
gr

6 w
c10
1 sg
0 1677 2957 0 0 -1677 5849 7518 4 MP
PP
-2957 0 0 1677 2957 0 0 -1677 5849 7518 5 MP stroke
4 w
DO
SO
6 w
0 sg
5849 7518 mt 8806 7518 L
5849 5841 mt 8806 5841 L
5849 7518 mt 5849 5841 L
8806 7518 mt 8806 5841 L
5849 7518 mt 8806 7518 L
5849 7518 mt 5849 5841 L
5849 7518 mt 8806 7518 L
5849 5841 mt 8806 5841 L
5849 7518 mt 5849 5841 L
8806 7518 mt 8806 5841 L
%%IncludeResource: font Helvetica
/Helvetica /ISOLatin1Encoding 168 FMSR

6319 6039 mt 
(Large scale simulation) s
gs 5849 5841 2958 1678 rc
24 w
c8
361 0 5921 5978 2 MP stroke
gr

24 w
c8
0 sg
6319 6273 mt 
(Fine scale observation) s
gs 5849 5841 2958 1678 rc
gs 6003 6114 197 197 rc
c9
  36   36 6101 6212 FO
gr

c9
gr

c9
0 sg
6319 6506 mt 
(NoLocal-Subgrid-model, N=32) s
gs 5849 5841 2958 1678 rc
361 0 5921 6445 2 MP stroke
gr

6319 6740 mt 
(LC-Subgrid-model, N=32) s
gs 5849 5841 2958 1678 rc
DA
361 0 5921 6679 2 MP stroke
SO
gr

6319 6974 mt 
(NoLocal-Subgrid-model, N=512) s
gs 5849 5841 2958 1678 rc
DO
361 0 5921 6913 2 MP stroke
SO
gr

6319 7207 mt 
(NoLocal-Standard-model, N=32) s
gs 5849 5841 2958 1678 rc
c10
361 0 5921 7146 2 MP stroke
gr

c10
0 sg
6319 7441 mt 
(LC-Standard-model, N=32) s
gs 5849 5841 2958 1678 rc
DA
c10
361 0 5921 7380 2 MP stroke
SO
6 w
gr

6 w
c10

end %%Color Dict

eplot
%%EndObject

epage
end

showpage

%%Trailer
%%EOF
