%!PS-Adobe-3.0 EPSF-3.0
%%Creator: MATLAB, The MathWorks, Inc. Version 7.12.0.635 (R2011a). Operating System: Darwin 11.4.2 Darwin Kernel Version 11.4.2: Thu Aug 23 16:25:48 PDT 2012; root:xnu-1699.32.7~1/RELEASE_X86_64 x86_64.
%%Title: /Users/yiyang/Dropbox/Thesis2014/chapter_envarpara/fig/1d3win.eps
%%CreationDate: 11/01/2014  19:37:12
%%DocumentNeededFonts: Helvetica
%%DocumentProcessColors: Cyan Magenta Yellow Black
%%LanguageLevel: 2
%%Pages: 1
%%BoundingBox:  -134    -9   747   800
%%EndComments

%%BeginProlog
% MathWorks dictionary
/MathWorks 160 dict begin
% definition operators
/bdef {bind def} bind def
/ldef {load def} bind def
/xdef {exch def} bdef
/xstore {exch store} bdef
% operator abbreviations
/c  /clip ldef
/cc /concat ldef
/cp /closepath ldef
/gr /grestore ldef
/gs /gsave ldef
/mt /moveto ldef
/np /newpath ldef
/cm /currentmatrix ldef
/sm /setmatrix ldef
/rm /rmoveto ldef
/rl /rlineto ldef
/s {show newpath} bdef
/sc {setcmykcolor} bdef
/sr /setrgbcolor ldef
/sg /setgray ldef
/w /setlinewidth ldef
/j /setlinejoin ldef
/cap /setlinecap ldef
/rc {rectclip} bdef
/rf {rectfill} bdef
% page state control
/pgsv () def
/bpage {/pgsv save def} bdef
/epage {pgsv restore} bdef
/bplot /gsave ldef
/eplot {stroke grestore} bdef
% orientation switch
/portraitMode 0 def /landscapeMode 1 def /rotateMode 2 def
% coordinate system mappings
/dpi2point 0 def
% font control
/FontSize 0 def
/FMS {/FontSize xstore findfont [FontSize 0 0 FontSize neg 0 0]
  makefont setfont} bdef
/reencode {exch dup where {pop load} {pop StandardEncoding} ifelse
  exch dup 3 1 roll findfont dup length dict begin
  { 1 index /FID ne {def}{pop pop} ifelse } forall
  /Encoding exch def currentdict end definefont pop} bdef
/isroman {findfont /CharStrings get /Agrave known} bdef
/FMSR {3 1 roll 1 index dup isroman {reencode} {pop pop} ifelse
  exch FMS} bdef
/csm {1 dpi2point div -1 dpi2point div scale neg translate
 dup landscapeMode eq {pop -90 rotate}
  {rotateMode eq {90 rotate} if} ifelse} bdef
% line types: solid, dotted, dashed, dotdash
/SO { [] 0 setdash } bdef
/DO { [.5 dpi2point mul 4 dpi2point mul] 0 setdash } bdef
/DA { [6 dpi2point mul] 0 setdash } bdef
/DD { [.5 dpi2point mul 4 dpi2point mul 6 dpi2point mul 4
  dpi2point mul] 0 setdash } bdef
% macros for lines and objects
/L {lineto stroke} bdef
/MP {3 1 roll moveto 1 sub {rlineto} repeat} bdef
/AP {{rlineto} repeat} bdef
/PDlw -1 def
/W {/PDlw currentlinewidth def setlinewidth} def
/PP {closepath eofill} bdef
/DP {closepath stroke} bdef
/MR {4 -2 roll moveto dup  0 exch rlineto exch 0 rlineto
  neg 0 exch rlineto closepath} bdef
/FR {MR stroke} bdef
/PR {MR fill} bdef
/L1i {{currentfile picstr readhexstring pop} image} bdef
/tMatrix matrix def
/MakeOval {newpath tMatrix currentmatrix pop translate scale
0 0 1 0 360 arc tMatrix setmatrix} bdef
/FO {MakeOval stroke} bdef
/PO {MakeOval fill} bdef
/PD {currentlinewidth 2 div 0 360 arc fill
   PDlw -1 eq not {PDlw w /PDlw -1 def} if} def
/FA {newpath tMatrix currentmatrix pop translate scale
  0 0 1 5 -2 roll arc tMatrix setmatrix stroke} bdef
/PA {newpath tMatrix currentmatrix pop	translate 0 0 moveto scale
  0 0 1 5 -2 roll arc closepath tMatrix setmatrix fill} bdef
/FAn {newpath tMatrix currentmatrix pop translate scale
  0 0 1 5 -2 roll arcn tMatrix setmatrix stroke} bdef
/PAn {newpath tMatrix currentmatrix pop translate 0 0 moveto scale
  0 0 1 5 -2 roll arcn closepath tMatrix setmatrix fill} bdef
/vradius 0 def /hradius 0 def /lry 0 def
/lrx 0 def /uly 0 def /ulx 0 def /rad 0 def
/MRR {/vradius xdef /hradius xdef /lry xdef /lrx xdef /uly xdef
  /ulx xdef newpath tMatrix currentmatrix pop ulx hradius add uly
  vradius add translate hradius vradius scale 0 0 1 180 270 arc 
  tMatrix setmatrix lrx hradius sub uly vradius add translate
  hradius vradius scale 0 0 1 270 360 arc tMatrix setmatrix
  lrx hradius sub lry vradius sub translate hradius vradius scale
  0 0 1 0 90 arc tMatrix setmatrix ulx hradius add lry vradius sub
  translate hradius vradius scale 0 0 1 90 180 arc tMatrix setmatrix
  closepath} bdef
/FRR {MRR stroke } bdef
/PRR {MRR fill } bdef
/MlrRR {/lry xdef /lrx xdef /uly xdef /ulx xdef /rad lry uly sub 2 div def
  newpath tMatrix currentmatrix pop ulx rad add uly rad add translate
  rad rad scale 0 0 1 90 270 arc tMatrix setmatrix lrx rad sub lry rad
  sub translate rad rad scale 0 0 1 270 90 arc tMatrix setmatrix
  closepath} bdef
/FlrRR {MlrRR stroke } bdef
/PlrRR {MlrRR fill } bdef
/MtbRR {/lry xdef /lrx xdef /uly xdef /ulx xdef /rad lrx ulx sub 2 div def
  newpath tMatrix currentmatrix pop ulx rad add uly rad add translate
  rad rad scale 0 0 1 180 360 arc tMatrix setmatrix lrx rad sub lry rad
  sub translate rad rad scale 0 0 1 0 180 arc tMatrix setmatrix
  closepath} bdef
/FtbRR {MtbRR stroke } bdef
/PtbRR {MtbRR fill } bdef
/stri 6 array def /dtri 6 array def
/smat 6 array def /dmat 6 array def
/tmat1 6 array def /tmat2 6 array def /dif 3 array def
/asub {/ind2 exch def /ind1 exch def dup dup
  ind1 get exch ind2 get sub exch } bdef
/tri_to_matrix {
  2 0 asub 3 1 asub 4 0 asub 5 1 asub
  dup 0 get exch 1 get 7 -1 roll astore } bdef
/compute_transform {
  dmat dtri tri_to_matrix tmat1 invertmatrix 
  smat stri tri_to_matrix tmat2 concatmatrix } bdef
/ds {stri astore pop} bdef
/dt {dtri astore pop} bdef
/db {2 copy /cols xdef /rows xdef mul dup 3 mul string
  currentfile 
  3 index 0 eq {/ASCIIHexDecode filter}
  {/ASCII85Decode filter 3 index 2 eq {/RunLengthDecode filter} if }
  ifelse exch readstring pop
  dup 0 3 index getinterval /rbmap xdef
  dup 2 index dup getinterval /gbmap xdef
  1 index dup 2 mul exch getinterval /bbmap xdef pop pop}bdef
/it {gs np dtri aload pop moveto lineto lineto cp c
  cols rows 8 compute_transform 
  rbmap gbmap bbmap true 3 colorimage gr}bdef
/il {newpath moveto lineto stroke}bdef
currentdict end def
%%EndProlog

%%BeginSetup
MathWorks begin

0 cap

end
%%EndSetup

%%Page: 1 1
%%BeginPageSetup
%%PageBoundingBox:  -134    -9   747   800
MathWorks begin
bpage
%%EndPageSetup

%%BeginObject: obj1
bplot

/dpi2point 12 def
portraitMode -1608 9600 csm

    0     0 10578  9718 rc
86 dict begin %Colortable dictionary
/c0 { 0.000000 0.000000 0.000000 sr} bdef
/c1 { 1.000000 1.000000 1.000000 sr} bdef
/c2 { 0.900000 0.000000 0.000000 sr} bdef
/c3 { 0.000000 0.820000 0.000000 sr} bdef
/c4 { 0.000000 0.000000 0.800000 sr} bdef
/c5 { 0.910000 0.820000 0.320000 sr} bdef
/c6 { 1.000000 0.260000 0.820000 sr} bdef
/c7 { 0.000000 0.820000 0.820000 sr} bdef
c0
1 j
1 sg
   0    0 10579 9719 rf
6 w
0 3315 8198 0 0 -3315 1375 4044 4 MP
PP
-8198 0 0 3315 8198 0 0 -3315 1375 4044 5 MP stroke
4 w
DO
SO
6 w
0 sg
1375 4044 mt 9573 4044 L
1375  729 mt 9573  729 L
1375 4044 mt 1375  729 L
9573 4044 mt 9573  729 L
1375 4044 mt 9573 4044 L
1375 4044 mt 1375  729 L
1375 4044 mt 1375 3962 L
1375  729 mt 1375  810 L
%%IncludeResource: font Helvetica
/Helvetica /ISOLatin1Encoding 120 FMSR

1242 4189 mt 
(6000) s
2134 4044 mt 2134 3962 L
2134  729 mt 2134  810 L
2001 4189 mt 
(6500) s
2893 4044 mt 2893 3962 L
2893  729 mt 2893  810 L
2760 4189 mt 
(7000) s
3652 4044 mt 3652 3962 L
3652  729 mt 3652  810 L
3519 4189 mt 
(7500) s
4411 4044 mt 4411 3962 L
4411  729 mt 4411  810 L
4278 4189 mt 
(8000) s
5170 4044 mt 5170 3962 L
5170  729 mt 5170  810 L
5037 4189 mt 
(8500) s
5929 4044 mt 5929 3962 L
5929  729 mt 5929  810 L
5796 4189 mt 
(9000) s
6688 4044 mt 6688 3962 L
6688  729 mt 6688  810 L
6555 4189 mt 
(9500) s
7447 4044 mt 7447 3962 L
7447  729 mt 7447  810 L
7281 4189 mt 
(10000) s
8206 4044 mt 8206 3962 L
8206  729 mt 8206  810 L
8040 4189 mt 
(10500) s
8965 4044 mt 8965 3962 L
8965  729 mt 8965  810 L
8799 4189 mt 
(11000) s
1375 4044 mt 1456 4044 L
9573 4044 mt 9491 4044 L
1274 4088 mt 
(0) s
1375 3675 mt 1456 3675 L
9573 3675 mt 9491 3675 L
1274 3719 mt 
(2) s
1375 3307 mt 1456 3307 L
9573 3307 mt 9491 3307 L
1274 3351 mt 
(4) s
1375 2939 mt 1456 2939 L
9573 2939 mt 9491 2939 L
1274 2983 mt 
(6) s
1375 2570 mt 1456 2570 L
9573 2570 mt 9491 2570 L
1274 2614 mt 
(8) s
1375 2202 mt 1456 2202 L
9573 2202 mt 9491 2202 L
1207 2246 mt 
(10) s
1375 1834 mt 1456 1834 L
9573 1834 mt 9491 1834 L
1207 1878 mt 
(12) s
1375 1465 mt 1456 1465 L
9573 1465 mt 9491 1465 L
1207 1509 mt 
(14) s
1375 1097 mt 1456 1097 L
9573 1097 mt 9491 1097 L
1207 1141 mt 
(16) s
1375  729 mt 1456  729 L
9573  729 mt 9491  729 L
1207  773 mt 
(18) s
1375 4044 mt 9573 4044 L
1375  729 mt 9573  729 L
1375 4044 mt 1375  729 L
9573 4044 mt 9573  729 L
gs 1375 729 8199 3316 rc
24 w
/c8 { 0.000000 1.000000 0.000000 sr} bdef
c8
57 -5 57 -6 57 -5 57 -5 57 -6 57 -5 57 -5 57 -6 
57 -5 57 -6 57 -5 57 -5 57 -6 57 -5 56 -6 57 -5 
57 -6 57 -5 57 -6 57 -5 57 -6 57 -5 57 -6 57 -5 
57 -5 57 -6 57 -5 57 -6 56 -5 57 -6 57 -6 57 -5 
57 -6 57 -5 57 -6 57 -5 57 -6 57 -5 57 -6 57 -5 
57 -6 57 -5 57 -6 56 -6 57 -5 57 -6 57 -5 57 -6 
57 -5 57 -6 57 -6 57 -5 57 -6 57 -5 57 -6 57 -6 
57 -5 56 -6 57 -6 57 -5 57 -6 57 -6 57 -5 57 -6 
57 -6 57 -5 57 -6 57 -6 57 -5 57 -6 57 -6 56 -5 
57 -6 57 -6 57 -5 57 -6 57 -6 57 -6 57 -5 57 -6 
57 -6 57 -6 57 -5 57 -6 57 -6 57 -6 56 -5 57 -6 
57 -6 57 -6 57 -6 57 -5 57 -6 57 -6 57 -6 57 -6 
57 -6 57 -5 57 -6 57 -6 56 -6 57 -6 57 -6 57 -6 
57 -5 57 -6 57 -6 57 -6 57 -6 57 -6 57 -6 57 -6 
57 -6 57 -6 57 -6 56 -6 57 -6 57 -6 57 -6 57 -6 
57 -6 57 -6 57 -6 57 -6 57 -6 57 -6 57 -6 57 -6 
57 -6 56 -6 57 -6 57 -6 57 -6 57 -6 57 -6 57 -7 
57 -6 57 -6 57 -6 57 -6 57 -6 57 -6 57 -7 56 -6 
1375 2733 145 MP stroke
gr

24 w
c8
/c9 { 0.000000 0.000000 1.000000 sr} bdef
c9
  36   36 1375 3862 FO
  36   36 2285 3833 FO
  36   36 3196 3885 FO
  36   36 4107 3858 FO
  36   36 5018 3864 FO
  36   36 5929 3887 FO
  36   36 6840 3870 FO
  36   36 7751 3853 FO
  36   36 8662 3868 FO
gs 1375 729 8199 3316 rc
/c10 { 1.000000 0.000000 0.000000 sr} bdef
c10
57 -7 57 -6 57 -6 57 -6 57 -6 57 -6 57 -6 57 -6 
57 -7 57 -6 57 -6 57 -6 57 -6 57 -6 56 -6 57 -6 
57 -6 57 -6 57 -6 57 -6 57 -6 57 -5 57 -6 57 -6 
57 -6 57 -6 57 -6 57 -6 56 -5 57 -6 57 -6 57 -6 
57 -5 57 -6 57 -6 57 -5 57 -6 57 -6 57 -5 57 -6 
57 -5 57 -6 57 -5 56 -5 57 -6 57 -5 57 -5 57 -6 
57 84 57 -6 57 -5 57 -6 57 -5 57 -5 57 -6 57 -5 
57 -6 56 -5 57 -5 57 -6 57 -5 57 -5 57 -5 57 -6 
57 -5 57 -5 57 -5 57 -6 57 -5 57 -5 57 -5 56 -5 
57 -5 57 -5 57 -5 57 -5 57 -5 57 -5 57 -5 57 -5 
57 -5 57 -5 57 -5 57 -5 57 -5 57 -5 56 -5 57 -5 
57 -5 57 -5 57 -5 57 -4 57 -5 57 -5 57 -5 57 -5 
57 55 57 -6 57 -6 57 -6 56 -6 57 -6 57 -6 57 -6 
57 -6 57 -6 57 -6 57 -6 57 -6 57 -6 57 -6 57 -6 
57 -6 57 -6 57 -6 56 -6 57 -7 57 -6 57 -6 57 -6 
57 -6 57 -6 57 -6 57 -6 57 -6 57 -6 57 -7 57 -6 
57 -6 56 -6 57 -6 57 -6 57 -6 57 -6 57 -6 57 -6 
57 -6 57 -6 57 -6 57 -6 57 -6 57 -6 57 -6 56 -6 
1375 2769 145 MP stroke
gr

c10
0 sg
%%IncludeResource: font Helvetica
/Helvetica /ISOLatin1Encoding 168 FMSR

5352 4367 mt 
(t\(s\)) s
1115 2756 mt  -90 rotate
(RMSE\(m\)) s
90 rotate
4808  624 mt 
(Surface height \(a\)) s
gs 1375 729 8199 3316 rc
DA
c10
57 -6 57 -6 57 -6 57 -6 57 -6 57 -6 57 -6 57 -6 
57 -6 57 -6 57 -6 57 -6 57 -6 57 -6 56 -6 57 -7 
57 -6 57 -6 57 -6 57 -6 57 -6 57 -6 57 -7 57 -6 
57 -6 57 -6 57 -6 57 -6 56 -6 57 -6 57 -6 57 -6 
57 -7 57 -6 57 -6 57 -6 57 -6 57 -6 57 -6 57 -5 
57 -6 57 -6 57 -6 56 -6 57 -6 57 -6 57 -6 57 -5 
57 61 57 -6 57 -6 57 -6 57 -6 57 -6 57 -6 57 -5 
57 -6 56 -6 57 -6 57 -6 57 -6 57 -6 57 -6 57 -6 
57 -6 57 -6 57 -6 57 -6 57 -6 57 -6 57 -6 56 -6 
57 -6 57 -5 57 -6 57 -6 57 -6 57 -6 57 -6 57 -6 
57 -6 57 -6 57 -6 57 -6 57 -5 57 -6 56 -6 57 -6 
57 -6 57 -6 57 -6 57 -6 57 -6 57 -6 57 -5 57 -6 
57 44 57 -6 57 -6 57 -6 56 -6 57 -6 57 -6 57 -7 
57 -6 57 -6 57 -6 57 -6 57 -6 57 -6 57 -7 57 -6 
57 -6 57 -6 57 -6 56 -7 57 -6 57 -6 57 -6 57 -7 
57 -6 57 -6 57 -7 57 -6 57 -6 57 -6 57 -7 57 -6 
57 -6 56 -7 57 -6 57 -6 57 -6 57 -7 57 -6 57 -6 
57 -7 57 -6 57 -6 57 -6 57 -7 57 -6 57 -6 56 -7 
1375 2779 145 MP stroke
SO
0 sg
57 -5 57 -6 57 -6 57 -5 57 -6 57 -5 57 -6 57 -5 
57 -5 57 -6 57 -5 57 -5 57 -5 57 -5 56 -4 57 -5 
57 -4 57 -5 57 -4 57 -4 57 -5 57 -4 57 -4 57 -3 
57 -4 57 -4 57 -4 57 -4 56 -3 57 -4 57 -4 57 -4 
57 -3 57 -4 57 -4 57 -5 57 -4 57 -5 57 -4 57 -5 
57 -5 57 -6 57 -5 56 -6 57 -6 57 -6 57 -7 57 -6 
57 49 57 -10 57 -11 57 -10 57 -10 57 -11 57 -10 57 -11 
57 -10 56 -10 57 -10 57 -9 57 -9 57 -9 57 -9 57 -9 
57 -8 57 -8 57 -8 57 -7 57 -8 57 -7 57 -8 56 -8 
57 -7 57 -9 57 -8 57 -9 57 -10 57 -10 57 -11 57 -12 
57 -13 57 -14 57 -14 57 -16 57 -16 57 -16 56 -18 57 -17 
57 -17 57 -17 57 -16 57 -14 57 -12 57 -10 57 -6 57 -2 
57 822 57 29 57 31 57 34 56 36 57 38 57 40 57 41 
57 43 57 45 57 45 57 47 57 47 57 46 57 47 57 46 
57 45 57 43 57 41 56 39 57 35 57 32 57 28 57 23 
57 17 57 11 57 4 57 -3 57 -11 57 -20 57 -29 57 -39 
57 -50 56 -60 57 -72 57 -84 57 -95 57 -108 57 -119 57 -130 
57 -141 57 -149 57 -155 57 -156 57 -150 57 -135 57 -103 56 -54 
1375 2926 145 MP stroke
DA
57 -9 57 -8 57 -9 57 -9 57 -9 57 -9 57 -9 57 -9 
57 -9 57 -9 57 -10 57 -9 57 -9 57 -10 56 -10 57 -9 
57 -10 57 -10 57 -10 57 -11 57 -10 57 -11 57 -10 57 -11 
57 -12 57 -11 57 -12 57 -12 56 -12 57 -13 57 -12 57 -13 
57 -14 57 -13 57 -14 57 -14 57 -15 57 -14 57 -15 57 -15 
57 -14 57 -14 57 -13 56 -13 57 -11 57 -9 57 -7 57 -4 
57 625 57 -9 57 -8 57 -8 57 -9 57 -8 57 -9 57 -8 
57 -9 56 -9 57 -8 57 -9 57 -9 57 -9 57 -9 57 -10 
57 -9 57 -10 57 -10 57 -10 57 -10 57 -11 57 -11 56 -11 
57 -11 57 -12 57 -12 57 -13 57 -13 57 -13 57 -14 57 -14 
57 -14 57 -15 57 -16 57 -16 57 -16 57 -16 56 -17 57 -16 
57 -17 57 -16 57 -15 57 -15 57 -14 57 -11 57 -10 57 -6 
57 799 57 -8 57 -8 57 -8 56 -8 57 -8 57 -9 57 -8 
57 -8 57 -9 57 -8 57 -9 57 -8 57 -9 57 -9 57 -9 
57 -8 57 -9 57 -9 56 -10 57 -9 57 -9 57 -10 57 -10 
57 -10 57 -10 57 -10 57 -11 57 -11 57 -11 57 -11 57 -12 
57 -13 56 -12 57 -13 57 -14 57 -14 57 -14 57 -15 57 -15 
57 -15 57 -15 57 -16 57 -15 57 -16 57 -15 57 -14 56 -14 
1375 3435 145 MP stroke
DO
57 -10 57 -10 57 -11 57 -11 57 -10 57 -11 57 -11 57 -11 
57 -11 57 -11 57 -12 57 -11 57 -12 57 -12 56 -12 57 -12 
57 -12 57 -12 57 -12 57 -12 57 -13 57 -12 57 -12 57 -13 
57 -12 57 -13 57 -12 57 -12 56 -13 57 -12 57 -12 57 -12 
57 -12 57 -13 57 -12 57 -12 57 -12 57 -12 57 -13 57 -13 
57 -12 57 -13 57 -13 56 -12 57 -10 57 -7 57 -2 57 6 
57 549 57 -9 57 -9 57 -10 57 -10 57 -9 57 -10 57 -10 
57 -10 56 -11 57 -10 57 -11 57 -11 57 -11 57 -11 57 -11 
57 -12 57 -11 57 -12 57 -12 57 -12 57 -12 57 -12 56 -13 
57 -12 57 -13 57 -12 57 -13 57 -14 57 -13 57 -13 57 -14 
57 -14 57 -14 57 -14 57 -15 57 -15 57 -16 56 -15 57 -16 
57 -17 57 -16 57 -16 57 -15 57 -14 57 -11 57 -6 57 0 
57 554 57 -10 57 -10 57 -10 56 -10 57 -10 57 -11 57 -10 
57 -10 57 -11 57 -10 57 -11 57 -11 57 -10 57 -11 57 -11 
57 -12 57 -11 57 -11 56 -12 57 -12 57 -12 57 -12 57 -12 
57 -12 57 -13 57 -13 57 -12 57 -14 57 -13 57 -13 57 -14 
57 -14 56 -14 57 -15 57 -14 57 -15 57 -15 57 -16 57 -15 
57 -16 57 -16 57 -15 57 -14 57 -12 57 -8 57 -3 56 5 
1375 3920 145 MP stroke
SO
6 w
gr

6 w
1 sg
0 3315 8198 0 0 -3315 1375 8649 4 MP
PP
-8198 0 0 3315 8198 0 0 -3315 1375 8649 5 MP stroke
4 w
DO
SO
6 w
0 sg
1375 8649 mt 9573 8649 L
1375 5334 mt 9573 5334 L
1375 8649 mt 1375 5334 L
9573 8649 mt 9573 5334 L
1375 8649 mt 9573 8649 L
1375 8649 mt 1375 5334 L
1375 8649 mt 1375 8567 L
1375 5334 mt 1375 5415 L
%%IncludeResource: font Helvetica
/Helvetica /ISOLatin1Encoding 120 FMSR

1242 8794 mt 
(6000) s
2134 8649 mt 2134 8567 L
2134 5334 mt 2134 5415 L
2001 8794 mt 
(6500) s
2893 8649 mt 2893 8567 L
2893 5334 mt 2893 5415 L
2760 8794 mt 
(7000) s
3652 8649 mt 3652 8567 L
3652 5334 mt 3652 5415 L
3519 8794 mt 
(7500) s
4411 8649 mt 4411 8567 L
4411 5334 mt 4411 5415 L
4278 8794 mt 
(8000) s
5170 8649 mt 5170 8567 L
5170 5334 mt 5170 5415 L
5037 8794 mt 
(8500) s
5929 8649 mt 5929 8567 L
5929 5334 mt 5929 5415 L
5796 8794 mt 
(9000) s
6688 8649 mt 6688 8567 L
6688 5334 mt 6688 5415 L
6555 8794 mt 
(9500) s
7447 8649 mt 7447 8567 L
7447 5334 mt 7447 5415 L
7281 8794 mt 
(10000) s
8206 8649 mt 8206 8567 L
8206 5334 mt 8206 5415 L
8040 8794 mt 
(10500) s
8965 8649 mt 8965 8567 L
8965 5334 mt 8965 5415 L
8799 8794 mt 
(11000) s
1375 8649 mt 1456 8649 L
9573 8649 mt 9491 8649 L
1274 8693 mt 
(0) s
1375 8175 mt 1456 8175 L
9573 8175 mt 9491 8175 L
1174 8219 mt 
(0.2) s
1375 7701 mt 1456 7701 L
9573 7701 mt 9491 7701 L
1174 7745 mt 
(0.4) s
1375 7228 mt 1456 7228 L
9573 7228 mt 9491 7228 L
1174 7272 mt 
(0.6) s
1375 6754 mt 1456 6754 L
9573 6754 mt 9491 6754 L
1174 6798 mt 
(0.8) s
1375 6281 mt 1456 6281 L
9573 6281 mt 9491 6281 L
1274 6325 mt 
(1) s
1375 5807 mt 1456 5807 L
9573 5807 mt 9491 5807 L
1174 5851 mt 
(1.2) s
1375 5334 mt 1456 5334 L
9573 5334 mt 9491 5334 L
1174 5378 mt 
(1.4) s
1375 8649 mt 9573 8649 L
1375 5334 mt 9573 5334 L
1375 8649 mt 1375 5334 L
9573 8649 mt 9573 5334 L
gs 1375 5334 8199 3316 rc
24 w
c8
57 -3 57 -4 57 -4 57 -3 57 -4 57 -4 57 -3 57 -4 
57 -4 57 -3 57 -4 57 -4 57 -3 57 -4 56 -4 57 -3 
57 -4 57 -4 57 -3 57 -4 57 -4 57 -3 57 -4 57 -4 
57 -3 57 -4 57 -4 57 -3 56 -4 57 -4 57 -3 57 -4 
57 -4 57 -3 57 -4 57 -4 57 -3 57 -4 57 -4 57 -4 
57 -3 57 -4 57 -4 56 -3 57 -4 57 -4 57 -4 57 -3 
57 -4 57 -4 57 -3 57 -4 57 -4 57 -4 57 -3 57 -4 
57 -4 56 -4 57 -3 57 -4 57 -4 57 -4 57 -4 57 -3 
57 -4 57 -4 57 -4 57 -3 57 -4 57 -4 57 -4 56 -4 
57 -3 57 -4 57 -4 57 -4 57 -4 57 -4 57 -3 57 -4 
57 -4 57 -4 57 -4 57 -4 57 -3 57 -4 56 -4 57 -4 
57 -4 57 -4 57 -4 57 -3 57 -4 57 -4 57 -4 57 -4 
57 -4 57 -4 57 -4 57 -4 56 -3 57 -4 57 -4 57 -4 
57 -4 57 -4 57 -4 57 -4 57 -4 57 -4 57 -4 57 -4 
57 -4 57 -4 57 -4 56 -4 57 -4 57 -4 57 -4 57 -4 
57 -4 57 -4 57 -4 57 -4 57 -4 57 -4 57 -4 57 -4 
57 -4 56 -4 57 -4 57 -4 57 -4 57 -4 57 -4 57 -4 
57 -4 57 -4 57 -5 57 -4 57 -4 57 -4 57 -4 56 -4 
1375 7777 145 MP stroke
gr

24 w
c8
c9
  36   36 1375 8400 FO
  36   36 2285 8364 FO
  36   36 3196 8407 FO
  36   36 4107 8429 FO
  36   36 5018 8392 FO
  36   36 5929 8405 FO
  36   36 6840 8386 FO
  36   36 7751 8391 FO
  36   36 8662 8441 FO
gs 1375 5334 8199 3316 rc
c10
57 -3 57 -3 57 -3 57 -2 57 -3 57 -3 57 -3 57 -3 
57 -3 57 -3 57 -3 57 -3 57 -3 57 -3 56 -3 57 -3 
57 -2 57 -3 57 -3 57 -3 57 -3 57 -3 57 -3 57 -3 
57 -3 57 -4 57 -3 57 -3 56 -3 57 -3 57 -3 57 -3 
57 -3 57 -3 57 -3 57 -3 57 -4 57 -3 57 -3 57 -3 
57 -3 57 -4 57 -3 56 -3 57 -4 57 -3 57 -3 57 -4 
57 -11 57 -4 57 -4 57 -3 57 -4 57 -4 57 -3 57 -4 
57 -3 56 -4 57 -4 57 -4 57 -3 57 -4 57 -4 57 -3 
57 -4 57 -4 57 -4 57 -4 57 -3 57 -4 57 -4 56 -4 
57 -4 57 -4 57 -4 57 -4 57 -3 57 -4 57 -4 57 -4 
57 -4 57 -4 57 -4 57 -4 57 -4 57 -4 56 -4 57 -4 
57 -4 57 -5 57 -4 57 -4 57 -4 57 -4 57 -4 57 -4 
57 -5 57 -4 57 -4 57 -3 56 -4 57 -4 57 -3 57 -4 
57 -4 57 -3 57 -4 57 -4 57 -4 57 -3 57 -4 57 -4 
57 -3 57 -4 57 -4 56 -4 57 -3 57 -4 57 -4 57 -4 
57 -3 57 -4 57 -4 57 -4 57 -4 57 -3 57 -4 57 -4 
57 -4 56 -4 57 -4 57 -4 57 -3 57 -4 57 -4 57 -4 
57 -4 57 -4 57 -4 57 -4 57 -4 57 -4 57 -4 56 -4 
1375 7777 145 MP stroke
gr

c10
0 sg
%%IncludeResource: font Helvetica
/Helvetica /ISOLatin1Encoding 168 FMSR

5352 8972 mt 
(t\(s\)) s
1082 7426 mt  -90 rotate
(RMSE\(m/s\)) s
90 rotate
5060 5229 mt 
(Velocity \(b\)) s
gs 1375 5334 8199 3316 rc
DA
c10
57 -4 57 -3 57 -4 57 -3 57 -3 57 -4 57 -3 57 -4 
57 -3 57 -3 57 -4 57 -3 57 -3 57 -4 56 -3 57 -4 
57 -3 57 -3 57 -4 57 -3 57 -3 57 -4 57 -3 57 -4 
57 -3 57 -3 57 -4 57 -3 56 -4 57 -3 57 -3 57 -4 
57 -3 57 -4 57 -3 57 -4 57 -3 57 -4 57 -4 57 -3 
57 -4 57 -3 57 -4 56 -4 57 -3 57 -4 57 -4 57 -3 
57 14 57 -4 57 -4 57 -3 57 -4 57 -3 57 -4 57 -4 
57 -3 56 -4 57 -4 57 -3 57 -4 57 -4 57 -3 57 -4 
57 -4 57 -3 57 -4 57 -4 57 -3 57 -4 57 -4 56 -3 
57 -4 57 -4 57 -4 57 -3 57 -4 57 -4 57 -4 57 -3 
57 -4 57 -4 57 -4 57 -4 57 -3 57 -4 56 -4 57 -4 
57 -4 57 -4 57 -3 57 -4 57 -4 57 -4 57 -4 57 -4 
57 15 57 -4 57 -4 57 -3 56 -4 57 -4 57 -4 57 -4 
57 -3 57 -4 57 -4 57 -4 57 -3 57 -4 57 -4 57 -4 
57 -4 57 -3 57 -4 56 -4 57 -4 57 -4 57 -4 57 -3 
57 -4 57 -4 57 -4 57 -4 57 -4 57 -3 57 -4 57 -4 
57 -4 56 -4 57 -4 57 -4 57 -4 57 -4 57 -4 57 -4 
57 -4 57 -4 57 -4 57 -4 57 -4 57 -4 57 -4 56 -4 
1375 7791 145 MP stroke
SO
0 sg
57 -4 57 -4 57 -4 57 -3 57 -4 57 -4 57 -3 57 -4 
57 -3 57 -4 57 -3 57 -4 57 -3 57 -4 56 -3 57 -4 
57 -3 57 -4 57 -3 57 -4 57 -3 57 -4 57 -3 57 -4 
57 -4 57 -3 57 -4 57 -3 56 -4 57 -3 57 -4 57 -3 
57 -4 57 -3 57 -3 57 -4 57 -3 57 -3 57 -3 57 -3 
57 -3 57 -2 57 -3 56 -3 57 -2 57 -2 57 -3 57 -2 
57 18 57 0 57 -1 57 -1 57 -1 57 -1 57 -1 57 -1 
57 -2 56 -2 57 -3 57 -2 57 -3 57 -4 57 -4 57 -4 
57 -5 57 -5 57 -6 57 -6 57 -7 57 -7 57 -7 56 -8 
57 -8 57 -8 57 -9 57 -8 57 -9 57 -8 57 -9 57 -8 
57 -8 57 -8 57 -7 57 -7 57 -6 57 -6 56 -5 57 -5 
57 -5 57 -4 57 -4 57 -3 57 -3 57 -4 57 -3 57 -4 
57 1597 57 2 57 0 57 -2 56 -4 57 -6 57 -9 57 -11 
57 -13 57 -17 57 -19 57 -23 57 -25 57 -29 57 -33 57 -35 
57 -40 57 -43 57 -46 56 -51 57 -54 57 -57 57 -61 57 -64 
57 -67 57 -71 57 -72 57 -75 57 -77 57 -78 57 -79 57 -78 
57 -78 56 -76 57 -73 57 -69 57 -63 57 -58 57 -50 57 -42 
57 -32 57 -25 57 -15 57 -9 57 -4 57 0 57 2 56 3 
1375 7886 145 MP stroke
gr

%%IncludeResource: font Helvetica
/Helvetica /ISOLatin1Encoding 120 FMSR

1358 8692 mt 
( ) s
9557 5376 mt 
( ) s
gs 1375 5334 8199 3316 rc
DA
57 -6 57 -6 57 -6 57 -6 57 -6 57 -6 57 -6 57 -6 
57 -6 57 -6 57 -6 57 -6 57 -6 57 -5 56 -6 57 -5 
57 -6 57 -5 57 -5 57 -5 57 -5 57 -4 57 -5 57 -4 
57 -4 57 -4 57 -3 57 -4 56 -2 57 -3 57 -2 57 -2 
57 -2 57 -2 57 -1 57 0 57 -1 57 0 57 0 57 1 
57 0 57 1 57 1 56 0 57 1 57 1 57 0 57 1 
57 197 57 -7 57 -6 57 -7 57 -6 57 -6 57 -7 57 -6 
57 -6 56 -6 57 -7 57 -5 57 -6 57 -6 57 -5 57 -6 
57 -5 57 -5 57 -4 57 -5 57 -4 57 -4 57 -3 56 -3 
57 -3 57 -2 57 -2 57 -1 57 -1 57 -1 57 0 57 1 
57 0 57 2 57 1 57 2 57 2 57 3 56 3 57 3 
57 3 57 3 57 3 57 3 57 3 57 2 57 3 57 1 
57 202 57 -6 57 -7 57 -7 56 -7 57 -7 57 -6 57 -7 
57 -7 57 -7 57 -6 57 -7 57 -7 57 -7 57 -6 57 -7 
57 -6 57 -7 57 -6 56 -7 57 -6 57 -6 57 -6 57 -6 
57 -6 57 -5 57 -5 57 -5 57 -4 57 -4 57 -4 57 -3 
57 -3 56 -2 57 -2 57 -1 57 0 57 -1 57 1 57 0 
57 2 57 1 57 2 57 2 57 3 57 2 57 2 56 3 
1375 8194 145 MP stroke
DO
57 -6 57 -6 57 -7 57 -6 57 -6 57 -6 57 -6 57 -7 
57 -6 57 -6 57 -6 57 -6 57 -6 57 -6 56 -7 57 -6 
57 -6 57 -6 57 -6 57 -7 57 -6 57 -6 57 -7 57 -7 
57 -6 57 -7 57 -7 57 -7 56 -7 57 -7 57 -8 57 -7 
57 -8 57 -7 57 -7 57 -7 57 -7 57 -7 57 -5 57 -5 
57 -5 57 -2 57 -2 56 -1 57 1 57 3 57 3 57 4 
57 273 57 -7 57 -7 57 -7 57 -7 57 -7 57 -7 57 -7 
57 -7 56 -7 57 -7 57 -7 57 -7 57 -7 57 -6 57 -7 
57 -7 57 -7 57 -6 57 -7 57 -7 57 -7 57 -7 56 -6 
57 -7 57 -7 57 -7 57 -7 57 -7 57 -7 57 -6 57 -7 
57 -6 57 -6 57 -6 57 -6 57 -5 57 -4 56 -4 57 -4 
57 -2 57 -2 57 -1 57 -1 57 1 57 1 57 1 57 3 
57 228 57 -7 57 -6 57 -7 56 -7 57 -7 57 -7 57 -7 
57 -6 57 -7 57 -7 57 -7 57 -7 57 -6 57 -7 57 -7 
57 -7 57 -6 57 -7 56 -6 57 -6 57 -6 57 -7 57 -5 
57 -6 57 -6 57 -5 57 -6 57 -5 57 -5 57 -4 57 -4 
57 -4 56 -4 57 -3 57 -3 57 -2 57 -2 57 -1 57 -1 
57 0 57 0 57 2 57 1 57 3 57 3 57 3 56 4 
1375 8434 145 MP stroke
SO
6 w
gr

6 w
1 sg
0 1677 2957 0 0 -1677 6246 7135 4 MP
PP
-2957 0 0 1677 2957 0 0 -1677 6246 7135 5 MP stroke
4 w
DO
SO
6 w
0 sg
6246 7135 mt 9203 7135 L
6246 5458 mt 9203 5458 L
6246 7135 mt 6246 5458 L
9203 7135 mt 9203 5458 L
6246 7135 mt 9203 7135 L
6246 7135 mt 6246 5458 L
6246 7135 mt 9203 7135 L
6246 5458 mt 9203 5458 L
6246 7135 mt 6246 5458 L
9203 7135 mt 9203 5458 L
%%IncludeResource: font Helvetica
/Helvetica /ISOLatin1Encoding 168 FMSR

6716 5656 mt 
(Large scale simulation) s
gs 6246 5458 2958 1678 rc
24 w
c8
361 0 6318 5595 2 MP stroke
gr

24 w
c8
0 sg
6716 5890 mt 
(Fine scale observation) s
gs 6246 5458 2958 1678 rc
gs 6400 5731 197 197 rc
c9
  36   36 6498 5829 FO
gr

c9
gr

c9
0 sg
6716 6123 mt 
(NoLocal-Standard-model, N=32) s
gs 6246 5458 2958 1678 rc
c10
361 0 6318 6062 2 MP stroke
gr

c10
0 sg
6716 6357 mt 
(LC-Standard-model N=32) s
gs 6246 5458 2958 1678 rc
DA
c10
361 0 6318 6296 2 MP stroke
SO
gr

c10
0 sg
6716 6591 mt 
(NoLocal-Subgrid-model, N=32) s
gs 6246 5458 2958 1678 rc
361 0 6318 6530 2 MP stroke
gr

6716 6824 mt 
(LC-Subgrid-model, N=32) s
gs 6246 5458 2958 1678 rc
DA
361 0 6318 6763 2 MP stroke
SO
gr

6716 7058 mt 
(NoLocal-Subgrid-model, N=512) s
gs 6246 5458 2958 1678 rc
DO
361 0 6318 6997 2 MP stroke
SO
6 w
gr

6 w

end %%Color Dict

eplot
%%EndObject

epage
end

showpage

%%Trailer
%%EOF
