%!PS-Adobe-3.0 EPSF-3.0
%%Creator: MATLAB, The MathWorks, Inc. Version 7.12.0.635 (R2011a). Operating System: Darwin 11.4.2 Darwin Kernel Version 11.4.2: Thu Aug 23 16:25:48 PDT 2012; root:xnu-1699.32.7~1/RELEASE_X86_64 x86_64.
%%Title: /Users/yiyang/Dropbox/Thesis2014/chapter_envarpara/fig/1dcor.eps
%%CreationDate: 11/01/2014  20:02:41
%%DocumentNeededFonts: Helvetica
%%DocumentProcessColors: Cyan Magenta Yellow Black
%%LanguageLevel: 2
%%Pages: 1
%%BoundingBox:   -87   175   700   617
%%EndComments

%%BeginProlog
% MathWorks dictionary
/MathWorks 160 dict begin
% definition operators
/bdef {bind def} bind def
/ldef {load def} bind def
/xdef {exch def} bdef
/xstore {exch store} bdef
% operator abbreviations
/c  /clip ldef
/cc /concat ldef
/cp /closepath ldef
/gr /grestore ldef
/gs /gsave ldef
/mt /moveto ldef
/np /newpath ldef
/cm /currentmatrix ldef
/sm /setmatrix ldef
/rm /rmoveto ldef
/rl /rlineto ldef
/s {show newpath} bdef
/sc {setcmykcolor} bdef
/sr /setrgbcolor ldef
/sg /setgray ldef
/w /setlinewidth ldef
/j /setlinejoin ldef
/cap /setlinecap ldef
/rc {rectclip} bdef
/rf {rectfill} bdef
% page state control
/pgsv () def
/bpage {/pgsv save def} bdef
/epage {pgsv restore} bdef
/bplot /gsave ldef
/eplot {stroke grestore} bdef
% orientation switch
/portraitMode 0 def /landscapeMode 1 def /rotateMode 2 def
% coordinate system mappings
/dpi2point 0 def
% font control
/FontSize 0 def
/FMS {/FontSize xstore findfont [FontSize 0 0 FontSize neg 0 0]
  makefont setfont} bdef
/reencode {exch dup where {pop load} {pop StandardEncoding} ifelse
  exch dup 3 1 roll findfont dup length dict begin
  { 1 index /FID ne {def}{pop pop} ifelse } forall
  /Encoding exch def currentdict end definefont pop} bdef
/isroman {findfont /CharStrings get /Agrave known} bdef
/FMSR {3 1 roll 1 index dup isroman {reencode} {pop pop} ifelse
  exch FMS} bdef
/csm {1 dpi2point div -1 dpi2point div scale neg translate
 dup landscapeMode eq {pop -90 rotate}
  {rotateMode eq {90 rotate} if} ifelse} bdef
% line types: solid, dotted, dashed, dotdash
/SO { [] 0 setdash } bdef
/DO { [.5 dpi2point mul 4 dpi2point mul] 0 setdash } bdef
/DA { [6 dpi2point mul] 0 setdash } bdef
/DD { [.5 dpi2point mul 4 dpi2point mul 6 dpi2point mul 4
  dpi2point mul] 0 setdash } bdef
% macros for lines and objects
/L {lineto stroke} bdef
/MP {3 1 roll moveto 1 sub {rlineto} repeat} bdef
/AP {{rlineto} repeat} bdef
/PDlw -1 def
/W {/PDlw currentlinewidth def setlinewidth} def
/PP {closepath eofill} bdef
/DP {closepath stroke} bdef
/MR {4 -2 roll moveto dup  0 exch rlineto exch 0 rlineto
  neg 0 exch rlineto closepath} bdef
/FR {MR stroke} bdef
/PR {MR fill} bdef
/L1i {{currentfile picstr readhexstring pop} image} bdef
/tMatrix matrix def
/MakeOval {newpath tMatrix currentmatrix pop translate scale
0 0 1 0 360 arc tMatrix setmatrix} bdef
/FO {MakeOval stroke} bdef
/PO {MakeOval fill} bdef
/PD {currentlinewidth 2 div 0 360 arc fill
   PDlw -1 eq not {PDlw w /PDlw -1 def} if} def
/FA {newpath tMatrix currentmatrix pop translate scale
  0 0 1 5 -2 roll arc tMatrix setmatrix stroke} bdef
/PA {newpath tMatrix currentmatrix pop	translate 0 0 moveto scale
  0 0 1 5 -2 roll arc closepath tMatrix setmatrix fill} bdef
/FAn {newpath tMatrix currentmatrix pop translate scale
  0 0 1 5 -2 roll arcn tMatrix setmatrix stroke} bdef
/PAn {newpath tMatrix currentmatrix pop translate 0 0 moveto scale
  0 0 1 5 -2 roll arcn closepath tMatrix setmatrix fill} bdef
/vradius 0 def /hradius 0 def /lry 0 def
/lrx 0 def /uly 0 def /ulx 0 def /rad 0 def
/MRR {/vradius xdef /hradius xdef /lry xdef /lrx xdef /uly xdef
  /ulx xdef newpath tMatrix currentmatrix pop ulx hradius add uly
  vradius add translate hradius vradius scale 0 0 1 180 270 arc 
  tMatrix setmatrix lrx hradius sub uly vradius add translate
  hradius vradius scale 0 0 1 270 360 arc tMatrix setmatrix
  lrx hradius sub lry vradius sub translate hradius vradius scale
  0 0 1 0 90 arc tMatrix setmatrix ulx hradius add lry vradius sub
  translate hradius vradius scale 0 0 1 90 180 arc tMatrix setmatrix
  closepath} bdef
/FRR {MRR stroke } bdef
/PRR {MRR fill } bdef
/MlrRR {/lry xdef /lrx xdef /uly xdef /ulx xdef /rad lry uly sub 2 div def
  newpath tMatrix currentmatrix pop ulx rad add uly rad add translate
  rad rad scale 0 0 1 90 270 arc tMatrix setmatrix lrx rad sub lry rad
  sub translate rad rad scale 0 0 1 270 90 arc tMatrix setmatrix
  closepath} bdef
/FlrRR {MlrRR stroke } bdef
/PlrRR {MlrRR fill } bdef
/MtbRR {/lry xdef /lrx xdef /uly xdef /ulx xdef /rad lrx ulx sub 2 div def
  newpath tMatrix currentmatrix pop ulx rad add uly rad add translate
  rad rad scale 0 0 1 180 360 arc tMatrix setmatrix lrx rad sub lry rad
  sub translate rad rad scale 0 0 1 0 180 arc tMatrix setmatrix
  closepath} bdef
/FtbRR {MtbRR stroke } bdef
/PtbRR {MtbRR fill } bdef
/stri 6 array def /dtri 6 array def
/smat 6 array def /dmat 6 array def
/tmat1 6 array def /tmat2 6 array def /dif 3 array def
/asub {/ind2 exch def /ind1 exch def dup dup
  ind1 get exch ind2 get sub exch } bdef
/tri_to_matrix {
  2 0 asub 3 1 asub 4 0 asub 5 1 asub
  dup 0 get exch 1 get 7 -1 roll astore } bdef
/compute_transform {
  dmat dtri tri_to_matrix tmat1 invertmatrix 
  smat stri tri_to_matrix tmat2 concatmatrix } bdef
/ds {stri astore pop} bdef
/dt {dtri astore pop} bdef
/db {2 copy /cols xdef /rows xdef mul dup 3 mul string
  currentfile 
  3 index 0 eq {/ASCIIHexDecode filter}
  {/ASCII85Decode filter 3 index 2 eq {/RunLengthDecode filter} if }
  ifelse exch readstring pop
  dup 0 3 index getinterval /rbmap xdef
  dup 2 index dup getinterval /gbmap xdef
  1 index dup 2 mul exch getinterval /bbmap xdef pop pop}bdef
/it {gs np dtri aload pop moveto lineto lineto cp c
  cols rows 8 compute_transform 
  rbmap gbmap bbmap true 3 colorimage gr}bdef
/il {newpath moveto lineto stroke}bdef
currentdict end def
%%EndProlog

%%BeginSetup
MathWorks begin

0 cap

end
%%EndSetup

%%Page: 1 1
%%BeginPageSetup
%%PageBoundingBox:   -87   175   700   617
MathWorks begin
bpage
%%EndPageSetup

%%BeginObject: obj1
bplot

/dpi2point 12 def
portraitMode -1044 7404 csm

    0     0  9452  5297 rc
85 dict begin %Colortable dictionary
/c0 { 0.000000 0.000000 0.000000 sr} bdef
/c1 { 1.000000 1.000000 1.000000 sr} bdef
/c2 { 0.900000 0.000000 0.000000 sr} bdef
/c3 { 0.000000 0.820000 0.000000 sr} bdef
/c4 { 0.000000 0.000000 0.800000 sr} bdef
/c5 { 0.910000 0.820000 0.320000 sr} bdef
/c6 { 1.000000 0.260000 0.820000 sr} bdef
/c7 { 0.000000 0.820000 0.820000 sr} bdef
c0
1 j
1 sg
   0    0 9453 5298 rf
6 w
0 4317 7325 0 0 -4317 1229 4714 4 MP
PP
-7325 0 0 4317 7325 0 0 -4317 1229 4714 5 MP stroke
4 w
DO
SO
6 w
0 sg
1229 4714 mt 8554 4714 L
1229  397 mt 8554  397 L
1229 4714 mt 1229  397 L
8554 4714 mt 8554  397 L
1229 4714 mt 8554 4714 L
1229 4714 mt 1229  397 L
1229 4714 mt 1229 4640 L
1229  397 mt 1229  470 L
%%IncludeResource: font Helvetica
/Helvetica /ISOLatin1Encoding 120 FMSR

1196 4859 mt 
(0) s
1954 4714 mt 1954 4640 L
1954  397 mt 1954  470 L
1888 4859 mt 
(10) s
2679 4714 mt 2679 4640 L
2679  397 mt 2679  470 L
2613 4859 mt 
(20) s
3404 4714 mt 3404 4640 L
3404  397 mt 3404  470 L
3338 4859 mt 
(30) s
4129 4714 mt 4129 4640 L
4129  397 mt 4129  470 L
4063 4859 mt 
(40) s
4855 4714 mt 4855 4640 L
4855  397 mt 4855  470 L
4789 4859 mt 
(50) s
5580 4714 mt 5580 4640 L
5580  397 mt 5580  470 L
5514 4859 mt 
(60) s
6305 4714 mt 6305 4640 L
6305  397 mt 6305  470 L
6239 4859 mt 
(70) s
7030 4714 mt 7030 4640 L
7030  397 mt 7030  470 L
6964 4859 mt 
(80) s
7756 4714 mt 7756 4640 L
7756  397 mt 7756  470 L
7690 4859 mt 
(90) s
8481 4714 mt 8481 4640 L
8481  397 mt 8481  470 L
8381 4859 mt 
(100) s
1229 4714 mt 1302 4714 L
8554 4714 mt 8480 4714 L
1128 4758 mt 
(0) s
1229 4097 mt 1302 4097 L
8554 4097 mt 8480 4097 L
1028 4141 mt 
(0.1) s
1229 3480 mt 1302 3480 L
8554 3480 mt 8480 3480 L
1028 3524 mt 
(0.2) s
1229 2863 mt 1302 2863 L
8554 2863 mt 8480 2863 L
1028 2907 mt 
(0.3) s
1229 2247 mt 1302 2247 L
8554 2247 mt 8480 2247 L
1028 2291 mt 
(0.4) s
1229 1630 mt 1302 1630 L
8554 1630 mt 8480 1630 L
1028 1674 mt 
(0.5) s
1229 1013 mt 1302 1013 L
8554 1013 mt 8480 1013 L
1028 1057 mt 
(0.6) s
1229  397 mt 1302  397 L
8554  397 mt 8480  397 L
1028  441 mt 
(0.7) s
1229 4714 mt 8554 4714 L
1229  397 mt 8554  397 L
1229 4714 mt 1229  397 L
8554 4714 mt 8554  397 L
gs 1229 397 7326 4318 rc
24 w
/c8 { 0.000000 0.000000 1.000000 sr} bdef
c8
73 556 73 1217 72 887 73 -640 72 -1056 73 -32 72 -39 73 -759 
72 -230 73 544 72 274 73 -532 72 983 73 -695 72 343 73 199 
72 -579 73 1380 72 -328 73 -888 73 -374 72 -278 73 683 72 551 
73 -465 72 -756 73 291 72 658 73 552 72 -49 73 -617 72 -792 
73 170 72 256 73 478 72 621 73 545 72 -228 73 -1843 72 2157 
73 766 73 -1444 72 -1596 73 582 72 -501 73 927 72 -26 73 -594 
72 -390 73 2 72 437 73 448 72 -304 73 432 72 1850 73 648 
72 -981 73 -1706 72 -392 73 465 73 279 72 263 73 -256 72 -354 
73 477 72 5 73 -889 72 1522 73 -50 72 -1249 73 -63 72 174 
73 -726 72 1222 73 342 72 -926 73 77 72 845 73 -1124 72 587 
73 318 73 -1010 72 20 73 -254 72 837 73 654 72 -1459 73 1505 
72 -253 73 -884 72 -104 73 217 72 -549 73 889 72 -477 73 460 
72 1440 73 -100 72 -1679 73 -59 1301 4130 101 MP stroke
/c9 { 1.000000 0.000000 0.000000 sr} bdef
c9
73 179 73 935 72 -1095 73 -403 72 -14 73 -380 72 660 73 473 
72 -406 73 -335 72 845 73 910 72 -695 73 -1418 72 207 73 850 
72 1144 73 -769 72 -1365 73 -85 73 251 72 397 73 142 72 -528 
73 94 72 487 73 -164 72 7 73 -186 72 -446 73 -153 72 220 
73 -124 72 170 73 325 72 74 73 -592 72 1142 73 2300 72 135 
73 -2807 73 55 72 301 73 -889 72 5 73 -175 72 595 73 499 
72 -281 73 -524 72 -485 73 301 72 1250 73 1140 72 89 73 -1737 
72 1 73 1066 72 -262 73 -442 73 -380 72 -653 73 -244 72 -131 
73 96 72 1079 73 1705 72 -594 73 -2414 72 1109 73 8 72 -743 
73 147 72 11 73 -117 72 1467 73 97 72 -1230 73 288 72 104 
73 -723 73 549 72 -368 73 -504 72 7 73 1453 72 1745 73 -1159 
72 -1609 73 -56 72 707 73 -727 72 181 73 -452 72 1369 73 155 
72 -1095 73 598 72 708 73 -1488 1301 4246 101 MP stroke
gr

24 w
c9
0 sg
%%IncludeResource: font Helvetica
/Helvetica /ISOLatin1Encoding 168 FMSR

4508 5037 mt 
(Grid index) s
 936 3368 mt  -90 rotate
(Correlation coefficient) s
90 rotate
%%IncludeResource: font Helvetica
/Helvetica /ISOLatin1Encoding 120 FMSR

1212 4757 mt 
( ) s
8538  439 mt 
( ) s
6 w
1 sg
0 509 1127 0 0 -509 7291 1174 4 MP
PP
-1127 0 0 509 1127 0 0 -509 7291 1174 5 MP stroke
4 w
DO
SO
6 w
0 sg
7291 1174 mt 8418 1174 L
7291  665 mt 8418  665 L
7291 1174 mt 7291  665 L
8418 1174 mt 8418  665 L
7291 1174 mt 8418 1174 L
7291 1174 mt 7291  665 L
7291 1174 mt 8418 1174 L
7291  665 mt 8418  665 L
7291 1174 mt 7291  665 L
8418 1174 mt 8418  665 L
%%IncludeResource: font Helvetica
/Helvetica /ISOLatin1Encoding 168 FMSR

7759  863 mt 
(cor\(h,x\)) s
gs 7291 665 1128 510 rc
24 w
c8
360 0 7363 802 2 MP stroke
gr

24 w
c8
0 sg
7759 1097 mt 
(cor\(u,x\)) s
gs 7291 665 1128 510 rc
c9
360 0 7363 1036 2 MP stroke
6 w
gr

6 w
c9

end %%Color Dict

eplot
%%EndObject

epage
end

showpage

%%Trailer
%%EOF
