%!PS-Adobe-3.0 EPSF-3.0
%%Creator: MATLAB, The MathWorks, Inc. Version 7.12.0.635 (R2011a). Operating System: Darwin 11.4.2 Darwin Kernel Version 11.4.2: Thu Aug 23 16:25:48 PDT 2012; root:xnu-1699.32.7~1/RELEASE_X86_64 x86_64.
%%Title: /Users/yiyang/Dropbox/Thesis2014/chapter_envarpara/fig/1dcombo.eps
%%CreationDate: 11/01/2014  20:00:18
%%DocumentNeededFonts: Helvetica
%%DocumentProcessColors: Cyan Magenta Yellow Black
%%LanguageLevel: 2
%%Pages: 1
%%BoundingBox:   -87    62   700   729
%%EndComments

%%BeginProlog
% MathWorks dictionary
/MathWorks 160 dict begin
% definition operators
/bdef {bind def} bind def
/ldef {load def} bind def
/xdef {exch def} bdef
/xstore {exch store} bdef
% operator abbreviations
/c  /clip ldef
/cc /concat ldef
/cp /closepath ldef
/gr /grestore ldef
/gs /gsave ldef
/mt /moveto ldef
/np /newpath ldef
/cm /currentmatrix ldef
/sm /setmatrix ldef
/rm /rmoveto ldef
/rl /rlineto ldef
/s {show newpath} bdef
/sc {setcmykcolor} bdef
/sr /setrgbcolor ldef
/sg /setgray ldef
/w /setlinewidth ldef
/j /setlinejoin ldef
/cap /setlinecap ldef
/rc {rectclip} bdef
/rf {rectfill} bdef
% page state control
/pgsv () def
/bpage {/pgsv save def} bdef
/epage {pgsv restore} bdef
/bplot /gsave ldef
/eplot {stroke grestore} bdef
% orientation switch
/portraitMode 0 def /landscapeMode 1 def /rotateMode 2 def
% coordinate system mappings
/dpi2point 0 def
% font control
/FontSize 0 def
/FMS {/FontSize xstore findfont [FontSize 0 0 FontSize neg 0 0]
  makefont setfont} bdef
/reencode {exch dup where {pop load} {pop StandardEncoding} ifelse
  exch dup 3 1 roll findfont dup length dict begin
  { 1 index /FID ne {def}{pop pop} ifelse } forall
  /Encoding exch def currentdict end definefont pop} bdef
/isroman {findfont /CharStrings get /Agrave known} bdef
/FMSR {3 1 roll 1 index dup isroman {reencode} {pop pop} ifelse
  exch FMS} bdef
/csm {1 dpi2point div -1 dpi2point div scale neg translate
 dup landscapeMode eq {pop -90 rotate}
  {rotateMode eq {90 rotate} if} ifelse} bdef
% line types: solid, dotted, dashed, dotdash
/SO { [] 0 setdash } bdef
/DO { [.5 dpi2point mul 4 dpi2point mul] 0 setdash } bdef
/DA { [6 dpi2point mul] 0 setdash } bdef
/DD { [.5 dpi2point mul 4 dpi2point mul 6 dpi2point mul 4
  dpi2point mul] 0 setdash } bdef
% macros for lines and objects
/L {lineto stroke} bdef
/MP {3 1 roll moveto 1 sub {rlineto} repeat} bdef
/AP {{rlineto} repeat} bdef
/PDlw -1 def
/W {/PDlw currentlinewidth def setlinewidth} def
/PP {closepath eofill} bdef
/DP {closepath stroke} bdef
/MR {4 -2 roll moveto dup  0 exch rlineto exch 0 rlineto
  neg 0 exch rlineto closepath} bdef
/FR {MR stroke} bdef
/PR {MR fill} bdef
/L1i {{currentfile picstr readhexstring pop} image} bdef
/tMatrix matrix def
/MakeOval {newpath tMatrix currentmatrix pop translate scale
0 0 1 0 360 arc tMatrix setmatrix} bdef
/FO {MakeOval stroke} bdef
/PO {MakeOval fill} bdef
/PD {currentlinewidth 2 div 0 360 arc fill
   PDlw -1 eq not {PDlw w /PDlw -1 def} if} def
/FA {newpath tMatrix currentmatrix pop translate scale
  0 0 1 5 -2 roll arc tMatrix setmatrix stroke} bdef
/PA {newpath tMatrix currentmatrix pop	translate 0 0 moveto scale
  0 0 1 5 -2 roll arc closepath tMatrix setmatrix fill} bdef
/FAn {newpath tMatrix currentmatrix pop translate scale
  0 0 1 5 -2 roll arcn tMatrix setmatrix stroke} bdef
/PAn {newpath tMatrix currentmatrix pop translate 0 0 moveto scale
  0 0 1 5 -2 roll arcn closepath tMatrix setmatrix fill} bdef
/vradius 0 def /hradius 0 def /lry 0 def
/lrx 0 def /uly 0 def /ulx 0 def /rad 0 def
/MRR {/vradius xdef /hradius xdef /lry xdef /lrx xdef /uly xdef
  /ulx xdef newpath tMatrix currentmatrix pop ulx hradius add uly
  vradius add translate hradius vradius scale 0 0 1 180 270 arc 
  tMatrix setmatrix lrx hradius sub uly vradius add translate
  hradius vradius scale 0 0 1 270 360 arc tMatrix setmatrix
  lrx hradius sub lry vradius sub translate hradius vradius scale
  0 0 1 0 90 arc tMatrix setmatrix ulx hradius add lry vradius sub
  translate hradius vradius scale 0 0 1 90 180 arc tMatrix setmatrix
  closepath} bdef
/FRR {MRR stroke } bdef
/PRR {MRR fill } bdef
/MlrRR {/lry xdef /lrx xdef /uly xdef /ulx xdef /rad lry uly sub 2 div def
  newpath tMatrix currentmatrix pop ulx rad add uly rad add translate
  rad rad scale 0 0 1 90 270 arc tMatrix setmatrix lrx rad sub lry rad
  sub translate rad rad scale 0 0 1 270 90 arc tMatrix setmatrix
  closepath} bdef
/FlrRR {MlrRR stroke } bdef
/PlrRR {MlrRR fill } bdef
/MtbRR {/lry xdef /lrx xdef /uly xdef /ulx xdef /rad lrx ulx sub 2 div def
  newpath tMatrix currentmatrix pop ulx rad add uly rad add translate
  rad rad scale 0 0 1 180 360 arc tMatrix setmatrix lrx rad sub lry rad
  sub translate rad rad scale 0 0 1 0 180 arc tMatrix setmatrix
  closepath} bdef
/FtbRR {MtbRR stroke } bdef
/PtbRR {MtbRR fill } bdef
/stri 6 array def /dtri 6 array def
/smat 6 array def /dmat 6 array def
/tmat1 6 array def /tmat2 6 array def /dif 3 array def
/asub {/ind2 exch def /ind1 exch def dup dup
  ind1 get exch ind2 get sub exch } bdef
/tri_to_matrix {
  2 0 asub 3 1 asub 4 0 asub 5 1 asub
  dup 0 get exch 1 get 7 -1 roll astore } bdef
/compute_transform {
  dmat dtri tri_to_matrix tmat1 invertmatrix 
  smat stri tri_to_matrix tmat2 concatmatrix } bdef
/ds {stri astore pop} bdef
/dt {dtri astore pop} bdef
/db {2 copy /cols xdef /rows xdef mul dup 3 mul string
  currentfile 
  3 index 0 eq {/ASCIIHexDecode filter}
  {/ASCII85Decode filter 3 index 2 eq {/RunLengthDecode filter} if }
  ifelse exch readstring pop
  dup 0 3 index getinterval /rbmap xdef
  dup 2 index dup getinterval /gbmap xdef
  1 index dup 2 mul exch getinterval /bbmap xdef pop pop}bdef
/it {gs np dtri aload pop moveto lineto lineto cp c
  cols rows 8 compute_transform 
  rbmap gbmap bbmap true 3 colorimage gr}bdef
/il {newpath moveto lineto stroke}bdef
currentdict end def
%%EndProlog

%%BeginSetup
MathWorks begin

0 cap

end
%%EndSetup

%%Page: 1 1
%%BeginPageSetup
%%PageBoundingBox:   -87    62   700   729
MathWorks begin
bpage
%%EndPageSetup

%%BeginObject: obj1
bplot

/dpi2point 12 def
portraitMode -1044 8748 csm

    0     0  9452  7993 rc
86 dict begin %Colortable dictionary
/c0 { 0.000000 0.000000 0.000000 sr} bdef
/c1 { 1.000000 1.000000 1.000000 sr} bdef
/c2 { 0.900000 0.000000 0.000000 sr} bdef
/c3 { 0.000000 0.820000 0.000000 sr} bdef
/c4 { 0.000000 0.000000 0.800000 sr} bdef
/c5 { 0.910000 0.820000 0.320000 sr} bdef
/c6 { 1.000000 0.260000 0.820000 sr} bdef
/c7 { 0.000000 0.820000 0.820000 sr} bdef
c0
1 j
1 sg
   0    0 9453 7994 rf
6 w
0 2727 7325 0 0 -2727 1229 3326 4 MP
PP
-7325 0 0 2727 7325 0 0 -2727 1229 3326 5 MP stroke
4 w
DO
SO
6 w
0 sg
1229 3326 mt 8554 3326 L
1229  599 mt 8554  599 L
1229 3326 mt 1229  599 L
8554 3326 mt 8554  599 L
1229 3326 mt 8554 3326 L
1229 3326 mt 1229  599 L
1229 3326 mt 1229 3252 L
1229  599 mt 1229  672 L
%%IncludeResource: font Helvetica
/Helvetica /ISOLatin1Encoding 120 FMSR

1096 3471 mt 
(6000) s
2042 3326 mt 2042 3252 L
2042  599 mt 2042  672 L
1909 3471 mt 
(6200) s
2856 3326 mt 2856 3252 L
2856  599 mt 2856  672 L
2723 3471 mt 
(6400) s
3670 3326 mt 3670 3252 L
3670  599 mt 3670  672 L
3537 3471 mt 
(6600) s
4484 3326 mt 4484 3252 L
4484  599 mt 4484  672 L
4351 3471 mt 
(6800) s
5298 3326 mt 5298 3252 L
5298  599 mt 5298  672 L
5165 3471 mt 
(7000) s
6112 3326 mt 6112 3252 L
6112  599 mt 6112  672 L
5979 3471 mt 
(7200) s
6926 3326 mt 6926 3252 L
6926  599 mt 6926  672 L
6793 3471 mt 
(7400) s
7740 3326 mt 7740 3252 L
7740  599 mt 7740  672 L
7607 3471 mt 
(7600) s
8554 3326 mt 8554 3252 L
8554  599 mt 8554  672 L
8421 3471 mt 
(7800) s
1229 3326 mt 1302 3326 L
8554 3326 mt 8480 3326 L
1128 3370 mt 
(0) s
1229 2871 mt 1302 2871 L
8554 2871 mt 8480 2871 L
1128 2915 mt 
(2) s
1229 2417 mt 1302 2417 L
8554 2417 mt 8480 2417 L
1128 2461 mt 
(4) s
1229 1962 mt 1302 1962 L
8554 1962 mt 8480 1962 L
1128 2006 mt 
(6) s
1229 1508 mt 1302 1508 L
8554 1508 mt 8480 1508 L
1128 1552 mt 
(8) s
1229 1053 mt 1302 1053 L
8554 1053 mt 8480 1053 L
1061 1097 mt 
(10) s
1229  599 mt 1302  599 L
8554  599 mt 8480  599 L
1061  643 mt 
(12) s
1229 3326 mt 8554 3326 L
1229  599 mt 8554  599 L
1229 3326 mt 1229  599 L
8554 3326 mt 8554  599 L
gs 1229 599 7326 2728 rc
24 w
/c8 { 0.000000 1.000000 0.000000 sr} bdef
c8
1 0 153 -7 153 -7 152 -7 153 -7 153 -8 152 -7 153 -7 
152 -7 153 -8 153 -7 152 -7 153 -8 152 -7 153 -7 153 -8 
152 -7 153 -7 152 -8 153 -7 153 -7 152 -8 153 -7 152 -7 
153 -8 153 -7 152 -8 153 -7 152 -7 153 -8 153 -7 152 -8 
153 -7 152 -8 153 -7 153 -8 152 -7 153 -8 152 -7 153 -8 
153 -7 152 -8 153 -8 152 -7 153 -8 153 -7 152 -8 153 -8 
152 -7 1229 1708 50 MP stroke
gr

24 w
c8
/c9 { 0.000000 0.000000 1.000000 sr} bdef
c9
  36   36 1229 3102 FO
  36   36 3670 3066 FO
  36   36 6112 3130 FO
  36   36 8554 3097 FO
gs 1229 599 7326 2728 rc
0 sg
1 0 153 -11 153 -10 152 -11 153 -10 153 -11 152 -10 153 -9 
152 -10 153 -9 153 -8 152 -9 153 -8 152 -7 153 -7 153 -7 
152 -6 153 -6 152 -5 153 -5 153 -4 152 -5 153 -4 152 -4 
153 -4 153 -4 152 -4 153 -5 152 -6 153 -6 153 -8 152 -8 
153 -11 152 -12 153 -14 153 -16 152 -19 153 -22 152 -26 153 -28 
153 -32 152 -36 153 -40 152 -44 153 -47 153 -49 152 -49 153 -41 
152 -21 1229 3144 50 MP stroke
gr

0 sg
%%IncludeResource: font Helvetica
/Helvetica /ISOLatin1Encoding 168 FMSR

4769 3649 mt 
(t\(s\)) s
 969 2332 mt  -90 rotate
(RMSE\(m\)) s
90 rotate
4226  494 mt 
(Surface height \(a\)) s
gs 1229 599 7326 2728 rc
/c10 { 1.000000 0.000000 0.000000 sr} bdef
c10
1 0 153 -10 153 -9 152 -9 153 -9 153 -8 152 -8 153 -8 
152 -7 153 -7 153 -7 152 -7 153 -6 152 -7 153 -6 153 -5 
152 -6 153 -6 152 -6 153 -6 153 -6 152 -6 153 -7 152 -7 
153 -7 153 -9 152 -9 153 -10 152 -11 153 -12 153 -13 152 -15 
153 -17 152 -18 153 -20 153 -22 152 -25 153 -27 152 -29 153 -32 
153 -34 152 -38 153 -39 152 -42 153 -42 153 -41 152 -36 153 -21 
152 4 1229 3146 50 MP stroke
c9
1 0 153 -5 153 -6 152 -7 153 -7 153 -8 152 -8 153 -9 
152 -9 153 -10 153 -10 152 -11 153 -11 152 -12 153 -12 153 -12 
152 -13 153 -13 152 -14 153 -13 153 -13 152 -14 153 -14 152 -13 
153 -14 153 -13 152 -14 153 -14 152 -14 153 -14 153 -15 152 -15 
153 -16 152 -17 153 -18 153 -20 152 -22 153 -25 152 -27 153 -30 
153 -34 152 -38 153 -41 152 -45 153 -48 153 -51 152 -49 153 -45 
152 -32 1229 2775 50 MP stroke
/c11 { 0.749020 0.000000 0.749020 sr} bdef
c11
1 0 153 -34 153 -35 152 -35 153 -36 153 -37 152 -37 153 -38 
152 -39 153 -39 153 -40 152 -41 153 -41 152 -42 153 -42 153 -43 
152 -44 153 -44 152 -45 153 -45 153 -45 152 -46 153 -47 152 -46 
153 -47 153 -46 152 -47 153 -46 152 -46 153 -45 153 -45 152 -43 
153 -42 152 -41 153 -39 153 -37 152 -34 153 -32 152 -29 153 -26 
153 -22 152 -20 153 -16 152 -14 153 -11 153 -9 152 -7 153 -7 
152 -6 1229 2640 50 MP stroke
gr

c11
0 sg
%%IncludeResource: font Helvetica
/Helvetica /ISOLatin1Encoding 120 FMSR

1212 3369 mt 
( ) s
8538  641 mt 
( ) s
6 w
1 sg
0 2727 7325 0 0 -2727 1229 7114 4 MP
PP
-7325 0 0 2727 7325 0 0 -2727 1229 7114 5 MP stroke
4 w
DO
SO
6 w
0 sg
1229 7114 mt 8554 7114 L
1229 4387 mt 8554 4387 L
1229 7114 mt 1229 4387 L
8554 7114 mt 8554 4387 L
1229 7114 mt 8554 7114 L
1229 7114 mt 1229 4387 L
1229 7114 mt 1229 7040 L
1229 4387 mt 1229 4460 L
1096 7259 mt 
(6000) s
2042 7114 mt 2042 7040 L
2042 4387 mt 2042 4460 L
1909 7259 mt 
(6200) s
2856 7114 mt 2856 7040 L
2856 4387 mt 2856 4460 L
2723 7259 mt 
(6400) s
3670 7114 mt 3670 7040 L
3670 4387 mt 3670 4460 L
3537 7259 mt 
(6600) s
4484 7114 mt 4484 7040 L
4484 4387 mt 4484 4460 L
4351 7259 mt 
(6800) s
5298 7114 mt 5298 7040 L
5298 4387 mt 5298 4460 L
5165 7259 mt 
(7000) s
6112 7114 mt 6112 7040 L
6112 4387 mt 6112 4460 L
5979 7259 mt 
(7200) s
6926 7114 mt 6926 7040 L
6926 4387 mt 6926 4460 L
6793 7259 mt 
(7400) s
7740 7114 mt 7740 7040 L
7740 4387 mt 7740 4460 L
7607 7259 mt 
(7600) s
8554 7114 mt 8554 7040 L
8554 4387 mt 8554 4460 L
8421 7259 mt 
(7800) s
1229 7114 mt 1302 7114 L
8554 7114 mt 8480 7114 L
 961 7158 mt 
(0.05) s
1229 6841 mt 1302 6841 L
8554 6841 mt 8480 6841 L
1028 6885 mt 
(0.1) s
1229 6568 mt 1302 6568 L
8554 6568 mt 8480 6568 L
 961 6612 mt 
(0.15) s
1229 6295 mt 1302 6295 L
8554 6295 mt 8480 6295 L
1028 6339 mt 
(0.2) s
1229 6023 mt 1302 6023 L
8554 6023 mt 8480 6023 L
 961 6067 mt 
(0.25) s
1229 5750 mt 1302 5750 L
8554 5750 mt 8480 5750 L
1028 5794 mt 
(0.3) s
1229 5477 mt 1302 5477 L
8554 5477 mt 8480 5477 L
 961 5521 mt 
(0.35) s
1229 5205 mt 1302 5205 L
8554 5205 mt 8480 5205 L
1028 5249 mt 
(0.4) s
1229 4932 mt 1302 4932 L
8554 4932 mt 8480 4932 L
 961 4976 mt 
(0.45) s
1229 4659 mt 1302 4659 L
8554 4659 mt 8480 4659 L
1028 4703 mt 
(0.5) s
1229 4387 mt 1302 4387 L
8554 4387 mt 8480 4387 L
 961 4431 mt 
(0.55) s
1229 7114 mt 8554 7114 L
1229 4387 mt 8554 4387 L
1229 7114 mt 1229 4387 L
8554 7114 mt 8554 4387 L
gs 1229 4387 7326 2728 rc
24 w
c8
1 -1 153 -9 153 -8 152 -9 153 -9 153 -9 152 -10 153 -9 
152 -9 153 -9 153 -9 152 -9 153 -9 152 -9 153 -9 153 -9 
152 -9 153 -9 152 -9 153 -10 153 -9 152 -9 153 -9 152 -9 
153 -10 153 -9 152 -9 153 -9 152 -9 153 -10 153 -9 152 -9 
153 -10 152 -9 153 -9 153 -10 152 -9 153 -9 152 -10 153 -9 
153 -9 152 -10 153 -9 152 -10 153 -9 153 -10 152 -9 153 -10 
152 -9 1229 5379 50 MP stroke
gr

24 w
c8
c9
  36   36 1229 6815 FO
  36   36 3670 6730 FO
  36   36 6112 6830 FO
  36   36 8554 6880 FO
gs 1229 4387 7326 2728 rc
0 sg
1 0 153 -7 153 -7 152 -7 153 -7 153 -7 152 -7 153 -7 
152 -7 153 -8 153 -8 152 -8 153 -10 152 -9 153 -11 153 -11 
152 -12 153 -14 152 -14 153 -16 153 -17 152 -19 153 -20 152 -22 
153 -23 153 -25 152 -26 153 -28 152 -29 153 -31 153 -33 152 -33 
153 -34 152 -35 153 -35 153 -34 152 -35 153 -32 152 -30 153 -28 
153 -23 152 -19 153 -13 152 -7 153 -1 153 5 152 10 153 13 
152 16 1229 6940 50 MP stroke
gr

0 sg
%%IncludeResource: font Helvetica
/Helvetica /ISOLatin1Encoding 168 FMSR

4769 7437 mt 
(t\(s\)) s
 869 6185 mt  -90 rotate
(RMSE\(m/s\)) s
90 rotate
4478 4282 mt 
(Velocity \(b\)) s
gs 1229 4387 7326 2728 rc
c10
1 0 153 -12 153 -13 152 -13 153 -14 153 -14 152 -15 153 -16 
152 -16 153 -17 153 -17 152 -18 153 -19 152 -20 153 -20 153 -21 
152 -22 153 -22 152 -23 153 -24 153 -24 152 -25 153 -25 152 -27 
153 -26 153 -27 152 -28 153 -28 152 -28 153 -28 153 -27 152 -28 
153 -26 152 -26 153 -24 153 -23 152 -20 153 -18 152 -16 153 -12 
153 -8 152 -5 153 -1 152 2 153 6 153 8 152 11 153 13 
152 14 1229 6890 50 MP stroke
c9
1 0 153 -31 153 -30 152 -31 153 -30 153 -30 152 -29 153 -30 
152 -29 153 -29 153 -28 152 -28 153 -27 152 -27 153 -27 153 -26 
152 -26 153 -26 152 -25 153 -25 153 -25 152 -26 153 -25 152 -25 
153 -26 153 -26 152 -26 153 -27 152 -28 153 -28 153 -29 152 -30 
153 -30 152 -32 153 -32 153 -33 152 -34 153 -34 152 -35 153 -34 
153 -35 152 -34 153 -33 152 -32 153 -31 153 -29 152 -26 153 -22 
152 -19 1229 6269 50 MP stroke
gr

c9
0 sg
%%IncludeResource: font Helvetica
/Helvetica /ISOLatin1Encoding 120 FMSR

1212 7157 mt 
( ) s
8538 4429 mt 
( ) s
gs 1229 4387 7326 2728 rc
c11
1 0 153 -15 153 -15 152 -15 153 -14 153 -15 152 -14 153 -14 
152 -14 153 -13 153 -14 152 -13 153 -14 152 -14 153 -13 153 -14 
152 -14 153 -15 152 -15 153 -15 153 -16 152 -17 153 -18 152 -19 
153 -20 153 -21 152 -24 153 -25 152 -27 153 -30 153 -32 152 -35 
153 -38 152 -42 153 -45 153 -49 152 -54 153 -58 152 -63 153 -68 
153 -73 152 -77 153 -82 152 -86 153 -88 153 -89 152 -85 153 -77 
152 -59 1229 6213 50 MP stroke
6 w
gr

6 w
c11
1 sg
0 1444 2779 0 0 -1444 1346 2072 4 MP
PP
-2779 0 0 1444 2779 0 0 -1444 1346 2072 5 MP stroke
4 w
DO
SO
6 w
0 sg
1346 2072 mt 4125 2072 L
1346  628 mt 4125  628 L
1346 2072 mt 1346  628 L
4125 2072 mt 4125  628 L
1346 2072 mt 4125 2072 L
1346 2072 mt 1346  628 L
1346 2072 mt 4125 2072 L
1346  628 mt 4125  628 L
1346 2072 mt 1346  628 L
4125 2072 mt 4125  628 L
%%IncludeResource: font Helvetica
/Helvetica /ISOLatin1Encoding 168 FMSR

1835  826 mt 
(Large scale simulation) s
gs 1346 628 2780 1445 rc
24 w
c8
376 0 1421 765 2 MP stroke
gr

24 w
c8
0 sg
1835 1060 mt 
(Fine scale observation) s
gs 1346 628 2780 1445 rc
gr

c9
  36   36 1609  999 FO
gs 1346 628 2780 1445 rc
gr

0 sg
1835 1294 mt 
(a combo 1) s
gs 1346 628 2780 1445 rc
376 0 1421 1233 2 MP stroke
gr

1835 1527 mt 
(a combo 2) s
gs 1346 628 2780 1445 rc
c10
376 0 1421 1466 2 MP stroke
gr

c10
0 sg
1835 1761 mt 
(a combo 3) s
gs 1346 628 2780 1445 rc
c9
376 0 1421 1700 2 MP stroke
gr

c9
0 sg
1835 1995 mt 
(Smagorinsky Eddy Viscocity) s
gs 1346 628 2780 1445 rc
c11
376 0 1421 1934 2 MP stroke
6 w
gr

6 w
c11

end %%Color Dict

eplot
%%EndObject

epage
end

showpage

%%Trailer
%%EOF
