%!PS-Adobe-3.0 EPSF-3.0
%%Creator: MATLAB, The MathWorks, Inc. Version 7.12.0.635 (R2011a). Operating System: Darwin 11.4.2 Darwin Kernel Version 11.4.2: Thu Aug 23 16:25:48 PDT 2012; root:xnu-1699.32.7~1/RELEASE_X86_64 x86_64.
%%Title: /Users/yiyang/Dropbox/Thesis2014/chapter_envarpara/fig/1dspread.eps
%%CreationDate: 11/01/2014  20:13:50
%%DocumentNeededFonts: Helvetica
%%DocumentProcessColors: Cyan Magenta Yellow Black
%%LanguageLevel: 2
%%Pages: 1
%%BoundingBox:  -158   224   771   568
%%EndComments

%%BeginProlog
% MathWorks dictionary
/MathWorks 160 dict begin
% definition operators
/bdef {bind def} bind def
/ldef {load def} bind def
/xdef {exch def} bdef
/xstore {exch store} bdef
% operator abbreviations
/c  /clip ldef
/cc /concat ldef
/cp /closepath ldef
/gr /grestore ldef
/gs /gsave ldef
/mt /moveto ldef
/np /newpath ldef
/cm /currentmatrix ldef
/sm /setmatrix ldef
/rm /rmoveto ldef
/rl /rlineto ldef
/s {show newpath} bdef
/sc {setcmykcolor} bdef
/sr /setrgbcolor ldef
/sg /setgray ldef
/w /setlinewidth ldef
/j /setlinejoin ldef
/cap /setlinecap ldef
/rc {rectclip} bdef
/rf {rectfill} bdef
% page state control
/pgsv () def
/bpage {/pgsv save def} bdef
/epage {pgsv restore} bdef
/bplot /gsave ldef
/eplot {stroke grestore} bdef
% orientation switch
/portraitMode 0 def /landscapeMode 1 def /rotateMode 2 def
% coordinate system mappings
/dpi2point 0 def
% font control
/FontSize 0 def
/FMS {/FontSize xstore findfont [FontSize 0 0 FontSize neg 0 0]
  makefont setfont} bdef
/reencode {exch dup where {pop load} {pop StandardEncoding} ifelse
  exch dup 3 1 roll findfont dup length dict begin
  { 1 index /FID ne {def}{pop pop} ifelse } forall
  /Encoding exch def currentdict end definefont pop} bdef
/isroman {findfont /CharStrings get /Agrave known} bdef
/FMSR {3 1 roll 1 index dup isroman {reencode} {pop pop} ifelse
  exch FMS} bdef
/csm {1 dpi2point div -1 dpi2point div scale neg translate
 dup landscapeMode eq {pop -90 rotate}
  {rotateMode eq {90 rotate} if} ifelse} bdef
% line types: solid, dotted, dashed, dotdash
/SO { [] 0 setdash } bdef
/DO { [.5 dpi2point mul 4 dpi2point mul] 0 setdash } bdef
/DA { [6 dpi2point mul] 0 setdash } bdef
/DD { [.5 dpi2point mul 4 dpi2point mul 6 dpi2point mul 4
  dpi2point mul] 0 setdash } bdef
% macros for lines and objects
/L {lineto stroke} bdef
/MP {3 1 roll moveto 1 sub {rlineto} repeat} bdef
/AP {{rlineto} repeat} bdef
/PDlw -1 def
/W {/PDlw currentlinewidth def setlinewidth} def
/PP {closepath eofill} bdef
/DP {closepath stroke} bdef
/MR {4 -2 roll moveto dup  0 exch rlineto exch 0 rlineto
  neg 0 exch rlineto closepath} bdef
/FR {MR stroke} bdef
/PR {MR fill} bdef
/L1i {{currentfile picstr readhexstring pop} image} bdef
/tMatrix matrix def
/MakeOval {newpath tMatrix currentmatrix pop translate scale
0 0 1 0 360 arc tMatrix setmatrix} bdef
/FO {MakeOval stroke} bdef
/PO {MakeOval fill} bdef
/PD {currentlinewidth 2 div 0 360 arc fill
   PDlw -1 eq not {PDlw w /PDlw -1 def} if} def
/FA {newpath tMatrix currentmatrix pop translate scale
  0 0 1 5 -2 roll arc tMatrix setmatrix stroke} bdef
/PA {newpath tMatrix currentmatrix pop	translate 0 0 moveto scale
  0 0 1 5 -2 roll arc closepath tMatrix setmatrix fill} bdef
/FAn {newpath tMatrix currentmatrix pop translate scale
  0 0 1 5 -2 roll arcn tMatrix setmatrix stroke} bdef
/PAn {newpath tMatrix currentmatrix pop translate 0 0 moveto scale
  0 0 1 5 -2 roll arcn closepath tMatrix setmatrix fill} bdef
/vradius 0 def /hradius 0 def /lry 0 def
/lrx 0 def /uly 0 def /ulx 0 def /rad 0 def
/MRR {/vradius xdef /hradius xdef /lry xdef /lrx xdef /uly xdef
  /ulx xdef newpath tMatrix currentmatrix pop ulx hradius add uly
  vradius add translate hradius vradius scale 0 0 1 180 270 arc 
  tMatrix setmatrix lrx hradius sub uly vradius add translate
  hradius vradius scale 0 0 1 270 360 arc tMatrix setmatrix
  lrx hradius sub lry vradius sub translate hradius vradius scale
  0 0 1 0 90 arc tMatrix setmatrix ulx hradius add lry vradius sub
  translate hradius vradius scale 0 0 1 90 180 arc tMatrix setmatrix
  closepath} bdef
/FRR {MRR stroke } bdef
/PRR {MRR fill } bdef
/MlrRR {/lry xdef /lrx xdef /uly xdef /ulx xdef /rad lry uly sub 2 div def
  newpath tMatrix currentmatrix pop ulx rad add uly rad add translate
  rad rad scale 0 0 1 90 270 arc tMatrix setmatrix lrx rad sub lry rad
  sub translate rad rad scale 0 0 1 270 90 arc tMatrix setmatrix
  closepath} bdef
/FlrRR {MlrRR stroke } bdef
/PlrRR {MlrRR fill } bdef
/MtbRR {/lry xdef /lrx xdef /uly xdef /ulx xdef /rad lrx ulx sub 2 div def
  newpath tMatrix currentmatrix pop ulx rad add uly rad add translate
  rad rad scale 0 0 1 180 360 arc tMatrix setmatrix lrx rad sub lry rad
  sub translate rad rad scale 0 0 1 0 180 arc tMatrix setmatrix
  closepath} bdef
/FtbRR {MtbRR stroke } bdef
/PtbRR {MtbRR fill } bdef
/stri 6 array def /dtri 6 array def
/smat 6 array def /dmat 6 array def
/tmat1 6 array def /tmat2 6 array def /dif 3 array def
/asub {/ind2 exch def /ind1 exch def dup dup
  ind1 get exch ind2 get sub exch } bdef
/tri_to_matrix {
  2 0 asub 3 1 asub 4 0 asub 5 1 asub
  dup 0 get exch 1 get 7 -1 roll astore } bdef
/compute_transform {
  dmat dtri tri_to_matrix tmat1 invertmatrix 
  smat stri tri_to_matrix tmat2 concatmatrix } bdef
/ds {stri astore pop} bdef
/dt {dtri astore pop} bdef
/db {2 copy /cols xdef /rows xdef mul dup 3 mul string
  currentfile 
  3 index 0 eq {/ASCIIHexDecode filter}
  {/ASCII85Decode filter 3 index 2 eq {/RunLengthDecode filter} if }
  ifelse exch readstring pop
  dup 0 3 index getinterval /rbmap xdef
  dup 2 index dup getinterval /gbmap xdef
  1 index dup 2 mul exch getinterval /bbmap xdef pop pop}bdef
/it {gs np dtri aload pop moveto lineto lineto cp c
  cols rows 8 compute_transform 
  rbmap gbmap bbmap true 3 colorimage gr}bdef
/il {newpath moveto lineto stroke}bdef
currentdict end def
%%EndProlog

%%BeginSetup
MathWorks begin

0 cap

end
%%EndSetup

%%Page: 1 1
%%BeginPageSetup
%%PageBoundingBox:  -158   224   771   568
MathWorks begin
bpage
%%EndPageSetup

%%BeginObject: obj1
bplot

/dpi2point 12 def
portraitMode -1896 6816 csm

    0     0 11152  4123 rc
85 dict begin %Colortable dictionary
/c0 { 0.000000 0.000000 0.000000 sr} bdef
/c1 { 1.000000 1.000000 1.000000 sr} bdef
/c2 { 0.900000 0.000000 0.000000 sr} bdef
/c3 { 0.000000 0.820000 0.000000 sr} bdef
/c4 { 0.000000 0.000000 0.800000 sr} bdef
/c5 { 0.910000 0.820000 0.320000 sr} bdef
/c6 { 1.000000 0.260000 0.820000 sr} bdef
/c7 { 0.000000 0.820000 0.820000 sr} bdef
c0
1 j
1 sg
   0    0 11153 4124 rf
6 w
0 3360 3732 0 0 -3360 1450 3669 4 MP
PP
-3732 0 0 3360 3732 0 0 -3360 1450 3669 5 MP stroke
4 w
DO
SO
6 w
0 sg
1450 3669 mt 5182 3669 L
1450  309 mt 5182  309 L
1450 3669 mt 1450  309 L
5182 3669 mt 5182  309 L
1450 3669 mt 5182 3669 L
1450 3669 mt 1450  309 L
1450 3669 mt 1450 3631 L
1450  309 mt 1450  346 L
%%IncludeResource: font Helvetica
/Helvetica /ISOLatin1Encoding 120 FMSR

1317 3814 mt 
(6000) s
2196 3669 mt 2196 3631 L
2196  309 mt 2196  346 L
2063 3814 mt 
(7000) s
2942 3669 mt 2942 3631 L
2942  309 mt 2942  346 L
2809 3814 mt 
(8000) s
3689 3669 mt 3689 3631 L
3689  309 mt 3689  346 L
3556 3814 mt 
(9000) s
4435 3669 mt 4435 3631 L
4435  309 mt 4435  346 L
4269 3814 mt 
(10000) s
5182 3669 mt 5182 3631 L
5182  309 mt 5182  346 L
5016 3814 mt 
(11000) s
1450 3669 mt 1487 3669 L
5182 3669 mt 5144 3669 L
1349 3713 mt 
(0) s
1450 3189 mt 1487 3189 L
5182 3189 mt 5144 3189 L
1249 3233 mt 
(0.1) s
1450 2709 mt 1487 2709 L
5182 2709 mt 5144 2709 L
1249 2753 mt 
(0.2) s
1450 2229 mt 1487 2229 L
5182 2229 mt 5144 2229 L
1249 2273 mt 
(0.3) s
1450 1749 mt 1487 1749 L
5182 1749 mt 5144 1749 L
1249 1793 mt 
(0.4) s
1450 1269 mt 1487 1269 L
5182 1269 mt 5144 1269 L
1249 1313 mt 
(0.5) s
1450  789 mt 1487  789 L
5182  789 mt 5144  789 L
1249  833 mt 
(0.6) s
1450  309 mt 1487  309 L
5182  309 mt 5144  309 L
1249  353 mt 
(0.7) s
1450 3669 mt 5182 3669 L
1450  309 mt 5182  309 L
1450 3669 mt 1450  309 L
5182 3669 mt 5182  309 L
gs 1450 309 3733 3361 rc
12 w
448 69 447 277 448 -462 448 52 448 283 448 81 448 -114 447 -103 
1450 636 9 MP stroke
gr

12 w
0 j
0 -94 -94 0 0 94 94 0 1403 589 5 MP
gs
PP
gr
DP
0 -94 -94 0 0 94 94 0 1850 486 5 MP
gs
PP
gr
DP
0 -94 -94 0 0 94 94 0 2298 372 5 MP
gs
PP
gr
DP
0 -94 -94 0 0 94 94 0 2746 453 5 MP
gs
PP
gr
DP
0 -94 -94 0 0 94 94 0 3194 736 5 MP
gs
PP
gr
DP
0 -94 -94 0 0 94 94 0 3642 788 5 MP
gs
PP
gr
DP
0 -94 -94 0 0 94 94 0 4090 326 5 MP
gs
PP
gr
DP
0 -94 -94 0 0 94 94 0 4537 603 5 MP
gs
PP
gr
DP
0 -94 -94 0 0 94 94 0 4985 672 5 MP
gs
PP
gr
DP
gs 1450 309 3733 3361 rc
gr

%%IncludeResource: font Helvetica
/Helvetica /ISOLatin1Encoding 168 FMSR

3194 3992 mt 
(t\(s\)) s
1157 2410 mt  -90 rotate
(Spread \(m\)) s
90 rotate
2650  204 mt 
(Surface height \(a\)) s
gs 1450 309 3733 3361 rc
448 4 447 3 448 198 448 8 448 -1 448 1135 448 48 447 66 
1450 1880 9 MP stroke
gr

  60   60 1450 1880 PO
  60   60 1897 1946 PO
  60   60 2345 1994 PO
  60   60 2793 3129 PO
  60   60 3241 3128 PO
  60   60 3689 3136 PO
  60   60 4137 3334 PO
  60   60 4584 3337 PO
  60   60 5032 3341 PO
  60   60 1450 1880 FO
  60   60 1897 1946 FO
  60   60 2345 1994 FO
  60   60 2793 3129 FO
  60   60 3241 3128 FO
  60   60 3689 3136 FO
  60   60 4137 3334 FO
  60   60 4584 3337 FO
  60   60 5032 3341 FO
gs 1450 309 3733 3361 rc
6 w
gr

6 w
1 sg
0 3361 3733 0 0 -3361 6360 3669 4 MP
PP
-3733 0 0 3361 3733 0 0 -3361 6360 3669 5 MP stroke
4 w
DO
SO
6 w
0 sg
6360 3669 mt 10093 3669 L
6360  308 mt 10093  308 L
6360 3669 mt 6360  308 L
10093 3669 mt 10093  308 L
6360 3669 mt 10093 3669 L
6360 3669 mt 6360  308 L
6360 3669 mt 6360 3631 L
6360  309 mt 6360  346 L
%%IncludeResource: font Helvetica
/Helvetica /ISOLatin1Encoding 120 FMSR

6227 3814 mt 
(6000) s
7106 3669 mt 7106 3631 L
7106  309 mt 7106  346 L
6973 3814 mt 
(7000) s
7853 3669 mt 7853 3631 L
7853  309 mt 7853  346 L
7720 3814 mt 
(8000) s
8599 3669 mt 8599 3631 L
8599  309 mt 8599  346 L
8466 3814 mt 
(9000) s
9346 3669 mt 9346 3631 L
9346  309 mt 9346  346 L
9180 3814 mt 
(10000) s
10093 3669 mt 10093 3631 L
10093  309 mt 10093  346 L
9927 3814 mt 
(11000) s
6360 3669 mt 6397 3669 L
10093 3669 mt 10055 3669 L
6259 3713 mt 
(0) s
6360 3189 mt 6397 3189 L
10093 3189 mt 10055 3189 L
6092 3233 mt 
(0.01) s
6360 2709 mt 6397 2709 L
10093 2709 mt 10055 2709 L
6092 2753 mt 
(0.02) s
6360 2229 mt 6397 2229 L
10093 2229 mt 10055 2229 L
6092 2273 mt 
(0.03) s
6360 1749 mt 6397 1749 L
10093 1749 mt 10055 1749 L
6092 1793 mt 
(0.04) s
6360 1269 mt 6397 1269 L
10093 1269 mt 10055 1269 L
6092 1313 mt 
(0.05) s
6360  789 mt 6397  789 L
10093  789 mt 10055  789 L
6092  833 mt 
(0.06) s
6360  309 mt 6397  309 L
10093  309 mt 10055  309 L
6092  353 mt 
(0.07) s
6360 3669 mt 10093 3669 L
6360  308 mt 10093  308 L
6360 3669 mt 6360  308 L
10093 3669 mt 10093  308 L
gs 6360 309 3734 3361 rc
12 w
448 41 448 -55 448 -17 448 20 448 -50 448 34 448 -32 447 -22 
6360 904 9 MP stroke
gr

12 w
0 -94 -94 0 0 94 94 0 6313 857 5 MP
gs
PP
gr
DP
0 -94 -94 0 0 94 94 0 6760 835 5 MP
gs
PP
gr
DP
0 -94 -94 0 0 94 94 0 7208 803 5 MP
gs
PP
gr
DP
0 -94 -94 0 0 94 94 0 7656 837 5 MP
gs
PP
gr
DP
0 -94 -94 0 0 94 94 0 8104 787 5 MP
gs
PP
gr
DP
0 -94 -94 0 0 94 94 0 8552 807 5 MP
gs
PP
gr
DP
0 -94 -94 0 0 94 94 0 9000 790 5 MP
gs
PP
gr
DP
0 -94 -94 0 0 94 94 0 9448 735 5 MP
gs
PP
gr
DP
0 -94 -94 0 0 94 94 0 9896 776 5 MP
gs
PP
gr
DP
gs 6360 309 3734 3361 rc
gr

%%IncludeResource: font Helvetica
/Helvetica /ISOLatin1Encoding 168 FMSR

8104 3992 mt 
(t\(s\)) s
6000 2475 mt  -90 rotate
(Spread \(m/s\)) s
90 rotate
7813  204 mt 
(Velocity \(b\)) s
gs 6360 309 3734 3361 rc
448 7 448 5 448 86 448 7 448 14 448 631 448 0 447 2 
6360 2748 9 MP stroke
gr

  60   60 6360 2748 PO
  60   60 6807 2750 PO
  60   60 7255 2750 PO
  60   60 7703 3381 PO
  60   60 8151 3395 PO
  60   60 8599 3402 PO
  60   60 9047 3488 PO
  60   60 9495 3493 PO
  60   60 9943 3500 PO
  60   60 6360 2748 FO
  60   60 6807 2750 FO
  60   60 7255 2750 FO
  60   60 7703 3381 FO
  60   60 8151 3395 FO
  60   60 8599 3402 FO
  60   60 9047 3488 FO
  60   60 9495 3493 FO
  60   60 9943 3500 FO
gs 6360 309 3734 3361 rc
gr

%%IncludeResource: font Helvetica
/Helvetica /ISOLatin1Encoding 120 FMSR

6343 3712 mt 
( ) s
10077  351 mt 
( ) s
6 w
1 sg
0 509 1833 0 0 -509 8171 1585 4 MP
PP
-1833 0 0 509 1833 0 0 -509 8171 1585 5 MP stroke
4 w
DO
SO
6 w
0 sg
8171 1585 mt 10004 1585 L
8171 1076 mt 10004 1076 L
8171 1585 mt 8171 1076 L
10004 1585 mt 10004 1076 L
8171 1585 mt 10004 1585 L
8171 1585 mt 8171 1076 L
8171 1585 mt 10004 1585 L
8171 1076 mt 10004 1076 L
8171 1585 mt 8171 1076 L
10004 1585 mt 10004 1076 L
%%IncludeResource: font Helvetica
/Helvetica /ISOLatin1Encoding 168 FMSR

8662 1274 mt 
(Subgrid model) s
gs 8171 1076 1834 510 rc
12 w
377 0 8246 1213 2 MP stroke
gr

12 w
0 -94 -94 0 0 94 94 0 8387 1166 5 MP
gs
PP
gr
DP
gs 8171 1076 1834 510 rc
gr

8662 1508 mt 
(Standard model) s
gs 8171 1076 1834 510 rc
377 0 8246 1447 2 MP stroke
gr

  60   60 8434 1447 PO
  60   60 8434 1447 FO
gs 8171 1076 1834 510 rc
6 w
gr

6 w

end %%Color Dict

eplot
%%EndObject

epage
end

showpage

%%Trailer
%%EOF
