%!PS-Adobe-3.0 EPSF-3.0
%%Creator: MATLAB, The MathWorks, Inc. Version 7.12.0.635 (R2011a). Operating System: Darwin 11.4.2 Darwin Kernel Version 11.4.2: Thu Aug 23 16:25:48 PDT 2012; root:xnu-1699.32.7~1/RELEASE_X86_64 x86_64.
%%Title: /Users/yiyang/Dropbox/Thesis2014/chapter_envarpara/fig/2d.eps
%%CreationDate: 11/01/2014  19:52:47
%%DocumentNeededFonts: Helvetica
%%DocumentProcessColors: Cyan Magenta Yellow Black
%%LanguageLevel: 2
%%Pages: 1
%%BoundingBox:   -77    14   691   777
%%EndComments

%%BeginProlog
% MathWorks dictionary
/MathWorks 160 dict begin
% definition operators
/bdef {bind def} bind def
/ldef {load def} bind def
/xdef {exch def} bdef
/xstore {exch store} bdef
% operator abbreviations
/c  /clip ldef
/cc /concat ldef
/cp /closepath ldef
/gr /grestore ldef
/gs /gsave ldef
/mt /moveto ldef
/np /newpath ldef
/cm /currentmatrix ldef
/sm /setmatrix ldef
/rm /rmoveto ldef
/rl /rlineto ldef
/s {show newpath} bdef
/sc {setcmykcolor} bdef
/sr /setrgbcolor ldef
/sg /setgray ldef
/w /setlinewidth ldef
/j /setlinejoin ldef
/cap /setlinecap ldef
/rc {rectclip} bdef
/rf {rectfill} bdef
% page state control
/pgsv () def
/bpage {/pgsv save def} bdef
/epage {pgsv restore} bdef
/bplot /gsave ldef
/eplot {stroke grestore} bdef
% orientation switch
/portraitMode 0 def /landscapeMode 1 def /rotateMode 2 def
% coordinate system mappings
/dpi2point 0 def
% font control
/FontSize 0 def
/FMS {/FontSize xstore findfont [FontSize 0 0 FontSize neg 0 0]
  makefont setfont} bdef
/reencode {exch dup where {pop load} {pop StandardEncoding} ifelse
  exch dup 3 1 roll findfont dup length dict begin
  { 1 index /FID ne {def}{pop pop} ifelse } forall
  /Encoding exch def currentdict end definefont pop} bdef
/isroman {findfont /CharStrings get /Agrave known} bdef
/FMSR {3 1 roll 1 index dup isroman {reencode} {pop pop} ifelse
  exch FMS} bdef
/csm {1 dpi2point div -1 dpi2point div scale neg translate
 dup landscapeMode eq {pop -90 rotate}
  {rotateMode eq {90 rotate} if} ifelse} bdef
% line types: solid, dotted, dashed, dotdash
/SO { [] 0 setdash } bdef
/DO { [.5 dpi2point mul 4 dpi2point mul] 0 setdash } bdef
/DA { [6 dpi2point mul] 0 setdash } bdef
/DD { [.5 dpi2point mul 4 dpi2point mul 6 dpi2point mul 4
  dpi2point mul] 0 setdash } bdef
% macros for lines and objects
/L {lineto stroke} bdef
/MP {3 1 roll moveto 1 sub {rlineto} repeat} bdef
/AP {{rlineto} repeat} bdef
/PDlw -1 def
/W {/PDlw currentlinewidth def setlinewidth} def
/PP {closepath eofill} bdef
/DP {closepath stroke} bdef
/MR {4 -2 roll moveto dup  0 exch rlineto exch 0 rlineto
  neg 0 exch rlineto closepath} bdef
/FR {MR stroke} bdef
/PR {MR fill} bdef
/L1i {{currentfile picstr readhexstring pop} image} bdef
/tMatrix matrix def
/MakeOval {newpath tMatrix currentmatrix pop translate scale
0 0 1 0 360 arc tMatrix setmatrix} bdef
/FO {MakeOval stroke} bdef
/PO {MakeOval fill} bdef
/PD {currentlinewidth 2 div 0 360 arc fill
   PDlw -1 eq not {PDlw w /PDlw -1 def} if} def
/FA {newpath tMatrix currentmatrix pop translate scale
  0 0 1 5 -2 roll arc tMatrix setmatrix stroke} bdef
/PA {newpath tMatrix currentmatrix pop	translate 0 0 moveto scale
  0 0 1 5 -2 roll arc closepath tMatrix setmatrix fill} bdef
/FAn {newpath tMatrix currentmatrix pop translate scale
  0 0 1 5 -2 roll arcn tMatrix setmatrix stroke} bdef
/PAn {newpath tMatrix currentmatrix pop translate 0 0 moveto scale
  0 0 1 5 -2 roll arcn closepath tMatrix setmatrix fill} bdef
/vradius 0 def /hradius 0 def /lry 0 def
/lrx 0 def /uly 0 def /ulx 0 def /rad 0 def
/MRR {/vradius xdef /hradius xdef /lry xdef /lrx xdef /uly xdef
  /ulx xdef newpath tMatrix currentmatrix pop ulx hradius add uly
  vradius add translate hradius vradius scale 0 0 1 180 270 arc 
  tMatrix setmatrix lrx hradius sub uly vradius add translate
  hradius vradius scale 0 0 1 270 360 arc tMatrix setmatrix
  lrx hradius sub lry vradius sub translate hradius vradius scale
  0 0 1 0 90 arc tMatrix setmatrix ulx hradius add lry vradius sub
  translate hradius vradius scale 0 0 1 90 180 arc tMatrix setmatrix
  closepath} bdef
/FRR {MRR stroke } bdef
/PRR {MRR fill } bdef
/MlrRR {/lry xdef /lrx xdef /uly xdef /ulx xdef /rad lry uly sub 2 div def
  newpath tMatrix currentmatrix pop ulx rad add uly rad add translate
  rad rad scale 0 0 1 90 270 arc tMatrix setmatrix lrx rad sub lry rad
  sub translate rad rad scale 0 0 1 270 90 arc tMatrix setmatrix
  closepath} bdef
/FlrRR {MlrRR stroke } bdef
/PlrRR {MlrRR fill } bdef
/MtbRR {/lry xdef /lrx xdef /uly xdef /ulx xdef /rad lrx ulx sub 2 div def
  newpath tMatrix currentmatrix pop ulx rad add uly rad add translate
  rad rad scale 0 0 1 180 360 arc tMatrix setmatrix lrx rad sub lry rad
  sub translate rad rad scale 0 0 1 0 180 arc tMatrix setmatrix
  closepath} bdef
/FtbRR {MtbRR stroke } bdef
/PtbRR {MtbRR fill } bdef
/stri 6 array def /dtri 6 array def
/smat 6 array def /dmat 6 array def
/tmat1 6 array def /tmat2 6 array def /dif 3 array def
/asub {/ind2 exch def /ind1 exch def dup dup
  ind1 get exch ind2 get sub exch } bdef
/tri_to_matrix {
  2 0 asub 3 1 asub 4 0 asub 5 1 asub
  dup 0 get exch 1 get 7 -1 roll astore } bdef
/compute_transform {
  dmat dtri tri_to_matrix tmat1 invertmatrix 
  smat stri tri_to_matrix tmat2 concatmatrix } bdef
/ds {stri astore pop} bdef
/dt {dtri astore pop} bdef
/db {2 copy /cols xdef /rows xdef mul dup 3 mul string
  currentfile 
  3 index 0 eq {/ASCIIHexDecode filter}
  {/ASCII85Decode filter 3 index 2 eq {/RunLengthDecode filter} if }
  ifelse exch readstring pop
  dup 0 3 index getinterval /rbmap xdef
  dup 2 index dup getinterval /gbmap xdef
  1 index dup 2 mul exch getinterval /bbmap xdef pop pop}bdef
/it {gs np dtri aload pop moveto lineto lineto cp c
  cols rows 8 compute_transform 
  rbmap gbmap bbmap true 3 colorimage gr}bdef
/il {newpath moveto lineto stroke}bdef
currentdict end def
%%EndProlog

%%BeginSetup
MathWorks begin

0 cap

end
%%EndSetup

%%Page: 1 1
%%BeginPageSetup
%%PageBoundingBox:   -77    14   691   777
MathWorks begin
bpage
%%EndPageSetup

%%BeginObject: obj1
bplot

/dpi2point 12 def
portraitMode -0924 9324 csm

    0     0  9224  9145 rc
87 dict begin %Colortable dictionary
/c0 { 0.000000 0.000000 0.000000 sr} bdef
/c1 { 1.000000 1.000000 1.000000 sr} bdef
/c2 { 0.900000 0.000000 0.000000 sr} bdef
/c3 { 0.000000 0.820000 0.000000 sr} bdef
/c4 { 0.000000 0.000000 0.800000 sr} bdef
/c5 { 0.910000 0.820000 0.320000 sr} bdef
/c6 { 1.000000 0.260000 0.820000 sr} bdef
/c7 { 0.000000 0.820000 0.820000 sr} bdef
c0
1 j
1 sg
   0    0 9225 9146 rf
6 w
0 3120 7149 0 0 -3120 1199 3806 4 MP
PP
-7149 0 0 3120 7149 0 0 -3120 1199 3806 5 MP stroke
4 w
DO
SO
6 w
0 sg
1199 3806 mt 8348 3806 L
1199  686 mt 8348  686 L
1199 3806 mt 1199  686 L
8348 3806 mt 8348  686 L
1199 3806 mt 8348 3806 L
1199 3806 mt 1199  686 L
1199 3806 mt 1199 3734 L
1199  686 mt 1199  757 L
%%IncludeResource: font Helvetica
/Helvetica /ISOLatin1Encoding 120 FMSR

1066 3951 mt 
(6000) s
2787 3806 mt 2787 3734 L
2787  686 mt 2787  757 L
2654 3951 mt 
(6500) s
4376 3806 mt 4376 3734 L
4376  686 mt 4376  757 L
4243 3951 mt 
(7000) s
5965 3806 mt 5965 3734 L
5965  686 mt 5965  757 L
5832 3951 mt 
(7500) s
7553 3806 mt 7553 3734 L
7553  686 mt 7553  757 L
7420 3951 mt 
(8000) s
1199 3806 mt 1270 3806 L
8348 3806 mt 8276 3806 L
1098 3850 mt 
(0) s
1199 3416 mt 1270 3416 L
8348 3416 mt 8276 3416 L
1098 3460 mt 
(2) s
1199 3026 mt 1270 3026 L
8348 3026 mt 8276 3026 L
1098 3070 mt 
(4) s
1199 2636 mt 1270 2636 L
8348 2636 mt 8276 2636 L
1098 2680 mt 
(6) s
1199 2246 mt 1270 2246 L
8348 2246 mt 8276 2246 L
1098 2290 mt 
(8) s
1199 1856 mt 1270 1856 L
8348 1856 mt 8276 1856 L
1031 1900 mt 
(10) s
1199 1466 mt 1270 1466 L
8348 1466 mt 8276 1466 L
1031 1510 mt 
(12) s
1199 1076 mt 1270 1076 L
8348 1076 mt 8276 1076 L
1031 1120 mt 
(14) s
1199  686 mt 1270  686 L
8348  686 mt 8276  686 L
1031  730 mt 
(16) s
1199 3806 mt 8348 3806 L
1199  686 mt 8348  686 L
1199 3806 mt 1199  686 L
8348 3806 mt 8348  686 L
gs 1199 686 7150 3121 rc
24 w
/c8 { 0.000000 1.000000 0.000000 sr} bdef
c8
120 -11 119 -11 119 -11 119 -10 119 -11 119 -12 120 -11 119 -11 
119 -11 119 -11 119 -11 119 -12 119 -11 120 -11 119 -12 119 -11 
119 -12 119 -12 119 -11 119 -12 120 -12 119 -11 119 -12 119 -12 
119 -12 119 -12 120 -11 119 -12 119 -12 119 -12 119 -12 119 -12 
119 -11 120 -12 119 -12 119 -11 119 -12 119 -12 119 -11 119 -11 
120 -11 119 -12 119 -11 119 -10 119 -11 119 -11 120 -10 119 -11 
119 -10 119 -10 119 -10 119 -10 119 -9 120 -10 119 -9 119 -9 
119 -9 119 -9 119 -9 119 -8 1199 1529 61 MP stroke
gr

24 w
c8
/c9 { 0.000000 0.000000 1.000000 sr} bdef
c9
  36   36 1199 3610 FO
  36   36 1675 3613 FO
  36   36 2152 3603 FO
  36   36 2628 3614 FO
  36   36 3105 3612 FO
  36   36 3582 3622 FO
  36   36 4058 3612 FO
  36   36 4535 3612 FO
  36   36 5011 3611 FO
  36   36 5488 3615 FO
  36   36 5965 3604 FO
  36   36 6441 3613 FO
  36   36 6918 3615 FO
  36   36 7394 3613 FO
  36   36 7871 3606 FO
gs 1199 686 7150 3121 rc
0 sg
120 -10 119 -10 119 -11 119 -11 119 -11 119 -11 120 -11 119 -12 
119 -11 119 -12 119 -12 119 -12 119 -11 120 -12 119 -13 119 -13 
119 -13 119 -13 119 -13 119 -13 120 -13 119 -13 119 -12 119 -12 
119 -1 119 -11 120 -10 119 -10 119 -7 119 -7 119 -4 119 -2 
119 1 120 5 119 8 119 13 119 162 119 -9 119 -4 119 4 
120 10 119 20 119 31 119 41 119 55 119 69 120 85 119 102 
119 876 119 -175 119 -187 119 -198 119 -210 120 -221 119 -231 119 -238 
119 -239 119 -222 119 -171 119 -57 1199 2979 61 MP stroke
gr

0 sg
%%IncludeResource: font Helvetica
/Helvetica /ISOLatin1Encoding 168 FMSR

4651 4129 mt 
(t\(s\)) s
 939 2616 mt  -90 rotate
(RMSE\(m\)) s
90 rotate
4108  581 mt 
(Surface height \(a\)) s
gs 1199 686 7150 3121 rc
/c10 { 1.000000 0.000000 0.000000 sr} bdef
c10
120 -15 119 -15 119 -16 119 -15 119 -15 119 -16 120 -16 119 -16 
119 -16 119 -16 119 -16 119 -16 119 -16 120 -16 119 -17 119 -17 
119 -17 119 -17 119 -17 119 -17 120 -18 119 -17 119 -18 119 -18 
119 -13 119 -18 120 -18 119 -18 119 -19 119 -19 119 -18 119 -20 
119 -19 120 -19 119 -20 119 -20 119 -1 119 -20 119 -20 119 -19 
120 -20 119 -19 119 -20 119 -18 119 -18 119 -17 120 -16 119 -14 
119 75 119 -28 119 -27 119 -25 119 -24 120 -22 119 -18 119 -15 
119 -11 119 -4 119 1 119 9 1199 3106 61 MP stroke
DA
0 sg
120 -12 119 -12 119 -12 119 -12 119 -12 119 -13 120 -12 119 -13 
119 -12 119 -13 119 -13 119 -13 119 -13 120 -13 119 -13 119 -13 
119 -14 119 -13 119 -14 119 -14 120 -14 119 -14 119 -14 119 -14 
119 -13 119 -14 120 -15 119 -14 119 -15 119 -14 119 -15 119 -15 
119 -15 120 -15 119 -15 119 -15 119 -12 119 -14 119 -14 119 -13 
120 -13 119 -11 119 -10 119 -9 119 -6 119 -3 120 0 119 6 
119 52 119 -30 119 -32 119 -32 119 -32 120 -32 119 -30 119 -28 
119 -24 119 -18 119 -9 119 2 1199 2806 61 MP stroke
SO
/c11 { 0.749020 0.000000 0.749020 sr} bdef
c11
120 -17 119 -18 119 -19 119 -18 119 -18 119 -19 120 -19 119 -19 
119 -19 119 -20 119 -19 119 -20 119 -20 120 -20 119 -20 119 -20 
119 -21 119 -20 119 -21 119 -21 120 -21 119 -21 119 -22 119 -22 
119 -19 119 -21 120 -22 119 -22 119 -22 119 -23 119 -22 119 -23 
119 -23 120 -23 119 -24 119 -24 119 -8 119 -23 119 -23 119 -22 
120 -23 119 -23 119 -23 119 -22 119 -21 119 -20 120 -19 119 -18 
119 125 119 -38 119 -37 119 -34 119 -29 120 -23 119 -15 119 -7 
119 5 119 17 119 28 119 40 1199 3191 61 MP stroke
/c12 { 0.000000 1.000000 1.000000 sr} bdef
c12
120 -21 119 -22 119 -22 119 -22 119 -23 119 -24 120 -24 119 -24 
119 -25 119 -25 119 -25 119 -26 119 207 120 -21 119 -22 119 -22 
119 -23 119 -23 119 -24 119 -23 120 -24 119 -25 119 -24 119 -25 
119 221 119 -20 120 -21 119 -21 119 -22 119 -22 119 -22 119 -22 
119 -23 120 -23 119 -22 119 -23 119 310 119 -18 119 -17 119 -18 
120 -18 119 -19 119 -19 119 -19 119 -20 119 -20 120 -20 119 -20 
119 331 119 -13 119 -14 119 -14 119 -14 120 -15 119 -15 119 -16 
119 -15 119 -16 119 -17 119 -16 1199 2212 61 MP stroke
6 w
gr

6 w
c12
1 sg
0 3120 7149 0 0 -3120 1199 8139 4 MP
PP
-7149 0 0 3120 7149 0 0 -3120 1199 8139 5 MP stroke
4 w
DO
SO
6 w
0 sg
1199 8139 mt 8348 8139 L
1199 5019 mt 8348 5019 L
1199 8139 mt 1199 5019 L
8348 8139 mt 8348 5019 L
1199 8139 mt 8348 8139 L
1199 8139 mt 1199 5019 L
1199 8139 mt 1199 8067 L
1199 5019 mt 1199 5090 L
%%IncludeResource: font Helvetica
/Helvetica /ISOLatin1Encoding 120 FMSR

1066 8284 mt 
(6000) s
2787 8139 mt 2787 8067 L
2787 5019 mt 2787 5090 L
2654 8284 mt 
(6500) s
4376 8139 mt 4376 8067 L
4376 5019 mt 4376 5090 L
4243 8284 mt 
(7000) s
5965 8139 mt 5965 8067 L
5965 5019 mt 5965 5090 L
5832 8284 mt 
(7500) s
7553 8139 mt 7553 8067 L
7553 5019 mt 7553 5090 L
7420 8284 mt 
(8000) s
1199 8139 mt 1270 8139 L
8348 8139 mt 8276 8139 L
1098 8183 mt 
(0) s
1199 7749 mt 1270 7749 L
8348 7749 mt 8276 7749 L
 998 7793 mt 
(0.1) s
1199 7359 mt 1270 7359 L
8348 7359 mt 8276 7359 L
 998 7403 mt 
(0.2) s
1199 6969 mt 1270 6969 L
8348 6969 mt 8276 6969 L
 998 7013 mt 
(0.3) s
1199 6579 mt 1270 6579 L
8348 6579 mt 8276 6579 L
 998 6623 mt 
(0.4) s
1199 6189 mt 1270 6189 L
8348 6189 mt 8276 6189 L
 998 6233 mt 
(0.5) s
1199 5799 mt 1270 5799 L
8348 5799 mt 8276 5799 L
 998 5843 mt 
(0.6) s
1199 5409 mt 1270 5409 L
8348 5409 mt 8276 5409 L
 998 5453 mt 
(0.7) s
1199 5019 mt 1270 5019 L
8348 5019 mt 8276 5019 L
 998 5063 mt 
(0.8) s
1199 8139 mt 8348 8139 L
1199 5019 mt 8348 5019 L
1199 8139 mt 1199 5019 L
8348 8139 mt 8348 5019 L
gs 1199 5019 7150 3121 rc
24 w
c8
120 -9 119 -8 119 -9 119 -9 119 -9 119 -8 120 -9 119 -9 
119 -8 119 -9 119 -9 119 -9 119 -8 120 -9 119 -9 119 -9 
119 -9 119 -8 119 -9 119 -9 120 -9 119 -9 119 -9 119 -10 
119 -9 119 -9 120 -9 119 -10 119 -9 119 -10 119 -9 119 -10 
119 -10 120 -10 119 -10 119 -10 119 -10 119 -11 119 -10 119 -10 
120 -11 119 -11 119 -11 119 -11 119 -11 119 -11 120 -12 119 -11 
119 -12 119 -12 119 -12 119 -12 119 -12 120 -13 119 -12 119 -13 
119 -12 119 -13 119 -13 119 -13 1199 5663 61 MP stroke
gr

24 w
c8
gs 1101 8000 6869 200 rc
c9
  36   36 1199 8100 FO
  36   36 1675 8100 FO
  36   36 2152 8099 FO
  36   36 2628 8100 FO
  36   36 3105 8098 FO
  36   36 3582 8100 FO
  36   36 4058 8099 FO
  36   36 4535 8099 FO
  36   36 5011 8098 FO
  36   36 5488 8101 FO
  36   36 5965 8099 FO
  36   36 6441 8100 FO
  36   36 6918 8100 FO
  36   36 7394 8099 FO
  36   36 7871 8101 FO
gr

c9
gs 1199 5019 7150 3121 rc
0 sg
120 -25 119 -26 119 -26 119 -25 119 -26 119 -26 120 -26 119 -26 
119 -26 119 -26 119 -25 119 -26 119 -25 120 -25 119 -25 119 -25 
119 -25 119 -24 119 -24 119 -23 120 -23 119 -22 119 -22 119 -22 
119 -16 119 -20 120 -20 119 -19 119 -19 119 -18 119 -18 119 -18 
119 -17 120 -18 119 -17 119 -18 119 17 119 -20 119 -22 119 -24 
120 -25 119 -28 119 -30 119 -35 119 -37 119 -42 120 -47 119 -51 
119 97 119 -78 119 -72 119 -65 119 -56 120 -46 119 -35 119 -24 
119 -14 119 -5 119 0 119 4 1199 7754 61 MP stroke
gr

0 sg
%%IncludeResource: font Helvetica
/Helvetica /ISOLatin1Encoding 168 FMSR

4651 8462 mt 
(t\(s\)) s
 906 7014 mt  -90 rotate
(RMSE\(m/s\)) s
90 rotate
3916 4914 mt 
(Lenthgwise Velocity \(b\)) s
gs 1199 5019 7150 3121 rc
c10
120 -22 119 -22 119 -22 119 -22 119 -23 119 -23 120 -23 119 -23 
119 -23 119 -24 119 -23 119 -24 119 -21 120 -24 119 -25 119 -24 
119 -25 119 -26 119 -25 119 -26 120 -26 119 -26 119 -26 119 -26 
119 -17 119 -27 120 -27 119 -27 119 -28 119 -27 119 -27 119 -28 
119 -27 120 -27 119 -27 119 -27 119 -10 119 -27 119 -26 119 -26 
120 -25 119 -25 119 -24 119 -23 119 -21 119 -20 120 -19 119 -17 
119 7 119 -17 119 -14 119 -12 119 -10 120 -7 119 -5 119 -3 
119 0 119 2 119 4 119 5 1199 7694 61 MP stroke
gr

c10
0 sg
%%IncludeResource: font Helvetica
/Helvetica /ISOLatin1Encoding 120 FMSR

1182 8182 mt 
( ) s
8332 5061 mt 
( ) s
gs 1199 5019 7150 3121 rc
DA
120 -25 119 -24 119 -25 119 -25 119 -25 119 -25 120 -25 119 -26 
119 -25 119 -26 119 -26 119 -26 119 -25 120 -27 119 -26 119 -27 
119 -27 119 -27 119 -27 119 -27 120 -28 119 -27 119 -28 119 -28 
119 -24 119 -28 120 -28 119 -28 119 -28 119 -28 119 -29 119 -28 
119 -28 120 -27 119 -28 119 -27 119 -23 119 -27 119 -27 119 -26 
120 -26 119 -26 119 -25 119 -25 119 -24 119 -23 120 -23 119 -22 
119 -14 119 -20 119 -17 119 -15 119 -11 120 -7 119 -5 119 -1 
119 1 119 4 119 6 119 8 1199 7647 61 MP stroke
SO
c11
120 -20 119 -20 119 -20 119 -20 119 -20 119 -21 120 -20 119 -21 
119 -20 119 -21 119 -21 119 -21 119 -13 120 -22 119 -21 119 -22 
119 -22 119 -22 119 -23 119 -22 120 -23 119 -23 119 -23 119 -24 
119 -7 119 -24 120 -25 119 -24 119 -25 119 -25 119 -25 119 -26 
119 -25 120 -25 119 -26 119 -25 119 5 119 -27 119 -26 119 -26 
120 -25 119 -25 119 -24 119 -24 119 -22 119 -21 120 -20 119 -18 
119 21 119 -21 119 -20 119 -16 119 -15 120 -11 119 -9 119 -6 
119 -4 119 0 119 1 119 4 1199 7804 61 MP stroke
c12
120 -23 119 -22 119 -20 119 -18 119 -16 119 -15 120 -12 119 -10 
119 -7 119 -5 119 -3 119 -1 119 106 120 -20 119 -18 119 -17 
119 -14 119 -13 119 -10 119 -9 120 -6 119 -3 119 -2 119 1 
119 102 119 -19 120 -17 119 -15 119 -13 119 -11 119 -9 119 -7 
119 -4 120 -2 119 0 119 3 119 112 119 -17 119 -16 119 -13 
120 -11 119 -9 119 -6 119 -4 119 -2 119 1 120 3 119 6 
119 151 119 -14 119 -13 119 -10 119 -9 120 -7 119 -5 119 -3 
119 -1 119 1 119 3 119 4 1199 7389 61 MP stroke
6 w
gr

6 w
c12
1 sg
0 1677 2409 0 0 -1677 1596 6872 4 MP
PP
-2409 0 0 1677 2409 0 0 -1677 1596 6872 5 MP stroke
4 w
DO
SO
6 w
0 sg
1596 6872 mt 4005 6872 L
1596 5195 mt 4005 5195 L
1596 6872 mt 1596 5195 L
4005 6872 mt 4005 5195 L
1596 6872 mt 4005 6872 L
1596 6872 mt 1596 5195 L
1596 6872 mt 4005 6872 L
1596 5195 mt 4005 5195 L
1596 6872 mt 1596 5195 L
4005 6872 mt 4005 5195 L
%%IncludeResource: font Helvetica
/Helvetica /ISOLatin1Encoding 168 FMSR

2097 5393 mt 
(Large scale simulation) s
gs 1596 5195 2410 1678 rc
24 w
c8
385 0 1672 5332 2 MP stroke
gr

24 w
c8
0 sg
2097 5627 mt 
(Fine sclae observation) s
gs 1596 5195 2410 1678 rc
gs 1767 5468 197 197 rc
c9
  36   36 1865 5566 FO
gr

c9
gr

c9
0 sg
2097 5860 mt 
(LE,N128, beta=1) s
gs 1596 5195 2410 1678 rc
385 0 1672 5799 2 MP stroke
gr

2097 6094 mt 
(LE,N256,beta=0.5) s
gs 1596 5195 2410 1678 rc
c10
385 0 1672 6033 2 MP stroke
gr

c10
0 sg
2097 6328 mt 
(LE,N128, beta=.5) s
gs 1596 5195 2410 1678 rc
DA
385 0 1672 6267 2 MP stroke
SO
gr

2097 6561 mt 
(LE,N512,beta=0.5) s
gs 1596 5195 2410 1678 rc
c11
385 0 1672 6500 2 MP stroke
gr

c11
0 sg
2097 6795 mt 
(LC,N32,beta=0.25) s
gs 1596 5195 2410 1678 rc
c12
385 0 1672 6734 2 MP stroke
6 w
gr

6 w
c12

end %%Color Dict

eplot
%%EndObject

epage
end

showpage

%%Trailer
%%EOF
