%!PS-Adobe-3.0 EPSF-3.0
%%Creator: (MATLAB, The Mathworks, Inc. Version 9.2.0.538062 \(R2017a\). Operating System: Mac OS X)
%%Title: (/Users/yin.yang/Google Drive/Documents/Paper/IrsteaSlides/fig/costfun.eps)
%%CreationDate: 2018-01-25T11:33:58
%%Pages: (atend)
%%BoundingBox: 0 0 560 420
%%LanguageLevel: 3
%%EndComments
%%BeginProlog
%%BeginResource: procset (Apache XML Graphics Std ProcSet) 1.2 0
%%Version: 1.2 0
%%Copyright: (Copyright 2001-2003,2010 The Apache Software Foundation. License terms: http://www.apache.org/licenses/LICENSE-2.0)
/bd{bind def}bind def
/ld{load def}bd
/GR/grestore ld
/M/moveto ld
/LJ/setlinejoin ld
/C/curveto ld
/f/fill ld
/LW/setlinewidth ld
/GC/setgray ld
/t/show ld
/N/newpath ld
/CT/concat ld
/cp/closepath ld
/S/stroke ld
/L/lineto ld
/CC/setcmykcolor ld
/A/ashow ld
/GS/gsave ld
/RC/setrgbcolor ld
/RM/rmoveto ld
/ML/setmiterlimit ld
/re {4 2 roll M
1 index 0 rlineto
0 exch rlineto
neg 0 rlineto
cp } bd
/_ctm matrix def
/_tm matrix def
/BT { _ctm currentmatrix pop matrix _tm copy pop 0 0 moveto } bd
/ET { _ctm setmatrix } bd
/iTm { _ctm setmatrix _tm concat } bd
/Tm { _tm astore pop iTm 0 0 moveto } bd
/ux 0.0 def
/uy 0.0 def
/F {
  /Tp exch def
  /Tf exch def
  Tf findfont Tp scalefont setfont
  /cf Tf def  /cs Tp def
} bd
/ULS {currentpoint /uy exch def /ux exch def} bd
/ULE {
  /Tcx currentpoint pop def
  gsave
  newpath
  cf findfont cs scalefont dup
  /FontMatrix get 0 get /Ts exch def /FontInfo get dup
  /UnderlinePosition get Ts mul /To exch def
  /UnderlineThickness get Ts mul /Tt exch def
  ux uy To add moveto  Tcx uy To add lineto
  Tt setlinewidth stroke
  grestore
} bd
/OLE {
  /Tcx currentpoint pop def
  gsave
  newpath
  cf findfont cs scalefont dup
  /FontMatrix get 0 get /Ts exch def /FontInfo get dup
  /UnderlinePosition get Ts mul /To exch def
  /UnderlineThickness get Ts mul /Tt exch def
  ux uy To add cs add moveto Tcx uy To add cs add lineto
  Tt setlinewidth stroke
  grestore
} bd
/SOE {
  /Tcx currentpoint pop def
  gsave
  newpath
  cf findfont cs scalefont dup
  /FontMatrix get 0 get /Ts exch def /FontInfo get dup
  /UnderlinePosition get Ts mul /To exch def
  /UnderlineThickness get Ts mul /Tt exch def
  ux uy To add cs 10 mul 26 idiv add moveto Tcx uy To add cs 10 mul 26 idiv add lineto
  Tt setlinewidth stroke
  grestore
} bd
/QT {
/Y22 exch store
/X22 exch store
/Y21 exch store
/X21 exch store
currentpoint
/Y21 load 2 mul add 3 div exch
/X21 load 2 mul add 3 div exch
/X21 load 2 mul /X22 load add 3 div
/Y21 load 2 mul /Y22 load add 3 div
/X22 load /Y22 load curveto
} bd
/SSPD {
dup length /d exch dict def
{
/v exch def
/k exch def
currentpagedevice k known {
/cpdv currentpagedevice k get def
v cpdv ne {
/upd false def
/nullv v type /nulltype eq def
/nullcpdv cpdv type /nulltype eq def
nullv nullcpdv or
{
/upd true def
} {
/sametype v type cpdv type eq def
sametype {
v type /arraytype eq {
/vlen v length def
/cpdvlen cpdv length def
vlen cpdvlen eq {
0 1 vlen 1 sub {
/i exch def
/obj v i get def
/cpdobj cpdv i get def
obj cpdobj ne {
/upd true def
exit
} if
} for
} {
/upd true def
} ifelse
} {
v type /dicttype eq {
v {
/dv exch def
/dk exch def
/cpddv cpdv dk get def
dv cpddv ne {
/upd true def
exit
} if
} forall
} {
/upd true def
} ifelse
} ifelse
} if
} ifelse
upd true eq {
d k v put
} if
} if
} if
} forall
d length 0 gt {
d setpagedevice
} if
} bd
/RE { % /NewFontName [NewEncodingArray] /FontName RE -
  findfont dup length dict begin
  {
    1 index /FID ne
    {def} {pop pop} ifelse
  } forall
  /Encoding exch def
  /FontName 1 index def
  currentdict definefont pop
  end
} bind def
%%EndResource
%%BeginResource: procset (Apache XML Graphics EPS ProcSet) 1.0 0
%%Version: 1.0 0
%%Copyright: (Copyright 2002-2003 The Apache Software Foundation. License terms: http://www.apache.org/licenses/LICENSE-2.0)
/BeginEPSF { %def
/b4_Inc_state save def         % Save state for cleanup
/dict_count countdictstack def % Count objects on dict stack
/op_count count 1 sub def      % Count objects on operand stack
userdict begin                 % Push userdict on dict stack
/showpage { } def              % Redefine showpage, { } = null proc
0 setgray 0 setlinecap         % Prepare graphics state
1 setlinewidth 0 setlinejoin
10 setmiterlimit [ ] 0 setdash newpath
/languagelevel where           % If level not equal to 1 then
{pop languagelevel             % set strokeadjust and
1 ne                           % overprint to their defaults.
{false setstrokeadjust false setoverprint
} if
} if
} bd
/EndEPSF { %def
count op_count sub {pop} repeat            % Clean up stacks
countdictstack dict_count sub {end} repeat
b4_Inc_state restore
} bd
%%EndResource
%FOPBeginFontDict
%%IncludeResource: font Courier-Bold
%%IncludeResource: font Helvetica
%%IncludeResource: font Courier-BoldOblique
%%IncludeResource: font Courier-Oblique
%%IncludeResource: font Times-Roman
%%IncludeResource: font Helvetica-BoldOblique
%%IncludeResource: font Helvetica-Bold
%%IncludeResource: font Helvetica-Oblique
%%IncludeResource: font Times-BoldItalic
%%IncludeResource: font Courier
%%IncludeResource: font Times-Italic
%%IncludeResource: font Times-Bold
%%IncludeResource: font Symbol
%%IncludeResource: font ZapfDingbats
%FOPEndFontDict
%%BeginResource: encoding WinAnsiEncoding
/WinAnsiEncoding [
/.notdef /.notdef /.notdef /.notdef /.notdef
/.notdef /.notdef /.notdef /.notdef /.notdef
/.notdef /.notdef /.notdef /.notdef /.notdef
/.notdef /.notdef /.notdef /.notdef /.notdef
/.notdef /.notdef /.notdef /.notdef /.notdef
/.notdef /.notdef /.notdef /.notdef /.notdef
/.notdef /.notdef /space /exclam /quotedbl
/numbersign /dollar /percent /ampersand /quotesingle
/parenleft /parenright /asterisk /plus /comma
/hyphen /period /slash /zero /one
/two /three /four /five /six
/seven /eight /nine /colon /semicolon
/less /equal /greater /question /at
/A /B /C /D /E
/F /G /H /I /J
/K /L /M /N /O
/P /Q /R /S /T
/U /V /W /X /Y
/Z /bracketleft /backslash /bracketright /asciicircum
/underscore /quoteleft /a /b /c
/d /e /f /g /h
/i /j /k /l /m
/n /o /p /q /r
/s /t /u /v /w
/x /y /z /braceleft /bar
/braceright /asciitilde /bullet /Euro /bullet
/quotesinglbase /florin /quotedblbase /ellipsis /dagger
/daggerdbl /circumflex /perthousand /Scaron /guilsinglleft
/OE /bullet /Zcaron /bullet /bullet
/quoteleft /quoteright /quotedblleft /quotedblright /bullet
/endash /emdash /asciitilde /trademark /scaron
/guilsinglright /oe /bullet /zcaron /Ydieresis
/space /exclamdown /cent /sterling /currency
/yen /brokenbar /section /dieresis /copyright
/ordfeminine /guillemotleft /logicalnot /sfthyphen /registered
/macron /degree /plusminus /twosuperior /threesuperior
/acute /mu /paragraph /middot /cedilla
/onesuperior /ordmasculine /guillemotright /onequarter /onehalf
/threequarters /questiondown /Agrave /Aacute /Acircumflex
/Atilde /Adieresis /Aring /AE /Ccedilla
/Egrave /Eacute /Ecircumflex /Edieresis /Igrave
/Iacute /Icircumflex /Idieresis /Eth /Ntilde
/Ograve /Oacute /Ocircumflex /Otilde /Odieresis
/multiply /Oslash /Ugrave /Uacute /Ucircumflex
/Udieresis /Yacute /Thorn /germandbls /agrave
/aacute /acircumflex /atilde /adieresis /aring
/ae /ccedilla /egrave /eacute /ecircumflex
/edieresis /igrave /iacute /icircumflex /idieresis
/eth /ntilde /ograve /oacute /ocircumflex
/otilde /odieresis /divide /oslash /ugrave
/uacute /ucircumflex /udieresis /yacute /thorn
/ydieresis
] def
%%EndResource
%FOPBeginFontReencode
/Courier-Bold findfont
dup length dict begin
  {1 index /FID ne {def} {pop pop} ifelse} forall
  /Encoding WinAnsiEncoding def
  currentdict
end
/Courier-Bold exch definefont pop
/Helvetica findfont
dup length dict begin
  {1 index /FID ne {def} {pop pop} ifelse} forall
  /Encoding WinAnsiEncoding def
  currentdict
end
/Helvetica exch definefont pop
/Courier-BoldOblique findfont
dup length dict begin
  {1 index /FID ne {def} {pop pop} ifelse} forall
  /Encoding WinAnsiEncoding def
  currentdict
end
/Courier-BoldOblique exch definefont pop
/Courier-Oblique findfont
dup length dict begin
  {1 index /FID ne {def} {pop pop} ifelse} forall
  /Encoding WinAnsiEncoding def
  currentdict
end
/Courier-Oblique exch definefont pop
/Times-Roman findfont
dup length dict begin
  {1 index /FID ne {def} {pop pop} ifelse} forall
  /Encoding WinAnsiEncoding def
  currentdict
end
/Times-Roman exch definefont pop
/Helvetica-BoldOblique findfont
dup length dict begin
  {1 index /FID ne {def} {pop pop} ifelse} forall
  /Encoding WinAnsiEncoding def
  currentdict
end
/Helvetica-BoldOblique exch definefont pop
/Helvetica-Bold findfont
dup length dict begin
  {1 index /FID ne {def} {pop pop} ifelse} forall
  /Encoding WinAnsiEncoding def
  currentdict
end
/Helvetica-Bold exch definefont pop
/Helvetica-Oblique findfont
dup length dict begin
  {1 index /FID ne {def} {pop pop} ifelse} forall
  /Encoding WinAnsiEncoding def
  currentdict
end
/Helvetica-Oblique exch definefont pop
/Times-BoldItalic findfont
dup length dict begin
  {1 index /FID ne {def} {pop pop} ifelse} forall
  /Encoding WinAnsiEncoding def
  currentdict
end
/Times-BoldItalic exch definefont pop
/Courier findfont
dup length dict begin
  {1 index /FID ne {def} {pop pop} ifelse} forall
  /Encoding WinAnsiEncoding def
  currentdict
end
/Courier exch definefont pop
/Times-Italic findfont
dup length dict begin
  {1 index /FID ne {def} {pop pop} ifelse} forall
  /Encoding WinAnsiEncoding def
  currentdict
end
/Times-Italic exch definefont pop
/Times-Bold findfont
dup length dict begin
  {1 index /FID ne {def} {pop pop} ifelse} forall
  /Encoding WinAnsiEncoding def
  currentdict
end
/Times-Bold exch definefont pop
%FOPEndFontReencode
%%EndProlog
%%Page: 1 1
%%PageBoundingBox: 0 0 560 420
%%BeginPageSetup
[1 0 0 -1 0 420] CT
%%EndPageSetup
GS
1 GC
N
0 0 560 420 re
f
GR
GS
1 GC
N
0 0 560 420 re
f
GR
GS
1 GC
N
73 374 M
507 374 L
507 31 L
73 31 L
cp
f
GR
GS
0.149 GC
2 setlinecap
1 LJ
0.5 LW
N
73 374 M
507 374 L
S
GR
GS
0.149 GC
2 setlinecap
1 LJ
0.5 LW
N
73 31 M
507 31 L
S
GR
GS
0.149 GC
2 setlinecap
1 LJ
0.5 LW
N
73 374 M
73 369.66 L
S
GR
GS
0.149 GC
2 setlinecap
1 LJ
0.5 LW
N
121.222 374 M
121.222 369.66 L
S
GR
GS
0.149 GC
2 setlinecap
1 LJ
0.5 LW
N
169.444 374 M
169.444 369.66 L
S
GR
GS
0.149 GC
2 setlinecap
1 LJ
0.5 LW
N
217.667 374 M
217.667 369.66 L
S
GR
GS
0.149 GC
2 setlinecap
1 LJ
0.5 LW
N
265.889 374 M
265.889 369.66 L
S
GR
GS
0.149 GC
2 setlinecap
1 LJ
0.5 LW
N
314.111 374 M
314.111 369.66 L
S
GR
GS
0.149 GC
2 setlinecap
1 LJ
0.5 LW
N
362.333 374 M
362.333 369.66 L
S
GR
GS
0.149 GC
2 setlinecap
1 LJ
0.5 LW
N
410.556 374 M
410.556 369.66 L
S
GR
GS
0.149 GC
2 setlinecap
1 LJ
0.5 LW
N
458.778 374 M
458.778 369.66 L
S
GR
GS
0.149 GC
2 setlinecap
1 LJ
0.5 LW
N
507 374 M
507 369.66 L
S
GR
GS
0.149 GC
2 setlinecap
1 LJ
0.5 LW
N
73 31 M
73 35.34 L
S
GR
GS
0.149 GC
2 setlinecap
1 LJ
0.5 LW
N
121.222 31 M
121.222 35.34 L
S
GR
GS
0.149 GC
2 setlinecap
1 LJ
0.5 LW
N
169.444 31 M
169.444 35.34 L
S
GR
GS
0.149 GC
2 setlinecap
1 LJ
0.5 LW
N
217.667 31 M
217.667 35.34 L
S
GR
GS
0.149 GC
2 setlinecap
1 LJ
0.5 LW
N
265.889 31 M
265.889 35.34 L
S
GR
GS
0.149 GC
2 setlinecap
1 LJ
0.5 LW
N
314.111 31 M
314.111 35.34 L
S
GR
GS
0.149 GC
2 setlinecap
1 LJ
0.5 LW
N
362.333 31 M
362.333 35.34 L
S
GR
GS
0.149 GC
2 setlinecap
1 LJ
0.5 LW
N
410.556 31 M
410.556 35.34 L
S
GR
GS
0.149 GC
2 setlinecap
1 LJ
0.5 LW
N
458.778 31 M
458.778 35.34 L
S
GR
GS
0.149 GC
2 setlinecap
1 LJ
0.5 LW
N
507 31 M
507 35.34 L
S
GR
GS
[1 0 0 1 73 378] CT
0.149 GC
/Helvetica 10 F
GS
[1 0 0 1 0 0] CT
-3 10 moveto 
1 -1 scale
(0) t 
GR
GR
GS
[1 0 0 1 121.22222 378] CT
0.149 GC
/Helvetica 10 F
GS
[1 0 0 1 0 0] CT
-3 10 moveto 
1 -1 scale
(5) t 
GR
GR
GS
[1 0 0 1 169.44444 378] CT
0.149 GC
/Helvetica 10 F
GS
[1 0 0 1 0 0] CT
-6 10 moveto 
1 -1 scale
(10) t 
GR
GR
GS
[1 0 0 1 217.66667 378] CT
0.149 GC
/Helvetica 10 F
GS
[1 0 0 1 0 0] CT
-6 10 moveto 
1 -1 scale
(15) t 
GR
GR
GS
[1 0 0 1 265.88889 378] CT
0.149 GC
/Helvetica 10 F
GS
[1 0 0 1 0 0] CT
-6 10 moveto 
1 -1 scale
(20) t 
GR
GR
GS
[1 0 0 1 314.11111 378] CT
0.149 GC
/Helvetica 10 F
GS
[1 0 0 1 0 0] CT
-6 10 moveto 
1 -1 scale
(25) t 
GR
GR
GS
[1 0 0 1 362.33334 378] CT
0.149 GC
/Helvetica 10 F
GS
[1 0 0 1 0 0] CT
-6 10 moveto 
1 -1 scale
(30) t 
GR
GR
GS
[1 0 0 1 410.55554 378] CT
0.149 GC
/Helvetica 10 F
GS
[1 0 0 1 0 0] CT
-6 10 moveto 
1 -1 scale
(35) t 
GR
GR
GS
[1 0 0 1 458.77777 378] CT
0.149 GC
/Helvetica 10 F
GS
[1 0 0 1 0 0] CT
-6 10 moveto 
1 -1 scale
(40) t 
GR
GR
GS
[1 0 0 1 507 378] CT
0.149 GC
/Helvetica 10 F
GS
[1 0 0 1 0 0] CT
-6 10 moveto 
1 -1 scale
(45) t 
GR
GR
GS
[1 0 0 1 290.00021 392] CT
0.149 GC
/Helvetica 11 F
GS
[1 0 0 1 0 0] CT
-20 11 moveto 
1 -1 scale
(iteration) t 
GR
GR
GS
0.149 GC
2 setlinecap
1 LJ
0.5 LW
N
73 374 M
73 31 L
S
GR
GS
0.149 GC
2 setlinecap
1 LJ
0.5 LW
N
507 374 M
507 31 L
S
GR
GS
0.149 GC
2 setlinecap
1 LJ
0.5 LW
N
73 374 M
77.34 374 L
S
GR
GS
0.149 GC
2 setlinecap
1 LJ
0.5 LW
N
73 325 M
77.34 325 L
S
GR
GS
0.149 GC
2 setlinecap
1 LJ
0.5 LW
N
73 276 M
77.34 276 L
S
GR
GS
0.149 GC
2 setlinecap
1 LJ
0.5 LW
N
73 227 M
77.34 227 L
S
GR
GS
0.149 GC
2 setlinecap
1 LJ
0.5 LW
N
73 178 M
77.34 178 L
S
GR
GS
0.149 GC
2 setlinecap
1 LJ
0.5 LW
N
73 129 M
77.34 129 L
S
GR
GS
0.149 GC
2 setlinecap
1 LJ
0.5 LW
N
73 80 M
77.34 80 L
S
GR
GS
0.149 GC
2 setlinecap
1 LJ
0.5 LW
N
73 31 M
77.34 31 L
S
GR
GS
0.149 GC
2 setlinecap
1 LJ
0.5 LW
N
507 374 M
502.66 374 L
S
GR
GS
0.149 GC
2 setlinecap
1 LJ
0.5 LW
N
507 325 M
502.66 325 L
S
GR
GS
0.149 GC
2 setlinecap
1 LJ
0.5 LW
N
507 276 M
502.66 276 L
S
GR
GS
0.149 GC
2 setlinecap
1 LJ
0.5 LW
N
507 227 M
502.66 227 L
S
GR
GS
0.149 GC
2 setlinecap
1 LJ
0.5 LW
N
507 178 M
502.66 178 L
S
GR
GS
0.149 GC
2 setlinecap
1 LJ
0.5 LW
N
507 129 M
502.66 129 L
S
GR
GS
0.149 GC
2 setlinecap
1 LJ
0.5 LW
N
507 80 M
502.66 80 L
S
GR
GS
0.149 GC
2 setlinecap
1 LJ
0.5 LW
N
507 31 M
502.66 31 L
S
GR
GS
[1 0 0 1 69 374] CT
0.149 GC
/Helvetica 10 F
GS
[1 0 0 1 0 0] CT
-6 3.5 moveto 
1 -1 scale
(0) t 
GR
GR
GS
[1 0 0 1 69 325] CT
0.149 GC
/Helvetica 10 F
GS
[1 0 0 1 0 0] CT
-6 3.5 moveto 
1 -1 scale
(1) t 
GR
GR
GS
[1 0 0 1 69 276] CT
0.149 GC
/Helvetica 10 F
GS
[1 0 0 1 0 0] CT
-6 3.5 moveto 
1 -1 scale
(2) t 
GR
GR
GS
[1 0 0 1 69 227] CT
0.149 GC
/Helvetica 10 F
GS
[1 0 0 1 0 0] CT
-6 3.5 moveto 
1 -1 scale
(3) t 
GR
GR
GS
[1 0 0 1 69 178] CT
0.149 GC
/Helvetica 10 F
GS
[1 0 0 1 0 0] CT
-6 3.5 moveto 
1 -1 scale
(4) t 
GR
GR
GS
[1 0 0 1 69 129] CT
0.149 GC
/Helvetica 10 F
GS
[1 0 0 1 0 0] CT
-6 3.5 moveto 
1 -1 scale
(5) t 
GR
GR
GS
[1 0 0 1 69 80] CT
0.149 GC
/Helvetica 10 F
GS
[1 0 0 1 0 0] CT
-6 3.5 moveto 
1 -1 scale
(6) t 
GR
GR
GS
[1 0 0 1 69 31] CT
0.149 GC
/Helvetica 10 F
GS
[1 0 0 1 0 0] CT
-6 3.5 moveto 
1 -1 scale
(7) t 
GR
GR
GS
[0 -1 1 0 60 202.49985] CT
0.149 GC
/Helvetica 11 F
GS
[1 0 0 1 0 0] CT
-36 -3 moveto 
1 -1 scale
(image residual) t 
GR
GR
GS
[1 0 0 1 73 28] CT
0.149 GC
N
1.469 -0.281 M
1.469 -0.359 1.516 -0.438 QT
3.594 -2.5 L
1.516 -4.578 L
1.469 -4.625 1.469 -4.719 QT
1.469 -4.781 1.531 -4.844 QT
1.594 -4.906 1.672 -4.906 QT
1.734 -4.906 1.828 -4.844 QT
3.891 -2.781 L
5.953 -4.844 L
6.031 -4.906 6.094 -4.906 QT
6.188 -4.906 6.242 -4.852 QT
6.297 -4.797 6.297 -4.719 QT
6.297 -4.625 6.25 -4.578 QT
4.172 -2.5 L
6.25 -0.438 L
6.297 -0.359 6.297 -0.281 QT
6.297 -0.203 6.242 -0.148 QT
6.188 -0.094 6.094 -0.094 QT
6.031 -0.094 5.953 -0.156 QT
3.891 -2.219 L
1.828 -0.156 L
1.75 -0.094 1.672 -0.094 QT
1.594 -0.094 1.531 -0.156 QT
1.469 -0.219 1.469 -0.281 QT
cp
f
GR
GS
[1 0 0 1 81 28] CT
0.149 GC
/Helvetica 10 F
GS
[1 0 0 1 0 0] CT
0 0 moveto 
1 -1 scale
(10) t 
GR
GR
GS
[1 0 0 1 93 23] CT
0.149 GC
/Helvetica 8 F
GS
[1 0 0 1 0 0] CT
0 0 moveto 
1 -1 scale
(6) t 
GR
GR
GS
[1 0 0 1 290.00027 28.25] CT
/Helvetica-Bold 11 F
GS
[1 0 0 1 0 0] CT
-101.5 -3 moveto 
1 -1 scale
(Image residual norm w.r.t IPR iteration) t 
GR
GR
GS
1 LJ
2 LW
N
73 39.797 M
82.644 267.509 L
92.289 267.509 L
101.933 287.814 L
111.578 317.739 L
121.222 317.739 L
130.867 329.767 L
140.511 340.866 L
150.156 348.963 L
159.8 349.064 L
169.444 351.611 L
179.089 358.953 L
188.733 360.638 L
198.378 360.881 L
208.022 361.353 L
217.667 366.004 L
227.311 367.095 L
236.956 367.245 L
246.6 367.798 L
256.244 367.849 L
265.889 367.941 L
275.533 368.475 L
285.178 368.622 L
294.822 368.689 L
304.467 368.764 L
314.111 368.768 L
323.756 368.771 L
333.4 368.771 L
343.044 368.771 L
352.689 368.771 L
362.333 368.771 L
371.978 368.833 L
381.622 368.914 L
391.267 368.93 L
400.911 368.938 L
410.556 368.942 L
420.2 368.933 L
429.844 368.935 L
439.489 368.953 L
449.133 368.967 L
458.778 368.969 L
468.422 368.973 L
478.067 368.974 L
487.711 368.974 L
497.356 368.975 L
507 368.975 L
S
GR
GS
[1 0 0 1 73 39.79707] CT
10.0 ML
2 LW
N
-4 -4 M
-4 4 L
4 4 L
4 -4 L
cp
S
GR
GS
[1 0 0 1 82.64445 267.50854] CT
10.0 ML
2 LW
N
-4 -4 M
-4 4 L
4 4 L
4 -4 L
cp
S
GR
GS
[1 0 0 1 92.28889 267.50854] CT
10.0 ML
2 LW
N
-4 -4 M
-4 4 L
4 4 L
4 -4 L
cp
S
GR
GS
[1 0 0 1 101.93333 287.81433] CT
10.0 ML
2 LW
N
-4 -4 M
-4 4 L
4 4 L
4 -4 L
cp
S
GR
GS
[1 0 0 1 111.57777 317.73889] CT
10.0 ML
2 LW
N
-4 -4 M
-4 4 L
4 4 L
4 -4 L
cp
S
GR
GS
[1 0 0 1 121.22222 317.73889] CT
10.0 ML
2 LW
N
-4 -4 M
-4 4 L
4 4 L
4 -4 L
cp
S
GR
GS
[1 0 0 1 130.86667 329.7674] CT
10.0 ML
2 LW
N
-4 -4 M
-4 4 L
4 4 L
4 -4 L
cp
S
GR
GS
[1 0 0 1 140.51111 340.8656] CT
10.0 ML
2 LW
N
-4 -4 M
-4 4 L
4 4 L
4 -4 L
cp
S
GR
GS
[1 0 0 1 150.15555 348.96292] CT
10.0 ML
2 LW
N
-4 -4 M
-4 4 L
4 4 L
4 -4 L
cp
S
GR
GS
[1 0 0 1 159.8 349.0643] CT
10.0 ML
2 LW
N
-4 -4 M
-4 4 L
4 4 L
4 -4 L
cp
S
GR
GS
[1 0 0 1 169.44444 351.61136] CT
10.0 ML
2 LW
N
-4 -4 M
-4 4 L
4 4 L
4 -4 L
cp
S
GR
GS
[1 0 0 1 179.08888 358.95313] CT
10.0 ML
2 LW
N
-4 -4 M
-4 4 L
4 4 L
4 -4 L
cp
S
GR
GS
[1 0 0 1 188.73334 360.6376] CT
10.0 ML
2 LW
N
-4 -4 M
-4 4 L
4 4 L
4 -4 L
cp
S
GR
GS
[1 0 0 1 198.37778 360.88132] CT
10.0 ML
2 LW
N
-4 -4 M
-4 4 L
4 4 L
4 -4 L
cp
S
GR
GS
[1 0 0 1 208.02222 361.35297] CT
10.0 ML
2 LW
N
-4 -4 M
-4 4 L
4 4 L
4 -4 L
cp
S
GR
GS
[1 0 0 1 217.66667 366.00378] CT
10.0 ML
2 LW
N
-4 -4 M
-4 4 L
4 4 L
4 -4 L
cp
S
GR
GS
[1 0 0 1 227.31111 367.09537] CT
10.0 ML
2 LW
N
-4 -4 M
-4 4 L
4 4 L
4 -4 L
cp
S
GR
GS
[1 0 0 1 236.95555 367.24481] CT
10.0 ML
2 LW
N
-4 -4 M
-4 4 L
4 4 L
4 -4 L
cp
S
GR
GS
[1 0 0 1 246.60001 367.79791] CT
10.0 ML
2 LW
N
-4 -4 M
-4 4 L
4 4 L
4 -4 L
cp
S
GR
GS
[1 0 0 1 256.24445 367.84869] CT
10.0 ML
2 LW
N
-4 -4 M
-4 4 L
4 4 L
4 -4 L
cp
S
GR
GS
[1 0 0 1 265.88889 367.9415] CT
10.0 ML
2 LW
N
-4 -4 M
-4 4 L
4 4 L
4 -4 L
cp
S
GR
GS
[1 0 0 1 275.53333 368.47519] CT
10.0 ML
2 LW
N
-4 -4 M
-4 4 L
4 4 L
4 -4 L
cp
S
GR
GS
[1 0 0 1 285.17776 368.6217] CT
10.0 ML
2 LW
N
-4 -4 M
-4 4 L
4 4 L
4 -4 L
cp
S
GR
GS
[1 0 0 1 294.82224 368.68884] CT
10.0 ML
2 LW
N
-4 -4 M
-4 4 L
4 4 L
4 -4 L
cp
S
GR
GS
[1 0 0 1 304.46667 368.76425] CT
10.0 ML
2 LW
N
-4 -4 M
-4 4 L
4 4 L
4 -4 L
cp
S
GR
GS
[1 0 0 1 314.11111 368.76837] CT
10.0 ML
2 LW
N
-4 -4 M
-4 4 L
4 4 L
4 -4 L
cp
S
GR
GS
[1 0 0 1 323.75555 368.77139] CT
10.0 ML
2 LW
N
-4 -4 M
-4 4 L
4 4 L
4 -4 L
cp
S
GR
GS
[1 0 0 1 333.39999 368.77139] CT
10.0 ML
2 LW
N
-4 -4 M
-4 4 L
4 4 L
4 -4 L
cp
S
GR
GS
[1 0 0 1 343.04443 368.77139] CT
10.0 ML
2 LW
N
-4 -4 M
-4 4 L
4 4 L
4 -4 L
cp
S
GR
GS
[1 0 0 1 352.6889 368.77139] CT
10.0 ML
2 LW
N
-4 -4 M
-4 4 L
4 4 L
4 -4 L
cp
S
GR
GS
[1 0 0 1 362.33334 368.77139] CT
10.0 ML
2 LW
N
-4 -4 M
-4 4 L
4 4 L
4 -4 L
cp
S
GR
GS
[1 0 0 1 371.97778 368.83344] CT
10.0 ML
2 LW
N
-4 -4 M
-4 4 L
4 4 L
4 -4 L
cp
S
GR
GS
[1 0 0 1 381.62222 368.91376] CT
10.0 ML
2 LW
N
-4 -4 M
-4 4 L
4 4 L
4 -4 L
cp
S
GR
GS
[1 0 0 1 391.26666 368.93042] CT
10.0 ML
2 LW
N
-4 -4 M
-4 4 L
4 4 L
4 -4 L
cp
S
GR
GS
[1 0 0 1 400.9111 368.93845] CT
10.0 ML
2 LW
N
-4 -4 M
-4 4 L
4 4 L
4 -4 L
cp
S
GR
GS
[1 0 0 1 410.55554 368.94162] CT
10.0 ML
2 LW
N
-4 -4 M
-4 4 L
4 4 L
4 -4 L
cp
S
GR
GS
[1 0 0 1 420.20001 368.93253] CT
10.0 ML
2 LW
N
-4 -4 M
-4 4 L
4 4 L
4 -4 L
cp
S
GR
GS
[1 0 0 1 429.84445 368.93463] CT
10.0 ML
2 LW
N
-4 -4 M
-4 4 L
4 4 L
4 -4 L
cp
S
GR
GS
[1 0 0 1 439.48889 368.95309] CT
10.0 ML
2 LW
N
-4 -4 M
-4 4 L
4 4 L
4 -4 L
cp
S
GR
GS
[1 0 0 1 449.13333 368.96667] CT
10.0 ML
2 LW
N
-4 -4 M
-4 4 L
4 4 L
4 -4 L
cp
S
GR
GS
[1 0 0 1 458.77777 368.96945] CT
10.0 ML
2 LW
N
-4 -4 M
-4 4 L
4 4 L
4 -4 L
cp
S
GR
GS
[1 0 0 1 468.42221 368.97348] CT
10.0 ML
2 LW
N
-4 -4 M
-4 4 L
4 4 L
4 -4 L
cp
S
GR
GS
[1 0 0 1 478.06668 368.97388] CT
10.0 ML
2 LW
N
-4 -4 M
-4 4 L
4 4 L
4 -4 L
cp
S
GR
GS
[1 0 0 1 487.71112 368.97421] CT
10.0 ML
2 LW
N
-4 -4 M
-4 4 L
4 4 L
4 -4 L
cp
S
GR
GS
[1 0 0 1 497.35556 368.97452] CT
10.0 ML
2 LW
N
-4 -4 M
-4 4 L
4 4 L
4 -4 L
cp
S
GR
GS
[1 0 0 1 507 368.97455] CT
10.0 ML
2 LW
N
-4 -4 M
-4 4 L
4 4 L
4 -4 L
cp
S
GR
%%Trailer
%%Pages: 1
%%EOF
