%!PS-Adobe-3.0 EPSF-3.0
%%Creator: MATLAB, The MathWorks, Inc. Version 7.12.0.635 (R2011a). Operating System: Darwin 11.4.2 Darwin Kernel Version 11.4.2: Thu Aug 23 16:25:48 PDT 2012; root:xnu-1699.32.7~1/RELEASE_X86_64 x86_64.
%%Title: /Users/yiyang/Dropbox/Thesis2014/chapter_envarpara/fig/ensspreadirstea.eps
%%CreationDate: 11/01/2014  19:46:53
%%DocumentNeededFonts: Helvetica
%%DocumentProcessColors: Cyan Magenta Yellow Black
%%LanguageLevel: 2
%%Pages: 1
%%BoundingBox:  -204   211   817   580
%%EndComments

%%BeginProlog
% MathWorks dictionary
/MathWorks 160 dict begin
% definition operators
/bdef {bind def} bind def
/ldef {load def} bind def
/xdef {exch def} bdef
/xstore {exch store} bdef
% operator abbreviations
/c  /clip ldef
/cc /concat ldef
/cp /closepath ldef
/gr /grestore ldef
/gs /gsave ldef
/mt /moveto ldef
/np /newpath ldef
/cm /currentmatrix ldef
/sm /setmatrix ldef
/rm /rmoveto ldef
/rl /rlineto ldef
/s {show newpath} bdef
/sc {setcmykcolor} bdef
/sr /setrgbcolor ldef
/sg /setgray ldef
/w /setlinewidth ldef
/j /setlinejoin ldef
/cap /setlinecap ldef
/rc {rectclip} bdef
/rf {rectfill} bdef
% page state control
/pgsv () def
/bpage {/pgsv save def} bdef
/epage {pgsv restore} bdef
/bplot /gsave ldef
/eplot {stroke grestore} bdef
% orientation switch
/portraitMode 0 def /landscapeMode 1 def /rotateMode 2 def
% coordinate system mappings
/dpi2point 0 def
% font control
/FontSize 0 def
/FMS {/FontSize xstore findfont [FontSize 0 0 FontSize neg 0 0]
  makefont setfont} bdef
/reencode {exch dup where {pop load} {pop StandardEncoding} ifelse
  exch dup 3 1 roll findfont dup length dict begin
  { 1 index /FID ne {def}{pop pop} ifelse } forall
  /Encoding exch def currentdict end definefont pop} bdef
/isroman {findfont /CharStrings get /Agrave known} bdef
/FMSR {3 1 roll 1 index dup isroman {reencode} {pop pop} ifelse
  exch FMS} bdef
/csm {1 dpi2point div -1 dpi2point div scale neg translate
 dup landscapeMode eq {pop -90 rotate}
  {rotateMode eq {90 rotate} if} ifelse} bdef
% line types: solid, dotted, dashed, dotdash
/SO { [] 0 setdash } bdef
/DO { [.5 dpi2point mul 4 dpi2point mul] 0 setdash } bdef
/DA { [6 dpi2point mul] 0 setdash } bdef
/DD { [.5 dpi2point mul 4 dpi2point mul 6 dpi2point mul 4
  dpi2point mul] 0 setdash } bdef
% macros for lines and objects
/L {lineto stroke} bdef
/MP {3 1 roll moveto 1 sub {rlineto} repeat} bdef
/AP {{rlineto} repeat} bdef
/PDlw -1 def
/W {/PDlw currentlinewidth def setlinewidth} def
/PP {closepath eofill} bdef
/DP {closepath stroke} bdef
/MR {4 -2 roll moveto dup  0 exch rlineto exch 0 rlineto
  neg 0 exch rlineto closepath} bdef
/FR {MR stroke} bdef
/PR {MR fill} bdef
/L1i {{currentfile picstr readhexstring pop} image} bdef
/tMatrix matrix def
/MakeOval {newpath tMatrix currentmatrix pop translate scale
0 0 1 0 360 arc tMatrix setmatrix} bdef
/FO {MakeOval stroke} bdef
/PO {MakeOval fill} bdef
/PD {currentlinewidth 2 div 0 360 arc fill
   PDlw -1 eq not {PDlw w /PDlw -1 def} if} def
/FA {newpath tMatrix currentmatrix pop translate scale
  0 0 1 5 -2 roll arc tMatrix setmatrix stroke} bdef
/PA {newpath tMatrix currentmatrix pop	translate 0 0 moveto scale
  0 0 1 5 -2 roll arc closepath tMatrix setmatrix fill} bdef
/FAn {newpath tMatrix currentmatrix pop translate scale
  0 0 1 5 -2 roll arcn tMatrix setmatrix stroke} bdef
/PAn {newpath tMatrix currentmatrix pop translate 0 0 moveto scale
  0 0 1 5 -2 roll arcn closepath tMatrix setmatrix fill} bdef
/vradius 0 def /hradius 0 def /lry 0 def
/lrx 0 def /uly 0 def /ulx 0 def /rad 0 def
/MRR {/vradius xdef /hradius xdef /lry xdef /lrx xdef /uly xdef
  /ulx xdef newpath tMatrix currentmatrix pop ulx hradius add uly
  vradius add translate hradius vradius scale 0 0 1 180 270 arc 
  tMatrix setmatrix lrx hradius sub uly vradius add translate
  hradius vradius scale 0 0 1 270 360 arc tMatrix setmatrix
  lrx hradius sub lry vradius sub translate hradius vradius scale
  0 0 1 0 90 arc tMatrix setmatrix ulx hradius add lry vradius sub
  translate hradius vradius scale 0 0 1 90 180 arc tMatrix setmatrix
  closepath} bdef
/FRR {MRR stroke } bdef
/PRR {MRR fill } bdef
/MlrRR {/lry xdef /lrx xdef /uly xdef /ulx xdef /rad lry uly sub 2 div def
  newpath tMatrix currentmatrix pop ulx rad add uly rad add translate
  rad rad scale 0 0 1 90 270 arc tMatrix setmatrix lrx rad sub lry rad
  sub translate rad rad scale 0 0 1 270 90 arc tMatrix setmatrix
  closepath} bdef
/FlrRR {MlrRR stroke } bdef
/PlrRR {MlrRR fill } bdef
/MtbRR {/lry xdef /lrx xdef /uly xdef /ulx xdef /rad lrx ulx sub 2 div def
  newpath tMatrix currentmatrix pop ulx rad add uly rad add translate
  rad rad scale 0 0 1 180 360 arc tMatrix setmatrix lrx rad sub lry rad
  sub translate rad rad scale 0 0 1 0 180 arc tMatrix setmatrix
  closepath} bdef
/FtbRR {MtbRR stroke } bdef
/PtbRR {MtbRR fill } bdef
/stri 6 array def /dtri 6 array def
/smat 6 array def /dmat 6 array def
/tmat1 6 array def /tmat2 6 array def /dif 3 array def
/asub {/ind2 exch def /ind1 exch def dup dup
  ind1 get exch ind2 get sub exch } bdef
/tri_to_matrix {
  2 0 asub 3 1 asub 4 0 asub 5 1 asub
  dup 0 get exch 1 get 7 -1 roll astore } bdef
/compute_transform {
  dmat dtri tri_to_matrix tmat1 invertmatrix 
  smat stri tri_to_matrix tmat2 concatmatrix } bdef
/ds {stri astore pop} bdef
/dt {dtri astore pop} bdef
/db {2 copy /cols xdef /rows xdef mul dup 3 mul string
  currentfile 
  3 index 0 eq {/ASCIIHexDecode filter}
  {/ASCII85Decode filter 3 index 2 eq {/RunLengthDecode filter} if }
  ifelse exch readstring pop
  dup 0 3 index getinterval /rbmap xdef
  dup 2 index dup getinterval /gbmap xdef
  1 index dup 2 mul exch getinterval /bbmap xdef pop pop}bdef
/it {gs np dtri aload pop moveto lineto lineto cp c
  cols rows 8 compute_transform 
  rbmap gbmap bbmap true 3 colorimage gr}bdef
/il {newpath moveto lineto stroke}bdef
currentdict end def
%%EndProlog

%%BeginSetup
MathWorks begin

0 cap

end
%%EndSetup

%%Page: 1 1
%%BeginPageSetup
%%PageBoundingBox:  -204   211   817   580
MathWorks begin
bpage
%%EndPageSetup

%%BeginObject: obj1
bplot

/dpi2point 12 def
portraitMode -2448 6960 csm

    0     0 12254  4423 rc
85 dict begin %Colortable dictionary
/c0 { 0.000000 0.000000 0.000000 sr} bdef
/c1 { 1.000000 1.000000 1.000000 sr} bdef
/c2 { 0.900000 0.000000 0.000000 sr} bdef
/c3 { 0.000000 0.820000 0.000000 sr} bdef
/c4 { 0.000000 0.000000 0.800000 sr} bdef
/c5 { 0.910000 0.820000 0.320000 sr} bdef
/c6 { 1.000000 0.260000 0.820000 sr} bdef
/c7 { 0.000000 0.820000 0.820000 sr} bdef
c0
1 j
1 sg
   0    0 12255 4424 rf
6 w
0 3604 4101 0 0 -3604 1592 3936 4 MP
PP
-4101 0 0 3604 4101 0 0 -3604 1592 3936 5 MP stroke
4 w
DO
SO
6 w
0 sg
1592 3936 mt 5693 3936 L
1592  332 mt 5693  332 L
1592 3936 mt 1592  332 L
5693 3936 mt 5693  332 L
1592 3936 mt 5693 3936 L
1592 3936 mt 1592  332 L
1934 3936 mt 1934 3894 L
1934  332 mt 1934  373 L
%%IncludeResource: font Helvetica
/Helvetica /ISOLatin1Encoding 120 FMSR

1818 4081 mt 
(0.05) s
2789 3936 mt 2789 3894 L
2789  332 mt 2789  373 L
2706 4081 mt 
(0.1) s
3643 3936 mt 3643 3894 L
3643  332 mt 3643  373 L
3527 4081 mt 
(0.15) s
4497 3936 mt 4497 3894 L
4497  332 mt 4497  373 L
4414 4081 mt 
(0.2) s
5352 3936 mt 5352 3894 L
5352  332 mt 5352  373 L
5236 4081 mt 
(0.25) s
1592 3936 mt 1634 3936 L
5694 3936 mt 5652 3936 L
1492 3980 mt 
(0) s
1592 3575 mt 1634 3575 L
5694 3575 mt 5652 3575 L
1392 3619 mt 
(0.1) s
1592 3215 mt 1634 3215 L
5694 3215 mt 5652 3215 L
1392 3259 mt 
(0.2) s
1592 2854 mt 1634 2854 L
5694 2854 mt 5652 2854 L
1392 2898 mt 
(0.3) s
1592 2494 mt 1634 2494 L
5694 2494 mt 5652 2494 L
1392 2538 mt 
(0.4) s
1592 2134 mt 1634 2134 L
5694 2134 mt 5652 2134 L
1392 2178 mt 
(0.5) s
1592 1773 mt 1634 1773 L
5694 1773 mt 5652 1773 L
1392 1817 mt 
(0.6) s
1592 1413 mt 1634 1413 L
5694 1413 mt 5652 1413 L
1392 1457 mt 
(0.7) s
1592 1052 mt 1634 1052 L
5694 1052 mt 5652 1052 L
1392 1096 mt 
(0.8) s
1592  692 mt 1634  692 L
5694  692 mt 5652  692 L
1392  736 mt 
(0.9) s
1592  332 mt 1634  332 L
5694  332 mt 5652  332 L
1492  376 mt 
(1) s
1592  278 mt 
(x 10) s
%%IncludeResource: font Helvetica
/Helvetica /ISOLatin1Encoding 80 FMSR

1818  204 mt 
(-3) s
1592 3936 mt 5693 3936 L
1592  332 mt 5693  332 L
1592 3936 mt 1592  332 L
5693 3936 mt 5693  332 L
gs 1592 332 4103 3605 rc
12 w
513 -17 512 98 513 195 513 381 1592 2363 5 MP stroke
gr

12 w
  60   60 1592 2363 PO
  60   60 2105 2744 PO
  60   60 2618 2939 PO
  60   60 3130 3037 PO
  60   60 3643 3020 PO
  60   60 1592 2363 FO
  60   60 2105 2744 FO
  60   60 2618 2939 FO
  60   60 3130 3037 FO
  60   60 3643 3020 FO
gs 1592 332 4103 3605 rc
DA
513 124 512 157 513 28 513 780 1592 484 5 MP stroke
gr

DA
SO
0 j
0 -94 -94 0 0 94 94 0 1545 437 5 MP
gs
PP
gr
DP
0 -94 -94 0 0 94 94 0 2058 1217 5 MP
gs
PP
gr
DP
0 -94 -94 0 0 94 94 0 2571 1245 5 MP
gs
PP
gr
DP
0 -94 -94 0 0 94 94 0 3083 1402 5 MP
gs
PP
gr
DP
0 -94 -94 0 0 94 94 0 3596 1526 5 MP
gs
PP
gr
DP
DA
gs 1592 332 4103 3605 rc
gr

%%IncludeResource: font Helvetica
/Helvetica /ISOLatin1Encoding 120 FMSR

1575 3979 mt 
( ) s
5678  374 mt 
( ) s
gs 1592 332 4103 3605 rc
SO
/c8 { 0.000000 0.000000 1.000000 sr} bdef
c8
512 -39 513 45 512 4 513 115 3643 3412 5 MP stroke
gr

c8
SO
  60   60 3643 3412 PO
  60   60 4156 3527 PO
  60   60 4668 3531 PO
  60   60 5181 3576 PO
  60   60 5693 3537 PO
  60   60 3643 3412 FO
  60   60 4156 3527 FO
  60   60 4668 3531 FO
  60   60 5181 3576 FO
  60   60 5693 3537 FO
gs 1592 332 4103 3605 rc
gr

0 sg
%%IncludeResource: font Helvetica
/Helvetica /ISOLatin1Encoding 168 FMSR

3521 4259 mt 
(t\(s\)) s
1300 2555 mt  -90 rotate
(Spread \(m\)) s
90 rotate
2977  227 mt 
(Surface height \(a\)) s
gs 1592 332 4103 3605 rc
DA
c8
512 434 513 -153 512 42 513 15 3643 2623 5 MP stroke
gr

c8
DA
SO
0 -94 -94 0 0 94 94 0 3596 2576 5 MP
gs
PP
gr
DP
0 -94 -94 0 0 94 94 0 4109 2591 5 MP
gs
PP
gr
DP
0 -94 -94 0 0 94 94 0 4621 2633 5 MP
gs
PP
gr
DP
0 -94 -94 0 0 94 94 0 5134 2480 5 MP
gs
PP
gr
DP
0 -94 -94 0 0 94 94 0 5646 2914 5 MP
gs
PP
gr
DP
DA
gs 1592 332 4103 3605 rc
SO
6 w
gr

6 w
SO
1 sg
0 3604 4101 0 0 -3604 6989 3936 4 MP
PP
-4101 0 0 3604 4101 0 0 -3604 6989 3936 5 MP stroke
4 w
DO
SO
6 w
0 sg
6989 3936 mt 11090 3936 L
6989  332 mt 11090  332 L
6989 3936 mt 6989  332 L
11090 3936 mt 11090  332 L
6989 3936 mt 11090 3936 L
6989 3936 mt 6989  332 L
7330 3936 mt 7330 3894 L
7330  332 mt 7330  373 L
%%IncludeResource: font Helvetica
/Helvetica /ISOLatin1Encoding 120 FMSR

7214 4081 mt 
(0.05) s
8185 3936 mt 8185 3894 L
8185  332 mt 8185  373 L
8102 4081 mt 
(0.1) s
9039 3936 mt 9039 3894 L
9039  332 mt 9039  373 L
8923 4081 mt 
(0.15) s
9893 3936 mt 9893 3894 L
9893  332 mt 9893  373 L
9810 4081 mt 
(0.2) s
10748 3936 mt 10748 3894 L
10748  332 mt 10748  373 L
10632 4081 mt 
(0.25) s
6989 3936 mt 7030 3936 L
11090 3936 mt 11048 3936 L
6888 3980 mt 
(0) s
6989 3485 mt 7030 3485 L
11090 3485 mt 11048 3485 L
6654 3529 mt 
(0.002) s
6989 3035 mt 7030 3035 L
11090 3035 mt 11048 3035 L
6654 3079 mt 
(0.004) s
6989 2584 mt 7030 2584 L
11090 2584 mt 11048 2584 L
6654 2628 mt 
(0.006) s
6989 2134 mt 7030 2134 L
11090 2134 mt 11048 2134 L
6654 2178 mt 
(0.008) s
6989 1683 mt 7030 1683 L
11090 1683 mt 11048 1683 L
6721 1727 mt 
(0.01) s
6989 1233 mt 7030 1233 L
11090 1233 mt 11048 1233 L
6654 1277 mt 
(0.012) s
6989  782 mt 7030  782 L
11090  782 mt 11048  782 L
6654  826 mt 
(0.014) s
6989  332 mt 7030  332 L
11090  332 mt 11048  332 L
6654  376 mt 
(0.016) s
6989 3936 mt 11090 3936 L
6989  332 mt 11090  332 L
6989 3936 mt 6989  332 L
11090 3936 mt 11090  332 L
gs 6989 332 4102 3605 rc
12 w
513 185 512 52 513 110 512 -233 6989 2504 5 MP stroke
gr

12 w
  60   60 6989 2504 PO
  60   60 7501 2271 PO
  60   60 8014 2381 PO
  60   60 8526 2433 PO
  60   60 9039 2618 PO
  60   60 6989 2504 FO
  60   60 7501 2271 FO
  60   60 8014 2381 FO
  60   60 8526 2433 FO
  60   60 9039 2618 FO
gs 6989 332 4102 3605 rc
gr

%%IncludeResource: font Helvetica
/Helvetica /ISOLatin1Encoding 168 FMSR

8917 4259 mt 
(t\(s\)) s
6562 2620 mt  -90 rotate
(Spread \(m/s\)) s
90 rotate
8187  227 mt 
(Lengthwise velocity \(b\)) s
gs 6989 332 4102 3605 rc
DA
513 -50 512 119 513 551 512 -544 6989 1259 5 MP stroke
gr

DA
SO
0 -94 -94 0 0 94 94 0 6942 1212 5 MP
gs
PP
gr
DP
0 -94 -94 0 0 94 94 0 7454 668 5 MP
gs
PP
gr
DP
0 -94 -94 0 0 94 94 0 7967 1219 5 MP
gs
PP
gr
DP
0 -94 -94 0 0 94 94 0 8479 1338 5 MP
gs
PP
gr
DP
0 -94 -94 0 0 94 94 0 8992 1288 5 MP
gs
PP
gr
DP
DA
gs 6989 332 4102 3605 rc
gr

%%IncludeResource: font Helvetica
/Helvetica /ISOLatin1Encoding 120 FMSR

6972 3979 mt 
( ) s
11074  374 mt 
( ) s
gs 6989 332 4102 3605 rc
SO
c8
513 -18 513 -34 512 94 513 -74 9039 3796 5 MP stroke
gr

c8
SO
  60   60 9039 3796 PO
  60   60 9552 3722 PO
  60   60 10064 3816 PO
  60   60 10577 3782 PO
  60   60 11090 3764 PO
  60   60 9039 3796 FO
  60   60 9552 3722 FO
  60   60 10064 3816 FO
  60   60 10577 3782 FO
  60   60 11090 3764 FO
gs 6989 332 4102 3605 rc
513 79 513 42 512 29 513 35 9039 3439 5 MP stroke
gr

0 -94 -94 0 0 94 94 0 8992 3392 5 MP
gs
PP
gr
DP
0 -94 -94 0 0 94 94 0 9505 3427 5 MP
gs
PP
gr
DP
0 -94 -94 0 0 94 94 0 10017 3456 5 MP
gs
PP
gr
DP
0 -94 -94 0 0 94 94 0 10530 3498 5 MP
gs
PP
gr
DP
0 -94 -94 0 0 94 94 0 11043 3577 5 MP
gs
PP
gr
DP
gs 6989 332 4102 3605 rc
6 w
gr

6 w
1 sg
0 977 2421 0 0 -977 3134 1352 4 MP
PP
-2421 0 0 977 2421 0 0 -977 3134 1352 5 MP stroke
4 w
DO
SO
6 w
0 sg
3134 1352 mt 5555 1352 L
3134  375 mt 5555  375 L
3134 1352 mt 3134  375 L
5555 1352 mt 5555  375 L
3134 1352 mt 5555 1352 L
3134 1352 mt 3134  375 L
3134 1352 mt 5555 1352 L
3134  375 mt 5555  375 L
3134 1352 mt 3134  375 L
5555 1352 mt 5555  375 L
%%IncludeResource: font Helvetica
/Helvetica /ISOLatin1Encoding 168 FMSR

3619  573 mt 
(Standard model 1st win) s
gs 3134 375 2422 978 rc
12 w
373 0 3208 512 2 MP stroke
gr

12 w
  60   60 3395  512 PO
  60   60 3395  512 FO
gs 3134 375 2422 978 rc
gr

3619  807 mt 
(Subgrid model 1st win) s
gs 3134 375 2422 978 rc
DA
373 0 3208 746 2 MP stroke
SO
gr

0 -94 -94 0 0 94 94 0 3348 699 5 MP
gs
PP
gr
DP
gs 3134 375 2422 978 rc
gr

3619 1041 mt 
(Standard model 5th win) s
gs 3134 375 2422 978 rc
c8
373 0 3208 980 2 MP stroke
gr

c8
  60   60 3395  980 PO
  60   60 3395  980 FO
gs 3134 375 2422 978 rc
gr

0 sg
3619 1275 mt 
(Subgrid model 5th win) s
gs 3134 375 2422 978 rc
DA
c8
373 0 3208 1214 2 MP stroke
SO
gr

c8
0 -94 -94 0 0 94 94 0 3348 1167 5 MP
gs
PP
gr
DP
gs 3134 375 2422 978 rc
6 w
gr

6 w

end %%Color Dict

eplot
%%EndObject

epage
end

showpage

%%Trailer
%%EOF
