%!PS-Adobe-3.0 EPSF-3.0
%%Creator: (MATLAB, The Mathworks, Inc. Version 9.2.0.538062 \(R2017a\). Operating System: Mac OS X)
%%Title: (/Users/yin.yang/Google Drive/Documents/Paper/IrsteaSlides/fig/globalRMSE.eps)
%%CreationDate: 2018-01-25T11:34:55
%%Pages: (atend)
%%BoundingBox: 0 0 560 420
%%LanguageLevel: 3
%%EndComments
%%BeginProlog
%%BeginResource: procset (Apache XML Graphics Std ProcSet) 1.2 0
%%Version: 1.2 0
%%Copyright: (Copyright 2001-2003,2010 The Apache Software Foundation. License terms: http://www.apache.org/licenses/LICENSE-2.0)
/bd{bind def}bind def
/ld{load def}bd
/GR/grestore ld
/M/moveto ld
/LJ/setlinejoin ld
/C/curveto ld
/f/fill ld
/LW/setlinewidth ld
/GC/setgray ld
/t/show ld
/N/newpath ld
/CT/concat ld
/cp/closepath ld
/S/stroke ld
/L/lineto ld
/CC/setcmykcolor ld
/A/ashow ld
/GS/gsave ld
/RC/setrgbcolor ld
/RM/rmoveto ld
/ML/setmiterlimit ld
/re {4 2 roll M
1 index 0 rlineto
0 exch rlineto
neg 0 rlineto
cp } bd
/_ctm matrix def
/_tm matrix def
/BT { _ctm currentmatrix pop matrix _tm copy pop 0 0 moveto } bd
/ET { _ctm setmatrix } bd
/iTm { _ctm setmatrix _tm concat } bd
/Tm { _tm astore pop iTm 0 0 moveto } bd
/ux 0.0 def
/uy 0.0 def
/F {
  /Tp exch def
  /Tf exch def
  Tf findfont Tp scalefont setfont
  /cf Tf def  /cs Tp def
} bd
/ULS {currentpoint /uy exch def /ux exch def} bd
/ULE {
  /Tcx currentpoint pop def
  gsave
  newpath
  cf findfont cs scalefont dup
  /FontMatrix get 0 get /Ts exch def /FontInfo get dup
  /UnderlinePosition get Ts mul /To exch def
  /UnderlineThickness get Ts mul /Tt exch def
  ux uy To add moveto  Tcx uy To add lineto
  Tt setlinewidth stroke
  grestore
} bd
/OLE {
  /Tcx currentpoint pop def
  gsave
  newpath
  cf findfont cs scalefont dup
  /FontMatrix get 0 get /Ts exch def /FontInfo get dup
  /UnderlinePosition get Ts mul /To exch def
  /UnderlineThickness get Ts mul /Tt exch def
  ux uy To add cs add moveto Tcx uy To add cs add lineto
  Tt setlinewidth stroke
  grestore
} bd
/SOE {
  /Tcx currentpoint pop def
  gsave
  newpath
  cf findfont cs scalefont dup
  /FontMatrix get 0 get /Ts exch def /FontInfo get dup
  /UnderlinePosition get Ts mul /To exch def
  /UnderlineThickness get Ts mul /Tt exch def
  ux uy To add cs 10 mul 26 idiv add moveto Tcx uy To add cs 10 mul 26 idiv add lineto
  Tt setlinewidth stroke
  grestore
} bd
/QT {
/Y22 exch store
/X22 exch store
/Y21 exch store
/X21 exch store
currentpoint
/Y21 load 2 mul add 3 div exch
/X21 load 2 mul add 3 div exch
/X21 load 2 mul /X22 load add 3 div
/Y21 load 2 mul /Y22 load add 3 div
/X22 load /Y22 load curveto
} bd
/SSPD {
dup length /d exch dict def
{
/v exch def
/k exch def
currentpagedevice k known {
/cpdv currentpagedevice k get def
v cpdv ne {
/upd false def
/nullv v type /nulltype eq def
/nullcpdv cpdv type /nulltype eq def
nullv nullcpdv or
{
/upd true def
} {
/sametype v type cpdv type eq def
sametype {
v type /arraytype eq {
/vlen v length def
/cpdvlen cpdv length def
vlen cpdvlen eq {
0 1 vlen 1 sub {
/i exch def
/obj v i get def
/cpdobj cpdv i get def
obj cpdobj ne {
/upd true def
exit
} if
} for
} {
/upd true def
} ifelse
} {
v type /dicttype eq {
v {
/dv exch def
/dk exch def
/cpddv cpdv dk get def
dv cpddv ne {
/upd true def
exit
} if
} forall
} {
/upd true def
} ifelse
} ifelse
} if
} ifelse
upd true eq {
d k v put
} if
} if
} if
} forall
d length 0 gt {
d setpagedevice
} if
} bd
/RE { % /NewFontName [NewEncodingArray] /FontName RE -
  findfont dup length dict begin
  {
    1 index /FID ne
    {def} {pop pop} ifelse
  } forall
  /Encoding exch def
  /FontName 1 index def
  currentdict definefont pop
  end
} bind def
%%EndResource
%%BeginResource: procset (Apache XML Graphics EPS ProcSet) 1.0 0
%%Version: 1.0 0
%%Copyright: (Copyright 2002-2003 The Apache Software Foundation. License terms: http://www.apache.org/licenses/LICENSE-2.0)
/BeginEPSF { %def
/b4_Inc_state save def         % Save state for cleanup
/dict_count countdictstack def % Count objects on dict stack
/op_count count 1 sub def      % Count objects on operand stack
userdict begin                 % Push userdict on dict stack
/showpage { } def              % Redefine showpage, { } = null proc
0 setgray 0 setlinecap         % Prepare graphics state
1 setlinewidth 0 setlinejoin
10 setmiterlimit [ ] 0 setdash newpath
/languagelevel where           % If level not equal to 1 then
{pop languagelevel             % set strokeadjust and
1 ne                           % overprint to their defaults.
{false setstrokeadjust false setoverprint
} if
} if
} bd
/EndEPSF { %def
count op_count sub {pop} repeat            % Clean up stacks
countdictstack dict_count sub {end} repeat
b4_Inc_state restore
} bd
%%EndResource
%FOPBeginFontDict
%%IncludeResource: font Courier-Bold
%%IncludeResource: font Helvetica
%%IncludeResource: font Courier-BoldOblique
%%IncludeResource: font Courier-Oblique
%%IncludeResource: font Times-Roman
%%IncludeResource: font Helvetica-BoldOblique
%%IncludeResource: font Helvetica-Bold
%%IncludeResource: font Helvetica-Oblique
%%IncludeResource: font Times-BoldItalic
%%IncludeResource: font Courier
%%IncludeResource: font Times-Italic
%%IncludeResource: font Times-Bold
%%IncludeResource: font Symbol
%%IncludeResource: font ZapfDingbats
%FOPEndFontDict
%%BeginResource: encoding WinAnsiEncoding
/WinAnsiEncoding [
/.notdef /.notdef /.notdef /.notdef /.notdef
/.notdef /.notdef /.notdef /.notdef /.notdef
/.notdef /.notdef /.notdef /.notdef /.notdef
/.notdef /.notdef /.notdef /.notdef /.notdef
/.notdef /.notdef /.notdef /.notdef /.notdef
/.notdef /.notdef /.notdef /.notdef /.notdef
/.notdef /.notdef /space /exclam /quotedbl
/numbersign /dollar /percent /ampersand /quotesingle
/parenleft /parenright /asterisk /plus /comma
/hyphen /period /slash /zero /one
/two /three /four /five /six
/seven /eight /nine /colon /semicolon
/less /equal /greater /question /at
/A /B /C /D /E
/F /G /H /I /J
/K /L /M /N /O
/P /Q /R /S /T
/U /V /W /X /Y
/Z /bracketleft /backslash /bracketright /asciicircum
/underscore /quoteleft /a /b /c
/d /e /f /g /h
/i /j /k /l /m
/n /o /p /q /r
/s /t /u /v /w
/x /y /z /braceleft /bar
/braceright /asciitilde /bullet /Euro /bullet
/quotesinglbase /florin /quotedblbase /ellipsis /dagger
/daggerdbl /circumflex /perthousand /Scaron /guilsinglleft
/OE /bullet /Zcaron /bullet /bullet
/quoteleft /quoteright /quotedblleft /quotedblright /bullet
/endash /emdash /asciitilde /trademark /scaron
/guilsinglright /oe /bullet /zcaron /Ydieresis
/space /exclamdown /cent /sterling /currency
/yen /brokenbar /section /dieresis /copyright
/ordfeminine /guillemotleft /logicalnot /sfthyphen /registered
/macron /degree /plusminus /twosuperior /threesuperior
/acute /mu /paragraph /middot /cedilla
/onesuperior /ordmasculine /guillemotright /onequarter /onehalf
/threequarters /questiondown /Agrave /Aacute /Acircumflex
/Atilde /Adieresis /Aring /AE /Ccedilla
/Egrave /Eacute /Ecircumflex /Edieresis /Igrave
/Iacute /Icircumflex /Idieresis /Eth /Ntilde
/Ograve /Oacute /Ocircumflex /Otilde /Odieresis
/multiply /Oslash /Ugrave /Uacute /Ucircumflex
/Udieresis /Yacute /Thorn /germandbls /agrave
/aacute /acircumflex /atilde /adieresis /aring
/ae /ccedilla /egrave /eacute /ecircumflex
/edieresis /igrave /iacute /icircumflex /idieresis
/eth /ntilde /ograve /oacute /ocircumflex
/otilde /odieresis /divide /oslash /ugrave
/uacute /ucircumflex /udieresis /yacute /thorn
/ydieresis
] def
%%EndResource
%FOPBeginFontReencode
/Courier-Bold findfont
dup length dict begin
  {1 index /FID ne {def} {pop pop} ifelse} forall
  /Encoding WinAnsiEncoding def
  currentdict
end
/Courier-Bold exch definefont pop
/Helvetica findfont
dup length dict begin
  {1 index /FID ne {def} {pop pop} ifelse} forall
  /Encoding WinAnsiEncoding def
  currentdict
end
/Helvetica exch definefont pop
/Courier-BoldOblique findfont
dup length dict begin
  {1 index /FID ne {def} {pop pop} ifelse} forall
  /Encoding WinAnsiEncoding def
  currentdict
end
/Courier-BoldOblique exch definefont pop
/Courier-Oblique findfont
dup length dict begin
  {1 index /FID ne {def} {pop pop} ifelse} forall
  /Encoding WinAnsiEncoding def
  currentdict
end
/Courier-Oblique exch definefont pop
/Times-Roman findfont
dup length dict begin
  {1 index /FID ne {def} {pop pop} ifelse} forall
  /Encoding WinAnsiEncoding def
  currentdict
end
/Times-Roman exch definefont pop
/Helvetica-BoldOblique findfont
dup length dict begin
  {1 index /FID ne {def} {pop pop} ifelse} forall
  /Encoding WinAnsiEncoding def
  currentdict
end
/Helvetica-BoldOblique exch definefont pop
/Helvetica-Bold findfont
dup length dict begin
  {1 index /FID ne {def} {pop pop} ifelse} forall
  /Encoding WinAnsiEncoding def
  currentdict
end
/Helvetica-Bold exch definefont pop
/Helvetica-Oblique findfont
dup length dict begin
  {1 index /FID ne {def} {pop pop} ifelse} forall
  /Encoding WinAnsiEncoding def
  currentdict
end
/Helvetica-Oblique exch definefont pop
/Times-BoldItalic findfont
dup length dict begin
  {1 index /FID ne {def} {pop pop} ifelse} forall
  /Encoding WinAnsiEncoding def
  currentdict
end
/Times-BoldItalic exch definefont pop
/Courier findfont
dup length dict begin
  {1 index /FID ne {def} {pop pop} ifelse} forall
  /Encoding WinAnsiEncoding def
  currentdict
end
/Courier exch definefont pop
/Times-Italic findfont
dup length dict begin
  {1 index /FID ne {def} {pop pop} ifelse} forall
  /Encoding WinAnsiEncoding def
  currentdict
end
/Times-Italic exch definefont pop
/Times-Bold findfont
dup length dict begin
  {1 index /FID ne {def} {pop pop} ifelse} forall
  /Encoding WinAnsiEncoding def
  currentdict
end
/Times-Bold exch definefont pop
%FOPEndFontReencode
%%EndProlog
%%Page: 1 1
%%PageBoundingBox: 0 0 560 420
%%BeginPageSetup
[1 0 0 -1 0 420] CT
%%EndPageSetup
GS
1 GC
N
0 0 560 420 re
f
GR
GS
1 GC
N
0 0 560 420 re
f
GR
GS
1 GC
N
73 374 M
507 374 L
507 31 L
73 31 L
cp
f
GR
GS
0.149 GC
2 setlinecap
1 LJ
0.5 LW
N
73 374 M
507 374 L
S
GR
GS
0.149 GC
2 setlinecap
1 LJ
0.5 LW
N
73 31 M
507 31 L
S
GR
GS
0.149 GC
2 setlinecap
1 LJ
0.5 LW
N
73 374 M
73 369.66 L
S
GR
GS
0.149 GC
2 setlinecap
1 LJ
0.5 LW
N
121.222 374 M
121.222 369.66 L
S
GR
GS
0.149 GC
2 setlinecap
1 LJ
0.5 LW
N
169.444 374 M
169.444 369.66 L
S
GR
GS
0.149 GC
2 setlinecap
1 LJ
0.5 LW
N
217.667 374 M
217.667 369.66 L
S
GR
GS
0.149 GC
2 setlinecap
1 LJ
0.5 LW
N
265.889 374 M
265.889 369.66 L
S
GR
GS
0.149 GC
2 setlinecap
1 LJ
0.5 LW
N
314.111 374 M
314.111 369.66 L
S
GR
GS
0.149 GC
2 setlinecap
1 LJ
0.5 LW
N
362.333 374 M
362.333 369.66 L
S
GR
GS
0.149 GC
2 setlinecap
1 LJ
0.5 LW
N
410.556 374 M
410.556 369.66 L
S
GR
GS
0.149 GC
2 setlinecap
1 LJ
0.5 LW
N
458.778 374 M
458.778 369.66 L
S
GR
GS
0.149 GC
2 setlinecap
1 LJ
0.5 LW
N
507 374 M
507 369.66 L
S
GR
GS
0.149 GC
2 setlinecap
1 LJ
0.5 LW
N
73 31 M
73 35.34 L
S
GR
GS
0.149 GC
2 setlinecap
1 LJ
0.5 LW
N
121.222 31 M
121.222 35.34 L
S
GR
GS
0.149 GC
2 setlinecap
1 LJ
0.5 LW
N
169.444 31 M
169.444 35.34 L
S
GR
GS
0.149 GC
2 setlinecap
1 LJ
0.5 LW
N
217.667 31 M
217.667 35.34 L
S
GR
GS
0.149 GC
2 setlinecap
1 LJ
0.5 LW
N
265.889 31 M
265.889 35.34 L
S
GR
GS
0.149 GC
2 setlinecap
1 LJ
0.5 LW
N
314.111 31 M
314.111 35.34 L
S
GR
GS
0.149 GC
2 setlinecap
1 LJ
0.5 LW
N
362.333 31 M
362.333 35.34 L
S
GR
GS
0.149 GC
2 setlinecap
1 LJ
0.5 LW
N
410.556 31 M
410.556 35.34 L
S
GR
GS
0.149 GC
2 setlinecap
1 LJ
0.5 LW
N
458.778 31 M
458.778 35.34 L
S
GR
GS
0.149 GC
2 setlinecap
1 LJ
0.5 LW
N
507 31 M
507 35.34 L
S
GR
GS
[1 0 0 1 73 378] CT
0.149 GC
/Helvetica 10 F
GS
[1 0 0 1 0 0] CT
-3 10 moveto 
1 -1 scale
(0) t 
GR
GR
GS
[1 0 0 1 121.22222 378] CT
0.149 GC
/Helvetica 10 F
GS
[1 0 0 1 0 0] CT
-3 10 moveto 
1 -1 scale
(5) t 
GR
GR
GS
[1 0 0 1 169.44444 378] CT
0.149 GC
/Helvetica 10 F
GS
[1 0 0 1 0 0] CT
-6 10 moveto 
1 -1 scale
(10) t 
GR
GR
GS
[1 0 0 1 217.66667 378] CT
0.149 GC
/Helvetica 10 F
GS
[1 0 0 1 0 0] CT
-6 10 moveto 
1 -1 scale
(15) t 
GR
GR
GS
[1 0 0 1 265.88889 378] CT
0.149 GC
/Helvetica 10 F
GS
[1 0 0 1 0 0] CT
-6 10 moveto 
1 -1 scale
(20) t 
GR
GR
GS
[1 0 0 1 314.11111 378] CT
0.149 GC
/Helvetica 10 F
GS
[1 0 0 1 0 0] CT
-6 10 moveto 
1 -1 scale
(25) t 
GR
GR
GS
[1 0 0 1 362.33334 378] CT
0.149 GC
/Helvetica 10 F
GS
[1 0 0 1 0 0] CT
-6 10 moveto 
1 -1 scale
(30) t 
GR
GR
GS
[1 0 0 1 410.55557 378] CT
0.149 GC
/Helvetica 10 F
GS
[1 0 0 1 0 0] CT
-6 10 moveto 
1 -1 scale
(35) t 
GR
GR
GS
[1 0 0 1 458.77777 378] CT
0.149 GC
/Helvetica 10 F
GS
[1 0 0 1 0 0] CT
-6 10 moveto 
1 -1 scale
(40) t 
GR
GR
GS
[1 0 0 1 507 378] CT
0.149 GC
/Helvetica 10 F
GS
[1 0 0 1 0 0] CT
-6 10 moveto 
1 -1 scale
(45) t 
GR
GR
GS
[1 0 0 1 290.00021 392] CT
0.149 GC
/Helvetica 11 F
GS
[1 0 0 1 0 0] CT
-20 11 moveto 
1 -1 scale
(iteration) t 
GR
GR
GS
0.149 GC
2 setlinecap
1 LJ
0.5 LW
N
73 374 M
73 31 L
S
GR
GS
0.149 GC
2 setlinecap
1 LJ
0.5 LW
N
507 374 M
507 31 L
S
GR
GS
0.149 GC
2 setlinecap
1 LJ
0.5 LW
N
73 374 M
77.34 374 L
S
GR
GS
0.149 GC
2 setlinecap
1 LJ
0.5 LW
N
73 259.667 M
77.34 259.667 L
S
GR
GS
0.149 GC
2 setlinecap
1 LJ
0.5 LW
N
73 145.333 M
77.34 145.333 L
S
GR
GS
0.149 GC
2 setlinecap
1 LJ
0.5 LW
N
73 31 M
77.34 31 L
S
GR
GS
0.149 GC
2 setlinecap
1 LJ
0.5 LW
N
507 374 M
502.66 374 L
S
GR
GS
0.149 GC
2 setlinecap
1 LJ
0.5 LW
N
507 259.667 M
502.66 259.667 L
S
GR
GS
0.149 GC
2 setlinecap
1 LJ
0.5 LW
N
507 145.333 M
502.66 145.333 L
S
GR
GS
0.149 GC
2 setlinecap
1 LJ
0.5 LW
N
507 31 M
502.66 31 L
S
GR
GS
0.149 GC
2 setlinecap
1 LJ
0.5 LW
N
73 374 M
75.17 374 L
S
GR
GS
0.149 GC
2 setlinecap
1 LJ
0.5 LW
N
73 339.582 M
75.17 339.582 L
S
GR
GS
0.149 GC
2 setlinecap
1 LJ
0.5 LW
N
73 319.449 M
75.17 319.449 L
S
GR
GS
0.149 GC
2 setlinecap
1 LJ
0.5 LW
N
73 305.164 M
75.17 305.164 L
S
GR
GS
0.149 GC
2 setlinecap
1 LJ
0.5 LW
N
73 294.084 M
75.17 294.084 L
S
GR
GS
0.149 GC
2 setlinecap
1 LJ
0.5 LW
N
73 285.031 M
75.17 285.031 L
S
GR
GS
0.149 GC
2 setlinecap
1 LJ
0.5 LW
N
73 277.377 M
75.17 277.377 L
S
GR
GS
0.149 GC
2 setlinecap
1 LJ
0.5 LW
N
73 270.747 M
75.17 270.747 L
S
GR
GS
0.149 GC
2 setlinecap
1 LJ
0.5 LW
N
73 264.898 M
75.17 264.898 L
S
GR
GS
0.149 GC
2 setlinecap
1 LJ
0.5 LW
N
73 259.667 M
75.17 259.667 L
S
GR
GS
0.149 GC
2 setlinecap
1 LJ
0.5 LW
N
73 225.249 M
75.17 225.249 L
S
GR
GS
0.149 GC
2 setlinecap
1 LJ
0.5 LW
N
73 205.116 M
75.17 205.116 L
S
GR
GS
0.149 GC
2 setlinecap
1 LJ
0.5 LW
N
73 190.831 M
75.17 190.831 L
S
GR
GS
0.149 GC
2 setlinecap
1 LJ
0.5 LW
N
73 179.751 M
75.17 179.751 L
S
GR
GS
0.149 GC
2 setlinecap
1 LJ
0.5 LW
N
73 170.698 M
75.17 170.698 L
S
GR
GS
0.149 GC
2 setlinecap
1 LJ
0.5 LW
N
73 163.044 M
75.17 163.044 L
S
GR
GS
0.149 GC
2 setlinecap
1 LJ
0.5 LW
N
73 156.413 M
75.17 156.413 L
S
GR
GS
0.149 GC
2 setlinecap
1 LJ
0.5 LW
N
73 150.565 M
75.17 150.565 L
S
GR
GS
0.149 GC
2 setlinecap
1 LJ
0.5 LW
N
73 145.333 M
75.17 145.333 L
S
GR
GS
0.149 GC
2 setlinecap
1 LJ
0.5 LW
N
73 110.916 M
75.17 110.916 L
S
GR
GS
0.149 GC
2 setlinecap
1 LJ
0.5 LW
N
73 90.782 M
75.17 90.782 L
S
GR
GS
0.149 GC
2 setlinecap
1 LJ
0.5 LW
N
73 76.498 M
75.17 76.498 L
S
GR
GS
0.149 GC
2 setlinecap
1 LJ
0.5 LW
N
73 65.418 M
75.17 65.418 L
S
GR
GS
0.149 GC
2 setlinecap
1 LJ
0.5 LW
N
73 56.365 M
75.17 56.365 L
S
GR
GS
0.149 GC
2 setlinecap
1 LJ
0.5 LW
N
73 48.71 M
75.17 48.71 L
S
GR
GS
0.149 GC
2 setlinecap
1 LJ
0.5 LW
N
73 42.08 M
75.17 42.08 L
S
GR
GS
0.149 GC
2 setlinecap
1 LJ
0.5 LW
N
73 36.232 M
75.17 36.232 L
S
GR
GS
0.149 GC
2 setlinecap
1 LJ
0.5 LW
N
73 31 M
75.17 31 L
S
GR
GS
0.149 GC
2 setlinecap
1 LJ
0.5 LW
N
507 374 M
504.83 374 L
S
GR
GS
0.149 GC
2 setlinecap
1 LJ
0.5 LW
N
507 339.582 M
504.83 339.582 L
S
GR
GS
0.149 GC
2 setlinecap
1 LJ
0.5 LW
N
507 319.449 M
504.83 319.449 L
S
GR
GS
0.149 GC
2 setlinecap
1 LJ
0.5 LW
N
507 305.164 M
504.83 305.164 L
S
GR
GS
0.149 GC
2 setlinecap
1 LJ
0.5 LW
N
507 294.084 M
504.83 294.084 L
S
GR
GS
0.149 GC
2 setlinecap
1 LJ
0.5 LW
N
507 285.031 M
504.83 285.031 L
S
GR
GS
0.149 GC
2 setlinecap
1 LJ
0.5 LW
N
507 277.377 M
504.83 277.377 L
S
GR
GS
0.149 GC
2 setlinecap
1 LJ
0.5 LW
N
507 270.747 M
504.83 270.747 L
S
GR
GS
0.149 GC
2 setlinecap
1 LJ
0.5 LW
N
507 264.898 M
504.83 264.898 L
S
GR
GS
0.149 GC
2 setlinecap
1 LJ
0.5 LW
N
507 259.667 M
504.83 259.667 L
S
GR
GS
0.149 GC
2 setlinecap
1 LJ
0.5 LW
N
507 225.249 M
504.83 225.249 L
S
GR
GS
0.149 GC
2 setlinecap
1 LJ
0.5 LW
N
507 205.116 M
504.83 205.116 L
S
GR
GS
0.149 GC
2 setlinecap
1 LJ
0.5 LW
N
507 190.831 M
504.83 190.831 L
S
GR
GS
0.149 GC
2 setlinecap
1 LJ
0.5 LW
N
507 179.751 M
504.83 179.751 L
S
GR
GS
0.149 GC
2 setlinecap
1 LJ
0.5 LW
N
507 170.698 M
504.83 170.698 L
S
GR
GS
0.149 GC
2 setlinecap
1 LJ
0.5 LW
N
507 163.044 M
504.83 163.044 L
S
GR
GS
0.149 GC
2 setlinecap
1 LJ
0.5 LW
N
507 156.413 M
504.83 156.413 L
S
GR
GS
0.149 GC
2 setlinecap
1 LJ
0.5 LW
N
507 150.565 M
504.83 150.565 L
S
GR
GS
0.149 GC
2 setlinecap
1 LJ
0.5 LW
N
507 145.333 M
504.83 145.333 L
S
GR
GS
0.149 GC
2 setlinecap
1 LJ
0.5 LW
N
507 110.916 M
504.83 110.916 L
S
GR
GS
0.149 GC
2 setlinecap
1 LJ
0.5 LW
N
507 90.782 M
504.83 90.782 L
S
GR
GS
0.149 GC
2 setlinecap
1 LJ
0.5 LW
N
507 76.498 M
504.83 76.498 L
S
GR
GS
0.149 GC
2 setlinecap
1 LJ
0.5 LW
N
507 65.418 M
504.83 65.418 L
S
GR
GS
0.149 GC
2 setlinecap
1 LJ
0.5 LW
N
507 56.365 M
504.83 56.365 L
S
GR
GS
0.149 GC
2 setlinecap
1 LJ
0.5 LW
N
507 48.71 M
504.83 48.71 L
S
GR
GS
0.149 GC
2 setlinecap
1 LJ
0.5 LW
N
507 42.08 M
504.83 42.08 L
S
GR
GS
0.149 GC
2 setlinecap
1 LJ
0.5 LW
N
507 36.232 M
504.83 36.232 L
S
GR
GS
0.149 GC
2 setlinecap
1 LJ
0.5 LW
N
507 31 M
504.83 31 L
S
GR
GS
[1 0 0 1 49 379] CT
0.149 GC
/Helvetica 10 F
GS
[1 0 0 1 0 0] CT
0 0 moveto 
1 -1 scale
(10) t 
GR
GR
GS
[1 0 0 1 61 374] CT
0.149 GC
/Helvetica 8 F
GS
[1 0 0 1 0 0] CT
0 0 moveto 
1 -1 scale
(-3) t 
GR
GR
GS
[1 0 0 1 49 265] CT
0.149 GC
/Helvetica 10 F
GS
[1 0 0 1 0 0] CT
0 0 moveto 
1 -1 scale
(10) t 
GR
GR
GS
[1 0 0 1 61 260] CT
0.149 GC
/Helvetica 8 F
GS
[1 0 0 1 0 0] CT
0 0 moveto 
1 -1 scale
(-2) t 
GR
GR
GS
[1 0 0 1 49 150] CT
0.149 GC
/Helvetica 10 F
GS
[1 0 0 1 0 0] CT
0 0 moveto 
1 -1 scale
(10) t 
GR
GR
GS
[1 0 0 1 61 145] CT
0.149 GC
/Helvetica 8 F
GS
[1 0 0 1 0 0] CT
0 0 moveto 
1 -1 scale
(-1) t 
GR
GR
GS
[1 0 0 1 52 36] CT
0.149 GC
/Helvetica 10 F
GS
[1 0 0 1 0 0] CT
0 0 moveto 
1 -1 scale
(10) t 
GR
GR
GS
[1 0 0 1 64 31] CT
0.149 GC
/Helvetica 8 F
GS
[1 0 0 1 0 0] CT
0 0 moveto 
1 -1 scale
(0) t 
GR
GR
GS
[0 -1 1 0 46 202.49983] CT
0.149 GC
/Helvetica 11 F
GS
[1 0 0 1 0 0] CT
-38.5 -3 moveto 
1 -1 scale
(relative error/%) t 
GR
GR
GS
[1 0 0 1 290.00027 28.24998] CT
/Helvetica-Bold 11 F
GS
[1 0 0 1 0 0] CT
-83 -3 moveto 
1 -1 scale
(Relative error w.r.t IPR iteration) t 
GR
GR
GS
1 LJ
2 LW
N
73 43.647 M
82.644 64.724 L
92.289 64.724 L
101.933 64.132 L
111.578 72.803 L
121.222 72.803 L
130.867 68.593 L
140.511 62.009 L
150.156 70.385 L
159.8 72.051 L
169.444 84.447 L
179.089 94.036 L
188.733 111.843 L
198.378 121.069 L
208.022 114.664 L
217.667 125.552 L
227.311 142.979 L
236.956 149.35 L
246.6 152.391 L
256.244 160.201 L
265.889 154.232 L
275.533 170.282 L
285.178 174.004 L
294.822 172.968 L
304.467 173.954 L
314.111 178.678 L
323.756 186.11 L
333.4 186.11 L
343.044 186.11 L
352.689 186.11 L
362.333 186.11 L
371.978 185.823 L
381.622 185.863 L
391.267 185.547 L
400.911 184.071 L
410.556 184.095 L
420.2 185.843 L
429.844 186.641 L
439.489 187.421 L
449.133 187.831 L
458.778 188.032 L
468.422 188.528 L
478.067 188.65 L
487.711 188.657 L
497.356 188.525 L
507 188.548 L
S
GR
GS
[1 0 0 1 73 43.647] CT
10.0 ML
2 LW
N
-4 -4 M
-4 4 L
4 4 L
4 -4 L
cp
S
GR
GS
[1 0 0 1 82.64445 64.72391] CT
10.0 ML
2 LW
N
-4 -4 M
-4 4 L
4 4 L
4 -4 L
cp
S
GR
GS
[1 0 0 1 92.28889 64.72391] CT
10.0 ML
2 LW
N
-4 -4 M
-4 4 L
4 4 L
4 -4 L
cp
S
GR
GS
[1 0 0 1 101.93333 64.1322] CT
10.0 ML
2 LW
N
-4 -4 M
-4 4 L
4 4 L
4 -4 L
cp
S
GR
GS
[1 0 0 1 111.57778 72.80281] CT
10.0 ML
2 LW
N
-4 -4 M
-4 4 L
4 4 L
4 -4 L
cp
S
GR
GS
[1 0 0 1 121.22222 72.80281] CT
10.0 ML
2 LW
N
-4 -4 M
-4 4 L
4 4 L
4 -4 L
cp
S
GR
GS
[1 0 0 1 130.86667 68.59296] CT
10.0 ML
2 LW
N
-4 -4 M
-4 4 L
4 4 L
4 -4 L
cp
S
GR
GS
[1 0 0 1 140.51111 62.00889] CT
10.0 ML
2 LW
N
-4 -4 M
-4 4 L
4 4 L
4 -4 L
cp
S
GR
GS
[1 0 0 1 150.15556 70.38504] CT
10.0 ML
2 LW
N
-4 -4 M
-4 4 L
4 4 L
4 -4 L
cp
S
GR
GS
[1 0 0 1 159.8 72.05113] CT
10.0 ML
2 LW
N
-4 -4 M
-4 4 L
4 4 L
4 -4 L
cp
S
GR
GS
[1 0 0 1 169.44444 84.44706] CT
10.0 ML
2 LW
N
-4 -4 M
-4 4 L
4 4 L
4 -4 L
cp
S
GR
GS
[1 0 0 1 179.08888 94.03606] CT
10.0 ML
2 LW
N
-4 -4 M
-4 4 L
4 4 L
4 -4 L
cp
S
GR
GS
[1 0 0 1 188.73334 111.84259] CT
10.0 ML
2 LW
N
-4 -4 M
-4 4 L
4 4 L
4 -4 L
cp
S
GR
GS
[1 0 0 1 198.37778 121.06886] CT
10.0 ML
2 LW
N
-4 -4 M
-4 4 L
4 4 L
4 -4 L
cp
S
GR
GS
[1 0 0 1 208.02223 114.66357] CT
10.0 ML
2 LW
N
-4 -4 M
-4 4 L
4 4 L
4 -4 L
cp
S
GR
GS
[1 0 0 1 217.66667 125.5519] CT
10.0 ML
2 LW
N
-4 -4 M
-4 4 L
4 4 L
4 -4 L
cp
S
GR
GS
[1 0 0 1 227.31111 142.97923] CT
10.0 ML
2 LW
N
-4 -4 M
-4 4 L
4 4 L
4 -4 L
cp
S
GR
GS
[1 0 0 1 236.95555 149.34972] CT
10.0 ML
2 LW
N
-4 -4 M
-4 4 L
4 4 L
4 -4 L
cp
S
GR
GS
[1 0 0 1 246.60001 152.39127] CT
10.0 ML
2 LW
N
-4 -4 M
-4 4 L
4 4 L
4 -4 L
cp
S
GR
GS
[1 0 0 1 256.24445 160.20103] CT
10.0 ML
2 LW
N
-4 -4 M
-4 4 L
4 4 L
4 -4 L
cp
S
GR
GS
[1 0 0 1 265.88889 154.2316] CT
10.0 ML
2 LW
N
-4 -4 M
-4 4 L
4 4 L
4 -4 L
cp
S
GR
GS
[1 0 0 1 275.53333 170.28198] CT
10.0 ML
2 LW
N
-4 -4 M
-4 4 L
4 4 L
4 -4 L
cp
S
GR
GS
[1 0 0 1 285.17776 174.00401] CT
10.0 ML
2 LW
N
-4 -4 M
-4 4 L
4 4 L
4 -4 L
cp
S
GR
GS
[1 0 0 1 294.82224 172.96774] CT
10.0 ML
2 LW
N
-4 -4 M
-4 4 L
4 4 L
4 -4 L
cp
S
GR
GS
[1 0 0 1 304.46667 173.95445] CT
10.0 ML
2 LW
N
-4 -4 M
-4 4 L
4 4 L
4 -4 L
cp
S
GR
GS
[1 0 0 1 314.11111 178.67844] CT
10.0 ML
2 LW
N
-4 -4 M
-4 4 L
4 4 L
4 -4 L
cp
S
GR
GS
[1 0 0 1 323.75555 186.10973] CT
10.0 ML
2 LW
N
-4 -4 M
-4 4 L
4 4 L
4 -4 L
cp
S
GR
GS
[1 0 0 1 333.40002 186.10973] CT
10.0 ML
2 LW
N
-4 -4 M
-4 4 L
4 4 L
4 -4 L
cp
S
GR
GS
[1 0 0 1 343.04446 186.10973] CT
10.0 ML
2 LW
N
-4 -4 M
-4 4 L
4 4 L
4 -4 L
cp
S
GR
GS
[1 0 0 1 352.6889 186.10973] CT
10.0 ML
2 LW
N
-4 -4 M
-4 4 L
4 4 L
4 -4 L
cp
S
GR
GS
[1 0 0 1 362.33334 186.10973] CT
10.0 ML
2 LW
N
-4 -4 M
-4 4 L
4 4 L
4 -4 L
cp
S
GR
GS
[1 0 0 1 371.97778 185.82286] CT
10.0 ML
2 LW
N
-4 -4 M
-4 4 L
4 4 L
4 -4 L
cp
S
GR
GS
[1 0 0 1 381.62222 185.86327] CT
10.0 ML
2 LW
N
-4 -4 M
-4 4 L
4 4 L
4 -4 L
cp
S
GR
GS
[1 0 0 1 391.26666 185.54671] CT
10.0 ML
2 LW
N
-4 -4 M
-4 4 L
4 4 L
4 -4 L
cp
S
GR
GS
[1 0 0 1 400.9111 184.07124] CT
10.0 ML
2 LW
N
-4 -4 M
-4 4 L
4 4 L
4 -4 L
cp
S
GR
GS
[1 0 0 1 410.55557 184.09496] CT
10.0 ML
2 LW
N
-4 -4 M
-4 4 L
4 4 L
4 -4 L
cp
S
GR
GS
[1 0 0 1 420.20001 185.84334] CT
10.0 ML
2 LW
N
-4 -4 M
-4 4 L
4 4 L
4 -4 L
cp
S
GR
GS
[1 0 0 1 429.84445 186.6409] CT
10.0 ML
2 LW
N
-4 -4 M
-4 4 L
4 4 L
4 -4 L
cp
S
GR
GS
[1 0 0 1 439.48889 187.42128] CT
10.0 ML
2 LW
N
-4 -4 M
-4 4 L
4 4 L
4 -4 L
cp
S
GR
GS
[1 0 0 1 449.13333 187.83138] CT
10.0 ML
2 LW
N
-4 -4 M
-4 4 L
4 4 L
4 -4 L
cp
S
GR
GS
[1 0 0 1 458.77777 188.0323] CT
10.0 ML
2 LW
N
-4 -4 M
-4 4 L
4 4 L
4 -4 L
cp
S
GR
GS
[1 0 0 1 468.42221 188.52834] CT
10.0 ML
2 LW
N
-4 -4 M
-4 4 L
4 4 L
4 -4 L
cp
S
GR
GS
[1 0 0 1 478.06668 188.6496] CT
10.0 ML
2 LW
N
-4 -4 M
-4 4 L
4 4 L
4 -4 L
cp
S
GR
GS
[1 0 0 1 487.71112 188.65669] CT
10.0 ML
2 LW
N
-4 -4 M
-4 4 L
4 4 L
4 -4 L
cp
S
GR
GS
[1 0 0 1 497.35556 188.52527] CT
10.0 ML
2 LW
N
-4 -4 M
-4 4 L
4 4 L
4 -4 L
cp
S
GR
GS
[1 0 0 1 507 188.54774] CT
10.0 ML
2 LW
N
-4 -4 M
-4 4 L
4 4 L
4 -4 L
cp
S
GR
GS
0 1 0 RC
1 LJ
2 LW
N
73 61.058 M
82.644 89.616 L
92.289 89.616 L
101.933 95.438 L
111.578 109.084 L
121.222 109.084 L
130.867 109.084 L
140.511 118.151 L
150.156 127.589 L
159.8 127.589 L
169.444 144.212 L
179.089 144.506 L
188.733 144.506 L
198.378 142.595 L
208.022 145.175 L
217.667 153.235 L
227.311 157.586 L
236.956 162.777 L
246.6 164.986 L
256.244 164.986 L
265.889 165.491 L
275.533 179.457 L
285.178 181.15 L
294.822 181.15 L
304.467 181.15 L
314.111 181.15 L
323.756 181.15 L
333.4 181.15 L
343.044 181.15 L
352.689 181.15 L
362.333 181.15 L
371.978 184.778 L
381.622 187.28 L
391.267 187.183 L
400.911 187.777 L
410.556 188.44 L
420.2 188.271 L
429.844 188.366 L
439.489 191.486 L
449.133 190.377 L
458.778 191.768 L
468.422 192.731 L
478.067 192.813 L
487.711 193.12 L
497.356 193.254 L
507 193.254 L
S
GR
GS
[1 0 0 1 73 61.05829] CT
0 1 0 RC
10.0 ML
2 LW
N
-3.536 -3.536 M
3.536 3.536 L
-3.536 3.536 M
3.536 -3.536 L
S
GR
GS
[1 0 0 1 82.64445 89.61602] CT
0 1 0 RC
10.0 ML
2 LW
N
-3.536 -3.536 M
3.536 3.536 L
-3.536 3.536 M
3.536 -3.536 L
S
GR
GS
[1 0 0 1 92.28889 89.61602] CT
0 1 0 RC
10.0 ML
2 LW
N
-3.536 -3.536 M
3.536 3.536 L
-3.536 3.536 M
3.536 -3.536 L
S
GR
GS
[1 0 0 1 101.93333 95.43838] CT
0 1 0 RC
10.0 ML
2 LW
N
-3.536 -3.536 M
3.536 3.536 L
-3.536 3.536 M
3.536 -3.536 L
S
GR
GS
[1 0 0 1 111.57778 109.08368] CT
0 1 0 RC
10.0 ML
2 LW
N
-3.536 -3.536 M
3.536 3.536 L
-3.536 3.536 M
3.536 -3.536 L
S
GR
GS
[1 0 0 1 121.22222 109.08368] CT
0 1 0 RC
10.0 ML
2 LW
N
-3.536 -3.536 M
3.536 3.536 L
-3.536 3.536 M
3.536 -3.536 L
S
GR
GS
[1 0 0 1 130.86667 109.08368] CT
0 1 0 RC
10.0 ML
2 LW
N
-3.536 -3.536 M
3.536 3.536 L
-3.536 3.536 M
3.536 -3.536 L
S
GR
GS
[1 0 0 1 140.51111 118.15115] CT
0 1 0 RC
10.0 ML
2 LW
N
-3.536 -3.536 M
3.536 3.536 L
-3.536 3.536 M
3.536 -3.536 L
S
GR
GS
[1 0 0 1 150.15556 127.58945] CT
0 1 0 RC
10.0 ML
2 LW
N
-3.536 -3.536 M
3.536 3.536 L
-3.536 3.536 M
3.536 -3.536 L
S
GR
GS
[1 0 0 1 159.8 127.58945] CT
0 1 0 RC
10.0 ML
2 LW
N
-3.536 -3.536 M
3.536 3.536 L
-3.536 3.536 M
3.536 -3.536 L
S
GR
GS
[1 0 0 1 169.44444 144.21233] CT
0 1 0 RC
10.0 ML
2 LW
N
-3.536 -3.536 M
3.536 3.536 L
-3.536 3.536 M
3.536 -3.536 L
S
GR
GS
[1 0 0 1 179.08888 144.50587] CT
0 1 0 RC
10.0 ML
2 LW
N
-3.536 -3.536 M
3.536 3.536 L
-3.536 3.536 M
3.536 -3.536 L
S
GR
GS
[1 0 0 1 188.73334 144.50587] CT
0 1 0 RC
10.0 ML
2 LW
N
-3.536 -3.536 M
3.536 3.536 L
-3.536 3.536 M
3.536 -3.536 L
S
GR
GS
[1 0 0 1 198.37778 142.59541] CT
0 1 0 RC
10.0 ML
2 LW
N
-3.536 -3.536 M
3.536 3.536 L
-3.536 3.536 M
3.536 -3.536 L
S
GR
GS
[1 0 0 1 208.02223 145.17542] CT
0 1 0 RC
10.0 ML
2 LW
N
-3.536 -3.536 M
3.536 3.536 L
-3.536 3.536 M
3.536 -3.536 L
S
GR
GS
[1 0 0 1 217.66667 153.23465] CT
0 1 0 RC
10.0 ML
2 LW
N
-3.536 -3.536 M
3.536 3.536 L
-3.536 3.536 M
3.536 -3.536 L
S
GR
GS
[1 0 0 1 227.31111 157.58565] CT
0 1 0 RC
10.0 ML
2 LW
N
-3.536 -3.536 M
3.536 3.536 L
-3.536 3.536 M
3.536 -3.536 L
S
GR
GS
[1 0 0 1 236.95555 162.77705] CT
0 1 0 RC
10.0 ML
2 LW
N
-3.536 -3.536 M
3.536 3.536 L
-3.536 3.536 M
3.536 -3.536 L
S
GR
GS
[1 0 0 1 246.60001 164.98636] CT
0 1 0 RC
10.0 ML
2 LW
N
-3.536 -3.536 M
3.536 3.536 L
-3.536 3.536 M
3.536 -3.536 L
S
GR
GS
[1 0 0 1 256.24445 164.98636] CT
0 1 0 RC
10.0 ML
2 LW
N
-3.536 -3.536 M
3.536 3.536 L
-3.536 3.536 M
3.536 -3.536 L
S
GR
GS
[1 0 0 1 265.88889 165.4912] CT
0 1 0 RC
10.0 ML
2 LW
N
-3.536 -3.536 M
3.536 3.536 L
-3.536 3.536 M
3.536 -3.536 L
S
GR
GS
[1 0 0 1 275.53333 179.45683] CT
0 1 0 RC
10.0 ML
2 LW
N
-3.536 -3.536 M
3.536 3.536 L
-3.536 3.536 M
3.536 -3.536 L
S
GR
GS
[1 0 0 1 285.17776 181.15019] CT
0 1 0 RC
10.0 ML
2 LW
N
-3.536 -3.536 M
3.536 3.536 L
-3.536 3.536 M
3.536 -3.536 L
S
GR
GS
[1 0 0 1 294.82224 181.15019] CT
0 1 0 RC
10.0 ML
2 LW
N
-3.536 -3.536 M
3.536 3.536 L
-3.536 3.536 M
3.536 -3.536 L
S
GR
GS
[1 0 0 1 304.46667 181.15019] CT
0 1 0 RC
10.0 ML
2 LW
N
-3.536 -3.536 M
3.536 3.536 L
-3.536 3.536 M
3.536 -3.536 L
S
GR
GS
[1 0 0 1 314.11111 181.15019] CT
0 1 0 RC
10.0 ML
2 LW
N
-3.536 -3.536 M
3.536 3.536 L
-3.536 3.536 M
3.536 -3.536 L
S
GR
GS
[1 0 0 1 323.75555 181.15019] CT
0 1 0 RC
10.0 ML
2 LW
N
-3.536 -3.536 M
3.536 3.536 L
-3.536 3.536 M
3.536 -3.536 L
S
GR
GS
[1 0 0 1 333.40002 181.15019] CT
0 1 0 RC
10.0 ML
2 LW
N
-3.536 -3.536 M
3.536 3.536 L
-3.536 3.536 M
3.536 -3.536 L
S
GR
GS
[1 0 0 1 343.04446 181.15019] CT
0 1 0 RC
10.0 ML
2 LW
N
-3.536 -3.536 M
3.536 3.536 L
-3.536 3.536 M
3.536 -3.536 L
S
GR
GS
[1 0 0 1 352.6889 181.15019] CT
0 1 0 RC
10.0 ML
2 LW
N
-3.536 -3.536 M
3.536 3.536 L
-3.536 3.536 M
3.536 -3.536 L
S
GR
GS
[1 0 0 1 362.33334 181.15019] CT
0 1 0 RC
10.0 ML
2 LW
N
-3.536 -3.536 M
3.536 3.536 L
-3.536 3.536 M
3.536 -3.536 L
S
GR
GS
[1 0 0 1 371.97778 184.7784] CT
0 1 0 RC
10.0 ML
2 LW
N
-3.536 -3.536 M
3.536 3.536 L
-3.536 3.536 M
3.536 -3.536 L
S
GR
GS
[1 0 0 1 381.62222 187.28003] CT
0 1 0 RC
10.0 ML
2 LW
N
-3.536 -3.536 M
3.536 3.536 L
-3.536 3.536 M
3.536 -3.536 L
S
GR
GS
[1 0 0 1 391.26666 187.18282] CT
0 1 0 RC
10.0 ML
2 LW
N
-3.536 -3.536 M
3.536 3.536 L
-3.536 3.536 M
3.536 -3.536 L
S
GR
GS
[1 0 0 1 400.9111 187.77669] CT
0 1 0 RC
10.0 ML
2 LW
N
-3.536 -3.536 M
3.536 3.536 L
-3.536 3.536 M
3.536 -3.536 L
S
GR
GS
[1 0 0 1 410.55557 188.44043] CT
0 1 0 RC
10.0 ML
2 LW
N
-3.536 -3.536 M
3.536 3.536 L
-3.536 3.536 M
3.536 -3.536 L
S
GR
GS
[1 0 0 1 420.20001 188.2709] CT
0 1 0 RC
10.0 ML
2 LW
N
-3.536 -3.536 M
3.536 3.536 L
-3.536 3.536 M
3.536 -3.536 L
S
GR
GS
[1 0 0 1 429.84445 188.36589] CT
0 1 0 RC
10.0 ML
2 LW
N
-3.536 -3.536 M
3.536 3.536 L
-3.536 3.536 M
3.536 -3.536 L
S
GR
GS
[1 0 0 1 439.48889 191.48631] CT
0 1 0 RC
10.0 ML
2 LW
N
-3.536 -3.536 M
3.536 3.536 L
-3.536 3.536 M
3.536 -3.536 L
S
GR
GS
[1 0 0 1 449.13333 190.37654] CT
0 1 0 RC
10.0 ML
2 LW
N
-3.536 -3.536 M
3.536 3.536 L
-3.536 3.536 M
3.536 -3.536 L
S
GR
GS
[1 0 0 1 458.77777 191.76773] CT
0 1 0 RC
10.0 ML
2 LW
N
-3.536 -3.536 M
3.536 3.536 L
-3.536 3.536 M
3.536 -3.536 L
S
GR
GS
[1 0 0 1 468.42221 192.73149] CT
0 1 0 RC
10.0 ML
2 LW
N
-3.536 -3.536 M
3.536 3.536 L
-3.536 3.536 M
3.536 -3.536 L
S
GR
GS
[1 0 0 1 478.06668 192.81322] CT
0 1 0 RC
10.0 ML
2 LW
N
-3.536 -3.536 M
3.536 3.536 L
-3.536 3.536 M
3.536 -3.536 L
S
GR
GS
[1 0 0 1 487.71112 193.11993] CT
0 1 0 RC
10.0 ML
2 LW
N
-3.536 -3.536 M
3.536 3.536 L
-3.536 3.536 M
3.536 -3.536 L
S
GR
GS
[1 0 0 1 497.35556 193.25447] CT
0 1 0 RC
10.0 ML
2 LW
N
-3.536 -3.536 M
3.536 3.536 L
-3.536 3.536 M
3.536 -3.536 L
S
GR
GS
[1 0 0 1 507 193.25447] CT
0 1 0 RC
10.0 ML
2 LW
N
-3.536 -3.536 M
3.536 3.536 L
-3.536 3.536 M
3.536 -3.536 L
S
GR
GS
1 0 0 RC
1 LJ
2 LW
N
73 105.547 M
82.644 58.858 L
92.289 58.858 L
101.933 57.455 L
111.578 52.37 L
121.222 52.37 L
130.867 55.633 L
140.511 48.236 L
150.156 50.759 L
159.8 52.308 L
169.444 62.78 L
179.089 73.113 L
188.733 82.104 L
198.378 85.851 L
208.022 84.579 L
217.667 87.207 L
227.311 93.629 L
236.956 97.323 L
246.6 99.501 L
256.244 101.845 L
265.889 101.397 L
275.533 106.295 L
285.178 108.697 L
294.822 107.506 L
304.467 108.764 L
314.111 109.219 L
323.756 110.811 L
333.4 110.811 L
343.044 110.811 L
352.689 110.811 L
362.333 110.811 L
371.978 110.571 L
381.622 111.884 L
391.267 112.886 L
400.911 112.959 L
410.556 112.984 L
420.2 114.075 L
429.844 113.813 L
439.489 113.763 L
449.133 113.673 L
458.778 113.7 L
468.422 113.684 L
478.067 113.74 L
487.711 113.861 L
497.356 113.934 L
507 113.94 L
S
GR
GS
[1 0 0 1 73 105.54704] CT
1 0 0 RC
10.0 ML
2 LW
N
0 -5 M
0 5 L
-5 0 M
5 0 L
-3.536 -3.536 M
3.536 3.536 L
-3.536 3.536 M
3.536 -3.536 L
S
GR
GS
[1 0 0 1 82.64445 58.85823] CT
1 0 0 RC
10.0 ML
2 LW
N
0 -5 M
0 5 L
-5 0 M
5 0 L
-3.536 -3.536 M
3.536 3.536 L
-3.536 3.536 M
3.536 -3.536 L
S
GR
GS
[1 0 0 1 92.28889 58.85823] CT
1 0 0 RC
10.0 ML
2 LW
N
0 -5 M
0 5 L
-5 0 M
5 0 L
-3.536 -3.536 M
3.536 3.536 L
-3.536 3.536 M
3.536 -3.536 L
S
GR
GS
[1 0 0 1 101.93333 57.45529] CT
1 0 0 RC
10.0 ML
2 LW
N
0 -5 M
0 5 L
-5 0 M
5 0 L
-3.536 -3.536 M
3.536 3.536 L
-3.536 3.536 M
3.536 -3.536 L
S
GR
GS
[1 0 0 1 111.57778 52.37003] CT
1 0 0 RC
10.0 ML
2 LW
N
0 -5 M
0 5 L
-5 0 M
5 0 L
-3.536 -3.536 M
3.536 3.536 L
-3.536 3.536 M
3.536 -3.536 L
S
GR
GS
[1 0 0 1 121.22222 52.37003] CT
1 0 0 RC
10.0 ML
2 LW
N
0 -5 M
0 5 L
-5 0 M
5 0 L
-3.536 -3.536 M
3.536 3.536 L
-3.536 3.536 M
3.536 -3.536 L
S
GR
GS
[1 0 0 1 130.86667 55.63329] CT
1 0 0 RC
10.0 ML
2 LW
N
0 -5 M
0 5 L
-5 0 M
5 0 L
-3.536 -3.536 M
3.536 3.536 L
-3.536 3.536 M
3.536 -3.536 L
S
GR
GS
[1 0 0 1 140.51111 48.23632] CT
1 0 0 RC
10.0 ML
2 LW
N
0 -5 M
0 5 L
-5 0 M
5 0 L
-3.536 -3.536 M
3.536 3.536 L
-3.536 3.536 M
3.536 -3.536 L
S
GR
GS
[1 0 0 1 150.15556 50.75887] CT
1 0 0 RC
10.0 ML
2 LW
N
0 -5 M
0 5 L
-5 0 M
5 0 L
-3.536 -3.536 M
3.536 3.536 L
-3.536 3.536 M
3.536 -3.536 L
S
GR
GS
[1 0 0 1 159.8 52.30796] CT
1 0 0 RC
10.0 ML
2 LW
N
0 -5 M
0 5 L
-5 0 M
5 0 L
-3.536 -3.536 M
3.536 3.536 L
-3.536 3.536 M
3.536 -3.536 L
S
GR
GS
[1 0 0 1 169.44444 62.77958] CT
1 0 0 RC
10.0 ML
2 LW
N
0 -5 M
0 5 L
-5 0 M
5 0 L
-3.536 -3.536 M
3.536 3.536 L
-3.536 3.536 M
3.536 -3.536 L
S
GR
GS
[1 0 0 1 179.08888 73.11306] CT
1 0 0 RC
10.0 ML
2 LW
N
0 -5 M
0 5 L
-5 0 M
5 0 L
-3.536 -3.536 M
3.536 3.536 L
-3.536 3.536 M
3.536 -3.536 L
S
GR
GS
[1 0 0 1 188.73334 82.1041] CT
1 0 0 RC
10.0 ML
2 LW
N
0 -5 M
0 5 L
-5 0 M
5 0 L
-3.536 -3.536 M
3.536 3.536 L
-3.536 3.536 M
3.536 -3.536 L
S
GR
GS
[1 0 0 1 198.37778 85.85135] CT
1 0 0 RC
10.0 ML
2 LW
N
0 -5 M
0 5 L
-5 0 M
5 0 L
-3.536 -3.536 M
3.536 3.536 L
-3.536 3.536 M
3.536 -3.536 L
S
GR
GS
[1 0 0 1 208.02223 84.5794] CT
1 0 0 RC
10.0 ML
2 LW
N
0 -5 M
0 5 L
-5 0 M
5 0 L
-3.536 -3.536 M
3.536 3.536 L
-3.536 3.536 M
3.536 -3.536 L
S
GR
GS
[1 0 0 1 217.66667 87.20709] CT
1 0 0 RC
10.0 ML
2 LW
N
0 -5 M
0 5 L
-5 0 M
5 0 L
-3.536 -3.536 M
3.536 3.536 L
-3.536 3.536 M
3.536 -3.536 L
S
GR
GS
[1 0 0 1 227.31111 93.62948] CT
1 0 0 RC
10.0 ML
2 LW
N
0 -5 M
0 5 L
-5 0 M
5 0 L
-3.536 -3.536 M
3.536 3.536 L
-3.536 3.536 M
3.536 -3.536 L
S
GR
GS
[1 0 0 1 236.95555 97.32349] CT
1 0 0 RC
10.0 ML
2 LW
N
0 -5 M
0 5 L
-5 0 M
5 0 L
-3.536 -3.536 M
3.536 3.536 L
-3.536 3.536 M
3.536 -3.536 L
S
GR
GS
[1 0 0 1 246.60001 99.50107] CT
1 0 0 RC
10.0 ML
2 LW
N
0 -5 M
0 5 L
-5 0 M
5 0 L
-3.536 -3.536 M
3.536 3.536 L
-3.536 3.536 M
3.536 -3.536 L
S
GR
GS
[1 0 0 1 256.24445 101.84514] CT
1 0 0 RC
10.0 ML
2 LW
N
0 -5 M
0 5 L
-5 0 M
5 0 L
-3.536 -3.536 M
3.536 3.536 L
-3.536 3.536 M
3.536 -3.536 L
S
GR
GS
[1 0 0 1 265.88889 101.39712] CT
1 0 0 RC
10.0 ML
2 LW
N
0 -5 M
0 5 L
-5 0 M
5 0 L
-3.536 -3.536 M
3.536 3.536 L
-3.536 3.536 M
3.536 -3.536 L
S
GR
GS
[1 0 0 1 275.53333 106.29527] CT
1 0 0 RC
10.0 ML
2 LW
N
0 -5 M
0 5 L
-5 0 M
5 0 L
-3.536 -3.536 M
3.536 3.536 L
-3.536 3.536 M
3.536 -3.536 L
S
GR
GS
[1 0 0 1 285.17776 108.6974] CT
1 0 0 RC
10.0 ML
2 LW
N
0 -5 M
0 5 L
-5 0 M
5 0 L
-3.536 -3.536 M
3.536 3.536 L
-3.536 3.536 M
3.536 -3.536 L
S
GR
GS
[1 0 0 1 294.82224 107.50627] CT
1 0 0 RC
10.0 ML
2 LW
N
0 -5 M
0 5 L
-5 0 M
5 0 L
-3.536 -3.536 M
3.536 3.536 L
-3.536 3.536 M
3.536 -3.536 L
S
GR
GS
[1 0 0 1 304.46667 108.76436] CT
1 0 0 RC
10.0 ML
2 LW
N
0 -5 M
0 5 L
-5 0 M
5 0 L
-3.536 -3.536 M
3.536 3.536 L
-3.536 3.536 M
3.536 -3.536 L
S
GR
GS
[1 0 0 1 314.11111 109.21937] CT
1 0 0 RC
10.0 ML
2 LW
N
0 -5 M
0 5 L
-5 0 M
5 0 L
-3.536 -3.536 M
3.536 3.536 L
-3.536 3.536 M
3.536 -3.536 L
S
GR
GS
[1 0 0 1 323.75555 110.81094] CT
1 0 0 RC
10.0 ML
2 LW
N
0 -5 M
0 5 L
-5 0 M
5 0 L
-3.536 -3.536 M
3.536 3.536 L
-3.536 3.536 M
3.536 -3.536 L
S
GR
GS
[1 0 0 1 333.40002 110.81094] CT
1 0 0 RC
10.0 ML
2 LW
N
0 -5 M
0 5 L
-5 0 M
5 0 L
-3.536 -3.536 M
3.536 3.536 L
-3.536 3.536 M
3.536 -3.536 L
S
GR
GS
[1 0 0 1 343.04446 110.81094] CT
1 0 0 RC
10.0 ML
2 LW
N
0 -5 M
0 5 L
-5 0 M
5 0 L
-3.536 -3.536 M
3.536 3.536 L
-3.536 3.536 M
3.536 -3.536 L
S
GR
GS
[1 0 0 1 352.6889 110.81094] CT
1 0 0 RC
10.0 ML
2 LW
N
0 -5 M
0 5 L
-5 0 M
5 0 L
-3.536 -3.536 M
3.536 3.536 L
-3.536 3.536 M
3.536 -3.536 L
S
GR
GS
[1 0 0 1 362.33334 110.81094] CT
1 0 0 RC
10.0 ML
2 LW
N
0 -5 M
0 5 L
-5 0 M
5 0 L
-3.536 -3.536 M
3.536 3.536 L
-3.536 3.536 M
3.536 -3.536 L
S
GR
GS
[1 0 0 1 371.97778 110.57125] CT
1 0 0 RC
10.0 ML
2 LW
N
0 -5 M
0 5 L
-5 0 M
5 0 L
-3.536 -3.536 M
3.536 3.536 L
-3.536 3.536 M
3.536 -3.536 L
S
GR
GS
[1 0 0 1 381.62222 111.8844] CT
1 0 0 RC
10.0 ML
2 LW
N
0 -5 M
0 5 L
-5 0 M
5 0 L
-3.536 -3.536 M
3.536 3.536 L
-3.536 3.536 M
3.536 -3.536 L
S
GR
GS
[1 0 0 1 391.26666 112.88583] CT
1 0 0 RC
10.0 ML
2 LW
N
0 -5 M
0 5 L
-5 0 M
5 0 L
-3.536 -3.536 M
3.536 3.536 L
-3.536 3.536 M
3.536 -3.536 L
S
GR
GS
[1 0 0 1 400.9111 112.95881] CT
1 0 0 RC
10.0 ML
2 LW
N
0 -5 M
0 5 L
-5 0 M
5 0 L
-3.536 -3.536 M
3.536 3.536 L
-3.536 3.536 M
3.536 -3.536 L
S
GR
GS
[1 0 0 1 410.55557 112.98416] CT
1 0 0 RC
10.0 ML
2 LW
N
0 -5 M
0 5 L
-5 0 M
5 0 L
-3.536 -3.536 M
3.536 3.536 L
-3.536 3.536 M
3.536 -3.536 L
S
GR
GS
[1 0 0 1 420.20001 114.07513] CT
1 0 0 RC
10.0 ML
2 LW
N
0 -5 M
0 5 L
-5 0 M
5 0 L
-3.536 -3.536 M
3.536 3.536 L
-3.536 3.536 M
3.536 -3.536 L
S
GR
GS
[1 0 0 1 429.84445 113.81335] CT
1 0 0 RC
10.0 ML
2 LW
N
0 -5 M
0 5 L
-5 0 M
5 0 L
-3.536 -3.536 M
3.536 3.536 L
-3.536 3.536 M
3.536 -3.536 L
S
GR
GS
[1 0 0 1 439.48889 113.76326] CT
1 0 0 RC
10.0 ML
2 LW
N
0 -5 M
0 5 L
-5 0 M
5 0 L
-3.536 -3.536 M
3.536 3.536 L
-3.536 3.536 M
3.536 -3.536 L
S
GR
GS
[1 0 0 1 449.13333 113.67271] CT
1 0 0 RC
10.0 ML
2 LW
N
0 -5 M
0 5 L
-5 0 M
5 0 L
-3.536 -3.536 M
3.536 3.536 L
-3.536 3.536 M
3.536 -3.536 L
S
GR
GS
[1 0 0 1 458.77777 113.69955] CT
1 0 0 RC
10.0 ML
2 LW
N
0 -5 M
0 5 L
-5 0 M
5 0 L
-3.536 -3.536 M
3.536 3.536 L
-3.536 3.536 M
3.536 -3.536 L
S
GR
GS
[1 0 0 1 468.42221 113.684] CT
1 0 0 RC
10.0 ML
2 LW
N
0 -5 M
0 5 L
-5 0 M
5 0 L
-3.536 -3.536 M
3.536 3.536 L
-3.536 3.536 M
3.536 -3.536 L
S
GR
GS
[1 0 0 1 478.06668 113.73985] CT
1 0 0 RC
10.0 ML
2 LW
N
0 -5 M
0 5 L
-5 0 M
5 0 L
-3.536 -3.536 M
3.536 3.536 L
-3.536 3.536 M
3.536 -3.536 L
S
GR
GS
[1 0 0 1 487.71112 113.86117] CT
1 0 0 RC
10.0 ML
2 LW
N
0 -5 M
0 5 L
-5 0 M
5 0 L
-3.536 -3.536 M
3.536 3.536 L
-3.536 3.536 M
3.536 -3.536 L
S
GR
GS
[1 0 0 1 497.35556 113.93378] CT
1 0 0 RC
10.0 ML
2 LW
N
0 -5 M
0 5 L
-5 0 M
5 0 L
-3.536 -3.536 M
3.536 3.536 L
-3.536 3.536 M
3.536 -3.536 L
S
GR
GS
[1 0 0 1 507 113.93957] CT
1 0 0 RC
10.0 ML
2 LW
N
0 -5 M
0 5 L
-5 0 M
5 0 L
-3.536 -3.536 M
3.536 3.536 L
-3.536 3.536 M
3.536 -3.536 L
S
GR
GS
0 0 1 RC
1 LJ
2 LW
N
73 303.842 M
82.644 303.842 L
92.289 303.842 L
101.933 303.842 L
111.578 303.842 L
121.222 303.842 L
130.867 303.842 L
140.511 303.842 L
150.156 303.842 L
159.8 303.842 L
169.444 303.842 L
179.089 303.842 L
188.733 303.842 L
198.378 303.842 L
208.022 303.842 L
217.667 303.842 L
227.311 303.842 L
236.956 303.842 L
246.6 303.842 L
256.244 303.842 L
265.889 303.842 L
275.533 303.842 L
285.178 303.842 L
294.822 303.842 L
304.467 303.842 L
314.111 303.842 L
323.756 303.842 L
333.4 303.842 L
343.044 303.842 L
352.689 303.842 L
362.333 303.842 L
371.978 303.842 L
381.622 303.842 L
391.267 303.842 L
400.911 303.842 L
410.556 303.842 L
420.2 303.842 L
429.844 303.842 L
439.489 303.842 L
449.133 303.842 L
458.778 303.842 L
468.422 303.842 L
478.067 303.842 L
487.711 303.842 L
497.356 303.842 L
507 303.842 L
S
GR
GS
[1 0 0 1 73 303.84244] CT
0 0 1 RC
10.0 ML
2 LW
N
4.5 -0.5 M
4.5 -3.261 2.261 -5.5 -0.5 -5.5 C
-3.261 -5.5 -5.5 -3.261 -5.5 -0.5 C
-5.5 2.261 -3.261 4.5 -0.5 4.5 C
2.261 4.5 4.5 2.261 4.5 -0.5 C
S
GR
GS
[1 0 0 1 82.64445 303.84244] CT
0 0 1 RC
10.0 ML
2 LW
N
4.5 -0.5 M
4.5 -3.261 2.261 -5.5 -0.5 -5.5 C
-3.261 -5.5 -5.5 -3.261 -5.5 -0.5 C
-5.5 2.261 -3.261 4.5 -0.5 4.5 C
2.261 4.5 4.5 2.261 4.5 -0.5 C
S
GR
GS
[1 0 0 1 92.28889 303.84244] CT
0 0 1 RC
10.0 ML
2 LW
N
4.5 -0.5 M
4.5 -3.261 2.261 -5.5 -0.5 -5.5 C
-3.261 -5.5 -5.5 -3.261 -5.5 -0.5 C
-5.5 2.261 -3.261 4.5 -0.5 4.5 C
2.261 4.5 4.5 2.261 4.5 -0.5 C
S
GR
GS
[1 0 0 1 101.93333 303.84244] CT
0 0 1 RC
10.0 ML
2 LW
N
4.5 -0.5 M
4.5 -3.261 2.261 -5.5 -0.5 -5.5 C
-3.261 -5.5 -5.5 -3.261 -5.5 -0.5 C
-5.5 2.261 -3.261 4.5 -0.5 4.5 C
2.261 4.5 4.5 2.261 4.5 -0.5 C
S
GR
GS
[1 0 0 1 111.57778 303.84244] CT
0 0 1 RC
10.0 ML
2 LW
N
4.5 -0.5 M
4.5 -3.261 2.261 -5.5 -0.5 -5.5 C
-3.261 -5.5 -5.5 -3.261 -5.5 -0.5 C
-5.5 2.261 -3.261 4.5 -0.5 4.5 C
2.261 4.5 4.5 2.261 4.5 -0.5 C
S
GR
GS
[1 0 0 1 121.22222 303.84244] CT
0 0 1 RC
10.0 ML
2 LW
N
4.5 -0.5 M
4.5 -3.261 2.261 -5.5 -0.5 -5.5 C
-3.261 -5.5 -5.5 -3.261 -5.5 -0.5 C
-5.5 2.261 -3.261 4.5 -0.5 4.5 C
2.261 4.5 4.5 2.261 4.5 -0.5 C
S
GR
GS
[1 0 0 1 130.86667 303.84244] CT
0 0 1 RC
10.0 ML
2 LW
N
4.5 -0.5 M
4.5 -3.261 2.261 -5.5 -0.5 -5.5 C
-3.261 -5.5 -5.5 -3.261 -5.5 -0.5 C
-5.5 2.261 -3.261 4.5 -0.5 4.5 C
2.261 4.5 4.5 2.261 4.5 -0.5 C
S
GR
GS
[1 0 0 1 140.51111 303.84244] CT
0 0 1 RC
10.0 ML
2 LW
N
4.5 -0.5 M
4.5 -3.261 2.261 -5.5 -0.5 -5.5 C
-3.261 -5.5 -5.5 -3.261 -5.5 -0.5 C
-5.5 2.261 -3.261 4.5 -0.5 4.5 C
2.261 4.5 4.5 2.261 4.5 -0.5 C
S
GR
GS
[1 0 0 1 150.15556 303.84244] CT
0 0 1 RC
10.0 ML
2 LW
N
4.5 -0.5 M
4.5 -3.261 2.261 -5.5 -0.5 -5.5 C
-3.261 -5.5 -5.5 -3.261 -5.5 -0.5 C
-5.5 2.261 -3.261 4.5 -0.5 4.5 C
2.261 4.5 4.5 2.261 4.5 -0.5 C
S
GR
GS
[1 0 0 1 159.8 303.84244] CT
0 0 1 RC
10.0 ML
2 LW
N
4.5 -0.5 M
4.5 -3.261 2.261 -5.5 -0.5 -5.5 C
-3.261 -5.5 -5.5 -3.261 -5.5 -0.5 C
-5.5 2.261 -3.261 4.5 -0.5 4.5 C
2.261 4.5 4.5 2.261 4.5 -0.5 C
S
GR
GS
[1 0 0 1 169.44444 303.84244] CT
0 0 1 RC
10.0 ML
2 LW
N
4.5 -0.5 M
4.5 -3.261 2.261 -5.5 -0.5 -5.5 C
-3.261 -5.5 -5.5 -3.261 -5.5 -0.5 C
-5.5 2.261 -3.261 4.5 -0.5 4.5 C
2.261 4.5 4.5 2.261 4.5 -0.5 C
S
GR
GS
[1 0 0 1 179.08888 303.84244] CT
0 0 1 RC
10.0 ML
2 LW
N
4.5 -0.5 M
4.5 -3.261 2.261 -5.5 -0.5 -5.5 C
-3.261 -5.5 -5.5 -3.261 -5.5 -0.5 C
-5.5 2.261 -3.261 4.5 -0.5 4.5 C
2.261 4.5 4.5 2.261 4.5 -0.5 C
S
GR
GS
[1 0 0 1 188.73334 303.84244] CT
0 0 1 RC
10.0 ML
2 LW
N
4.5 -0.5 M
4.5 -3.261 2.261 -5.5 -0.5 -5.5 C
-3.261 -5.5 -5.5 -3.261 -5.5 -0.5 C
-5.5 2.261 -3.261 4.5 -0.5 4.5 C
2.261 4.5 4.5 2.261 4.5 -0.5 C
S
GR
GS
[1 0 0 1 198.37778 303.84244] CT
0 0 1 RC
10.0 ML
2 LW
N
4.5 -0.5 M
4.5 -3.261 2.261 -5.5 -0.5 -5.5 C
-3.261 -5.5 -5.5 -3.261 -5.5 -0.5 C
-5.5 2.261 -3.261 4.5 -0.5 4.5 C
2.261 4.5 4.5 2.261 4.5 -0.5 C
S
GR
GS
[1 0 0 1 208.02223 303.84244] CT
0 0 1 RC
10.0 ML
2 LW
N
4.5 -0.5 M
4.5 -3.261 2.261 -5.5 -0.5 -5.5 C
-3.261 -5.5 -5.5 -3.261 -5.5 -0.5 C
-5.5 2.261 -3.261 4.5 -0.5 4.5 C
2.261 4.5 4.5 2.261 4.5 -0.5 C
S
GR
GS
[1 0 0 1 217.66667 303.84244] CT
0 0 1 RC
10.0 ML
2 LW
N
4.5 -0.5 M
4.5 -3.261 2.261 -5.5 -0.5 -5.5 C
-3.261 -5.5 -5.5 -3.261 -5.5 -0.5 C
-5.5 2.261 -3.261 4.5 -0.5 4.5 C
2.261 4.5 4.5 2.261 4.5 -0.5 C
S
GR
GS
[1 0 0 1 227.31111 303.84244] CT
0 0 1 RC
10.0 ML
2 LW
N
4.5 -0.5 M
4.5 -3.261 2.261 -5.5 -0.5 -5.5 C
-3.261 -5.5 -5.5 -3.261 -5.5 -0.5 C
-5.5 2.261 -3.261 4.5 -0.5 4.5 C
2.261 4.5 4.5 2.261 4.5 -0.5 C
S
GR
GS
[1 0 0 1 236.95555 303.84244] CT
0 0 1 RC
10.0 ML
2 LW
N
4.5 -0.5 M
4.5 -3.261 2.261 -5.5 -0.5 -5.5 C
-3.261 -5.5 -5.5 -3.261 -5.5 -0.5 C
-5.5 2.261 -3.261 4.5 -0.5 4.5 C
2.261 4.5 4.5 2.261 4.5 -0.5 C
S
GR
GS
[1 0 0 1 246.60001 303.84244] CT
0 0 1 RC
10.0 ML
2 LW
N
4.5 -0.5 M
4.5 -3.261 2.261 -5.5 -0.5 -5.5 C
-3.261 -5.5 -5.5 -3.261 -5.5 -0.5 C
-5.5 2.261 -3.261 4.5 -0.5 4.5 C
2.261 4.5 4.5 2.261 4.5 -0.5 C
S
GR
GS
[1 0 0 1 256.24445 303.84244] CT
0 0 1 RC
10.0 ML
2 LW
N
4.5 -0.5 M
4.5 -3.261 2.261 -5.5 -0.5 -5.5 C
-3.261 -5.5 -5.5 -3.261 -5.5 -0.5 C
-5.5 2.261 -3.261 4.5 -0.5 4.5 C
2.261 4.5 4.5 2.261 4.5 -0.5 C
S
GR
GS
[1 0 0 1 265.88889 303.84244] CT
0 0 1 RC
10.0 ML
2 LW
N
4.5 -0.5 M
4.5 -3.261 2.261 -5.5 -0.5 -5.5 C
-3.261 -5.5 -5.5 -3.261 -5.5 -0.5 C
-5.5 2.261 -3.261 4.5 -0.5 4.5 C
2.261 4.5 4.5 2.261 4.5 -0.5 C
S
GR
GS
[1 0 0 1 275.53333 303.84244] CT
0 0 1 RC
10.0 ML
2 LW
N
4.5 -0.5 M
4.5 -3.261 2.261 -5.5 -0.5 -5.5 C
-3.261 -5.5 -5.5 -3.261 -5.5 -0.5 C
-5.5 2.261 -3.261 4.5 -0.5 4.5 C
2.261 4.5 4.5 2.261 4.5 -0.5 C
S
GR
GS
[1 0 0 1 285.17776 303.84244] CT
0 0 1 RC
10.0 ML
2 LW
N
4.5 -0.5 M
4.5 -3.261 2.261 -5.5 -0.5 -5.5 C
-3.261 -5.5 -5.5 -3.261 -5.5 -0.5 C
-5.5 2.261 -3.261 4.5 -0.5 4.5 C
2.261 4.5 4.5 2.261 4.5 -0.5 C
S
GR
GS
[1 0 0 1 294.82224 303.84244] CT
0 0 1 RC
10.0 ML
2 LW
N
4.5 -0.5 M
4.5 -3.261 2.261 -5.5 -0.5 -5.5 C
-3.261 -5.5 -5.5 -3.261 -5.5 -0.5 C
-5.5 2.261 -3.261 4.5 -0.5 4.5 C
2.261 4.5 4.5 2.261 4.5 -0.5 C
S
GR
GS
[1 0 0 1 304.46667 303.84244] CT
0 0 1 RC
10.0 ML
2 LW
N
4.5 -0.5 M
4.5 -3.261 2.261 -5.5 -0.5 -5.5 C
-3.261 -5.5 -5.5 -3.261 -5.5 -0.5 C
-5.5 2.261 -3.261 4.5 -0.5 4.5 C
2.261 4.5 4.5 2.261 4.5 -0.5 C
S
GR
GS
[1 0 0 1 314.11111 303.84244] CT
0 0 1 RC
10.0 ML
2 LW
N
4.5 -0.5 M
4.5 -3.261 2.261 -5.5 -0.5 -5.5 C
-3.261 -5.5 -5.5 -3.261 -5.5 -0.5 C
-5.5 2.261 -3.261 4.5 -0.5 4.5 C
2.261 4.5 4.5 2.261 4.5 -0.5 C
S
GR
GS
[1 0 0 1 323.75555 303.84244] CT
0 0 1 RC
10.0 ML
2 LW
N
4.5 -0.5 M
4.5 -3.261 2.261 -5.5 -0.5 -5.5 C
-3.261 -5.5 -5.5 -3.261 -5.5 -0.5 C
-5.5 2.261 -3.261 4.5 -0.5 4.5 C
2.261 4.5 4.5 2.261 4.5 -0.5 C
S
GR
GS
[1 0 0 1 333.40002 303.84244] CT
0 0 1 RC
10.0 ML
2 LW
N
4.5 -0.5 M
4.5 -3.261 2.261 -5.5 -0.5 -5.5 C
-3.261 -5.5 -5.5 -3.261 -5.5 -0.5 C
-5.5 2.261 -3.261 4.5 -0.5 4.5 C
2.261 4.5 4.5 2.261 4.5 -0.5 C
S
GR
GS
[1 0 0 1 343.04446 303.84244] CT
0 0 1 RC
10.0 ML
2 LW
N
4.5 -0.5 M
4.5 -3.261 2.261 -5.5 -0.5 -5.5 C
-3.261 -5.5 -5.5 -3.261 -5.5 -0.5 C
-5.5 2.261 -3.261 4.5 -0.5 4.5 C
2.261 4.5 4.5 2.261 4.5 -0.5 C
S
GR
GS
[1 0 0 1 352.6889 303.84244] CT
0 0 1 RC
10.0 ML
2 LW
N
4.5 -0.5 M
4.5 -3.261 2.261 -5.5 -0.5 -5.5 C
-3.261 -5.5 -5.5 -3.261 -5.5 -0.5 C
-5.5 2.261 -3.261 4.5 -0.5 4.5 C
2.261 4.5 4.5 2.261 4.5 -0.5 C
S
GR
GS
[1 0 0 1 362.33334 303.84244] CT
0 0 1 RC
10.0 ML
2 LW
N
4.5 -0.5 M
4.5 -3.261 2.261 -5.5 -0.5 -5.5 C
-3.261 -5.5 -5.5 -3.261 -5.5 -0.5 C
-5.5 2.261 -3.261 4.5 -0.5 4.5 C
2.261 4.5 4.5 2.261 4.5 -0.5 C
S
GR
GS
[1 0 0 1 371.97778 303.84244] CT
0 0 1 RC
10.0 ML
2 LW
N
4.5 -0.5 M
4.5 -3.261 2.261 -5.5 -0.5 -5.5 C
-3.261 -5.5 -5.5 -3.261 -5.5 -0.5 C
-5.5 2.261 -3.261 4.5 -0.5 4.5 C
2.261 4.5 4.5 2.261 4.5 -0.5 C
S
GR
GS
[1 0 0 1 381.62222 303.84244] CT
0 0 1 RC
10.0 ML
2 LW
N
4.5 -0.5 M
4.5 -3.261 2.261 -5.5 -0.5 -5.5 C
-3.261 -5.5 -5.5 -3.261 -5.5 -0.5 C
-5.5 2.261 -3.261 4.5 -0.5 4.5 C
2.261 4.5 4.5 2.261 4.5 -0.5 C
S
GR
GS
[1 0 0 1 391.26666 303.84244] CT
0 0 1 RC
10.0 ML
2 LW
N
4.5 -0.5 M
4.5 -3.261 2.261 -5.5 -0.5 -5.5 C
-3.261 -5.5 -5.5 -3.261 -5.5 -0.5 C
-5.5 2.261 -3.261 4.5 -0.5 4.5 C
2.261 4.5 4.5 2.261 4.5 -0.5 C
S
GR
GS
[1 0 0 1 400.9111 303.84244] CT
0 0 1 RC
10.0 ML
2 LW
N
4.5 -0.5 M
4.5 -3.261 2.261 -5.5 -0.5 -5.5 C
-3.261 -5.5 -5.5 -3.261 -5.5 -0.5 C
-5.5 2.261 -3.261 4.5 -0.5 4.5 C
2.261 4.5 4.5 2.261 4.5 -0.5 C
S
GR
GS
[1 0 0 1 410.55557 303.84244] CT
0 0 1 RC
10.0 ML
2 LW
N
4.5 -0.5 M
4.5 -3.261 2.261 -5.5 -0.5 -5.5 C
-3.261 -5.5 -5.5 -3.261 -5.5 -0.5 C
-5.5 2.261 -3.261 4.5 -0.5 4.5 C
2.261 4.5 4.5 2.261 4.5 -0.5 C
S
GR
GS
[1 0 0 1 420.20001 303.84244] CT
0 0 1 RC
10.0 ML
2 LW
N
4.5 -0.5 M
4.5 -3.261 2.261 -5.5 -0.5 -5.5 C
-3.261 -5.5 -5.5 -3.261 -5.5 -0.5 C
-5.5 2.261 -3.261 4.5 -0.5 4.5 C
2.261 4.5 4.5 2.261 4.5 -0.5 C
S
GR
GS
[1 0 0 1 429.84445 303.84244] CT
0 0 1 RC
10.0 ML
2 LW
N
4.5 -0.5 M
4.5 -3.261 2.261 -5.5 -0.5 -5.5 C
-3.261 -5.5 -5.5 -3.261 -5.5 -0.5 C
-5.5 2.261 -3.261 4.5 -0.5 4.5 C
2.261 4.5 4.5 2.261 4.5 -0.5 C
S
GR
GS
[1 0 0 1 439.48889 303.84244] CT
0 0 1 RC
10.0 ML
2 LW
N
4.5 -0.5 M
4.5 -3.261 2.261 -5.5 -0.5 -5.5 C
-3.261 -5.5 -5.5 -3.261 -5.5 -0.5 C
-5.5 2.261 -3.261 4.5 -0.5 4.5 C
2.261 4.5 4.5 2.261 4.5 -0.5 C
S
GR
GS
[1 0 0 1 449.13333 303.84244] CT
0 0 1 RC
10.0 ML
2 LW
N
4.5 -0.5 M
4.5 -3.261 2.261 -5.5 -0.5 -5.5 C
-3.261 -5.5 -5.5 -3.261 -5.5 -0.5 C
-5.5 2.261 -3.261 4.5 -0.5 4.5 C
2.261 4.5 4.5 2.261 4.5 -0.5 C
S
GR
GS
[1 0 0 1 458.77777 303.84244] CT
0 0 1 RC
10.0 ML
2 LW
N
4.5 -0.5 M
4.5 -3.261 2.261 -5.5 -0.5 -5.5 C
-3.261 -5.5 -5.5 -3.261 -5.5 -0.5 C
-5.5 2.261 -3.261 4.5 -0.5 4.5 C
2.261 4.5 4.5 2.261 4.5 -0.5 C
S
GR
GS
[1 0 0 1 468.42221 303.84244] CT
0 0 1 RC
10.0 ML
2 LW
N
4.5 -0.5 M
4.5 -3.261 2.261 -5.5 -0.5 -5.5 C
-3.261 -5.5 -5.5 -3.261 -5.5 -0.5 C
-5.5 2.261 -3.261 4.5 -0.5 4.5 C
2.261 4.5 4.5 2.261 4.5 -0.5 C
S
GR
GS
[1 0 0 1 478.06668 303.84244] CT
0 0 1 RC
10.0 ML
2 LW
N
4.5 -0.5 M
4.5 -3.261 2.261 -5.5 -0.5 -5.5 C
-3.261 -5.5 -5.5 -3.261 -5.5 -0.5 C
-5.5 2.261 -3.261 4.5 -0.5 4.5 C
2.261 4.5 4.5 2.261 4.5 -0.5 C
S
GR
GS
[1 0 0 1 487.71112 303.84244] CT
0 0 1 RC
10.0 ML
2 LW
N
4.5 -0.5 M
4.5 -3.261 2.261 -5.5 -0.5 -5.5 C
-3.261 -5.5 -5.5 -3.261 -5.5 -0.5 C
-5.5 2.261 -3.261 4.5 -0.5 4.5 C
2.261 4.5 4.5 2.261 4.5 -0.5 C
S
GR
GS
[1 0 0 1 497.35556 303.84244] CT
0 0 1 RC
10.0 ML
2 LW
N
4.5 -0.5 M
4.5 -3.261 2.261 -5.5 -0.5 -5.5 C
-3.261 -5.5 -5.5 -3.261 -5.5 -0.5 C
-5.5 2.261 -3.261 4.5 -0.5 4.5 C
2.261 4.5 4.5 2.261 4.5 -0.5 C
S
GR
GS
[1 0 0 1 507 303.84244] CT
0 0 1 RC
10.0 ML
2 LW
N
4.5 -0.5 M
4.5 -3.261 2.261 -5.5 -0.5 -5.5 C
-3.261 -5.5 -5.5 -3.261 -5.5 -0.5 C
-5.5 2.261 -3.261 4.5 -0.5 4.5 C
2.261 4.5 4.5 2.261 4.5 -0.5 C
S
GR
GS
1 0 1 RC
1 LJ
2 LW
N
73 310.716 M
82.644 310.716 L
92.289 310.716 L
101.933 310.716 L
111.578 310.716 L
121.222 310.716 L
130.867 310.716 L
140.511 310.716 L
150.156 310.716 L
159.8 310.716 L
169.444 310.716 L
179.089 310.716 L
188.733 310.716 L
198.378 310.716 L
208.022 310.716 L
217.667 310.716 L
227.311 310.716 L
236.956 310.716 L
246.6 310.716 L
256.244 310.716 L
265.889 310.716 L
275.533 310.716 L
285.178 310.716 L
294.822 310.716 L
304.467 310.716 L
314.111 310.716 L
323.756 310.716 L
333.4 310.716 L
343.044 310.716 L
352.689 310.716 L
362.333 310.716 L
371.978 310.716 L
381.622 310.716 L
391.267 310.716 L
400.911 310.716 L
410.556 310.716 L
420.2 310.716 L
429.844 310.716 L
439.489 310.716 L
449.133 310.716 L
458.778 310.716 L
468.422 310.716 L
478.067 310.716 L
487.711 310.716 L
497.356 310.716 L
507 310.716 L
S
GR
GS
[1 0 0 1 73 310.71631] CT
1 0 1 RC
10.0 ML
2 LW
N
0 -6.665 M
-5.772 3.332 L
5.772 3.332 L
cp
S
GR
GS
[1 0 0 1 82.64445 310.71631] CT
1 0 1 RC
10.0 ML
2 LW
N
0 -6.665 M
-5.772 3.332 L
5.772 3.332 L
cp
S
GR
GS
[1 0 0 1 92.28889 310.71631] CT
1 0 1 RC
10.0 ML
2 LW
N
0 -6.665 M
-5.772 3.332 L
5.772 3.332 L
cp
S
GR
GS
[1 0 0 1 101.93333 310.71631] CT
1 0 1 RC
10.0 ML
2 LW
N
0 -6.665 M
-5.772 3.332 L
5.772 3.332 L
cp
S
GR
GS
[1 0 0 1 111.57778 310.71631] CT
1 0 1 RC
10.0 ML
2 LW
N
0 -6.665 M
-5.772 3.332 L
5.772 3.332 L
cp
S
GR
GS
[1 0 0 1 121.22222 310.71631] CT
1 0 1 RC
10.0 ML
2 LW
N
0 -6.665 M
-5.772 3.332 L
5.772 3.332 L
cp
S
GR
GS
[1 0 0 1 130.86667 310.71631] CT
1 0 1 RC
10.0 ML
2 LW
N
0 -6.665 M
-5.772 3.332 L
5.772 3.332 L
cp
S
GR
GS
[1 0 0 1 140.51111 310.71631] CT
1 0 1 RC
10.0 ML
2 LW
N
0 -6.665 M
-5.772 3.332 L
5.772 3.332 L
cp
S
GR
GS
[1 0 0 1 150.15556 310.71631] CT
1 0 1 RC
10.0 ML
2 LW
N
0 -6.665 M
-5.772 3.332 L
5.772 3.332 L
cp
S
GR
GS
[1 0 0 1 159.8 310.71631] CT
1 0 1 RC
10.0 ML
2 LW
N
0 -6.665 M
-5.772 3.332 L
5.772 3.332 L
cp
S
GR
GS
[1 0 0 1 169.44444 310.71631] CT
1 0 1 RC
10.0 ML
2 LW
N
0 -6.665 M
-5.772 3.332 L
5.772 3.332 L
cp
S
GR
GS
[1 0 0 1 179.08888 310.71631] CT
1 0 1 RC
10.0 ML
2 LW
N
0 -6.665 M
-5.772 3.332 L
5.772 3.332 L
cp
S
GR
GS
[1 0 0 1 188.73334 310.71631] CT
1 0 1 RC
10.0 ML
2 LW
N
0 -6.665 M
-5.772 3.332 L
5.772 3.332 L
cp
S
GR
GS
[1 0 0 1 198.37778 310.71631] CT
1 0 1 RC
10.0 ML
2 LW
N
0 -6.665 M
-5.772 3.332 L
5.772 3.332 L
cp
S
GR
GS
[1 0 0 1 208.02223 310.71631] CT
1 0 1 RC
10.0 ML
2 LW
N
0 -6.665 M
-5.772 3.332 L
5.772 3.332 L
cp
S
GR
GS
[1 0 0 1 217.66667 310.71631] CT
1 0 1 RC
10.0 ML
2 LW
N
0 -6.665 M
-5.772 3.332 L
5.772 3.332 L
cp
S
GR
GS
[1 0 0 1 227.31111 310.71631] CT
1 0 1 RC
10.0 ML
2 LW
N
0 -6.665 M
-5.772 3.332 L
5.772 3.332 L
cp
S
GR
GS
[1 0 0 1 236.95555 310.71631] CT
1 0 1 RC
10.0 ML
2 LW
N
0 -6.665 M
-5.772 3.332 L
5.772 3.332 L
cp
S
GR
GS
[1 0 0 1 246.60001 310.71631] CT
1 0 1 RC
10.0 ML
2 LW
N
0 -6.665 M
-5.772 3.332 L
5.772 3.332 L
cp
S
GR
GS
[1 0 0 1 256.24445 310.71631] CT
1 0 1 RC
10.0 ML
2 LW
N
0 -6.665 M
-5.772 3.332 L
5.772 3.332 L
cp
S
GR
GS
[1 0 0 1 265.88889 310.71631] CT
1 0 1 RC
10.0 ML
2 LW
N
0 -6.665 M
-5.772 3.332 L
5.772 3.332 L
cp
S
GR
GS
[1 0 0 1 275.53333 310.71631] CT
1 0 1 RC
10.0 ML
2 LW
N
0 -6.665 M
-5.772 3.332 L
5.772 3.332 L
cp
S
GR
GS
[1 0 0 1 285.17776 310.71631] CT
1 0 1 RC
10.0 ML
2 LW
N
0 -6.665 M
-5.772 3.332 L
5.772 3.332 L
cp
S
GR
GS
[1 0 0 1 294.82224 310.71631] CT
1 0 1 RC
10.0 ML
2 LW
N
0 -6.665 M
-5.772 3.332 L
5.772 3.332 L
cp
S
GR
GS
[1 0 0 1 304.46667 310.71631] CT
1 0 1 RC
10.0 ML
2 LW
N
0 -6.665 M
-5.772 3.332 L
5.772 3.332 L
cp
S
GR
GS
[1 0 0 1 314.11111 310.71631] CT
1 0 1 RC
10.0 ML
2 LW
N
0 -6.665 M
-5.772 3.332 L
5.772 3.332 L
cp
S
GR
GS
[1 0 0 1 323.75555 310.71631] CT
1 0 1 RC
10.0 ML
2 LW
N
0 -6.665 M
-5.772 3.332 L
5.772 3.332 L
cp
S
GR
GS
[1 0 0 1 333.40002 310.71631] CT
1 0 1 RC
10.0 ML
2 LW
N
0 -6.665 M
-5.772 3.332 L
5.772 3.332 L
cp
S
GR
GS
[1 0 0 1 343.04446 310.71631] CT
1 0 1 RC
10.0 ML
2 LW
N
0 -6.665 M
-5.772 3.332 L
5.772 3.332 L
cp
S
GR
GS
[1 0 0 1 352.6889 310.71631] CT
1 0 1 RC
10.0 ML
2 LW
N
0 -6.665 M
-5.772 3.332 L
5.772 3.332 L
cp
S
GR
GS
[1 0 0 1 362.33334 310.71631] CT
1 0 1 RC
10.0 ML
2 LW
N
0 -6.665 M
-5.772 3.332 L
5.772 3.332 L
cp
S
GR
GS
[1 0 0 1 371.97778 310.71631] CT
1 0 1 RC
10.0 ML
2 LW
N
0 -6.665 M
-5.772 3.332 L
5.772 3.332 L
cp
S
GR
GS
[1 0 0 1 381.62222 310.71631] CT
1 0 1 RC
10.0 ML
2 LW
N
0 -6.665 M
-5.772 3.332 L
5.772 3.332 L
cp
S
GR
GS
[1 0 0 1 391.26666 310.71631] CT
1 0 1 RC
10.0 ML
2 LW
N
0 -6.665 M
-5.772 3.332 L
5.772 3.332 L
cp
S
GR
GS
[1 0 0 1 400.9111 310.71631] CT
1 0 1 RC
10.0 ML
2 LW
N
0 -6.665 M
-5.772 3.332 L
5.772 3.332 L
cp
S
GR
GS
[1 0 0 1 410.55557 310.71631] CT
1 0 1 RC
10.0 ML
2 LW
N
0 -6.665 M
-5.772 3.332 L
5.772 3.332 L
cp
S
GR
GS
[1 0 0 1 420.20001 310.71631] CT
1 0 1 RC
10.0 ML
2 LW
N
0 -6.665 M
-5.772 3.332 L
5.772 3.332 L
cp
S
GR
GS
[1 0 0 1 429.84445 310.71631] CT
1 0 1 RC
10.0 ML
2 LW
N
0 -6.665 M
-5.772 3.332 L
5.772 3.332 L
cp
S
GR
GS
[1 0 0 1 439.48889 310.71631] CT
1 0 1 RC
10.0 ML
2 LW
N
0 -6.665 M
-5.772 3.332 L
5.772 3.332 L
cp
S
GR
GS
[1 0 0 1 449.13333 310.71631] CT
1 0 1 RC
10.0 ML
2 LW
N
0 -6.665 M
-5.772 3.332 L
5.772 3.332 L
cp
S
GR
GS
[1 0 0 1 458.77777 310.71631] CT
1 0 1 RC
10.0 ML
2 LW
N
0 -6.665 M
-5.772 3.332 L
5.772 3.332 L
cp
S
GR
GS
[1 0 0 1 468.42221 310.71631] CT
1 0 1 RC
10.0 ML
2 LW
N
0 -6.665 M
-5.772 3.332 L
5.772 3.332 L
cp
S
GR
GS
[1 0 0 1 478.06668 310.71631] CT
1 0 1 RC
10.0 ML
2 LW
N
0 -6.665 M
-5.772 3.332 L
5.772 3.332 L
cp
S
GR
GS
[1 0 0 1 487.71112 310.71631] CT
1 0 1 RC
10.0 ML
2 LW
N
0 -6.665 M
-5.772 3.332 L
5.772 3.332 L
cp
S
GR
GS
[1 0 0 1 497.35556 310.71631] CT
1 0 1 RC
10.0 ML
2 LW
N
0 -6.665 M
-5.772 3.332 L
5.772 3.332 L
cp
S
GR
GS
[1 0 0 1 507 310.71631] CT
1 0 1 RC
10.0 ML
2 LW
N
0 -6.665 M
-5.772 3.332 L
5.772 3.332 L
cp
S
GR
GS
1 1 0 RC
1 LJ
2 LW
N
73 310.716 M
82.644 310.716 L
92.289 310.716 L
101.933 310.716 L
111.578 310.716 L
121.222 310.716 L
130.867 310.716 L
140.511 310.716 L
150.156 310.716 L
159.8 310.716 L
169.444 310.716 L
179.089 310.716 L
188.733 310.716 L
198.378 310.716 L
208.022 310.716 L
217.667 310.716 L
227.311 310.716 L
236.956 310.716 L
246.6 310.716 L
256.244 310.716 L
265.889 310.716 L
275.533 310.716 L
285.178 310.716 L
294.822 310.716 L
304.467 310.716 L
314.111 310.716 L
323.756 310.716 L
333.4 310.716 L
343.044 310.716 L
352.689 310.716 L
362.333 310.716 L
371.978 310.716 L
381.622 310.716 L
391.267 310.716 L
400.911 310.716 L
410.556 310.716 L
420.2 310.716 L
429.844 310.716 L
439.489 310.716 L
449.133 310.716 L
458.778 310.716 L
468.422 310.716 L
478.067 310.716 L
487.711 310.716 L
497.356 310.716 L
507 310.716 L
S
GR
GS
[1 0 0 1 73 310.71631] CT
1 1 0 RC
10.0 ML
2 LW
N
0 -5 M
0 5 L
-5 0 M
5 0 L
S
GR
GS
[1 0 0 1 82.64445 310.71631] CT
1 1 0 RC
10.0 ML
2 LW
N
0 -5 M
0 5 L
-5 0 M
5 0 L
S
GR
GS
[1 0 0 1 92.28889 310.71631] CT
1 1 0 RC
10.0 ML
2 LW
N
0 -5 M
0 5 L
-5 0 M
5 0 L
S
GR
GS
[1 0 0 1 101.93333 310.71631] CT
1 1 0 RC
10.0 ML
2 LW
N
0 -5 M
0 5 L
-5 0 M
5 0 L
S
GR
GS
[1 0 0 1 111.57778 310.71631] CT
1 1 0 RC
10.0 ML
2 LW
N
0 -5 M
0 5 L
-5 0 M
5 0 L
S
GR
GS
[1 0 0 1 121.22222 310.71631] CT
1 1 0 RC
10.0 ML
2 LW
N
0 -5 M
0 5 L
-5 0 M
5 0 L
S
GR
GS
[1 0 0 1 130.86667 310.71631] CT
1 1 0 RC
10.0 ML
2 LW
N
0 -5 M
0 5 L
-5 0 M
5 0 L
S
GR
GS
[1 0 0 1 140.51111 310.71631] CT
1 1 0 RC
10.0 ML
2 LW
N
0 -5 M
0 5 L
-5 0 M
5 0 L
S
GR
GS
[1 0 0 1 150.15556 310.71631] CT
1 1 0 RC
10.0 ML
2 LW
N
0 -5 M
0 5 L
-5 0 M
5 0 L
S
GR
GS
[1 0 0 1 159.8 310.71631] CT
1 1 0 RC
10.0 ML
2 LW
N
0 -5 M
0 5 L
-5 0 M
5 0 L
S
GR
GS
[1 0 0 1 169.44444 310.71631] CT
1 1 0 RC
10.0 ML
2 LW
N
0 -5 M
0 5 L
-5 0 M
5 0 L
S
GR
GS
[1 0 0 1 179.08888 310.71631] CT
1 1 0 RC
10.0 ML
2 LW
N
0 -5 M
0 5 L
-5 0 M
5 0 L
S
GR
GS
[1 0 0 1 188.73334 310.71631] CT
1 1 0 RC
10.0 ML
2 LW
N
0 -5 M
0 5 L
-5 0 M
5 0 L
S
GR
GS
[1 0 0 1 198.37778 310.71631] CT
1 1 0 RC
10.0 ML
2 LW
N
0 -5 M
0 5 L
-5 0 M
5 0 L
S
GR
GS
[1 0 0 1 208.02223 310.71631] CT
1 1 0 RC
10.0 ML
2 LW
N
0 -5 M
0 5 L
-5 0 M
5 0 L
S
GR
GS
[1 0 0 1 217.66667 310.71631] CT
1 1 0 RC
10.0 ML
2 LW
N
0 -5 M
0 5 L
-5 0 M
5 0 L
S
GR
GS
[1 0 0 1 227.31111 310.71631] CT
1 1 0 RC
10.0 ML
2 LW
N
0 -5 M
0 5 L
-5 0 M
5 0 L
S
GR
GS
[1 0 0 1 236.95555 310.71631] CT
1 1 0 RC
10.0 ML
2 LW
N
0 -5 M
0 5 L
-5 0 M
5 0 L
S
GR
GS
[1 0 0 1 246.60001 310.71631] CT
1 1 0 RC
10.0 ML
2 LW
N
0 -5 M
0 5 L
-5 0 M
5 0 L
S
GR
GS
[1 0 0 1 256.24445 310.71631] CT
1 1 0 RC
10.0 ML
2 LW
N
0 -5 M
0 5 L
-5 0 M
5 0 L
S
GR
GS
[1 0 0 1 265.88889 310.71631] CT
1 1 0 RC
10.0 ML
2 LW
N
0 -5 M
0 5 L
-5 0 M
5 0 L
S
GR
GS
[1 0 0 1 275.53333 310.71631] CT
1 1 0 RC
10.0 ML
2 LW
N
0 -5 M
0 5 L
-5 0 M
5 0 L
S
GR
GS
[1 0 0 1 285.17776 310.71631] CT
1 1 0 RC
10.0 ML
2 LW
N
0 -5 M
0 5 L
-5 0 M
5 0 L
S
GR
GS
[1 0 0 1 294.82224 310.71631] CT
1 1 0 RC
10.0 ML
2 LW
N
0 -5 M
0 5 L
-5 0 M
5 0 L
S
GR
GS
[1 0 0 1 304.46667 310.71631] CT
1 1 0 RC
10.0 ML
2 LW
N
0 -5 M
0 5 L
-5 0 M
5 0 L
S
GR
GS
[1 0 0 1 314.11111 310.71631] CT
1 1 0 RC
10.0 ML
2 LW
N
0 -5 M
0 5 L
-5 0 M
5 0 L
S
GR
GS
[1 0 0 1 323.75555 310.71631] CT
1 1 0 RC
10.0 ML
2 LW
N
0 -5 M
0 5 L
-5 0 M
5 0 L
S
GR
GS
[1 0 0 1 333.40002 310.71631] CT
1 1 0 RC
10.0 ML
2 LW
N
0 -5 M
0 5 L
-5 0 M
5 0 L
S
GR
GS
[1 0 0 1 343.04446 310.71631] CT
1 1 0 RC
10.0 ML
2 LW
N
0 -5 M
0 5 L
-5 0 M
5 0 L
S
GR
GS
[1 0 0 1 352.6889 310.71631] CT
1 1 0 RC
10.0 ML
2 LW
N
0 -5 M
0 5 L
-5 0 M
5 0 L
S
GR
GS
[1 0 0 1 362.33334 310.71631] CT
1 1 0 RC
10.0 ML
2 LW
N
0 -5 M
0 5 L
-5 0 M
5 0 L
S
GR
GS
[1 0 0 1 371.97778 310.71631] CT
1 1 0 RC
10.0 ML
2 LW
N
0 -5 M
0 5 L
-5 0 M
5 0 L
S
GR
GS
[1 0 0 1 381.62222 310.71631] CT
1 1 0 RC
10.0 ML
2 LW
N
0 -5 M
0 5 L
-5 0 M
5 0 L
S
GR
GS
[1 0 0 1 391.26666 310.71631] CT
1 1 0 RC
10.0 ML
2 LW
N
0 -5 M
0 5 L
-5 0 M
5 0 L
S
GR
GS
[1 0 0 1 400.9111 310.71631] CT
1 1 0 RC
10.0 ML
2 LW
N
0 -5 M
0 5 L
-5 0 M
5 0 L
S
GR
GS
[1 0 0 1 410.55557 310.71631] CT
1 1 0 RC
10.0 ML
2 LW
N
0 -5 M
0 5 L
-5 0 M
5 0 L
S
GR
GS
[1 0 0 1 420.20001 310.71631] CT
1 1 0 RC
10.0 ML
2 LW
N
0 -5 M
0 5 L
-5 0 M
5 0 L
S
GR
GS
[1 0 0 1 429.84445 310.71631] CT
1 1 0 RC
10.0 ML
2 LW
N
0 -5 M
0 5 L
-5 0 M
5 0 L
S
GR
GS
[1 0 0 1 439.48889 310.71631] CT
1 1 0 RC
10.0 ML
2 LW
N
0 -5 M
0 5 L
-5 0 M
5 0 L
S
GR
GS
[1 0 0 1 449.13333 310.71631] CT
1 1 0 RC
10.0 ML
2 LW
N
0 -5 M
0 5 L
-5 0 M
5 0 L
S
GR
GS
[1 0 0 1 458.77777 310.71631] CT
1 1 0 RC
10.0 ML
2 LW
N
0 -5 M
0 5 L
-5 0 M
5 0 L
S
GR
GS
[1 0 0 1 468.42221 310.71631] CT
1 1 0 RC
10.0 ML
2 LW
N
0 -5 M
0 5 L
-5 0 M
5 0 L
S
GR
GS
[1 0 0 1 478.06668 310.71631] CT
1 1 0 RC
10.0 ML
2 LW
N
0 -5 M
0 5 L
-5 0 M
5 0 L
S
GR
GS
[1 0 0 1 487.71112 310.71631] CT
1 1 0 RC
10.0 ML
2 LW
N
0 -5 M
0 5 L
-5 0 M
5 0 L
S
GR
GS
[1 0 0 1 497.35556 310.71631] CT
1 1 0 RC
10.0 ML
2 LW
N
0 -5 M
0 5 L
-5 0 M
5 0 L
S
GR
GS
[1 0 0 1 507 310.71631] CT
1 1 0 RC
10.0 ML
2 LW
N
0 -5 M
0 5 L
-5 0 M
5 0 L
S
GR
GS
1 GC
N
435 113 M
435 41 L
497 41 L
497 113 L
cp
f
GR
GS
[1 0 0 1 472 48.44828] CT
/Helvetica 9 F
GS
[1 0 0 1 0 0] CT
0 3.5 moveto 
1 -1 scale
(X) t 
GR
GR
GS
1 LJ
2 LW
N
439 48.448 M
469 48.448 L
S
GR
GS
[1 0 0 1 454 48.44828] CT
10.0 ML
2 LW
N
-4 -4 M
-4 4 L
4 4 L
4 -4 L
cp
S
GR
GS
[1 0 0 1 472 59.86897] CT
/Helvetica 9 F
GS
[1 0 0 1 0 0] CT
0 3.5 moveto 
1 -1 scale
(Y) t 
GR
GR
GS
0 1 0 RC
1 LJ
2 LW
N
439 59.869 M
469 59.869 L
S
GR
GS
[1 0 0 1 454 59.86897] CT
0 1 0 RC
10.0 ML
2 LW
N
-3.536 -3.536 M
3.536 3.536 L
-3.536 3.536 M
3.536 -3.536 L
S
GR
GS
[1 0 0 1 472 71.28966] CT
/Helvetica 9 F
GS
[1 0 0 1 0 0] CT
0 3.5 moveto 
1 -1 scale
(Z) t 
GR
GR
GS
1 0 0 RC
1 LJ
2 LW
N
439 71.29 M
469 71.29 L
S
GR
GS
[1 0 0 1 454 71.28966] CT
1 0 0 RC
10.0 ML
2 LW
N
0 -5 M
0 5 L
-5 0 M
5 0 L
-3.536 -3.536 M
3.536 3.536 L
-3.536 3.536 M
3.536 -3.536 L
S
GR
GS
[1 0 0 1 472 82.71034] CT
/Helvetica 9 F
GS
[1 0 0 1 0 0] CT
0 3.5 moveto 
1 -1 scale
(Xobs) t 
GR
GR
GS
0 0 1 RC
1 LJ
2 LW
N
439 82.71 M
469 82.71 L
S
GR
GS
[1 0 0 1 454 82.71034] CT
0 0 1 RC
10.0 ML
2 LW
N
4.5 -0.5 M
4.5 -3.261 2.261 -5.5 -0.5 -5.5 C
-3.261 -5.5 -5.5 -3.261 -5.5 -0.5 C
-5.5 2.261 -3.261 4.5 -0.5 4.5 C
2.261 4.5 4.5 2.261 4.5 -0.5 C
S
GR
GS
[1 0 0 1 472 94.13103] CT
/Helvetica 9 F
GS
[1 0 0 1 0 0] CT
0 3.5 moveto 
1 -1 scale
(Yobs) t 
GR
GR
GS
1 0 1 RC
1 LJ
2 LW
N
439 94.131 M
469 94.131 L
S
GR
GS
[1 0 0 1 454 94.13103] CT
1 0 1 RC
10.0 ML
2 LW
N
0 -6.665 M
-5.772 3.332 L
5.772 3.332 L
cp
S
GR
GS
[1 0 0 1 472 105.55173] CT
/Helvetica 9 F
GS
[1 0 0 1 0 0] CT
0 3.5 moveto 
1 -1 scale
(Zobs) t 
GR
GR
GS
1 1 0 RC
1 LJ
2 LW
N
439 105.552 M
469 105.552 L
S
GR
GS
[1 0 0 1 454 105.55173] CT
1 1 0 RC
10.0 ML
2 LW
N
0 -5 M
0 5 L
-5 0 M
5 0 L
S
GR
GS
0.149 GC
10.0 ML
0.5 LW
N
435 113 M
435 41 L
497 41 L
497 113 L
cp
S
GR
%%Trailer
%%Pages: 1
%%EOF
