%!PS-Adobe-3.0 EPSF-3.0
%%Creator: MATLAB, The MathWorks, Inc. Version 8.3.0.532 (R2014a). Operating System: Darwin 15.6.0 Darwin Kernel Version 15.6.0: Wed Nov  2 20:30:56 PDT 2016; root:xnu-3248.60.11.1.2~2/RELEASE_X86_64 x86_64.
%%Title: /Users/yang/Documents/Paper/Manuscript-Yin-Tellus-Revision/fig/irstea_rms.eps
%%CreationDate: 01/04/2017  19:10:27
%%DocumentNeededFonts: Helvetica
%%DocumentProcessColors: Cyan Magenta Yellow Black
%%LanguageLevel: 2
%%Pages: 1
%%BoundingBox:  -172    56   785   736
%%EndComments

%%BeginProlog
% MathWorks dictionary
/MathWorks 160 dict begin
% definition operators
/bdef {bind def} bind def
/ldef {load def} bind def
/xdef {exch def} bdef
/xstore {exch store} bdef
% operator abbreviations
/c  /clip ldef
/cc /concat ldef
/cp /closepath ldef
/gr /grestore ldef
/gs /gsave ldef
/mt /moveto ldef
/np /newpath ldef
/cm /currentmatrix ldef
/sm /setmatrix ldef
/rm /rmoveto ldef
/rl /rlineto ldef
/s {show newpath} bdef
/sc {setcmykcolor} bdef
/sr /setrgbcolor ldef
/sg /setgray ldef
/w /setlinewidth ldef
/j /setlinejoin ldef
/cap /setlinecap ldef
/rc {rectclip} bdef
/rf {rectfill} bdef
% page state control
/pgsv () def
/bpage {/pgsv save def} bdef
/epage {pgsv restore} bdef
/bplot /gsave ldef
/eplot {stroke grestore} bdef
% orientation switch
/portraitMode 0 def /landscapeMode 1 def /rotateMode 2 def
% coordinate system mappings
/dpi2point 0 def
% font control
/FontSize 0 def
/FMS {/FontSize xstore findfont [FontSize 0 0 FontSize neg 0 0]
  makefont setfont} bdef
/reencode {exch dup where {pop load} {pop StandardEncoding} ifelse
  exch dup 3 1 roll findfont dup length dict begin
  { 1 index /FID ne {def}{pop pop} ifelse } forall
  /Encoding exch def currentdict end definefont pop} bdef
/isroman {findfont /CharStrings get /Agrave known} bdef
/FMSR {3 1 roll 1 index dup isroman {reencode} {pop pop} ifelse
  exch FMS} bdef
/csm {1 dpi2point div -1 dpi2point div scale neg translate
 dup landscapeMode eq {pop -90 rotate}
  {rotateMode eq {90 rotate} if} ifelse} bdef
% line types: solid, dotted, dashed, dotdash
/SO { [] 0 setdash } bdef
/DO { [.5 dpi2point mul 4 dpi2point mul] 0 setdash } bdef
/DA { [6 dpi2point mul] 0 setdash } bdef
/DD { [.5 dpi2point mul 4 dpi2point mul 6 dpi2point mul 4
  dpi2point mul] 0 setdash } bdef
% macros for lines and objects
/L {lineto stroke} bdef
/MP {3 1 roll moveto 1 sub {rlineto} repeat} bdef
/AP {{rlineto} repeat} bdef
/PDlw -1 def
/W {/PDlw currentlinewidth def setlinewidth} def
/PP {closepath eofill} bdef
/DP {closepath stroke} bdef
/MR {4 -2 roll moveto dup  0 exch rlineto exch 0 rlineto
  neg 0 exch rlineto closepath} bdef
/FR {MR stroke} bdef
/PR {MR fill} bdef
/L1i {{currentfile picstr readhexstring pop} image} bdef
/tMatrix matrix def
/MakeOval {newpath tMatrix currentmatrix pop translate scale
0 0 1 0 360 arc tMatrix setmatrix} bdef
/FO {MakeOval stroke} bdef
/PO {MakeOval fill} bdef
/PD {currentlinewidth 2 div 0 360 arc fill
   PDlw -1 eq not {PDlw w /PDlw -1 def} if} def
/FA {newpath tMatrix currentmatrix pop translate scale
  0 0 1 5 -2 roll arc tMatrix setmatrix stroke} bdef
/PA {newpath tMatrix currentmatrix pop	translate 0 0 moveto scale
  0 0 1 5 -2 roll arc closepath tMatrix setmatrix fill} bdef
/FAn {newpath tMatrix currentmatrix pop translate scale
  0 0 1 5 -2 roll arcn tMatrix setmatrix stroke} bdef
/PAn {newpath tMatrix currentmatrix pop translate 0 0 moveto scale
  0 0 1 5 -2 roll arcn closepath tMatrix setmatrix fill} bdef
/vradius 0 def /hradius 0 def /lry 0 def
/lrx 0 def /uly 0 def /ulx 0 def /rad 0 def
/MRR {/vradius xdef /hradius xdef /lry xdef /lrx xdef /uly xdef
  /ulx xdef newpath tMatrix currentmatrix pop ulx hradius add uly
  vradius add translate hradius vradius scale 0 0 1 180 270 arc 
  tMatrix setmatrix lrx hradius sub uly vradius add translate
  hradius vradius scale 0 0 1 270 360 arc tMatrix setmatrix
  lrx hradius sub lry vradius sub translate hradius vradius scale
  0 0 1 0 90 arc tMatrix setmatrix ulx hradius add lry vradius sub
  translate hradius vradius scale 0 0 1 90 180 arc tMatrix setmatrix
  closepath} bdef
/FRR {MRR stroke } bdef
/PRR {MRR fill } bdef
/MlrRR {/lry xdef /lrx xdef /uly xdef /ulx xdef /rad lry uly sub 2 div def
  newpath tMatrix currentmatrix pop ulx rad add uly rad add translate
  rad rad scale 0 0 1 90 270 arc tMatrix setmatrix lrx rad sub lry rad
  sub translate rad rad scale 0 0 1 270 90 arc tMatrix setmatrix
  closepath} bdef
/FlrRR {MlrRR stroke } bdef
/PlrRR {MlrRR fill } bdef
/MtbRR {/lry xdef /lrx xdef /uly xdef /ulx xdef /rad lrx ulx sub 2 div def
  newpath tMatrix currentmatrix pop ulx rad add uly rad add translate
  rad rad scale 0 0 1 180 360 arc tMatrix setmatrix lrx rad sub lry rad
  sub translate rad rad scale 0 0 1 0 180 arc tMatrix setmatrix
  closepath} bdef
/FtbRR {MtbRR stroke } bdef
/PtbRR {MtbRR fill } bdef
/stri 6 array def /dtri 6 array def
/smat 6 array def /dmat 6 array def
/tmat1 6 array def /tmat2 6 array def /dif 3 array def
/asub {/ind2 exch def /ind1 exch def dup dup
  ind1 get exch ind2 get sub exch } bdef
/tri_to_matrix {
  2 0 asub 3 1 asub 4 0 asub 5 1 asub
  dup 0 get exch 1 get 7 -1 roll astore } bdef
/compute_transform {
  dmat dtri tri_to_matrix tmat1 invertmatrix 
  smat stri tri_to_matrix tmat2 concatmatrix } bdef
/ds {stri astore pop} bdef
/dt {dtri astore pop} bdef
/db {2 copy /cols xdef /rows xdef mul dup 3 mul string
  currentfile 
  3 index 0 eq {/ASCIIHexDecode filter}
  {/ASCII85Decode filter 3 index 2 eq {/RunLengthDecode filter} if }
  ifelse exch readstring pop
  dup 0 3 index getinterval /rbmap xdef
  dup 2 index dup getinterval /gbmap xdef
  1 index dup 2 mul exch getinterval /bbmap xdef pop pop}bdef
/it {gs np dtri aload pop moveto lineto lineto cp c
  cols rows 8 compute_transform 
  rbmap gbmap bbmap true 3 colorimage gr}bdef
/il {newpath moveto lineto stroke}bdef
currentdict end def
%%EndProlog

%%BeginSetup
MathWorks begin

0 cap

end
%%EndSetup

%%Page: 1 1
%%BeginPageSetup
%%PageBoundingBox:  -172    56   785   736
MathWorks begin
bpage
%%EndPageSetup

%%BeginObject: obj1
bplot

/dpi2point 12 def
portraitMode -2064 8832 csm

    0     0 11495  8160 rc
87 dict begin %Colortable dictionary
/c0 { 0.000000 0.000000 0.000000 sr} bdef
/c1 { 1.000000 1.000000 1.000000 sr} bdef
/c2 { 0.900000 0.000000 0.000000 sr} bdef
/c3 { 0.000000 0.820000 0.000000 sr} bdef
/c4 { 0.000000 0.000000 0.800000 sr} bdef
/c5 { 0.910000 0.820000 0.320000 sr} bdef
/c6 { 1.000000 0.260000 0.820000 sr} bdef
/c7 { 0.000000 0.820000 0.820000 sr} bdef
c0
1 j
1 sg
   0    0 11496 8161 rf
6 w
0 6650 8910 0 0 -6650 1493 7262 4 MP
PP
-8910 0 0 6650 8910 0 0 -6650 1493 7262 5 MP stroke
4 w
DO
SO
6 w
0 sg
1493 7262 mt 10403 7262 L
1493  612 mt 10403  612 L
1493 7262 mt 1493  612 L
10403 7262 mt 10403  612 L
1493 7262 mt 10403 7262 L
1493 7262 mt 1493  612 L
1493 7262 mt 1493 7172 L
1493  612 mt 1493  701 L
%%IncludeResource: font Helvetica
/Helvetica /ISOLatin1Encoding 240 FMSR

1260 7519 mt 
(0.03) s
2607 7262 mt 2607 7172 L
2607  612 mt 2607  701 L
2374 7519 mt 
(0.06) s
3721 7262 mt 3721 7172 L
3721  612 mt 3721  701 L
3488 7519 mt 
(0.09) s
4834 7262 mt 4834 7172 L
4834  612 mt 4834  701 L
4601 7519 mt 
(0.12) s
5948 7262 mt 5948 7172 L
5948  612 mt 5948  701 L
5715 7519 mt 
(0.15) s
7062 7262 mt 7062 7172 L
7062  612 mt 7062  701 L
6829 7519 mt 
(0.18) s
8175 7262 mt 8175 7172 L
8175  612 mt 8175  701 L
7942 7519 mt 
(0.21) s
9289 7262 mt 9289 7172 L
9289  612 mt 9289  701 L
9056 7519 mt 
(0.24) s
10403 7262 mt 10403 7172 L
10403  612 mt 10403  701 L
10170 7519 mt 
(0.27) s
1493 7262 mt 1583 7262 L
10403 7262 mt 10313 7262 L
1126 7351 mt 
(0.8) s
1493 6597 mt 1583 6597 L
10403 6597 mt 10313 6597 L
1326 6686 mt 
(1) s
1493 5932 mt 1583 5932 L
10403 5932 mt 10313 5932 L
1126 6021 mt 
(1.2) s
1493 5266 mt 1583 5266 L
10403 5266 mt 10313 5266 L
1126 5355 mt 
(1.4) s
1493 4602 mt 1583 4602 L
10403 4602 mt 10313 4602 L
1126 4691 mt 
(1.6) s
1493 3937 mt 1583 3937 L
10403 3937 mt 10313 3937 L
1126 4026 mt 
(1.8) s
1493 3271 mt 1583 3271 L
10403 3271 mt 10313 3271 L
1326 3360 mt 
(2) s
1493 2607 mt 1583 2607 L
10403 2607 mt 10313 2607 L
1126 2696 mt 
(2.2) s
1493 1941 mt 1583 1941 L
10403 1941 mt 10313 1941 L
1126 2030 mt 
(2.4) s
1493 1276 mt 1583 1276 L
10403 1276 mt 10313 1276 L
1126 1365 mt 
(2.6) s
1493  612 mt 1583  612 L
10403  612 mt 10313  612 L
1126  701 mt 
(2.8) s
1493  558 mt 
(x 10) s
%%IncludeResource: font Helvetica
/Helvetica /ISOLatin1Encoding 160 FMSR

1946  410 mt 
(-3) s
1493 7262 mt 10403 7262 L
1493  612 mt 10403  612 L
1493 7262 mt 1493  612 L
10403 7262 mt 10403  612 L
gs 1493 612 8911 6651 rc
24 w
/c8 { 0.000000 1.000000 0.000000 sr} bdef
c8
1114 18 1114 -445 1113 -399 1114 466 1114 -632 1113 -764 1114 -171 1114 389 
1493 2903 9 MP stroke
gr

24 w
c8
gs 1287 1141 9323 2358 rc
  90   90 1493 2903 FO
  90   90 2607 3292 FO
  90   90 3721 3121 FO
  90   90 4834 2357 FO
  90   90 5948 1725 FO
  90   90 7062 2191 FO
  90   90 8175 1792 FO
  90   90 9289 1347 FO
  90   90 10403 1365 FO
gr

gs 1493 612 8911 6651 rc
gr

0 sg
%%IncludeResource: font Helvetica
/Helvetica /ISOLatin1Encoding 360 FMSR

5687 7839 mt 
(t\(s\)) s
 990 5793 mt  -90 rotate
(Surface height error\(m\)) s
90 rotate
gs 1493 612 8911 6651 rc
/c9 { 1.000000 0.000000 0.000000 sr} bdef
c9
1114 -726 1114 -118 1113 620 1114 577 1114 -578 1113 -299 1114 2097 1114 2600 
1493 1346 9 MP stroke
gr

c9
gs 1287 1140 9323 5430 rc
1403 1346 mt 1583 1346 L
1493 1256 mt 1493 1436 L
2517 3946 mt 2697 3946 L
2607 3856 mt 2607 4036 L
3631 6043 mt 3811 6043 L
3721 5953 mt 3721 6133 L
4744 5744 mt 4924 5744 L
4834 5654 mt 4834 5834 L
5858 5166 mt 6038 5166 L
5948 5076 mt 5948 5256 L
6972 5743 mt 7152 5743 L
7062 5653 mt 7062 5833 L
8085 6363 mt 8265 6363 L
8175 6273 mt 8175 6453 L
9199 6245 mt 9379 6245 L
9289 6155 mt 9289 6335 L
10313 5519 mt 10493 5519 L
10403 5429 mt 10403 5609 L
gr

gs 1493 612 8911 6651 rc
gr

0 sg
%%IncludeResource: font Helvetica
/Helvetica /ISOLatin1Encoding 120 FMSR

1404 7377 mt 
( ) s
10315  726 mt 
( ) s
gs 1493 612 8911 6651 rc
/c10 { 0.000000 1.000000 1.000000 sr} bdef
c10
1114 -684 1114 -1115 1113 -1339 1114 -167 1114 -506 1113 -710 1114 1126 1114 1643 
1493 4055 9 MP stroke
gr

c10
gs 1287 2097 9323 4934 rc
0 j
-104 179 -104 -179 208 0 1389 4115 4 MP
DP
-104 179 -104 -179 208 0 2503 5758 4 MP
DP
-104 179 -104 -179 208 0 3617 6884 4 MP
DP
-104 179 -104 -179 208 0 4730 6174 4 MP
DP
-104 179 -104 -179 208 0 5844 5668 4 MP
DP
-104 179 -104 -179 208 0 6958 5501 4 MP
DP
-104 179 -104 -179 208 0 8071 4162 4 MP
DP
-104 179 -104 -179 208 0 9185 3047 4 MP
DP
-104 179 -104 -179 208 0 10299 2363 4 MP
DP
gr

gs 1493 612 8911 6651 rc
1114 -117 1114 34 1113 -1402 1114 -247 1114 -696 1113 -717 1114 648 1114 364 
1493 4739 9 MP stroke
gr

gs 1287 2400 9323 3558 rc
0 j
0 -142 -142 0 0 142 142 0 1422 4668 5 MP
DP
0 -142 -142 0 0 142 142 0 2536 5032 5 MP
DP
0 -142 -142 0 0 142 142 0 3650 5680 5 MP
DP
0 -142 -142 0 0 142 142 0 4763 4963 5 MP
DP
0 -142 -142 0 0 142 142 0 5877 4267 5 MP
DP
0 -142 -142 0 0 142 142 0 6991 4020 5 MP
DP
0 -142 -142 0 0 142 142 0 8104 2618 5 MP
DP
0 -142 -142 0 0 142 142 0 9218 2652 5 MP
DP
0 -142 -142 0 0 142 142 0 10332 2535 5 MP
DP
gr

gs 1493 612 8911 6651 rc
0 sg
1114 -511 1114 -288 1113 -216 1114 438 1114 -620 1113 -610 1114 866 1114 489 
1493 5261 9 MP stroke
gr

0 sg
gs 1287 4603 9323 2220 rc
0 j
-104 179 -104 -179 208 0 1389 5321 4 MP
DP
-104 179 -104 -179 208 0 2503 5810 4 MP
DP
-104 179 -104 -179 208 0 3617 6676 4 MP
DP
-104 179 -104 -179 208 0 4730 6066 4 MP
DP
-104 179 -104 -179 208 0 5844 5446 4 MP
DP
-104 179 -104 -179 208 0 6958 5884 4 MP
DP
-104 179 -104 -179 208 0 8071 5668 4 MP
DP
-104 179 -104 -179 208 0 9185 5380 4 MP
DP
-104 179 -104 -179 208 0 10299 4869 4 MP
DP
gr

gs 1493 612 8911 6651 rc
1114 -1330 1114 -1137 1113 814 1114 442 1114 -787 1113 -237 1114 965 1114 272 
1493 5005 9 MP stroke
gr

gs 1287 3801 9323 2880 rc
0 j
0 -142 -142 0 0 142 142 0 1422 4934 5 MP
DP
0 -142 -142 0 0 142 142 0 2536 5206 5 MP
DP
0 -142 -142 0 0 142 142 0 3650 6171 5 MP
DP
0 -142 -142 0 0 142 142 0 4763 5934 5 MP
DP
0 -142 -142 0 0 142 142 0 5877 5147 5 MP
DP
0 -142 -142 0 0 142 142 0 6991 5589 5 MP
DP
0 -142 -142 0 0 142 142 0 8104 6403 5 MP
DP
0 -142 -142 0 0 142 142 0 9218 5266 5 MP
DP
0 -142 -142 0 0 142 142 0 10332 3936 5 MP
DP
gr

gs 1493 612 8911 6651 rc
6 w
gr

6 w
1 sg
0 2308 2897 0 0 -2308 4340 2929 4 MP
PP
-2897 0 0 2308 2897 0 0 -2308 4340 2929 5 MP stroke
4 w
DO
SO
6 w
0 sg
4340 2929 mt 7237 2929 L
4340  621 mt 7237  621 L
4340 2929 mt 4340  621 L
7237 2929 mt 7237  621 L
4340 2929 mt 7237 2929 L
4340 2929 mt 4340  621 L
4340 2929 mt 7237 2929 L
4340  621 mt 7237  621 L
4340 2929 mt 4340  621 L
7237 2929 mt 7237  621 L
%%IncludeResource: font Helvetica
/Helvetica /ISOLatin1Encoding 240 FMSR

4832  919 mt 
(Background) s
gs 4340 621 2898 2309 rc
24 w
c8
378 0 4415 834 2 MP stroke
gs 4398 628 413 413 rc
  90   90 4604  834 FO
gr

gr

24 w
c8
0 sg
4832 1296 mt 
(4DVar) s
gs 4340 621 2898 2309 rc
c9
378 0 4415 1210 2 MP stroke
gs 4398 1004 413 413 rc
4514 1210 mt 4694 1210 L
4604 1120 mt 4604 1300 L
gr

gr

c9
0 sg
4832 1672 mt 
(4DEnVar-PO-LC) s
gs 4340 621 2898 2309 rc
c10
378 0 4415 1586 2 MP stroke
gs 4398 1380 413 413 rc
0 j
-104 179 -104 -179 208 0 4500 1646 4 MP
DP
gr

gr

c10
0 sg
4832 2049 mt 
(4DEnVar-ET-LA) s
gs 4340 621 2898 2309 rc
c10
378 0 4415 1963 2 MP stroke
gs 4398 1757 413 413 rc
0 j
0 -142 -142 0 0 142 142 0 4533 1892 5 MP
DP
gr

gr

c10
0 sg
4832 2425 mt 
(4DEnVar-PO-LC-Sto) s
gs 4340 621 2898 2309 rc
378 0 4415 2339 2 MP stroke
gs 4398 2133 413 413 rc
0 j
-104 179 -104 -179 208 0 4500 2399 4 MP
DP
gr

gr

4832 2802 mt 
(4DEnVar-ET-LA-Sto) s
gs 4340 621 2898 2309 rc
378 0 4415 2715 2 MP stroke
gs 4398 2509 413 413 rc
0 j
0 -142 -142 0 0 142 142 0 4533 2644 5 MP
DP
gr

6 w
gr

6 w

end %%Color Dict

eplot
%%EndObject

epage
end

showpage

%%Trailer
%%EOF
