%!PS-Adobe-3.0 EPSF-3.0
%%Creator: cairo 1.14.0 (http://cairographics.org)
%%CreationDate: Sun Dec 18 00:24:30 2016
%%Pages: 1
%%DocumentData: Clean7Bit
%%LanguageLevel: 2
%%BoundingBox: 291 165 551 425
%%EndComments
%%BeginProlog
save
50 dict begin
/q { gsave } bind def
/Q { grestore } bind def
/cm { 6 array astore concat } bind def
/w { setlinewidth } bind def
/J { setlinecap } bind def
/j { setlinejoin } bind def
/M { setmiterlimit } bind def
/d { setdash } bind def
/m { moveto } bind def
/l { lineto } bind def
/c { curveto } bind def
/h { closepath } bind def
/re { exch dup neg 3 1 roll 5 3 roll moveto 0 rlineto
      0 exch rlineto 0 rlineto closepath } bind def
/S { stroke } bind def
/f { fill } bind def
/f* { eofill } bind def
/n { newpath } bind def
/W { clip } bind def
/W* { eoclip } bind def
/BT { } bind def
/ET { } bind def
/pdfmark where { pop globaldict /?pdfmark /exec load put }
    { globaldict begin /?pdfmark /pop load def /pdfmark
    /cleartomark load def end } ifelse
/BDC { mark 3 1 roll /BDC pdfmark } bind def
/EMC { mark /EMC pdfmark } bind def
/cairo_store_point { /cairo_point_y exch def /cairo_point_x exch def } def
/Tj { show currentpoint cairo_store_point } bind def
/TJ {
  {
    dup
    type /stringtype eq
    { show } { -0.001 mul 0 cairo_font_matrix dtransform rmoveto } ifelse
  } forall
  currentpoint cairo_store_point
} bind def
/cairo_selectfont { cairo_font_matrix aload pop pop pop 0 0 6 array astore
    cairo_font exch selectfont cairo_point_x cairo_point_y moveto } bind def
/Tf { pop /cairo_font exch def /cairo_font_matrix where
      { pop cairo_selectfont } if } bind def
/Td { matrix translate cairo_font_matrix matrix concatmatrix dup
      /cairo_font_matrix exch def dup 4 get exch 5 get cairo_store_point
      /cairo_font where { pop cairo_selectfont } if } bind def
/Tm { 2 copy 8 2 roll 6 array astore /cairo_font_matrix exch def
      cairo_store_point /cairo_font where { pop cairo_selectfont } if } bind def
/g { setgray } bind def
/rg { setrgbcolor } bind def
/d1 { setcachedevice } bind def
%%EndProlog
%%BeginSetup
%%EndSetup
%%Page: 1 1
%%BeginPageSetup
%%PageBoundingBox: 291 165 551 425
%%EndPageSetup
q 291 165 260 260 rectclip q
0 g
1.6 w
0 J
0 j
[] 0.0 d
4 M q 1 0 0 -1 0 595.275574 cm
308.945 172.219 m 308.945 428.219 l S Q
q 1 0 0 -1 0 595.275574 cm
324.945 172.219 m 324.945 428.219 l S Q
q 1 0 0 -1 0 595.275574 cm
340.945 172.219 m 340.945 428.219 l S Q
q 1 0 0 -1 0 595.275574 cm
356.945 172.219 m 356.945 428.219 l S Q
q 1 0 0 -1 0 595.275574 cm
372.945 172.219 m 372.945 428.219 l S Q
q 1 0 0 -1 0 595.275574 cm
388.945 172.219 m 388.945 428.219 l S Q
q 1 0 0 -1 0 595.275574 cm
404.945 172.219 m 404.945 428.219 l S Q
q 1 0 0 -1 0 595.275574 cm
420.945 172.219 m 420.945 428.219 l S Q
q 1 0 0 -1 0 595.275574 cm
436.945 172.219 m 436.945 428.219 l S Q
q 1 0 0 -1 0 595.275574 cm
452.945 172.219 m 452.945 428.219 l S Q
q 1 0 0 -1 0 595.275574 cm
468.945 172.219 m 468.945 428.219 l S Q
q 1 0 0 -1 0 595.275574 cm
484.945 172.219 m 484.945 428.219 l S Q
q 1 0 0 -1 0 595.275574 cm
500.945 172.219 m 500.945 428.219 l S Q
q 1 0 0 -1 0 595.275574 cm
516.945 172.219 m 516.945 428.219 l S Q
q 1 0 0 -1 0 595.275574 cm
532.945 172.219 m 532.945 428.219 l S Q
q 1 0 0 -1 0 595.275574 cm
292.945 188.219 m 548.945 188.219 l S Q
q 1 0 0 -1 0 595.275574 cm
292.945 204.219 m 548.945 204.219 l S Q
q 1 0 0 -1 0 595.275574 cm
292.945 220.219 m 548.945 220.219 l S Q
q 1 0 0 -1 0 595.275574 cm
292.945 236.219 m 548.945 236.219 l S Q
q 1 0 0 -1 0 595.275574 cm
292.945 252.219 m 548.945 252.219 l S Q
q 1 0 0 -1 0 595.275574 cm
292.945 268.219 m 548.945 268.219 l S Q
q 1 0 0 -1 0 595.275574 cm
292.945 284.219 m 548.945 284.219 l S Q
q 1 0 0 -1 0 595.275574 cm
292.945 300.219 m 548.945 300.219 l S Q
q 1 0 0 -1 0 595.275574 cm
292.945 316.219 m 548.945 316.219 l S Q
q 1 0 0 -1 0 595.275574 cm
292.945 332.219 m 548.945 332.219 l S Q
q 1 0 0 -1 0 595.275574 cm
292.945 348.219 m 548.945 348.219 l S Q
q 1 0 0 -1 0 595.275574 cm
292.945 364.219 m 548.945 364.219 l S Q
q 1 0 0 -1 0 595.275574 cm
292.945 380.219 m 548.945 380.219 l S Q
q 1 0 0 -1 0 595.275574 cm
292.945 396.219 m 548.945 396.219 l S Q
q 1 0 0 -1 0 595.275574 cm
292.945 412.219 m 548.945 412.219 l S Q
2.4 w
q 1 0 0 -1 0 595.275574 cm
292.945 172.219 256 256 re S Q
1 0 0 rg
360.938 359.178 m 360.938 356.83 359.031 354.928 356.684 354.928 c 354.336
 354.928 352.434 356.83 352.434 359.178 c 352.434 361.526 354.336 363.432
 356.684 363.432 c 359.031 363.432 360.938 361.526 360.938 359.178 c h
360.938 359.178 m f
1.082835 w
q 1 0 0 -1 0 595.275574 cm
316.777 196.602 m 397.426 196.602 l 397.426 277.254 l 315.527 277.254 l
 315.527 196.602 l h
316.777 196.602 m S Q
0 0 1 rg
345.195 343.057 m 345.195 340.709 343.293 338.807 340.945 338.807 c 338.598
 338.807 336.691 340.709 336.691 343.057 c 336.691 345.404 338.598 347.311
 340.945 347.311 c 343.293 347.311 345.195 345.404 345.195 343.057 c h
345.195 343.057 m f
345.195 375.057 m 345.195 372.709 343.293 370.807 340.945 370.807 c 338.598
 370.807 336.691 372.709 336.691 375.057 c 336.691 377.404 338.598 379.311
 340.945 379.311 c 343.293 379.311 345.195 377.404 345.195 375.057 c h
345.195 375.057 m f
393.195 375.057 m 393.195 372.709 391.293 370.807 388.945 370.807 c 386.598
 370.807 384.691 372.709 384.691 375.057 c 384.691 377.404 386.598 379.311
 388.945 379.311 c 391.293 379.311 393.195 377.404 393.195 375.057 c h
393.195 375.057 m f
393.195 343.057 m 393.195 340.709 391.293 338.807 388.945 338.807 c 386.598
 338.807 384.691 340.709 384.691 343.057 c 384.691 345.404 386.598 347.311
 388.945 347.311 c 391.293 347.311 393.195 345.404 393.195 343.057 c h
393.195 343.057 m f
409.195 343.057 m 409.195 340.709 407.293 338.807 404.945 338.807 c 402.598
 338.807 400.691 340.709 400.691 343.057 c 400.691 345.404 402.598 347.311
 404.945 347.311 c 407.293 347.311 409.195 345.404 409.195 343.057 c h
409.195 343.057 m f
441.195 375.057 m 441.195 372.709 439.293 370.807 436.945 370.807 c 434.598
 370.807 432.691 372.709 432.691 375.057 c 432.691 377.404 434.598 379.311
 436.945 379.311 c 439.293 379.311 441.195 377.404 441.195 375.057 c h
441.195 375.057 m f
489.195 407.057 m 489.195 404.709 487.293 402.807 484.945 402.807 c 482.598
 402.807 480.691 404.709 480.691 407.057 c 480.691 409.404 482.598 411.311
 484.945 411.311 c 487.293 411.311 489.195 409.404 489.195 407.057 c h
489.195 407.057 m f
489.195 279.057 m 489.195 276.709 487.293 274.807 484.945 274.807 c 482.598
 274.807 480.691 276.709 480.691 279.057 c 480.691 281.404 482.598 283.311
 484.945 283.311 c 487.293 283.311 489.195 281.404 489.195 279.057 c h
489.195 279.057 m f
425.195 295.057 m 425.195 292.709 423.293 290.807 420.945 290.807 c 418.598
 290.807 416.691 292.709 416.691 295.057 c 416.691 297.404 418.598 299.311
 420.945 299.311 c 423.293 299.311 425.195 297.404 425.195 295.057 c h
425.195 295.057 m f
425.195 247.057 m 425.195 244.709 423.293 242.807 420.945 242.807 c 418.598
 242.807 416.691 244.709 416.691 247.057 c 416.691 249.404 418.598 251.311
 420.945 251.311 c 423.293 251.311 425.195 249.404 425.195 247.057 c h
425.195 247.057 m f
377.195 247.057 m 377.195 244.709 375.293 242.807 372.945 242.807 c 370.598
 242.807 368.691 244.709 368.691 247.057 c 368.691 249.404 370.598 251.311
 372.945 251.311 c 375.293 251.311 377.195 249.404 377.195 247.057 c h
377.195 247.057 m f
345.195 279.057 m 345.195 276.709 343.293 274.807 340.945 274.807 c 338.598
 274.807 336.691 276.709 336.691 279.057 c 336.691 281.404 338.598 283.311
 340.945 283.311 c 343.293 283.311 345.195 281.404 345.195 279.057 c h
345.195 279.057 m f
345.195 215.057 m 345.195 212.709 343.293 210.807 340.945 210.807 c 338.598
 210.807 336.691 212.709 336.691 215.057 c 336.691 217.404 338.598 219.311
 340.945 219.311 c 343.293 219.311 345.195 217.404 345.195 215.057 c h
345.195 215.057 m f
393.195 199.057 m 393.195 196.709 391.293 194.807 388.945 194.807 c 386.598
 194.807 384.691 196.709 384.691 199.057 c 384.691 201.404 386.598 203.311
 388.945 203.311 c 391.293 203.311 393.195 201.404 393.195 199.057 c h
393.195 199.057 m f
457.195 199.057 m 457.195 196.709 455.293 194.807 452.945 194.807 c 450.598
 194.807 448.691 196.709 448.691 199.057 c 448.691 201.404 450.598 203.311
 452.945 203.311 c 455.293 203.311 457.195 201.404 457.195 199.057 c h
457.195 199.057 m f
Q Q
showpage
%%Trailer
end restore
%%EOF
