%!PS-Adobe-3.0 EPSF-3.0
%%Creator: MATLAB, The MathWorks, Inc. Version 7.12.0.635 (R2011a). Operating System: Darwin 10.8.0 Darwin Kernel Version 10.8.0: Tue Jun  7 16:33:36 PDT 2011; root:xnu-1504.15.3~1/RELEASE_I386 i386.
%%Title: /Users/yiyang/Dropbox/Thesis2014/chapter_knct/fig/sqgrmse.eps
%%CreationDate: 10/28/2014  15:59:16
%%DocumentNeededFonts: Helvetica
%%DocumentProcessColors: Cyan Magenta Yellow Black
%%LanguageLevel: 2
%%Pages: 1
%%BoundingBox:   -91    94   703   698
%%EndComments

%%BeginProlog
% MathWorks dictionary
/MathWorks 160 dict begin
% definition operators
/bdef {bind def} bind def
/ldef {load def} bind def
/xdef {exch def} bdef
/xstore {exch store} bdef
% operator abbreviations
/c  /clip ldef
/cc /concat ldef
/cp /closepath ldef
/gr /grestore ldef
/gs /gsave ldef
/mt /moveto ldef
/np /newpath ldef
/cm /currentmatrix ldef
/sm /setmatrix ldef
/rm /rmoveto ldef
/rl /rlineto ldef
/s {show newpath} bdef
/sc {setcmykcolor} bdef
/sr /setrgbcolor ldef
/sg /setgray ldef
/w /setlinewidth ldef
/j /setlinejoin ldef
/cap /setlinecap ldef
/rc {rectclip} bdef
/rf {rectfill} bdef
% page state control
/pgsv () def
/bpage {/pgsv save def} bdef
/epage {pgsv restore} bdef
/bplot /gsave ldef
/eplot {stroke grestore} bdef
% orientation switch
/portraitMode 0 def /landscapeMode 1 def /rotateMode 2 def
% coordinate system mappings
/dpi2point 0 def
% font control
/FontSize 0 def
/FMS {/FontSize xstore findfont [FontSize 0 0 FontSize neg 0 0]
  makefont setfont} bdef
/reencode {exch dup where {pop load} {pop StandardEncoding} ifelse
  exch dup 3 1 roll findfont dup length dict begin
  { 1 index /FID ne {def}{pop pop} ifelse } forall
  /Encoding exch def currentdict end definefont pop} bdef
/isroman {findfont /CharStrings get /Agrave known} bdef
/FMSR {3 1 roll 1 index dup isroman {reencode} {pop pop} ifelse
  exch FMS} bdef
/csm {1 dpi2point div -1 dpi2point div scale neg translate
 dup landscapeMode eq {pop -90 rotate}
  {rotateMode eq {90 rotate} if} ifelse} bdef
% line types: solid, dotted, dashed, dotdash
/SO { [] 0 setdash } bdef
/DO { [.5 dpi2point mul 4 dpi2point mul] 0 setdash } bdef
/DA { [6 dpi2point mul] 0 setdash } bdef
/DD { [.5 dpi2point mul 4 dpi2point mul 6 dpi2point mul 4
  dpi2point mul] 0 setdash } bdef
% macros for lines and objects
/L {lineto stroke} bdef
/MP {3 1 roll moveto 1 sub {rlineto} repeat} bdef
/AP {{rlineto} repeat} bdef
/PDlw -1 def
/W {/PDlw currentlinewidth def setlinewidth} def
/PP {closepath eofill} bdef
/DP {closepath stroke} bdef
/MR {4 -2 roll moveto dup  0 exch rlineto exch 0 rlineto
  neg 0 exch rlineto closepath} bdef
/FR {MR stroke} bdef
/PR {MR fill} bdef
/L1i {{currentfile picstr readhexstring pop} image} bdef
/tMatrix matrix def
/MakeOval {newpath tMatrix currentmatrix pop translate scale
0 0 1 0 360 arc tMatrix setmatrix} bdef
/FO {MakeOval stroke} bdef
/PO {MakeOval fill} bdef
/PD {currentlinewidth 2 div 0 360 arc fill
   PDlw -1 eq not {PDlw w /PDlw -1 def} if} def
/FA {newpath tMatrix currentmatrix pop translate scale
  0 0 1 5 -2 roll arc tMatrix setmatrix stroke} bdef
/PA {newpath tMatrix currentmatrix pop	translate 0 0 moveto scale
  0 0 1 5 -2 roll arc closepath tMatrix setmatrix fill} bdef
/FAn {newpath tMatrix currentmatrix pop translate scale
  0 0 1 5 -2 roll arcn tMatrix setmatrix stroke} bdef
/PAn {newpath tMatrix currentmatrix pop translate 0 0 moveto scale
  0 0 1 5 -2 roll arcn closepath tMatrix setmatrix fill} bdef
/vradius 0 def /hradius 0 def /lry 0 def
/lrx 0 def /uly 0 def /ulx 0 def /rad 0 def
/MRR {/vradius xdef /hradius xdef /lry xdef /lrx xdef /uly xdef
  /ulx xdef newpath tMatrix currentmatrix pop ulx hradius add uly
  vradius add translate hradius vradius scale 0 0 1 180 270 arc 
  tMatrix setmatrix lrx hradius sub uly vradius add translate
  hradius vradius scale 0 0 1 270 360 arc tMatrix setmatrix
  lrx hradius sub lry vradius sub translate hradius vradius scale
  0 0 1 0 90 arc tMatrix setmatrix ulx hradius add lry vradius sub
  translate hradius vradius scale 0 0 1 90 180 arc tMatrix setmatrix
  closepath} bdef
/FRR {MRR stroke } bdef
/PRR {MRR fill } bdef
/MlrRR {/lry xdef /lrx xdef /uly xdef /ulx xdef /rad lry uly sub 2 div def
  newpath tMatrix currentmatrix pop ulx rad add uly rad add translate
  rad rad scale 0 0 1 90 270 arc tMatrix setmatrix lrx rad sub lry rad
  sub translate rad rad scale 0 0 1 270 90 arc tMatrix setmatrix
  closepath} bdef
/FlrRR {MlrRR stroke } bdef
/PlrRR {MlrRR fill } bdef
/MtbRR {/lry xdef /lrx xdef /uly xdef /ulx xdef /rad lrx ulx sub 2 div def
  newpath tMatrix currentmatrix pop ulx rad add uly rad add translate
  rad rad scale 0 0 1 180 360 arc tMatrix setmatrix lrx rad sub lry rad
  sub translate rad rad scale 0 0 1 0 180 arc tMatrix setmatrix
  closepath} bdef
/FtbRR {MtbRR stroke } bdef
/PtbRR {MtbRR fill } bdef
/stri 6 array def /dtri 6 array def
/smat 6 array def /dmat 6 array def
/tmat1 6 array def /tmat2 6 array def /dif 3 array def
/asub {/ind2 exch def /ind1 exch def dup dup
  ind1 get exch ind2 get sub exch } bdef
/tri_to_matrix {
  2 0 asub 3 1 asub 4 0 asub 5 1 asub
  dup 0 get exch 1 get 7 -1 roll astore } bdef
/compute_transform {
  dmat dtri tri_to_matrix tmat1 invertmatrix 
  smat stri tri_to_matrix tmat2 concatmatrix } bdef
/ds {stri astore pop} bdef
/dt {dtri astore pop} bdef
/db {2 copy /cols xdef /rows xdef mul dup 3 mul string
  currentfile 
  3 index 0 eq {/ASCIIHexDecode filter}
  {/ASCII85Decode filter 3 index 2 eq {/RunLengthDecode filter} if }
  ifelse exch readstring pop
  dup 0 3 index getinterval /rbmap xdef
  dup 2 index dup getinterval /gbmap xdef
  1 index dup 2 mul exch getinterval /bbmap xdef pop pop}bdef
/it {gs np dtri aload pop moveto lineto lineto cp c
  cols rows 8 compute_transform 
  rbmap gbmap bbmap true 3 colorimage gr}bdef
/il {newpath moveto lineto stroke}bdef
currentdict end def
%%EndProlog

%%BeginSetup
MathWorks begin

0 cap

end
%%EndSetup

%%Page: 1 1
%%BeginPageSetup
%%PageBoundingBox:   -91    94   703   698
MathWorks begin
bpage
%%EndPageSetup

%%BeginObject: obj1
bplot

/dpi2point 12 def
portraitMode -1092 8376 csm

    0     0  9528  7239 rc
86 dict begin %Colortable dictionary
/c0 { 0.000000 0.000000 0.000000 sr} bdef
/c1 { 1.000000 1.000000 1.000000 sr} bdef
/c2 { 0.900000 0.000000 0.000000 sr} bdef
/c3 { 0.000000 0.820000 0.000000 sr} bdef
/c4 { 0.000000 0.000000 0.800000 sr} bdef
/c5 { 0.910000 0.820000 0.320000 sr} bdef
/c6 { 1.000000 0.260000 0.820000 sr} bdef
/c7 { 0.000000 0.820000 0.820000 sr} bdef
c0
1 j
1 sg
   0    0 9529 7240 rf
6 w
0 5900 7384 0 0 -5900 1239 6443 4 MP
PP
-7384 0 0 5900 7384 0 0 -5900 1239 6443 5 MP stroke
4 w
DO
SO
6 w
0 sg
1239 6443 mt 8623 6443 L
1239  543 mt 8623  543 L
1239 6443 mt 1239  543 L
8623 6443 mt 8623  543 L
1239 6443 mt 8623 6443 L
1239 6443 mt 1239  543 L
1792 6443 mt 1792 6369 L
1792  543 mt 1792  616 L
%%IncludeResource: font Helvetica
/Helvetica /ISOLatin1Encoding 120 FMSR

1709 6588 mt 
(0.4) s
2531 6443 mt 2531 6369 L
2531  543 mt 2531  616 L
2448 6588 mt 
(0.6) s
3269 6443 mt 3269 6369 L
3269  543 mt 3269  616 L
3186 6588 mt 
(0.8) s
4008 6443 mt 4008 6369 L
4008  543 mt 4008  616 L
3975 6588 mt 
(1) s
4746 6443 mt 4746 6369 L
4746  543 mt 4746  616 L
4663 6588 mt 
(1.2) s
5484 6443 mt 5484 6369 L
5484  543 mt 5484  616 L
5401 6588 mt 
(1.4) s
6223 6443 mt 6223 6369 L
6223  543 mt 6223  616 L
6140 6588 mt 
(1.6) s
6961 6443 mt 6961 6369 L
6961  543 mt 6961  616 L
6878 6588 mt 
(1.8) s
7700 6443 mt 7700 6369 L
7700  543 mt 7700  616 L
7667 6588 mt 
(2) s
8438 6443 mt 8438 6369 L
8438  543 mt 8438  616 L
8355 6588 mt 
(2.2) s
1239 6443 mt 1312 6443 L
8623 6443 mt 8549 6443 L
 971 6487 mt 
(0.04) s
1239 5705 mt 1312 5705 L
8623 5705 mt 8549 5705 L
 904 5749 mt 
(0.045) s
1239 4968 mt 1312 4968 L
8623 4968 mt 8549 4968 L
 971 5012 mt 
(0.05) s
1239 4230 mt 1312 4230 L
8623 4230 mt 8549 4230 L
 904 4274 mt 
(0.055) s
1239 3493 mt 1312 3493 L
8623 3493 mt 8549 3493 L
 971 3537 mt 
(0.06) s
1239 2755 mt 1312 2755 L
8623 2755 mt 8549 2755 L
 904 2799 mt 
(0.065) s
1239 2017 mt 1312 2017 L
8623 2017 mt 8549 2017 L
 971 2061 mt 
(0.07) s
1239 1280 mt 1312 1280 L
8623 1280 mt 8549 1280 L
 904 1324 mt 
(0.075) s
1239  543 mt 1312  543 L
8623  543 mt 8549  543 L
 971  587 mt 
(0.08) s
1239 6443 mt 8623 6443 L
1239  543 mt 8623  543 L
1239 6443 mt 1239  543 L
8623 6443 mt 8623  543 L
gs 1239 542 7385 5901 rc
24 w
/c8 { 0.000000 1.000000 0.000000 sr} bdef
c8
923 -295 923 885 923 798 923 129 923 -60 923 -496 923 218 923 256 
1239 1851 9 MP stroke
gr

24 w
c8
gs 1141 1671 7581 2009 rc
  36   36 1239 1851 PO
  36   36 2162 2107 PO
  36   36 3085 2325 PO
  36   36 4008 1829 PO
  36   36 4931 1769 PO
  36   36 5854 1898 PO
  36   36 6777 2696 PO
  36   36 7700 3581 PO
  36   36 8623 3286 PO
  36   36 1239 1851 FO
  36   36 2162 2107 FO
  36   36 3085 2325 FO
  36   36 4008 1829 FO
  36   36 4931 1769 FO
  36   36 5854 1898 FO
  36   36 6777 2696 FO
  36   36 7700 3581 FO
  36   36 8623 3286 FO
gr

gs 1239 542 7385 5901 rc
0 sg
923 -590 923 1032 923 56 923 -57 923 -44 923 -506 923 122 923 47 
1239 5335 9 MP stroke
gr

0 sg
gs 1141 4799 7581 1285 rc
0 j
0 -58 -58 0 0 58 58 0 1210 5306 5 MP
gs
PP
gr
DP
0 -58 -58 0 0 58 58 0 2133 5353 5 MP
gs
PP
gr
DP
0 -58 -58 0 0 58 58 0 3056 5475 5 MP
gs
PP
gr
DP
0 -58 -58 0 0 58 58 0 3979 4969 5 MP
gs
PP
gr
DP
0 -58 -58 0 0 58 58 0 4902 4925 5 MP
gs
PP
gr
DP
0 -58 -58 0 0 58 58 0 5825 4868 5 MP
gs
PP
gr
DP
0 -58 -58 0 0 58 58 0 6748 4924 5 MP
gs
PP
gr
DP
0 -58 -58 0 0 58 58 0 7671 5956 5 MP
gs
PP
gr
DP
0 -58 -58 0 0 58 58 0 8594 5366 5 MP
gs
PP
gr
DP
gr

gs 1239 542 7385 5901 rc
gr

%%IncludeResource: font Helvetica
/Helvetica /ISOLatin1Encoding 168 FMSR

4809 6766 mt 
(t\(s\)) s
%%IncludeResource: font Helvetica
/Helvetica /ISOLatin1Encoding 120 FMSR

 822 3724 mt  -90 rotate
(RMSE\(I\)) s
90 rotate
1222 6485 mt 
( ) s
8607  584 mt 
( ) s
6 w
1 sg
0 444 1307 0 0 -444 7257 1046 4 MP
PP
-1307 0 0 444 1307 0 0 -444 7257 1046 5 MP stroke
4 w
DO
SO
6 w
0 sg
7257 1046 mt 8564 1046 L
7257  602 mt 8564  602 L
7257 1046 mt 7257  602 L
8564 1046 mt 8564  602 L
7257 1046 mt 8564 1046 L
7257 1046 mt 7257  602 L
7257 1046 mt 8564 1046 L
7257  602 mt 8564  602 L
7257 1046 mt 7257  602 L
8564 1046 mt 8564  602 L
%%IncludeResource: font Helvetica
/Helvetica /ISOLatin1Encoding 168 FMSR

7709  782 mt 
(Backgrund) s
gs 7257 602 1308 445 rc
24 w
c8
347 0 7326 722 2 MP stroke
gs 7402 624 197 197 rc
  36   36 7500  722 PO
  36   36 7500  722 FO
gr

gr

24 w
c8
0 sg
7709  987 mt 
(Analysis) s
gs 7257 602 1308 445 rc
347 0 7326 925 2 MP stroke
gs 7402 827 197 197 rc
0 j
0 -58 -58 0 0 58 58 0 7471 896 5 MP
gs
PP
gr
DP
gr

6 w
gr

6 w

end %%Color Dict

eplot
%%EndObject

epage
end

showpage

%%Trailer
%%EOF
