%!PS-Adobe-3.0 EPSF-3.0
%%Creator: (MATLAB, The Mathworks, Inc. Version 9.2.0.538062 \(R2017a\). Operating System: Mac OS X)
%%Title: (/Users/yin.yang/Google Drive/Documents/Paper/IrsteaSlides/fig/trackingparticles.eps)
%%CreationDate: 2018-01-25T10:25:29
%%Pages: (atend)
%%BoundingBox: 0 0 560 420
%%LanguageLevel: 3
%%EndComments
%%BeginProlog
%%BeginResource: procset (Apache XML Graphics Std ProcSet) 1.2 0
%%Version: 1.2 0
%%Copyright: (Copyright 2001-2003,2010 The Apache Software Foundation. License terms: http://www.apache.org/licenses/LICENSE-2.0)
/bd{bind def}bind def
/ld{load def}bd
/GR/grestore ld
/M/moveto ld
/LJ/setlinejoin ld
/C/curveto ld
/f/fill ld
/LW/setlinewidth ld
/GC/setgray ld
/t/show ld
/N/newpath ld
/CT/concat ld
/cp/closepath ld
/S/stroke ld
/L/lineto ld
/CC/setcmykcolor ld
/A/ashow ld
/GS/gsave ld
/RC/setrgbcolor ld
/RM/rmoveto ld
/ML/setmiterlimit ld
/re {4 2 roll M
1 index 0 rlineto
0 exch rlineto
neg 0 rlineto
cp } bd
/_ctm matrix def
/_tm matrix def
/BT { _ctm currentmatrix pop matrix _tm copy pop 0 0 moveto } bd
/ET { _ctm setmatrix } bd
/iTm { _ctm setmatrix _tm concat } bd
/Tm { _tm astore pop iTm 0 0 moveto } bd
/ux 0.0 def
/uy 0.0 def
/F {
  /Tp exch def
  /Tf exch def
  Tf findfont Tp scalefont setfont
  /cf Tf def  /cs Tp def
} bd
/ULS {currentpoint /uy exch def /ux exch def} bd
/ULE {
  /Tcx currentpoint pop def
  gsave
  newpath
  cf findfont cs scalefont dup
  /FontMatrix get 0 get /Ts exch def /FontInfo get dup
  /UnderlinePosition get Ts mul /To exch def
  /UnderlineThickness get Ts mul /Tt exch def
  ux uy To add moveto  Tcx uy To add lineto
  Tt setlinewidth stroke
  grestore
} bd
/OLE {
  /Tcx currentpoint pop def
  gsave
  newpath
  cf findfont cs scalefont dup
  /FontMatrix get 0 get /Ts exch def /FontInfo get dup
  /UnderlinePosition get Ts mul /To exch def
  /UnderlineThickness get Ts mul /Tt exch def
  ux uy To add cs add moveto Tcx uy To add cs add lineto
  Tt setlinewidth stroke
  grestore
} bd
/SOE {
  /Tcx currentpoint pop def
  gsave
  newpath
  cf findfont cs scalefont dup
  /FontMatrix get 0 get /Ts exch def /FontInfo get dup
  /UnderlinePosition get Ts mul /To exch def
  /UnderlineThickness get Ts mul /Tt exch def
  ux uy To add cs 10 mul 26 idiv add moveto Tcx uy To add cs 10 mul 26 idiv add lineto
  Tt setlinewidth stroke
  grestore
} bd
/QT {
/Y22 exch store
/X22 exch store
/Y21 exch store
/X21 exch store
currentpoint
/Y21 load 2 mul add 3 div exch
/X21 load 2 mul add 3 div exch
/X21 load 2 mul /X22 load add 3 div
/Y21 load 2 mul /Y22 load add 3 div
/X22 load /Y22 load curveto
} bd
/SSPD {
dup length /d exch dict def
{
/v exch def
/k exch def
currentpagedevice k known {
/cpdv currentpagedevice k get def
v cpdv ne {
/upd false def
/nullv v type /nulltype eq def
/nullcpdv cpdv type /nulltype eq def
nullv nullcpdv or
{
/upd true def
} {
/sametype v type cpdv type eq def
sametype {
v type /arraytype eq {
/vlen v length def
/cpdvlen cpdv length def
vlen cpdvlen eq {
0 1 vlen 1 sub {
/i exch def
/obj v i get def
/cpdobj cpdv i get def
obj cpdobj ne {
/upd true def
exit
} if
} for
} {
/upd true def
} ifelse
} {
v type /dicttype eq {
v {
/dv exch def
/dk exch def
/cpddv cpdv dk get def
dv cpddv ne {
/upd true def
exit
} if
} forall
} {
/upd true def
} ifelse
} ifelse
} if
} ifelse
upd true eq {
d k v put
} if
} if
} if
} forall
d length 0 gt {
d setpagedevice
} if
} bd
/RE { % /NewFontName [NewEncodingArray] /FontName RE -
  findfont dup length dict begin
  {
    1 index /FID ne
    {def} {pop pop} ifelse
  } forall
  /Encoding exch def
  /FontName 1 index def
  currentdict definefont pop
  end
} bind def
%%EndResource
%%BeginResource: procset (Apache XML Graphics EPS ProcSet) 1.0 0
%%Version: 1.0 0
%%Copyright: (Copyright 2002-2003 The Apache Software Foundation. License terms: http://www.apache.org/licenses/LICENSE-2.0)
/BeginEPSF { %def
/b4_Inc_state save def         % Save state for cleanup
/dict_count countdictstack def % Count objects on dict stack
/op_count count 1 sub def      % Count objects on operand stack
userdict begin                 % Push userdict on dict stack
/showpage { } def              % Redefine showpage, { } = null proc
0 setgray 0 setlinecap         % Prepare graphics state
1 setlinewidth 0 setlinejoin
10 setmiterlimit [ ] 0 setdash newpath
/languagelevel where           % If level not equal to 1 then
{pop languagelevel             % set strokeadjust and
1 ne                           % overprint to their defaults.
{false setstrokeadjust false setoverprint
} if
} if
} bd
/EndEPSF { %def
count op_count sub {pop} repeat            % Clean up stacks
countdictstack dict_count sub {end} repeat
b4_Inc_state restore
} bd
%%EndResource
%FOPBeginFontDict
%%IncludeResource: font Courier-Bold
%%IncludeResource: font Helvetica
%%IncludeResource: font Courier-BoldOblique
%%IncludeResource: font Courier-Oblique
%%IncludeResource: font Times-Roman
%%IncludeResource: font Helvetica-BoldOblique
%%IncludeResource: font Helvetica-Bold
%%IncludeResource: font Helvetica-Oblique
%%IncludeResource: font Times-BoldItalic
%%IncludeResource: font Courier
%%IncludeResource: font Times-Italic
%%IncludeResource: font Times-Bold
%%IncludeResource: font Symbol
%%IncludeResource: font ZapfDingbats
%FOPEndFontDict
%%BeginResource: encoding WinAnsiEncoding
/WinAnsiEncoding [
/.notdef /.notdef /.notdef /.notdef /.notdef
/.notdef /.notdef /.notdef /.notdef /.notdef
/.notdef /.notdef /.notdef /.notdef /.notdef
/.notdef /.notdef /.notdef /.notdef /.notdef
/.notdef /.notdef /.notdef /.notdef /.notdef
/.notdef /.notdef /.notdef /.notdef /.notdef
/.notdef /.notdef /space /exclam /quotedbl
/numbersign /dollar /percent /ampersand /quotesingle
/parenleft /parenright /asterisk /plus /comma
/hyphen /period /slash /zero /one
/two /three /four /five /six
/seven /eight /nine /colon /semicolon
/less /equal /greater /question /at
/A /B /C /D /E
/F /G /H /I /J
/K /L /M /N /O
/P /Q /R /S /T
/U /V /W /X /Y
/Z /bracketleft /backslash /bracketright /asciicircum
/underscore /quoteleft /a /b /c
/d /e /f /g /h
/i /j /k /l /m
/n /o /p /q /r
/s /t /u /v /w
/x /y /z /braceleft /bar
/braceright /asciitilde /bullet /Euro /bullet
/quotesinglbase /florin /quotedblbase /ellipsis /dagger
/daggerdbl /circumflex /perthousand /Scaron /guilsinglleft
/OE /bullet /Zcaron /bullet /bullet
/quoteleft /quoteright /quotedblleft /quotedblright /bullet
/endash /emdash /asciitilde /trademark /scaron
/guilsinglright /oe /bullet /zcaron /Ydieresis
/space /exclamdown /cent /sterling /currency
/yen /brokenbar /section /dieresis /copyright
/ordfeminine /guillemotleft /logicalnot /sfthyphen /registered
/macron /degree /plusminus /twosuperior /threesuperior
/acute /mu /paragraph /middot /cedilla
/onesuperior /ordmasculine /guillemotright /onequarter /onehalf
/threequarters /questiondown /Agrave /Aacute /Acircumflex
/Atilde /Adieresis /Aring /AE /Ccedilla
/Egrave /Eacute /Ecircumflex /Edieresis /Igrave
/Iacute /Icircumflex /Idieresis /Eth /Ntilde
/Ograve /Oacute /Ocircumflex /Otilde /Odieresis
/multiply /Oslash /Ugrave /Uacute /Ucircumflex
/Udieresis /Yacute /Thorn /germandbls /agrave
/aacute /acircumflex /atilde /adieresis /aring
/ae /ccedilla /egrave /eacute /ecircumflex
/edieresis /igrave /iacute /icircumflex /idieresis
/eth /ntilde /ograve /oacute /ocircumflex
/otilde /odieresis /divide /oslash /ugrave
/uacute /ucircumflex /udieresis /yacute /thorn
/ydieresis
] def
%%EndResource
%FOPBeginFontReencode
/Courier-Bold findfont
dup length dict begin
  {1 index /FID ne {def} {pop pop} ifelse} forall
  /Encoding WinAnsiEncoding def
  currentdict
end
/Courier-Bold exch definefont pop
/Helvetica findfont
dup length dict begin
  {1 index /FID ne {def} {pop pop} ifelse} forall
  /Encoding WinAnsiEncoding def
  currentdict
end
/Helvetica exch definefont pop
/Courier-BoldOblique findfont
dup length dict begin
  {1 index /FID ne {def} {pop pop} ifelse} forall
  /Encoding WinAnsiEncoding def
  currentdict
end
/Courier-BoldOblique exch definefont pop
/Courier-Oblique findfont
dup length dict begin
  {1 index /FID ne {def} {pop pop} ifelse} forall
  /Encoding WinAnsiEncoding def
  currentdict
end
/Courier-Oblique exch definefont pop
/Times-Roman findfont
dup length dict begin
  {1 index /FID ne {def} {pop pop} ifelse} forall
  /Encoding WinAnsiEncoding def
  currentdict
end
/Times-Roman exch definefont pop
/Helvetica-BoldOblique findfont
dup length dict begin
  {1 index /FID ne {def} {pop pop} ifelse} forall
  /Encoding WinAnsiEncoding def
  currentdict
end
/Helvetica-BoldOblique exch definefont pop
/Helvetica-Bold findfont
dup length dict begin
  {1 index /FID ne {def} {pop pop} ifelse} forall
  /Encoding WinAnsiEncoding def
  currentdict
end
/Helvetica-Bold exch definefont pop
/Helvetica-Oblique findfont
dup length dict begin
  {1 index /FID ne {def} {pop pop} ifelse} forall
  /Encoding WinAnsiEncoding def
  currentdict
end
/Helvetica-Oblique exch definefont pop
/Times-BoldItalic findfont
dup length dict begin
  {1 index /FID ne {def} {pop pop} ifelse} forall
  /Encoding WinAnsiEncoding def
  currentdict
end
/Times-BoldItalic exch definefont pop
/Courier findfont
dup length dict begin
  {1 index /FID ne {def} {pop pop} ifelse} forall
  /Encoding WinAnsiEncoding def
  currentdict
end
/Courier exch definefont pop
/Times-Italic findfont
dup length dict begin
  {1 index /FID ne {def} {pop pop} ifelse} forall
  /Encoding WinAnsiEncoding def
  currentdict
end
/Times-Italic exch definefont pop
/Times-Bold findfont
dup length dict begin
  {1 index /FID ne {def} {pop pop} ifelse} forall
  /Encoding WinAnsiEncoding def
  currentdict
end
/Times-Bold exch definefont pop
%FOPEndFontReencode
%%EndProlog
%%Page: 1 1
%%PageBoundingBox: 0 0 560 420
%%BeginPageSetup
[1 0 0 -1 0 420] CT
%%EndPageSetup
GS
1 GC
N
0 0 560 420 re
f
GR
GS
1 GC
N
0 0 560 420 re
f
GR
GS
1 GC
N
136.2 302.392 M
507 265.217 L
443.8 246.209 L
73 283.384 L
cp
f
GR
GS
1 GC
N
73 283.384 M
443.8 246.209 L
443.8 102.608 L
73 139.783 L
cp
f
GR
GS
1 GC
N
443.8 246.209 M
507 265.217 L
507 121.616 L
443.8 102.608 L
cp
f
GR
GS
0.873 GC
1 LJ
0.5 LW
N
143.684 301.642 M
80.484 282.633 L
S
GR
GS
0.873 GC
1 LJ
0.5 LW
N
185.69 297.43 M
122.49 278.422 L
S
GR
GS
0.873 GC
1 LJ
0.5 LW
N
227.696 293.219 M
164.496 274.211 L
S
GR
GS
0.873 GC
1 LJ
0.5 LW
N
269.702 289.008 M
206.502 269.999 L
S
GR
GS
0.873 GC
1 LJ
0.5 LW
N
311.708 284.796 M
248.508 265.788 L
S
GR
GS
0.873 GC
1 LJ
0.5 LW
N
353.714 280.585 M
290.514 261.577 L
S
GR
GS
0.873 GC
1 LJ
0.5 LW
N
395.72 276.374 M
332.52 257.365 L
S
GR
GS
0.873 GC
1 LJ
0.5 LW
N
437.726 272.162 M
374.526 253.154 L
S
GR
GS
0.873 GC
1 LJ
0.5 LW
N
479.732 267.951 M
416.533 248.942 L
S
GR
GS
0.873 GC
1 LJ
0.5 LW
N
80.484 282.633 M
80.484 139.033 L
S
GR
GS
0.873 GC
1 LJ
0.5 LW
N
122.49 278.422 M
122.49 134.821 L
S
GR
GS
0.873 GC
1 LJ
0.5 LW
N
164.496 274.211 M
164.496 130.61 L
S
GR
GS
0.873 GC
1 LJ
0.5 LW
N
206.502 269.999 M
206.502 126.399 L
S
GR
GS
0.873 GC
1 LJ
0.5 LW
N
248.508 265.788 M
248.508 122.187 L
S
GR
GS
0.873 GC
1 LJ
0.5 LW
N
290.514 261.577 M
290.514 117.976 L
S
GR
GS
0.873 GC
1 LJ
0.5 LW
N
332.52 257.365 M
332.52 113.764 L
S
GR
GS
0.873 GC
1 LJ
0.5 LW
N
374.526 253.154 M
374.526 109.553 L
S
GR
GS
0.873 GC
1 LJ
0.5 LW
N
416.533 248.942 M
416.533 105.342 L
S
GR
GS
0.873 GC
1 LJ
0.5 LW
N
504.381 264.43 M
133.581 301.604 L
S
GR
GS
0.873 GC
1 LJ
0.5 LW
N
480.129 257.135 M
109.329 294.31 L
S
GR
GS
0.873 GC
1 LJ
0.5 LW
N
455.877 249.841 M
85.077 287.016 L
S
GR
GS
0.873 GC
1 LJ
0.5 LW
N
504.381 120.829 M
504.381 264.43 L
S
GR
GS
0.873 GC
1 LJ
0.5 LW
N
480.129 113.535 M
480.129 257.135 L
S
GR
GS
0.873 GC
1 LJ
0.5 LW
N
455.877 106.24 M
455.877 249.841 L
S
GR
GS
0.873 GC
1 LJ
0.5 LW
N
443.8 232.077 M
73 269.252 L
S
GR
GS
0.873 GC
1 LJ
0.5 LW
N
443.8 212.97 M
73 250.145 L
S
GR
GS
0.873 GC
1 LJ
0.5 LW
N
443.8 193.863 M
73 231.038 L
S
GR
GS
0.873 GC
1 LJ
0.5 LW
N
443.8 174.756 M
73 211.931 L
S
GR
GS
0.873 GC
1 LJ
0.5 LW
N
443.8 155.649 M
73 192.824 L
S
GR
GS
0.873 GC
1 LJ
0.5 LW
N
443.8 136.542 M
73 173.717 L
S
GR
GS
0.873 GC
1 LJ
0.5 LW
N
443.8 117.435 M
73 154.61 L
S
GR
GS
0.873 GC
1 LJ
0.5 LW
N
507 251.086 M
443.8 232.077 L
S
GR
GS
0.873 GC
1 LJ
0.5 LW
N
507 231.979 M
443.8 212.97 L
S
GR
GS
0.873 GC
1 LJ
0.5 LW
N
507 212.872 M
443.8 193.863 L
S
GR
GS
0.873 GC
1 LJ
0.5 LW
N
507 193.765 M
443.8 174.756 L
S
GR
GS
0.873 GC
1 LJ
0.5 LW
N
507 174.657 M
443.8 155.649 L
S
GR
GS
0.873 GC
1 LJ
0.5 LW
N
507 155.55 M
443.8 136.542 L
S
GR
GS
0.873 GC
1 LJ
0.5 LW
N
507 136.443 M
443.8 117.435 L
S
GR
GS
[1 0 0 1 444.16217 246.31755] CT
1 0 1 RC
10.0 ML
N
0 -6.665 M
-5.772 3.332 L
5.772 3.332 L
cp
S
GR
GS
[1 0 0 1 410.70685 244.60013] CT
0 1 0 RC
10.0 ML
N
0 -6.665 M
-5.772 3.332 L
5.772 3.332 L
cp
S
GR
GS
[1 0 0 1 380.36554 242.06099] CT
10.0 ML
N
0 -6.665 M
-5.772 3.332 L
5.772 3.332 L
cp
S
GR
GS
[1 0 0 1 353.78186 238.565] CT
1 0 0 RC
10.0 ML
N
0 -6.665 M
-5.772 3.332 L
5.772 3.332 L
cp
S
GR
GS
[1 0 0 1 330.89551 233.63667] CT
0 0 1 RC
10.0 ML
N
0 -6.665 M
-5.772 3.332 L
5.772 3.332 L
cp
S
GR
GS
[1 0 0 1 328.1091 245.56693] CT
1 0 1 RC
10.0 ML
N
-3.536 -3.536 M
3.536 3.536 L
-3.536 3.536 M
3.536 -3.536 L
S
GR
GS
0.149 GC
2 setlinecap
1 LJ
0.5 LW
N
136.2 302.392 M
507 265.217 L
S
GR
GS
[1 0 0 1 305.72034 241.43562] CT
0 1 0 RC
10.0 ML
N
-3.536 -3.536 M
3.536 3.536 L
-3.536 3.536 M
3.536 -3.536 L
S
GR
GS
0.149 GC
10.0 ML
0.5 LW
N
479.732 267.951 M
488.654 270.634 L
S
GR
GS
[1 0 0 1 286.72455 236.65349] CT
10.0 ML
N
-3.536 -3.536 M
3.536 3.536 L
-3.536 3.536 M
3.536 -3.536 L
S
GR
GS
[1 0 0 1 270.02759 231.33218] CT
1 0 0 RC
10.0 ML
N
-3.536 -3.536 M
3.536 3.536 L
-3.536 3.536 M
3.536 -3.536 L
S
GR
GS
[1 0 0 1 492.48438 271.78632] CT
0.149 GC
/Helvetica 10 F
GS
[1 0 0 1 0 0] CT
0 10 moveto 
1 -1 scale
(0.6) t 
GR
GR
GS
0.149 GC
1 setlinecap
1 LJ
0.5 LW
N
437.726 272.162 M
446.648 274.846 L
S
GR
GS
[1 0 0 1 255.27185 225.30048] CT
0 0 1 RC
10.0 ML
N
-3.536 -3.536 M
3.536 3.536 L
-3.536 3.536 M
3.536 -3.536 L
S
GR
GS
[1 0 0 1 303.17465 233.1192] CT
1 0 1 RC
10.0 ML
N
0 -5 M
0 5 L
-5 0 M
5 0 L
S
GR
GS
[1 0 0 1 284.76053 227.1763] CT
0 1 0 RC
10.0 ML
N
0 -5 M
0 5 L
-5 0 M
5 0 L
S
GR
GS
[1 0 0 1 450.47827 275.99768] CT
0.149 GC
/Helvetica 10 F
GS
[1 0 0 1 0 0] CT
0 10 moveto 
1 -1 scale
(0.55) t 
GR
GR
GS
0.149 GC
10.0 ML
0.5 LW
N
395.72 276.374 M
404.642 279.057 L
S
GR
GS
[1 0 0 1 290.00031 99.85796] CT
/Helvetica-Bold 11 F
GS
[1 0 0 1 0 0] CT
-37 -3 moveto 
1 -1 scale
(Fluid particles) t 
GR
GR
GS
[1 0 0 1 268.46927 220.65608] CT
10.0 ML
N
0 -5 M
0 5 L
-5 0 M
5 0 L
S
GR
GS
[1 0 0 1 254.1176 213.89532] CT
1 0 0 RC
10.0 ML
N
0 -5 M
0 5 L
-5 0 M
5 0 L
S
GR
GS
[1 0 0 1 60.24782 265.41663] CT
0.149 GC
/Helvetica 10 F
GS
[1 0 0 1 0 0] CT
-20 3.5 moveto 
1 -1 scale
(0.16) t 
GR
GR
GS
[1 0 0 1 408.47217 280.20905] CT
0.149 GC
/Helvetica 10 F
GS
[1 0 0 1 0 0] CT
0 10 moveto 
1 -1 scale
(0.5) t 
GR
GR
GS
[1 0 0 1 241.68161 206.74678] CT
0 0 1 RC
10.0 ML
N
0 -5 M
0 5 L
-5 0 M
5 0 L
S
GR
GS
[1 0 0 1 60.24782 246.30959] CT
0.149 GC
/Helvetica 10 F
GS
[1 0 0 1 0 0] CT
-20 3.5 moveto 
1 -1 scale
(0.18) t 
GR
GR
GS
0.149 GC
10.0 ML
0.5 LW
N
353.714 280.585 M
362.636 283.268 L
S
GR
GS
0.149 GC
2 setlinecap
1 LJ
0.5 LW
N
73 269.252 M
64.078 266.569 L
S
GR
GS
[1 0 0 1 60.24782 227.20256] CT
0.149 GC
/Helvetica 10 F
GS
[1 0 0 1 0 0] CT
-14 3.5 moveto 
1 -1 scale
(0.2) t 
GR
GR
GS
0.149 GC
1 setlinecap
1 LJ
0.5 LW
N
73 250.145 M
64.078 247.462 L
S
GR
GS
[1 0 0 1 60.24782 208.09555] CT
0.149 GC
/Helvetica 10 F
GS
[1 0 0 1 0 0] CT
-20 3.5 moveto 
1 -1 scale
(0.22) t 
GR
GR
GS
0.149 GC
1 setlinecap
1 LJ
0.5 LW
N
73 231.038 M
64.078 228.355 L
S
GR
GS
[1 0 0 1 60.24782 188.98853] CT
0.149 GC
/Helvetica 10 F
GS
[1 0 0 1 0 0] CT
-20 3.5 moveto 
1 -1 scale
(0.24) t 
GR
GR
GS
0.149 GC
1 setlinecap
1 LJ
0.5 LW
N
73 211.931 M
64.078 209.248 L
S
GR
GS
[1 0 0 1 60.24782 169.88152] CT
0.149 GC
/Helvetica 10 F
GS
[1 0 0 1 0 0] CT
-20 3.5 moveto 
1 -1 scale
(0.26) t 
GR
GR
GS
0.149 GC
2 setlinecap
1 LJ
0.5 LW
N
73 283.384 M
73 139.783 L
S
GR
GS
0.149 GC
2 setlinecap
1 LJ
0.5 LW
N
136.2 302.392 M
73 283.384 L
S
GR
GS
0.149 GC
1 setlinecap
1 LJ
0.5 LW
N
73 192.824 M
64.078 190.141 L
S
GR
GS
[1 0 0 1 60.24782 150.77448] CT
0.149 GC
/Helvetica 10 F
GS
[1 0 0 1 0 0] CT
-20 3.5 moveto 
1 -1 scale
(0.28) t 
GR
GR
GS
[1 0 0 1 270.21625 315.41476] CT
0.149 GC
/Helvetica 11 F
GS
[1 0 0 1 0 0] CT
0 11 moveto 
1 -1 scale
(x/m) t 
GR
GR
GS
0.149 GC
1 setlinecap
1 LJ
0.5 LW
N
73 173.717 M
64.078 171.034 L
S
GR
GS
[1 0 0 1 240.43118 222.8322] CT
1 0 1 RC
10.0 ML
N
-4 -4 M
-4 4 L
4 4 L
4 -4 L
cp
S
GR
GS
[1 0 0 1 366.46609 284.42038] CT
0.149 GC
/Helvetica 10 F
GS
[1 0 0 1 0 0] CT
0 10 moveto 
1 -1 scale
(0.45) t 
GR
GR
GS
0.149 GC
2 setlinecap
1 LJ
0.5 LW
N
73 154.61 M
64.078 151.927 L
S
GR
GS
0.149 GC
1 setlinecap
1 LJ
0.5 LW
N
311.708 284.796 M
320.63 287.48 L
S
GR
GS
[0 -1 1 0 36.68353 211.58316] CT
0.149 GC
/Helvetica 11 F
GS
[1 0 0 1 0 0] CT
-9.5 -3 moveto 
1 -1 scale
(y/m) t 
GR
GR
GS
[1 0 0 1 227.14804 215.5862] CT
0 1 0 RC
10.0 ML
N
-4 -4 M
-4 4 L
4 4 L
4 -4 L
cp
S
GR
GS
0.149 GC
2 setlinecap
1 LJ
0.5 LW
N
85.077 287.016 M
75.807 287.945 L
S
GR
GS
[1 0 0 1 214.79945 207.87599] CT
10.0 ML
N
-4 -4 M
-4 4 L
4 4 L
4 -4 L
cp
S
GR
GS
[1 0 0 1 71.82658 288.34427] CT
0.149 GC
/Helvetica 10 F
GS
[1 0 0 1 0 0] CT
-20 10 moveto 
1 -1 scale
(0.15) t 
GR
GR
GS
[1 0 0 1 204.08882 200.02824] CT
1 0 0 RC
10.0 ML
N
-4 -4 M
-4 4 L
4 4 L
4 -4 L
cp
S
GR
GS
[1 0 0 1 324.46002 288.63174] CT
0.149 GC
/Helvetica 10 F
GS
[1 0 0 1 0 0] CT
0 10 moveto 
1 -1 scale
(0.4) t 
GR
GR
GS
0.149 GC
1 setlinecap
1 LJ
0.5 LW
N
269.702 289.008 M
278.623 291.691 L
S
GR
GS
[1 0 0 1 195.26044 192.18433] CT
0 0 1 RC
10.0 ML
N
-4 -4 M
-4 4 L
4 4 L
4 -4 L
cp
S
GR
GS
[1 0 0 1 204.99713 206.02792] CT
1 0 1 RC
10.0 ML
N
4.5 -0.5 M
4.5 -3.261 2.261 -5.5 -0.5 -5.5 C
-3.261 -5.5 -5.5 -3.261 -5.5 -0.5 C
-5.5 2.261 -3.261 4.5 -0.5 4.5 C
2.261 4.5 4.5 2.261 4.5 -0.5 C
S
GR
GS
[1 0 0 1 282.45392 292.84311] CT
0.149 GC
/Helvetica 10 F
GS
[1 0 0 1 0 0] CT
0 10 moveto 
1 -1 scale
(0.35) t 
GR
GR
GS
[1 0 0 1 79.0833 319.95639] CT
0.149 GC
/Helvetica 11 F
GS
[1 0 0 1 0 0] CT
-19 11 moveto 
1 -1 scale
(z/m) t 
GR
GR
GS
0.149 GC
10.0 ML
0.5 LW
N
227.696 293.219 M
236.617 295.902 L
S
GR
GS
[1 0 0 1 194.63367 197.56253] CT
0 1 0 RC
10.0 ML
N
4.5 -0.5 M
4.5 -3.261 2.261 -5.5 -0.5 -5.5 C
-3.261 -5.5 -5.5 -3.261 -5.5 -0.5 C
-5.5 2.261 -3.261 4.5 -0.5 4.5 C
2.261 4.5 4.5 2.261 4.5 -0.5 C
S
GR
GS
0.149 GC
10.0 ML
0.5 LW
N
109.329 294.31 M
100.059 295.24 L
S
GR
GS
[1 0 0 1 185.44266 188.60373] CT
10.0 ML
N
4.5 -0.5 M
4.5 -3.261 2.261 -5.5 -0.5 -5.5 C
-3.261 -5.5 -5.5 -3.261 -5.5 -0.5 C
-5.5 2.261 -3.261 4.5 -0.5 4.5 C
2.261 4.5 4.5 2.261 4.5 -0.5 C
S
GR
GS
[1 0 0 1 96.0788 295.63855] CT
0.149 GC
/Helvetica 10 F
GS
[1 0 0 1 0 0] CT
-14 10 moveto 
1 -1 scale
(0.1) t 
GR
GR
GS
[1 0 0 1 177.58626 179.45427] CT
1 0 0 RC
10.0 ML
N
4.5 -0.5 M
4.5 -3.261 2.261 -5.5 -0.5 -5.5 C
-3.261 -5.5 -5.5 -3.261 -5.5 -0.5 C
-5.5 2.261 -3.261 4.5 -0.5 4.5 C
2.261 4.5 4.5 2.261 4.5 -0.5 C
S
GR
GS
[1 0 0 1 171.14212 170.51221] CT
0 0 1 RC
10.0 ML
N
4.5 -0.5 M
4.5 -3.261 2.261 -5.5 -0.5 -5.5 C
-3.261 -5.5 -5.5 -3.261 -5.5 -0.5 C
-5.5 2.261 -3.261 4.5 -0.5 4.5 C
2.261 4.5 4.5 2.261 4.5 -0.5 C
S
GR
GS
[1 0 0 1 240.44786 297.05444] CT
0.149 GC
/Helvetica 10 F
GS
[1 0 0 1 0 0] CT
0 10 moveto 
1 -1 scale
(0.3) t 
GR
GR
GS
0.149 GC
10.0 ML
0.5 LW
N
185.69 297.43 M
194.611 300.114 L
S
GR
GS
[1 0 0 1 198.44176 301.26581] CT
0.149 GC
/Helvetica 10 F
GS
[1 0 0 1 0 0] CT
0 10 moveto 
1 -1 scale
(0.25) t 
GR
GR
GS
0.149 GC
2 setlinecap
1 LJ
0.5 LW
N
133.581 301.604 M
124.311 302.534 L
S
GR
GS
0.149 GC
2 setlinecap
1 LJ
0.5 LW
N
143.684 301.642 M
152.605 304.325 L
S
GR
GS
[1 0 0 1 120.33102 302.93283] CT
0.149 GC
/Helvetica 10 F
GS
[1 0 0 1 0 0] CT
-20 10 moveto 
1 -1 scale
(0.05) t 
GR
GR
GS
[1 0 0 1 158.66371 198.82393] CT
1 0 1 RC
10.0 ML
N
-5 0 M
0 6.65 L
5 0 L
0 -6.65 L
cp
S
GR
GS
[1 0 0 1 151.252 188.69818] CT
0 1 0 RC
10.0 ML
N
-5 0 M
0 6.65 L
5 0 L
0 -6.65 L
cp
S
GR
GS
[1 0 0 1 145.024 178.43037] CT
10.0 ML
N
-5 0 M
0 6.65 L
5 0 L
0 -6.65 L
cp
S
GR
GS
[1 0 0 1 156.43568 305.47717] CT
0.149 GC
/Helvetica 10 F
GS
[1 0 0 1 0 0] CT
0 10 moveto 
1 -1 scale
(0.2) t 
GR
GR
GS
[1 0 0 1 139.97903 168.30382] CT
1 0 0 RC
10.0 ML
N
-5 0 M
0 6.65 L
5 0 L
0 -6.65 L
cp
S
GR
GS
[1 0 0 1 136.01382 158.73537] CT
0 0 1 RC
10.0 ML
N
-5 0 M
0 6.65 L
5 0 L
0 -6.65 L
cp
S
GR
%%Trailer
%%Pages: 1
%%EOF
