%!PS-Adobe-3.0 EPSF-3.0
%%Title: /home/yin/020000_error_thin_3methods.eps
%%Creator: matplotlib version 3.1.1, http://matplotlib.org/
%%CreationDate: Fri May  8 00:24:56 2020
%%Orientation: portrait
%%BoundingBox: -95.09374999999993 98.46843750000004 707.09375 693.5315625
%%EndComments
%%BeginProlog
/mpldict 9 dict def
mpldict begin
/m { moveto } bind def
/l { lineto } bind def
/r { rlineto } bind def
/c { curveto } bind def
/cl { closepath } bind def
/box {
m
1 index 0 r
0 exch r
neg 0 r
cl
} bind def
/clipbox {
box
clip
newpath
} bind def
%!PS-Adobe-3.0 Resource-Font
%%Title: DejaVu Sans
%%Copyright: Copyright (c) 2003 by Bitstream, Inc. All Rights Reserved. Copyright (c) 2006 by Tavmjong Bah. All Rights Reserved. DejaVu changes are in public domain 
%%Creator: Converted from TrueType to type 3 by PPR
25 dict begin
/_d{bind def}bind def
/_m{moveto}_d
/_l{lineto}_d
/_cl{closepath eofill}_d
/_c{curveto}_d
/_sc{7 -1 roll{setcachedevice}{pop pop pop pop pop pop}ifelse}_d
/_e{exec}_d
/FontName /DejaVuSans def
/PaintType 0 def
/FontMatrix[.001 0 0 .001 0 0]def
/FontBBox[-1021 -463 1793 1232]def
/FontType 3 def
/Encoding [ /space /parenleft /parenright /comma /hyphen /period /zero /one /two /three /four /five /B /D /E /M /O /S /T /a /c /d /e /f /h /i /l /n /o /p /r /s /t /u /v /x ] def
/FontInfo 10 dict dup begin
/FamilyName (DejaVu Sans) def
/FullName (DejaVu Sans) def
/Notice (Copyright (c) 2003 by Bitstream, Inc. All Rights Reserved. Copyright (c) 2006 by Tavmjong Bah. All Rights Reserved. DejaVu changes are in public domain ) def
/Weight (Book) def
/Version (Version 2.35) def
/ItalicAngle 0.0 def
/isFixedPitch false def
/UnderlinePosition -130 def
/UnderlineThickness 90 def
end readonly def
/CharStrings 37 dict dup begin
/.notdef 0 def
/space{318 0 0 0 0 0 _sc
}_d
/parenleft{390 0 86 -131 310 759 _sc
310 759 _m
266 683 234 609 213 536 _c
191 463 181 389 181 314 _c
181 238 191 164 213 91 _c
234 17 266 -56 310 -131 _c
232 -131 _l
183 -54 146 20 122 94 _c
98 168 86 241 86 314 _c
86 386 98 459 122 533 _c
146 607 182 682 232 759 _c
310 759 _l
_cl}_d
/parenright{390 0 80 -131 304 759 _sc
80 759 _m
158 759 _l
206 682 243 607 267 533 _c
291 459 304 386 304 314 _c
304 241 291 168 267 94 _c
243 20 206 -54 158 -131 _c
80 -131 _l
123 -56 155 17 177 91 _c
198 164 209 238 209 314 _c
209 389 198 463 177 536 _c
155 609 123 683 80 759 _c
_cl}_d
/comma{318 0 77 -115 220 124 _sc
117 124 _m
220 124 _l
220 40 _l
140 -115 _l
77 -115 _l
117 40 _l
117 124 _l
_cl}_d
/hyphen{361 0 49 234 312 314 _sc
49 314 _m
312 314 _l
312 234 _l
49 234 _l
49 314 _l
_cl}_d
/period{318 0 107 0 210 124 _sc
107 124 _m
210 124 _l
210 0 _l
107 0 _l
107 124 _l
_cl}_d
/zero{636 0 66 -13 570 742 _sc
318 664 _m
267 664 229 639 203 589 _c
177 539 165 464 165 364 _c
165 264 177 189 203 139 _c
229 89 267 64 318 64 _c
369 64 407 89 433 139 _c
458 189 471 264 471 364 _c
471 464 458 539 433 589 _c
407 639 369 664 318 664 _c
318 742 _m
399 742 461 709 505 645 _c
548 580 570 486 570 364 _c
570 241 548 147 505 83 _c
461 19 399 -13 318 -13 _c
236 -13 173 19 130 83 _c
87 147 66 241 66 364 _c
66 486 87 580 130 645 _c
173 709 236 742 318 742 _c
_cl}_d
/one{636 0 110 0 544 729 _sc
124 83 _m
285 83 _l
285 639 _l
110 604 _l
110 694 _l
284 729 _l
383 729 _l
383 83 _l
544 83 _l
544 0 _l
124 0 _l
124 83 _l
_cl}_d
/two{{636 0 73 0 536 742 _sc
192 83 _m
536 83 _l
536 0 _l
73 0 _l
73 83 _l
110 121 161 173 226 239 _c
290 304 331 346 348 365 _c
380 400 402 430 414 455 _c
426 479 433 504 433 528 _c
433 566 419 598 392 622 _c
365 646 330 659 286 659 _c
255 659 222 653 188 643 _c
154 632 117 616 78 594 _c
78 694 _l
118 710 155 722 189 730 _c
223 738 255 742 284 742 _c
}_e{359 742 419 723 464 685 _c
509 647 532 597 532 534 _c
532 504 526 475 515 449 _c
504 422 484 390 454 354 _c
446 344 420 317 376 272 _c
332 227 271 164 192 83 _c
_cl}_e}_d
/three{{636 0 76 -13 556 742 _sc
406 393 _m
453 383 490 362 516 330 _c
542 298 556 258 556 212 _c
556 140 531 84 482 45 _c
432 6 362 -13 271 -13 _c
240 -13 208 -10 176 -4 _c
144 1 110 10 76 22 _c
76 117 _l
103 101 133 89 166 81 _c
198 73 232 69 268 69 _c
330 69 377 81 409 105 _c
441 129 458 165 458 212 _c
458 254 443 288 413 312 _c
383 336 341 349 287 349 _c
}_e{202 349 _l
202 430 _l
291 430 _l
339 430 376 439 402 459 _c
428 478 441 506 441 543 _c
441 580 427 609 401 629 _c
374 649 336 659 287 659 _c
260 659 231 656 200 650 _c
169 644 135 635 98 623 _c
98 711 _l
135 721 170 729 203 734 _c
235 739 266 742 296 742 _c
370 742 429 725 473 691 _c
517 657 539 611 539 553 _c
539 513 527 479 504 451 _c
481 423 448 403 406 393 _c
_cl}_e}_d
/four{636 0 49 0 580 729 _sc
378 643 _m
129 254 _l
378 254 _l
378 643 _l
352 729 _m
476 729 _l
476 254 _l
580 254 _l
580 172 _l
476 172 _l
476 0 _l
378 0 _l
378 172 _l
49 172 _l
49 267 _l
352 729 _l
_cl}_d
/five{{636 0 77 -13 549 729 _sc
108 729 _m
495 729 _l
495 646 _l
198 646 _l
198 467 _l
212 472 227 476 241 478 _c
255 480 270 482 284 482 _c
365 482 429 459 477 415 _c
525 370 549 310 549 234 _c
549 155 524 94 475 51 _c
426 8 357 -13 269 -13 _c
238 -13 207 -10 175 -6 _c
143 -1 111 6 77 17 _c
77 116 _l
106 100 136 88 168 80 _c
199 72 232 69 267 69 _c
}_e{323 69 368 83 401 113 _c
433 143 450 183 450 234 _c
450 284 433 324 401 354 _c
368 384 323 399 267 399 _c
241 399 214 396 188 390 _c
162 384 135 375 108 363 _c
108 729 _l
_cl}_e}_d
/B{{686 0 98 0 615 729 _sc
197 348 _m
197 81 _l
355 81 _l
408 81 447 92 473 114 _c
498 136 511 169 511 215 _c
511 260 498 293 473 315 _c
447 337 408 348 355 348 _c
197 348 _l
197 648 _m
197 428 _l
343 428 _l
391 428 426 437 450 455 _c
474 473 486 500 486 538 _c
486 574 474 602 450 620 _c
426 638 391 648 343 648 _c
197 648 _l
98 729 _m
350 729 _l
}_e{425 729 483 713 524 682 _c
564 650 585 606 585 549 _c
585 504 574 468 553 442 _c
532 416 502 399 462 393 _c
510 382 548 360 575 327 _c
601 294 615 253 615 204 _c
615 138 592 88 548 53 _c
504 17 441 0 360 0 _c
98 0 _l
98 729 _l
_cl}_e}_d
/D{770 0 98 0 711 729 _sc
197 648 _m
197 81 _l
316 81 _l
416 81 490 103 537 149 _c
583 195 607 267 607 365 _c
607 463 583 534 537 580 _c
490 625 416 648 316 648 _c
197 648 _l
98 729 _m
301 729 _l
442 729 546 699 612 641 _c
678 582 711 490 711 365 _c
711 239 677 147 611 88 _c
545 29 441 0 301 0 _c
98 0 _l
98 729 _l
_cl}_d
/E{632 0 98 0 568 729 _sc
98 729 _m
559 729 _l
559 646 _l
197 646 _l
197 430 _l
544 430 _l
544 347 _l
197 347 _l
197 83 _l
568 83 _l
568 0 _l
98 0 _l
98 729 _l
_cl}_d
/M{863 0 98 0 765 729 _sc
98 729 _m
245 729 _l
431 233 _l
618 729 _l
765 729 _l
765 0 _l
669 0 _l
669 640 _l
481 140 _l
382 140 _l
194 640 _l
194 0 _l
98 0 _l
98 729 _l
_cl}_d
/O{787 0 56 -13 731 742 _sc
394 662 _m
322 662 265 635 223 582 _c
181 528 160 456 160 364 _c
160 272 181 199 223 146 _c
265 92 322 66 394 66 _c
465 66 522 92 564 146 _c
606 199 627 272 627 364 _c
627 456 606 528 564 582 _c
522 635 465 662 394 662 _c
394 742 _m
496 742 577 707 639 639 _c
700 571 731 479 731 364 _c
731 248 700 157 639 89 _c
577 21 496 -13 394 -13 _c
291 -13 209 21 148 89 _c
86 157 56 248 56 364 _c
56 479 86 571 148 639 _c
209 707 291 742 394 742 _c
_cl}_d
/S{{635 0 66 -13 579 742 _sc
535 705 _m
535 609 _l
497 627 462 640 429 649 _c
395 657 363 662 333 662 _c
279 662 237 651 208 631 _c
179 610 165 580 165 542 _c
165 510 174 485 194 469 _c
213 452 250 439 304 429 _c
364 417 _l
437 403 491 378 526 343 _c
561 307 579 260 579 201 _c
579 130 555 77 508 41 _c
460 5 391 -13 300 -13 _c
265 -13 228 -9 189 -2 _c
}_e{150 5 110 16 69 32 _c
69 134 _l
109 111 148 94 186 83 _c
224 71 262 66 300 66 _c
356 66 399 77 430 99 _c
460 121 476 152 476 194 _c
476 230 465 258 443 278 _c
421 298 385 313 335 323 _c
275 335 _l
201 349 148 372 115 404 _c
82 435 66 478 66 534 _c
66 598 88 649 134 686 _c
179 723 242 742 322 742 _c
356 742 390 739 426 733 _c
461 727 497 717 535 705 _c
}_e{_cl}_e}_d
/T{611 0 -2 0 614 729 _sc
-2 729 _m
614 729 _l
614 646 _l
355 646 _l
355 0 _l
256 0 _l
256 646 _l
-2 646 _l
-2 729 _l
_cl}_d
/a{{613 0 60 -13 522 560 _sc
343 275 _m
270 275 220 266 192 250 _c
164 233 150 205 150 165 _c
150 133 160 107 181 89 _c
202 70 231 61 267 61 _c
317 61 357 78 387 114 _c
417 149 432 196 432 255 _c
432 275 _l
343 275 _l
522 312 _m
522 0 _l
432 0 _l
432 83 _l
411 49 385 25 355 10 _c
325 -5 287 -13 243 -13 _c
187 -13 142 2 109 33 _c
76 64 60 106 60 159 _c
}_e{60 220 80 266 122 298 _c
163 329 224 345 306 345 _c
432 345 _l
432 354 _l
432 395 418 427 391 450 _c
364 472 326 484 277 484 _c
245 484 215 480 185 472 _c
155 464 127 453 100 439 _c
100 522 _l
132 534 164 544 195 550 _c
226 556 256 560 286 560 _c
365 560 424 539 463 498 _c
502 457 522 395 522 312 _c
_cl}_e}_d
/c{{550 0 55 -13 488 560 _sc
488 526 _m
488 442 _l
462 456 437 466 411 473 _c
385 480 360 484 334 484 _c
276 484 230 465 198 428 _c
166 391 150 339 150 273 _c
150 206 166 154 198 117 _c
230 80 276 62 334 62 _c
360 62 385 65 411 72 _c
437 79 462 90 488 104 _c
488 21 _l
462 9 436 0 410 -5 _c
383 -10 354 -13 324 -13 _c
242 -13 176 12 128 64 _c
}_e{79 115 55 185 55 273 _c
55 362 79 432 128 483 _c
177 534 244 560 330 560 _c
358 560 385 557 411 551 _c
437 545 463 537 488 526 _c
_cl}_e}_d
/d{{635 0 55 -13 544 760 _sc
454 464 _m
454 760 _l
544 760 _l
544 0 _l
454 0 _l
454 82 _l
435 49 411 25 382 10 _c
353 -5 319 -13 279 -13 _c
213 -13 159 13 117 65 _c
75 117 55 187 55 273 _c
55 359 75 428 117 481 _c
159 533 213 560 279 560 _c
319 560 353 552 382 536 _c
411 520 435 496 454 464 _c
148 273 _m
148 207 161 155 188 117 _c
215 79 253 61 301 61 _c
}_e{348 61 385 79 413 117 _c
440 155 454 207 454 273 _c
454 339 440 390 413 428 _c
385 466 348 485 301 485 _c
253 485 215 466 188 428 _c
161 390 148 339 148 273 _c
_cl}_e}_d
/e{{615 0 55 -13 562 560 _sc
562 296 _m
562 252 _l
149 252 _l
153 190 171 142 205 110 _c
238 78 284 62 344 62 _c
378 62 412 66 444 74 _c
476 82 509 95 541 113 _c
541 28 _l
509 14 476 3 442 -3 _c
408 -9 373 -13 339 -13 _c
251 -13 182 12 131 62 _c
80 112 55 181 55 268 _c
55 357 79 428 127 481 _c
175 533 241 560 323 560 _c
397 560 455 536 498 489 _c
}_e{540 441 562 377 562 296 _c
472 322 _m
471 371 457 410 431 440 _c
404 469 368 484 324 484 _c
274 484 234 469 204 441 _c
174 413 156 373 152 322 _c
472 322 _l
_cl}_e}_d
/f{352 0 23 0 371 760 _sc
371 760 _m
371 685 _l
285 685 _l
253 685 230 678 218 665 _c
205 652 199 629 199 595 _c
199 547 _l
347 547 _l
347 477 _l
199 477 _l
199 0 _l
109 0 _l
109 477 _l
23 477 _l
23 547 _l
109 547 _l
109 585 _l
109 645 123 690 151 718 _c
179 746 224 760 286 760 _c
371 760 _l
_cl}_d
/h{634 0 91 0 549 760 _sc
549 330 _m
549 0 _l
459 0 _l
459 327 _l
459 379 448 417 428 443 _c
408 469 378 482 338 482 _c
289 482 251 466 223 435 _c
195 404 181 362 181 309 _c
181 0 _l
91 0 _l
91 760 _l
181 760 _l
181 462 _l
202 494 227 519 257 535 _c
286 551 320 560 358 560 _c
420 560 468 540 500 501 _c
532 462 549 405 549 330 _c
_cl}_d
/i{278 0 94 0 184 760 _sc
94 547 _m
184 547 _l
184 0 _l
94 0 _l
94 547 _l
94 760 _m
184 760 _l
184 646 _l
94 646 _l
94 760 _l
_cl}_d
/l{278 0 94 0 184 760 _sc
94 760 _m
184 760 _l
184 0 _l
94 0 _l
94 760 _l
_cl}_d
/n{634 0 91 0 549 560 _sc
549 330 _m
549 0 _l
459 0 _l
459 327 _l
459 379 448 417 428 443 _c
408 469 378 482 338 482 _c
289 482 251 466 223 435 _c
195 404 181 362 181 309 _c
181 0 _l
91 0 _l
91 547 _l
181 547 _l
181 462 _l
202 494 227 519 257 535 _c
286 551 320 560 358 560 _c
420 560 468 540 500 501 _c
532 462 549 405 549 330 _c
_cl}_d
/o{612 0 55 -13 557 560 _sc
306 484 _m
258 484 220 465 192 427 _c
164 389 150 338 150 273 _c
150 207 163 156 191 118 _c
219 80 257 62 306 62 _c
354 62 392 80 420 118 _c
448 156 462 207 462 273 _c
462 337 448 389 420 427 _c
392 465 354 484 306 484 _c
306 560 _m
384 560 445 534 490 484 _c
534 433 557 363 557 273 _c
557 183 534 113 490 63 _c
445 12 384 -13 306 -13 _c
227 -13 165 12 121 63 _c
77 113 55 183 55 273 _c
55 363 77 433 121 484 _c
165 534 227 560 306 560 _c
_cl}_d
/p{{635 0 91 -207 580 560 _sc
181 82 _m
181 -207 _l
91 -207 _l
91 547 _l
181 547 _l
181 464 _l
199 496 223 520 252 536 _c
281 552 316 560 356 560 _c
422 560 476 533 518 481 _c
559 428 580 359 580 273 _c
580 187 559 117 518 65 _c
476 13 422 -13 356 -13 _c
316 -13 281 -5 252 10 _c
223 25 199 49 181 82 _c
487 273 _m
487 339 473 390 446 428 _c
418 466 381 485 334 485 _c
}_e{286 485 249 466 222 428 _c
194 390 181 339 181 273 _c
181 207 194 155 222 117 _c
249 79 286 61 334 61 _c
381 61 418 79 446 117 _c
473 155 487 207 487 273 _c
_cl}_e}_d
/r{411 0 91 0 411 560 _sc
411 463 _m
401 469 390 473 378 476 _c
366 478 353 480 339 480 _c
288 480 249 463 222 430 _c
194 397 181 350 181 288 _c
181 0 _l
91 0 _l
91 547 _l
181 547 _l
181 462 _l
199 495 224 520 254 536 _c
284 552 321 560 365 560 _c
371 560 378 559 386 559 _c
393 558 401 557 411 555 _c
411 463 _l
_cl}_d
/s{{521 0 54 -13 472 560 _sc
443 531 _m
443 446 _l
417 458 391 468 364 475 _c
336 481 308 485 279 485 _c
234 485 200 478 178 464 _c
156 450 145 430 145 403 _c
145 382 153 366 169 354 _c
185 342 217 330 265 320 _c
296 313 _l
360 299 405 279 432 255 _c
458 230 472 195 472 151 _c
472 100 452 60 412 31 _c
372 1 316 -13 246 -13 _c
216 -13 186 -10 154 -5 _c
}_e{122 0 89 8 54 20 _c
54 113 _l
87 95 120 82 152 74 _c
184 65 216 61 248 61 _c
290 61 323 68 346 82 _c
368 96 380 117 380 144 _c
380 168 371 187 355 200 _c
339 213 303 226 247 238 _c
216 245 _l
160 257 119 275 95 299 _c
70 323 58 356 58 399 _c
58 450 76 490 112 518 _c
148 546 200 560 268 560 _c
301 560 332 557 362 552 _c
391 547 418 540 443 531 _c
}_e{_cl}_e}_d
/t{392 0 27 0 368 702 _sc
183 702 _m
183 547 _l
368 547 _l
368 477 _l
183 477 _l
183 180 _l
183 135 189 106 201 94 _c
213 81 238 75 276 75 _c
368 75 _l
368 0 _l
276 0 _l
206 0 158 13 132 39 _c
106 65 93 112 93 180 _c
93 477 _l
27 477 _l
27 547 _l
93 547 _l
93 702 _l
183 702 _l
_cl}_d
/u{634 0 85 -13 543 560 _sc
85 216 _m
85 547 _l
175 547 _l
175 219 _l
175 167 185 129 205 103 _c
225 77 255 64 296 64 _c
344 64 383 79 411 110 _c
439 141 453 183 453 237 _c
453 547 _l
543 547 _l
543 0 _l
453 0 _l
453 84 _l
431 50 405 26 377 10 _c
348 -5 315 -13 277 -13 _c
214 -13 166 6 134 45 _c
101 83 85 140 85 216 _c
311 560 _m
311 560 _l
_cl}_d
/v{592 0 30 0 562 547 _sc
30 547 _m
125 547 _l
296 88 _l
467 547 _l
562 547 _l
357 0 _l
235 0 _l
30 547 _l
_cl}_d
/x{592 0 29 0 559 547 _sc
549 547 _m
351 281 _l
559 0 _l
453 0 _l
294 215 _l
135 0 _l
29 0 _l
241 286 _l
47 547 _l
153 547 _l
298 352 _l
443 547 _l
549 547 _l
_cl}_d
end readonly def

/BuildGlyph
 {exch begin
 CharStrings exch
 2 copy known not{pop /.notdef}if
 true 3 1 roll get exec
 end}_d

/BuildChar {
 1 index /Encoding get exch get
 1 index /BuildGlyph get exec
}_d

FontName currentdict end definefont pop
%!PS-Adobe-3.0 Resource-Font
%%Title: DejaVu Sans Oblique
%%Copyright: Copyright (c) 2003 by Bitstream, Inc. All Rights Reserved. Copyright (c) 2006 by Tavmjong Bah. All Rights Reserved. DejaVu changes are in public domain 
%%Creator: Converted from TrueType to type 3 by PPR
25 dict begin
/_d{bind def}bind def
/_m{moveto}_d
/_l{lineto}_d
/_cl{closepath eofill}_d
/_c{curveto}_d
/_sc{7 -1 roll{setcachedevice}{pop pop pop pop pop pop}ifelse}_d
/_e{exec}_d
/FontName /DejaVuSans-Oblique def
/PaintType 0 def
/FontMatrix[.001 0 0 .001 0 0]def
/FontBBox[-1016 -350 1659 1068]def
/FontType 3 def
/Encoding [ /t /delta ] def
/FontInfo 10 dict dup begin
/FamilyName (DejaVu Sans) def
/FullName (DejaVu Sans Oblique) def
/Notice (Copyright (c) 2003 by Bitstream, Inc. All Rights Reserved. Copyright (c) 2006 by Tavmjong Bah. All Rights Reserved. DejaVu changes are in public domain ) def
/Weight (Oblique) def
/Version (Version 2.35) def
/ItalicAngle -11.0 def
/isFixedPitch false def
/UnderlinePosition -130 def
/UnderlineThickness 90 def
end readonly def
/CharStrings 3 dict dup begin
/.notdef 0 def
/t{{392 0 64 0 423 702 _sc
423 547 _m
409 477 _l
230 477 _l
172 180 _l
170 169 168 160 167 152 _c
166 144 166 139 166 135 _c
166 114 172 99 185 89 _c
197 79 217 75 245 75 _c
336 75 _l
321 0 _l
235 0 _l
181 0 141 10 115 31 _c
89 52 76 84 76 126 _c
76 133 76 141 77 150 _c
78 159 80 169 82 180 _c
140 477 _l
64 477 _l
78 547 _l
153 547 _l
183 702 _l
}_e{273 702 _l
243 547 _l
423 547 _l
_cl}_e}_d
/delta{{612 0 38 -13 557 742 _sc
542 633 _m
514 655 461 667 383 667 _c
300 667 255 648 248 610 _c
242 580 280 557 364 542 _c
428 530 476 505 508 469 _c
546 425 556 358 539 268 _c
521 182 486 113 432 63 _c
377 12 310 -13 232 -13 _c
154 -13 98 12 63 63 _c
28 113 20 183 38 273 _c
50 339 84 399 139 453 _c
160 473 184 490 211 502 _c
165 528 147 563 156 609 _c
}_e{173 697 253 742 397 742 _c
469 742 522 730 557 708 _c
542 633 _l
274 478 _m
250 468 226 451 204 428 _c
168 391 144 339 132 273 _c
119 207 123 155 144 118 _c
164 80 199 62 248 62 _c
295 62 336 81 372 119 _c
407 156 431 206 443 268 _c
455 332 450 380 427 412 _c
401 445 369 464 329 468 _c
308 470 290 473 274 478 _c
_cl}_e}_d
end readonly def

/BuildGlyph
 {exch begin
 CharStrings exch
 2 copy known not{pop /.notdef}if
 true 3 1 roll get exec
 end}_d

/BuildChar {
 1 index /Encoding get exch get
 1 index /BuildGlyph get exec
}_d

FontName currentdict end definefont pop
end
%%EndProlog
mpldict begin
-95.094 98.468 translate
802.187 595.063 0 0 clipbox
gsave
0 0 m
802.1875 0 l
802.1875 595.063125 l
0 595.063125 l
cl
1.000 setgray
fill
grestore
gsave
110.121875 64.66875 m
779.721875 64.66875 l
779.721875 563.62875 l
110.121875 563.62875 l
cl
1.000 setgray
fill
grestore
0.800 setlinewidth
1 setlinejoin
0 setlinecap
[] 0 setdash
0.000 setgray
gsave
/o {
gsave
newpath
translate
0.8 setlinewidth
1 setlinejoin
0 setlinecap
0 0 m
0 -3.5 l

gsave
0.000 setgray
fill
grestore
stroke
grestore
} bind def
110.122 64.6688 o
grestore
/DejaVuSans findfont
24.000 scalefont
setfont
gsave
102.489063 39.434375 translate
0.000000 rotate
0.000000 0.000000 m /five glyphshow
grestore
gsave
/o {
gsave
newpath
translate
0.8 setlinewidth
1 setlinejoin
0 setlinecap
0 0 m
0 -3.5 l

gsave
0.000 setgray
fill
grestore
stroke
grestore
} bind def
184.522 64.6688 o
grestore
gsave
169.256250 39.434375 translate
0.000000 rotate
0.000000 0.000000 m /one glyphshow
15.269531 0.000000 m /zero glyphshow
grestore
gsave
/o {
gsave
newpath
translate
0.8 setlinewidth
1 setlinejoin
0 setlinecap
0 0 m
0 -3.5 l

gsave
0.000 setgray
fill
grestore
stroke
grestore
} bind def
258.922 64.6688 o
grestore
gsave
243.656250 39.434375 translate
0.000000 rotate
0.000000 0.000000 m /one glyphshow
15.269531 0.000000 m /five glyphshow
grestore
gsave
/o {
gsave
newpath
translate
0.8 setlinewidth
1 setlinejoin
0 setlinecap
0 0 m
0 -3.5 l

gsave
0.000 setgray
fill
grestore
stroke
grestore
} bind def
333.322 64.6688 o
grestore
gsave
318.056250 39.434375 translate
0.000000 rotate
0.000000 0.000000 m /two glyphshow
15.269531 0.000000 m /zero glyphshow
grestore
gsave
/o {
gsave
newpath
translate
0.8 setlinewidth
1 setlinejoin
0 setlinecap
0 0 m
0 -3.5 l

gsave
0.000 setgray
fill
grestore
stroke
grestore
} bind def
407.722 64.6688 o
grestore
gsave
392.456250 39.434375 translate
0.000000 rotate
0.000000 0.000000 m /two glyphshow
15.269531 0.000000 m /five glyphshow
grestore
gsave
/o {
gsave
newpath
translate
0.8 setlinewidth
1 setlinejoin
0 setlinecap
0 0 m
0 -3.5 l

gsave
0.000 setgray
fill
grestore
stroke
grestore
} bind def
482.122 64.6688 o
grestore
gsave
466.856250 39.434375 translate
0.000000 rotate
0.000000 0.000000 m /three glyphshow
15.269531 0.000000 m /zero glyphshow
grestore
gsave
/o {
gsave
newpath
translate
0.8 setlinewidth
1 setlinejoin
0 setlinecap
0 0 m
0 -3.5 l

gsave
0.000 setgray
fill
grestore
stroke
grestore
} bind def
556.522 64.6688 o
grestore
gsave
541.256250 39.434375 translate
0.000000 rotate
0.000000 0.000000 m /three glyphshow
15.269531 0.000000 m /five glyphshow
grestore
gsave
/o {
gsave
newpath
translate
0.8 setlinewidth
1 setlinejoin
0 setlinecap
0 0 m
0 -3.5 l

gsave
0.000 setgray
fill
grestore
stroke
grestore
} bind def
630.922 64.6688 o
grestore
gsave
615.656250 39.434375 translate
0.000000 rotate
0.000000 0.000000 m /four glyphshow
15.269531 0.000000 m /zero glyphshow
grestore
gsave
/o {
gsave
newpath
translate
0.8 setlinewidth
1 setlinejoin
0 setlinecap
0 0 m
0 -3.5 l

gsave
0.000 setgray
fill
grestore
stroke
grestore
} bind def
705.322 64.6688 o
grestore
gsave
690.056250 39.434375 translate
0.000000 rotate
0.000000 0.000000 m /four glyphshow
15.269531 0.000000 m /five glyphshow
grestore
gsave
/o {
gsave
newpath
translate
0.8 setlinewidth
1 setlinejoin
0 setlinecap
0 0 m
0 -3.5 l

gsave
0.000 setgray
fill
grestore
stroke
grestore
} bind def
779.722 64.6688 o
grestore
gsave
764.456250 39.434375 translate
0.000000 rotate
0.000000 0.000000 m /five glyphshow
15.269531 0.000000 m /zero glyphshow
grestore
gsave
382.570312 12.200000 translate
0.000000 rotate
0.000000 0.000000 m /S glyphshow
15.234375 0.000000 m /n glyphshow
30.445312 0.000000 m /a glyphshow
45.152344 0.000000 m /p glyphshow
60.386719 0.000000 m /s glyphshow
72.890625 0.000000 m /h glyphshow
88.101562 0.000000 m /o glyphshow
102.785156 0.000000 m /t glyphshow
112.195312 0.000000 m /s glyphshow
grestore
gsave
/o {
gsave
newpath
translate
0.8 setlinewidth
1 setlinejoin
0 setlinecap
0 0 m
-3.5 0 l

gsave
0.000 setgray
fill
grestore
stroke
grestore
} bind def
110.122 93.029 o
grestore
gsave
34.434375 83.911813 translate
0.000000 rotate
0.000000 0.000000 m /zero glyphshow
15.269531 0.000000 m /period glyphshow
22.898438 0.000000 m /zero glyphshow
38.167969 0.000000 m /one glyphshow
53.437500 0.000000 m /five glyphshow
grestore
gsave
/o {
gsave
newpath
translate
0.8 setlinewidth
1 setlinejoin
0 setlinecap
0 0 m
-3.5 0 l

gsave
0.000 setgray
fill
grestore
stroke
grestore
} bind def
110.122 192.788 o
grestore
gsave
34.434375 183.670334 translate
0.000000 rotate
0.000000 0.000000 m /zero glyphshow
15.269531 0.000000 m /period glyphshow
22.898438 0.000000 m /zero glyphshow
38.167969 0.000000 m /two glyphshow
53.437500 0.000000 m /zero glyphshow
grestore
gsave
/o {
gsave
newpath
translate
0.8 setlinewidth
1 setlinejoin
0 setlinecap
0 0 m
-3.5 0 l

gsave
0.000 setgray
fill
grestore
stroke
grestore
} bind def
110.122 292.546 o
grestore
gsave
34.434375 283.428855 translate
0.000000 rotate
0.000000 0.000000 m /zero glyphshow
15.269531 0.000000 m /period glyphshow
22.898438 0.000000 m /zero glyphshow
38.167969 0.000000 m /two glyphshow
53.437500 0.000000 m /five glyphshow
grestore
gsave
/o {
gsave
newpath
translate
0.8 setlinewidth
1 setlinejoin
0 setlinecap
0 0 m
-3.5 0 l

gsave
0.000 setgray
fill
grestore
stroke
grestore
} bind def
110.122 392.305 o
grestore
gsave
34.434375 383.187376 translate
0.000000 rotate
0.000000 0.000000 m /zero glyphshow
15.269531 0.000000 m /period glyphshow
22.898438 0.000000 m /zero glyphshow
38.167969 0.000000 m /three glyphshow
53.437500 0.000000 m /zero glyphshow
grestore
gsave
/o {
gsave
newpath
translate
0.8 setlinewidth
1 setlinejoin
0 setlinecap
0 0 m
-3.5 0 l

gsave
0.000 setgray
fill
grestore
stroke
grestore
} bind def
110.122 492.063 o
grestore
gsave
34.434375 482.945897 translate
0.000000 rotate
0.000000 0.000000 m /zero glyphshow
15.269531 0.000000 m /period glyphshow
22.898438 0.000000 m /zero glyphshow
38.167969 0.000000 m /three glyphshow
53.437500 0.000000 m /five glyphshow
grestore
gsave
25.434375 250.265938 translate
90.000000 rotate
0.000000 0.000000 m /E glyphshow
15.164062 0.000000 m /r glyphshow
25.031250 0.000000 m /r glyphshow
34.898438 0.000000 m /o glyphshow
49.582031 0.000000 m /r glyphshow
59.449219 0.000000 m /s glyphshow
71.953125 0.000000 m /space glyphshow
79.582031 0.000000 m /parenleft glyphshow
88.945312 0.000000 m /p glyphshow
104.179688 0.000000 m /x glyphshow
118.382812 0.000000 m /parenright glyphshow
grestore
3.000 setlinewidth
2 setlinecap
1.000 0.000 0.000 setrgbcolor
gsave
669.6 499 110.1 64.67 clipbox
110.121875 374.016831 m
125.001875 374.802928 l
139.881875 371.032056 l
154.761875 365.533367 l
169.641875 356.090225 l
184.521875 358.95529 l
199.401875 362.734143 l
214.281875 357.472878 l
229.161875 357.859941 l
244.041875 361.163943 l
258.921875 352.87401 l
273.801875 356.894279 l
288.681875 358.470463 l
303.561875 356.726684 l
318.441875 357.568646 l
333.321875 358.512362 l
348.201875 363.426467 l
363.081875 358.290898 l
377.961875 359.30644 l
392.841875 371.349288 l
407.721875 371.802192 l
422.601875 367.420798 l
437.481875 370.650979 l
452.361875 369.723224 l
467.241875 372.857637 l
482.121875 381.624416 l
497.001875 372.841676 l
511.881875 374.950571 l
526.761875 381.217401 l
541.641875 387.151038 l
556.521875 375.469315 l
571.401875 386.486646 l
586.281875 378.721443 l
601.161875 384.962336 l
616.041875 384.210157 l
630.921875 386.612342 l
645.801875 394.25983 l
660.681875 396.691943 l
675.561875 392.220766 l
690.441875 389.45147 l
705.321875 395.710319 l
720.201875 397.081001 l
735.081875 385.965907 l
749.961875 385.568868 l
764.841875 386.452728 l
779.721875 388.952677 l
stroke
grestore
0.000 0.500 0.000 setrgbcolor
gsave
669.6 499 110.1 64.67 clipbox
110.121875 141.970531 m
125.001875 122.677233 l
139.881875 119.119844 l
154.761875 115.496614 l
169.641875 120.588289 l
184.521875 110.790007 l
199.401875 116.955084 l
214.281875 122.774996 l
229.161875 125.233046 l
244.041875 121.787387 l
258.921875 122.786967 l
273.801875 127.395811 l
288.681875 129.913716 l
303.561875 129.123628 l
318.441875 128.698657 l
333.321875 131.106828 l
348.201875 127.317999 l
363.081875 130.358639 l
377.961875 128.287652 l
392.841875 130.755678 l
407.721875 134.94354 l
422.601875 133.469109 l
437.481875 135.975043 l
452.361875 140.08709 l
467.241875 139.85565 l
482.121875 146.786872 l
497.001875 144.460503 l
511.881875 147.153983 l
526.761875 146.94449 l
541.641875 146.876655 l
556.521875 144.316851 l
571.401875 155.419974 l
586.281875 155.188535 l
601.161875 151.339851 l
616.041875 155.735211 l
630.921875 158.081532 l
645.801875 155.966651 l
660.681875 157.592715 l
675.561875 156.569193 l
690.441875 164.085 l
705.321875 164.43615 l
720.201875 167.083741 l
735.081875 166.796436 l
749.961875 163.422603 l
764.841875 161.040369 l
779.721875 162.740255 l
stroke
grestore
0.000 0.000 1.000 setrgbcolor
gsave
669.6 499 110.1 64.67 clipbox
110.121875 142.277787 m
125.001875 112.477921 l
139.881875 99.960222 l
154.761875 108.495561 l
169.641875 98.396009 l
184.521875 87.34875 l
199.401875 88.118886 l
214.281875 100.712401 l
229.161875 104.235872 l
244.041875 91.229356 l
258.921875 99.706836 l
273.801875 110.462799 l
288.681875 100.80817 l
303.561875 95.848176 l
318.441875 94.78076 l
333.321875 104.339621 l
348.201875 104.427409 l
363.081875 103.707152 l
377.961875 106.586183 l
392.841875 104.068278 l
407.721875 110.873804 l
422.601875 103.326075 l
437.481875 104.666829 l
452.361875 111.009476 l
467.241875 117.310224 l
482.121875 116.931142 l
497.001875 115.32503 l
511.881875 117.31621 l
526.761875 116.236823 l
541.641875 117.26234 l
556.521875 122.429832 l
571.401875 119.702434 l
586.281875 123.166049 l
601.161875 124.012002 l
616.041875 121.324507 l
630.921875 129.550595 l
645.801875 121.567918 l
660.681875 134.394869 l
675.561875 127.79684 l
690.441875 132.950365 l
705.321875 140.986912 l
720.201875 139.255104 l
735.081875 142.19798 l
749.961875 138.333335 l
764.841875 130.995098 l
779.721875 129.035841 l
stroke
grestore
1.000 0.000 0.000 setrgbcolor
gsave
669.6 499 110.1 64.67 clipbox
110.121875 415.472482 m
125.001875 434.841597 l
139.881875 449.673694 l
154.761875 435.063061 l
169.641875 440.041011 l
184.521875 439.795605 l
199.401875 452.147705 l
214.281875 453.544324 l
229.161875 458.023482 l
244.041875 456.706669 l
258.921875 460.529416 l
273.801875 460.236126 l
288.681875 457.815984 l
303.561875 452.205565 l
318.441875 468.955021 l
333.321875 474.497604 l
348.201875 471.071896 l
363.081875 467.819769 l
377.961875 472.540342 l
392.841875 476.139629 l
407.721875 493.465689 l
422.601875 496.141213 l
437.481875 504.064034 l
452.361875 498.39775 l
467.241875 485.598732 l
482.121875 483.643465 l
497.001875 484.840567 l
511.881875 517.507493 l
526.761875 490.19361 l
541.641875 507.425897 l
556.521875 505.049649 l
571.401875 500.119583 l
586.281875 521.948742 l
601.161875 510.480503 l
616.041875 520.725703 l
630.921875 512.365939 l
645.801875 511.45215 l
660.681875 519.867779 l
675.561875 506.498142 l
690.441875 532.074232 l
705.321875 522.938347 l
720.201875 540.94875 l
735.081875 535.238572 l
749.961875 518.277629 l
764.841875 523.012168 l
779.721875 494.513154 l
stroke
grestore
1.000 setlinewidth
0 setlinecap
gsave
669.6 499 110.1 64.67 clipbox
/o {
gsave
newpath
translate
1.0 setlinewidth
1 setlinejoin
0 setlinecap
0 -10 m
2.652031 -10 5.195799 -8.946337 7.071068 -7.071068 c
8.946337 -5.195799 10 -2.652031 10 0 c
10 2.652031 8.946337 5.195799 7.071068 7.071068 c
5.195799 8.946337 2.652031 10 0 10 c
-2.652031 10 -5.195799 8.946337 -7.071068 7.071068 c
-8.946337 5.195799 -10 2.652031 -10 0 c
-10 -2.652031 -8.946337 -5.195799 -7.071068 -7.071068 c
-5.195799 -8.946337 -2.652031 -10 0 -10 c
cl

gsave
grestore
stroke
grestore
} bind def
110.122 415.472 o
125.002 434.842 o
139.882 449.674 o
154.762 435.063 o
169.642 440.041 o
184.522 439.796 o
199.402 452.148 o
214.282 453.544 o
229.162 458.023 o
244.042 456.707 o
258.922 460.529 o
273.802 460.236 o
288.682 457.816 o
303.562 452.206 o
318.442 468.955 o
333.322 474.498 o
348.202 471.072 o
363.082 467.82 o
377.962 472.54 o
392.842 476.14 o
407.722 493.466 o
422.602 496.141 o
437.482 504.064 o
452.362 498.398 o
467.242 485.599 o
482.122 483.643 o
497.002 484.841 o
511.882 517.507 o
526.762 490.194 o
541.642 507.426 o
556.522 505.05 o
571.402 500.12 o
586.282 521.949 o
601.162 510.481 o
616.042 520.726 o
630.922 512.366 o
645.802 511.452 o
660.682 519.868 o
675.562 506.498 o
690.442 532.074 o
705.322 522.938 o
720.202 540.949 o
735.082 535.239 o
749.962 518.278 o
764.842 523.012 o
779.722 494.513 o
grestore
3.000 setlinewidth
2 setlinecap
0.000 0.500 0.000 setrgbcolor
gsave
669.6 499 110.1 64.67 clipbox
110.121875 248.372969 m
125.001875 209.608803 l
139.881875 197.779438 l
154.761875 195.101919 l
169.641875 192.588004 l
184.521875 197.300597 l
199.401875 201.019594 l
214.281875 216.881199 l
229.161875 222.57342 l
244.041875 215.067589 l
258.921875 219.859989 l
273.801875 225.963215 l
288.681875 237.774624 l
303.561875 246.178282 l
318.441875 250.655444 l
333.321875 248.412873 l
348.201875 259.446165 l
363.081875 262.468848 l
377.961875 276.728331 l
392.841875 278.009231 l
407.721875 297.875142 l
422.601875 297.334451 l
437.481875 295.043996 l
452.361875 296.534388 l
467.241875 281.333185 l
482.121875 292.663757 l
497.001875 299.708704 l
511.881875 312.992549 l
526.761875 308.840599 l
541.641875 312.641399 l
556.521875 324.434851 l
571.401875 315.029618 l
586.281875 312.771085 l
601.161875 323.999904 l
616.041875 337.054304 l
630.921875 334.905505 l
645.801875 330.294667 l
660.681875 322.908546 l
675.561875 318.590997 l
690.441875 337.341609 l
705.321875 342.592897 l
720.201875 361.503122 l
735.081875 355.842824 l
749.961875 337.700739 l
764.841875 332.208035 l
779.721875 303.58532 l
stroke
grestore
1.000 setlinewidth
0 setlinecap
gsave
669.6 499 110.1 64.67 clipbox
/o {
gsave
newpath
translate
1.0 setlinewidth
1 setlinejoin
0 setlinecap
0 -10 m
2.652031 -10 5.195799 -8.946337 7.071068 -7.071068 c
8.946337 -5.195799 10 -2.652031 10 0 c
10 2.652031 8.946337 5.195799 7.071068 7.071068 c
5.195799 8.946337 2.652031 10 0 10 c
-2.652031 10 -5.195799 8.946337 -7.071068 7.071068 c
-8.946337 5.195799 -10 2.652031 -10 0 c
-10 -2.652031 -8.946337 -5.195799 -7.071068 -7.071068 c
-5.195799 -8.946337 -2.652031 -10 0 -10 c
cl

gsave
grestore
stroke
grestore
} bind def
110.122 248.373 o
125.002 209.609 o
139.882 197.779 o
154.762 195.102 o
169.642 192.588 o
184.522 197.301 o
199.402 201.02 o
214.282 216.881 o
229.162 222.573 o
244.042 215.068 o
258.922 219.86 o
273.802 225.963 o
288.682 237.775 o
303.562 246.178 o
318.442 250.655 o
333.322 248.413 o
348.202 259.446 o
363.082 262.469 o
377.962 276.728 o
392.842 278.009 o
407.722 297.875 o
422.602 297.334 o
437.482 295.044 o
452.362 296.534 o
467.242 281.333 o
482.122 292.664 o
497.002 299.709 o
511.882 312.993 o
526.762 308.841 o
541.642 312.641 o
556.522 324.435 o
571.402 315.03 o
586.282 312.771 o
601.162 324 o
616.042 337.054 o
630.922 334.906 o
645.802 330.295 o
660.682 322.909 o
675.562 318.591 o
690.442 337.342 o
705.322 342.593 o
720.202 361.503 o
735.082 355.843 o
749.962 337.701 o
764.842 332.208 o
779.722 303.585 o
grestore
3.000 setlinewidth
2 setlinecap
0.000 0.000 1.000 setrgbcolor
gsave
669.6 499 110.1 64.67 clipbox
110.121875 229.668246 m
125.001875 257.157705 l
139.881875 201.374735 l
154.761875 241.465689 l
169.641875 214.309425 l
184.521875 210.74605 l
199.401875 200.187608 l
214.281875 209.27561 l
229.161875 215.618256 l
244.041875 215.438691 l
258.921875 224.937697 l
273.801875 230.482276 l
288.681875 226.940848 l
303.561875 235.737555 l
318.441875 219.869965 l
333.321875 230.131126 l
348.201875 235.659743 l
363.081875 232.068436 l
377.961875 240.41623 l
392.841875 257.129772 l
407.721875 254.328553 l
422.601875 253.12746 l
437.481875 256.936241 l
452.361875 257.492893 l
467.241875 254.693669 l
482.121875 243.70427 l
497.001875 253.769905 l
511.881875 255.290225 l
526.761875 241.760974 l
541.641875 240.681587 l
556.521875 249.420434 l
571.401875 266.00429 l
586.281875 256.357641 l
601.161875 261.511166 l
616.041875 280.487232 l
630.921875 270.04052 l
645.801875 264.216617 l
660.681875 264.015105 l
675.561875 273.717619 l
690.441875 284.395771 l
705.321875 288.845001 l
720.201875 303.413736 l
735.081875 302.41615 l
749.961875 300.604536 l
764.841875 297.543944 l
779.721875 292.75354 l
stroke
grestore
1.000 setlinewidth
0 setlinecap
gsave
669.6 499 110.1 64.67 clipbox
/o {
gsave
newpath
translate
1.0 setlinewidth
1 setlinejoin
0 setlinecap
0 -10 m
2.652031 -10 5.195799 -8.946337 7.071068 -7.071068 c
8.946337 -5.195799 10 -2.652031 10 0 c
10 2.652031 8.946337 5.195799 7.071068 7.071068 c
5.195799 8.946337 2.652031 10 0 10 c
-2.652031 10 -5.195799 8.946337 -7.071068 7.071068 c
-8.946337 5.195799 -10 2.652031 -10 0 c
-10 -2.652031 -8.946337 -5.195799 -7.071068 -7.071068 c
-5.195799 -8.946337 -2.652031 -10 0 -10 c
cl

gsave
grestore
stroke
grestore
} bind def
110.122 229.668 o
125.002 257.158 o
139.882 201.375 o
154.762 241.466 o
169.642 214.309 o
184.522 210.746 o
199.402 200.188 o
214.282 209.276 o
229.162 215.618 o
244.042 215.439 o
258.922 224.938 o
273.802 230.482 o
288.682 226.941 o
303.562 235.738 o
318.442 219.87 o
333.322 230.131 o
348.202 235.66 o
363.082 232.068 o
377.962 240.416 o
392.842 257.13 o
407.722 254.329 o
422.602 253.127 o
437.482 256.936 o
452.362 257.493 o
467.242 254.694 o
482.122 243.704 o
497.002 253.77 o
511.882 255.29 o
526.762 241.761 o
541.642 240.682 o
556.522 249.42 o
571.402 266.004 o
586.282 256.358 o
601.162 261.511 o
616.042 280.487 o
630.922 270.041 o
645.802 264.217 o
660.682 264.015 o
675.562 273.718 o
690.442 284.396 o
705.322 288.845 o
720.202 303.414 o
735.082 302.416 o
749.962 300.605 o
764.842 297.544 o
779.722 292.754 o
grestore
0.800 setlinewidth
0 setlinejoin
2 setlinecap
[] 0 setdash
0.000 setgray
gsave
110.121875 64.66875 m
110.121875 563.62875 l
stroke
grestore
gsave
779.721875 64.66875 m
779.721875 563.62875 l
stroke
grestore
gsave
110.121875 64.66875 m
779.721875 64.66875 l
stroke
grestore
gsave
110.121875 563.62875 m
779.721875 563.62875 l
stroke
grestore
gsave
208.984375 569.628750 translate
0.000000 rotate
0.000000 0.000000 m /M glyphshow
20.707031 0.000000 m /e glyphshow
35.472656 0.000000 m /a glyphshow
50.179688 0.000000 m /n glyphshow
65.390625 0.000000 m /space glyphshow
73.019531 0.000000 m /e glyphshow
87.785156 0.000000 m /r glyphshow
97.652344 0.000000 m /r glyphshow
107.519531 0.000000 m /o glyphshow
122.203125 0.000000 m /r glyphshow
132.070312 0.000000 m /space glyphshow
139.699219 0.000000 m /o glyphshow
154.382812 0.000000 m /f glyphshow
162.832031 0.000000 m /space glyphshow
170.460938 0.000000 m /d glyphshow
185.695312 0.000000 m /e glyphshow
200.460938 0.000000 m /t glyphshow
209.871094 0.000000 m /e glyphshow
224.636719 0.000000 m /c glyphshow
237.832031 0.000000 m /t glyphshow
247.242188 0.000000 m /e glyphshow
262.007812 0.000000 m /d glyphshow
277.242188 0.000000 m /space glyphshow
284.871094 0.000000 m /p glyphshow
300.105469 0.000000 m /a glyphshow
314.812500 0.000000 m /r glyphshow
324.679688 0.000000 m /t glyphshow
334.089844 0.000000 m /i glyphshow
340.757812 0.000000 m /c glyphshow
353.953125 0.000000 m /l glyphshow
360.621094 0.000000 m /e glyphshow
375.386719 0.000000 m /s glyphshow
387.890625 0.000000 m /space glyphshow
395.519531 0.000000 m /two glyphshow
410.789062 0.000000 m /zero glyphshow
426.058594 0.000000 m /zero glyphshow
441.328125 0.000000 m /zero glyphshow
456.597656 0.000000 m /zero glyphshow
grestore
1.000 setlinewidth
0 setlinecap
0.800 setgray
gsave
177.461875 419.535 m
367.461875 419.535 l
369.461875 419.535 370.461875 420.535 370.461875 422.535 c
370.461875 553.12875 l
370.461875 555.12875 369.461875 556.12875 367.461875 556.12875 c
177.461875 556.12875 l
175.461875 556.12875 174.461875 555.12875 174.461875 553.12875 c
174.461875 422.535 l
174.461875 420.535 175.461875 419.535 177.461875 419.535 c
cl
gsave
1.000 setgray
fill
grestore
stroke
grestore
3.000 setlinewidth
1 setlinejoin
2 setlinecap
[] 0 setdash
1.000 0.000 0.000 setrgbcolor
gsave
180.461875 543.988125 m
210.461875 543.988125 l
stroke
grestore
0.000 setgray
gsave
222.461875 538.738125 translate
0.000000 rotate
/DejaVuSans findfont
15.0 scalefont
setfont
0.000000 0.609375 moveto
/S glyphshow

9.521484 0.609375 moveto
/T glyphshow

18.684082 0.609375 moveto
/B glyphshow

28.974609 0.609375 moveto
/space glyphshow

33.742676 0.609375 moveto
/D glyphshow

45.292969 0.609375 moveto
/a glyphshow

54.484863 0.609375 moveto
/v glyphshow

63.361816 0.609375 moveto
/i glyphshow

67.529297 0.609375 moveto
/s glyphshow

75.344238 0.609375 moveto
/comma glyphshow

80.112305 0.609375 moveto
/space glyphshow

84.880371 0.609375 moveto
/three glyphshow

/DejaVuSans-Oblique findfont
15.0 scalefont
setfont
94.423828 0.609375 moveto
/delta glyphshow

103.601074 0.609375 moveto
/t glyphshow


grestore
0.000 0.500 0.000 setrgbcolor
gsave
180.461875 521.9725 m
210.461875 521.9725 l
stroke
grestore
0.000 setgray
gsave
222.461875 516.722500 translate
0.000000 rotate
/DejaVuSans findfont
15.0 scalefont
setfont
0.000000 0.609375 moveto
/S glyphshow

9.521484 0.609375 moveto
/T glyphshow

18.684082 0.609375 moveto
/B glyphshow

28.974609 0.609375 moveto
/space glyphshow

33.742676 0.609375 moveto
/i glyphshow

37.910156 0.609375 moveto
/n glyphshow

47.416992 0.609375 moveto
/hyphen glyphshow

52.829590 0.609375 moveto
/h glyphshow

62.336426 0.609375 moveto
/o glyphshow

71.513672 0.609375 moveto
/u glyphshow

81.020508 0.609375 moveto
/s glyphshow

88.835449 0.609375 moveto
/e glyphshow

98.063965 0.609375 moveto
/comma glyphshow

102.832031 0.609375 moveto
/space glyphshow

107.600098 0.609375 moveto
/three glyphshow

/DejaVuSans-Oblique findfont
15.0 scalefont
setfont
117.143555 0.609375 moveto
/delta glyphshow

126.320801 0.609375 moveto
/t glyphshow


grestore
0.000 0.000 1.000 setrgbcolor
gsave
180.461875 499.956875 m
210.461875 499.956875 l
stroke
grestore
0.000 setgray
gsave
222.461875 494.706875 translate
0.000000 rotate
/DejaVuSans findfont
15.0 scalefont
setfont
0.000000 0.859375 moveto
/O glyphshow

11.806641 0.859375 moveto
/u glyphshow

21.313477 0.859375 moveto
/r glyphshow

27.480469 0.859375 moveto
/s glyphshow

35.295410 0.859375 moveto
/comma glyphshow

40.063477 0.859375 moveto
/space glyphshow

44.831543 0.859375 moveto
/three glyphshow

/DejaVuSans-Oblique findfont
15.0 scalefont
setfont
54.375000 0.859375 moveto
/delta glyphshow

63.552246 0.859375 moveto
/t glyphshow


grestore
1.000 0.000 0.000 setrgbcolor
gsave
180.461875 477.94125 m
210.461875 477.94125 l
stroke
grestore
1.000 setlinewidth
0 setlinecap
gsave
/o {
gsave
newpath
translate
1.0 setlinewidth
1 setlinejoin
0 setlinecap
0 -10 m
2.652031 -10 5.195799 -8.946337 7.071068 -7.071068 c
8.946337 -5.195799 10 -2.652031 10 0 c
10 2.652031 8.946337 5.195799 7.071068 7.071068 c
5.195799 8.946337 2.652031 10 0 10 c
-2.652031 10 -5.195799 8.946337 -7.071068 7.071068 c
-8.946337 5.195799 -10 2.652031 -10 0 c
-10 -2.652031 -8.946337 -5.195799 -7.071068 -7.071068 c
-5.195799 -8.946337 -2.652031 -10 0 -10 c
cl

gsave
grestore
stroke
grestore
} bind def
195.462 477.941 o
grestore
0.000 setgray
gsave
222.461875 472.691250 translate
0.000000 rotate
/DejaVuSans findfont
15.0 scalefont
setfont
0.000000 0.609375 moveto
/S glyphshow

9.521484 0.609375 moveto
/T glyphshow

18.684082 0.609375 moveto
/B glyphshow

28.974609 0.609375 moveto
/space glyphshow

33.742676 0.609375 moveto
/D glyphshow

45.292969 0.609375 moveto
/a glyphshow

54.484863 0.609375 moveto
/v glyphshow

63.361816 0.609375 moveto
/i glyphshow

67.529297 0.609375 moveto
/s glyphshow

75.344238 0.609375 moveto
/comma glyphshow

80.112305 0.609375 moveto
/space glyphshow

84.880371 0.609375 moveto
/one glyphshow

94.423828 0.609375 moveto
/five glyphshow

/DejaVuSans-Oblique findfont
15.0 scalefont
setfont
103.967285 0.609375 moveto
/delta glyphshow

113.144531 0.609375 moveto
/t glyphshow


grestore
3.000 setlinewidth
2 setlinecap
0.000 0.500 0.000 setrgbcolor
gsave
180.461875 455.925625 m
210.461875 455.925625 l
stroke
grestore
1.000 setlinewidth
0 setlinecap
gsave
/o {
gsave
newpath
translate
1.0 setlinewidth
1 setlinejoin
0 setlinecap
0 -10 m
2.652031 -10 5.195799 -8.946337 7.071068 -7.071068 c
8.946337 -5.195799 10 -2.652031 10 0 c
10 2.652031 8.946337 5.195799 7.071068 7.071068 c
5.195799 8.946337 2.652031 10 0 10 c
-2.652031 10 -5.195799 8.946337 -7.071068 7.071068 c
-8.946337 5.195799 -10 2.652031 -10 0 c
-10 -2.652031 -8.946337 -5.195799 -7.071068 -7.071068 c
-5.195799 -8.946337 -2.652031 -10 0 -10 c
cl

gsave
grestore
stroke
grestore
} bind def
195.462 455.926 o
grestore
0.000 setgray
gsave
222.461875 450.675625 translate
0.000000 rotate
/DejaVuSans findfont
15.0 scalefont
setfont
0.000000 0.609375 moveto
/S glyphshow

9.521484 0.609375 moveto
/T glyphshow

18.684082 0.609375 moveto
/B glyphshow

28.974609 0.609375 moveto
/space glyphshow

33.742676 0.609375 moveto
/i glyphshow

37.910156 0.609375 moveto
/n glyphshow

47.416992 0.609375 moveto
/hyphen glyphshow

52.829590 0.609375 moveto
/h glyphshow

62.336426 0.609375 moveto
/o glyphshow

71.513672 0.609375 moveto
/u glyphshow

81.020508 0.609375 moveto
/s glyphshow

88.835449 0.609375 moveto
/e glyphshow

98.063965 0.609375 moveto
/comma glyphshow

102.832031 0.609375 moveto
/space glyphshow

107.600098 0.609375 moveto
/one glyphshow

117.143555 0.609375 moveto
/five glyphshow

/DejaVuSans-Oblique findfont
15.0 scalefont
setfont
126.687012 0.609375 moveto
/delta glyphshow

135.864258 0.609375 moveto
/t glyphshow


grestore
3.000 setlinewidth
2 setlinecap
0.000 0.000 1.000 setrgbcolor
gsave
180.461875 433.91 m
210.461875 433.91 l
stroke
grestore
1.000 setlinewidth
0 setlinecap
gsave
/o {
gsave
newpath
translate
1.0 setlinewidth
1 setlinejoin
0 setlinecap
0 -10 m
2.652031 -10 5.195799 -8.946337 7.071068 -7.071068 c
8.946337 -5.195799 10 -2.652031 10 0 c
10 2.652031 8.946337 5.195799 7.071068 7.071068 c
5.195799 8.946337 2.652031 10 0 10 c
-2.652031 10 -5.195799 8.946337 -7.071068 7.071068 c
-8.946337 5.195799 -10 2.652031 -10 0 c
-10 -2.652031 -8.946337 -5.195799 -7.071068 -7.071068 c
-5.195799 -8.946337 -2.652031 -10 0 -10 c
cl

gsave
grestore
stroke
grestore
} bind def
195.462 433.91 o
grestore
0.000 setgray
gsave
222.461875 428.660000 translate
0.000000 rotate
/DejaVuSans findfont
15.0 scalefont
setfont
0.000000 0.859375 moveto
/O glyphshow

11.806641 0.859375 moveto
/u glyphshow

21.313477 0.859375 moveto
/r glyphshow

27.480469 0.859375 moveto
/s glyphshow

35.295410 0.859375 moveto
/comma glyphshow

40.063477 0.859375 moveto
/space glyphshow

44.831543 0.859375 moveto
/one glyphshow

54.375000 0.859375 moveto
/five glyphshow

/DejaVuSans-Oblique findfont
15.0 scalefont
setfont
63.918457 0.859375 moveto
/delta glyphshow

73.095703 0.859375 moveto
/t glyphshow


grestore

end
showpage
