%!PS-Adobe-3.0 EPSF-3.0
%%Title: /home/yin/030000_trackedghost_thin_3methods.eps
%%Creator: matplotlib version 3.1.1, http://matplotlib.org/
%%CreationDate: Sat May  9 15:14:05 2020
%%Orientation: portrait
%%BoundingBox: -95.09374999999993 98.46843750000004 707.09375 693.5315625
%%EndComments
%%BeginProlog
/mpldict 9 dict def
mpldict begin
/m { moveto } bind def
/l { lineto } bind def
/r { rlineto } bind def
/c { curveto } bind def
/cl { closepath } bind def
/box {
m
1 index 0 r
0 exch r
neg 0 r
cl
} bind def
/clipbox {
box
clip
newpath
} bind def
%!PS-Adobe-3.0 Resource-Font
%%Title: DejaVu Sans
%%Copyright: Copyright (c) 2003 by Bitstream, Inc. All Rights Reserved. Copyright (c) 2006 by Tavmjong Bah. All Rights Reserved. DejaVu changes are in public domain 
%%Creator: Converted from TrueType to type 3 by PPR
25 dict begin
/_d{bind def}bind def
/_m{moveto}_d
/_l{lineto}_d
/_cl{closepath eofill}_d
/_c{curveto}_d
/_sc{7 -1 roll{setcachedevice}{pop pop pop pop pop pop}ifelse}_d
/_e{exec}_d
/FontName /DejaVuSans def
/PaintType 0 def
/FontMatrix[.001 0 0 .001 0 0]def
/FontBBox[-1021 -463 1793 1232]def
/FontType 3 def
/Encoding [ /space /comma /hyphen /period /zero /one /two /three /four /five /B /D /F /O /S /T /a /c /d /e /f /g /h /i /k /l /n /o /p /r /s /t /u /v ] def
/FontInfo 10 dict dup begin
/FamilyName (DejaVu Sans) def
/FullName (DejaVu Sans) def
/Notice (Copyright (c) 2003 by Bitstream, Inc. All Rights Reserved. Copyright (c) 2006 by Tavmjong Bah. All Rights Reserved. DejaVu changes are in public domain ) def
/Weight (Book) def
/Version (Version 2.35) def
/ItalicAngle 0.0 def
/isFixedPitch false def
/UnderlinePosition -130 def
/UnderlineThickness 90 def
end readonly def
/CharStrings 35 dict dup begin
/.notdef 0 def
/space{318 0 0 0 0 0 _sc
}_d
/comma{318 0 77 -115 220 124 _sc
117 124 _m
220 124 _l
220 40 _l
140 -115 _l
77 -115 _l
117 40 _l
117 124 _l
_cl}_d
/hyphen{361 0 49 234 312 314 _sc
49 314 _m
312 314 _l
312 234 _l
49 234 _l
49 314 _l
_cl}_d
/period{318 0 107 0 210 124 _sc
107 124 _m
210 124 _l
210 0 _l
107 0 _l
107 124 _l
_cl}_d
/zero{636 0 66 -13 570 742 _sc
318 664 _m
267 664 229 639 203 589 _c
177 539 165 464 165 364 _c
165 264 177 189 203 139 _c
229 89 267 64 318 64 _c
369 64 407 89 433 139 _c
458 189 471 264 471 364 _c
471 464 458 539 433 589 _c
407 639 369 664 318 664 _c
318 742 _m
399 742 461 709 505 645 _c
548 580 570 486 570 364 _c
570 241 548 147 505 83 _c
461 19 399 -13 318 -13 _c
236 -13 173 19 130 83 _c
87 147 66 241 66 364 _c
66 486 87 580 130 645 _c
173 709 236 742 318 742 _c
_cl}_d
/one{636 0 110 0 544 729 _sc
124 83 _m
285 83 _l
285 639 _l
110 604 _l
110 694 _l
284 729 _l
383 729 _l
383 83 _l
544 83 _l
544 0 _l
124 0 _l
124 83 _l
_cl}_d
/two{{636 0 73 0 536 742 _sc
192 83 _m
536 83 _l
536 0 _l
73 0 _l
73 83 _l
110 121 161 173 226 239 _c
290 304 331 346 348 365 _c
380 400 402 430 414 455 _c
426 479 433 504 433 528 _c
433 566 419 598 392 622 _c
365 646 330 659 286 659 _c
255 659 222 653 188 643 _c
154 632 117 616 78 594 _c
78 694 _l
118 710 155 722 189 730 _c
223 738 255 742 284 742 _c
}_e{359 742 419 723 464 685 _c
509 647 532 597 532 534 _c
532 504 526 475 515 449 _c
504 422 484 390 454 354 _c
446 344 420 317 376 272 _c
332 227 271 164 192 83 _c
_cl}_e}_d
/three{{636 0 76 -13 556 742 _sc
406 393 _m
453 383 490 362 516 330 _c
542 298 556 258 556 212 _c
556 140 531 84 482 45 _c
432 6 362 -13 271 -13 _c
240 -13 208 -10 176 -4 _c
144 1 110 10 76 22 _c
76 117 _l
103 101 133 89 166 81 _c
198 73 232 69 268 69 _c
330 69 377 81 409 105 _c
441 129 458 165 458 212 _c
458 254 443 288 413 312 _c
383 336 341 349 287 349 _c
}_e{202 349 _l
202 430 _l
291 430 _l
339 430 376 439 402 459 _c
428 478 441 506 441 543 _c
441 580 427 609 401 629 _c
374 649 336 659 287 659 _c
260 659 231 656 200 650 _c
169 644 135 635 98 623 _c
98 711 _l
135 721 170 729 203 734 _c
235 739 266 742 296 742 _c
370 742 429 725 473 691 _c
517 657 539 611 539 553 _c
539 513 527 479 504 451 _c
481 423 448 403 406 393 _c
_cl}_e}_d
/four{636 0 49 0 580 729 _sc
378 643 _m
129 254 _l
378 254 _l
378 643 _l
352 729 _m
476 729 _l
476 254 _l
580 254 _l
580 172 _l
476 172 _l
476 0 _l
378 0 _l
378 172 _l
49 172 _l
49 267 _l
352 729 _l
_cl}_d
/five{{636 0 77 -13 549 729 _sc
108 729 _m
495 729 _l
495 646 _l
198 646 _l
198 467 _l
212 472 227 476 241 478 _c
255 480 270 482 284 482 _c
365 482 429 459 477 415 _c
525 370 549 310 549 234 _c
549 155 524 94 475 51 _c
426 8 357 -13 269 -13 _c
238 -13 207 -10 175 -6 _c
143 -1 111 6 77 17 _c
77 116 _l
106 100 136 88 168 80 _c
199 72 232 69 267 69 _c
}_e{323 69 368 83 401 113 _c
433 143 450 183 450 234 _c
450 284 433 324 401 354 _c
368 384 323 399 267 399 _c
241 399 214 396 188 390 _c
162 384 135 375 108 363 _c
108 729 _l
_cl}_e}_d
/B{{686 0 98 0 615 729 _sc
197 348 _m
197 81 _l
355 81 _l
408 81 447 92 473 114 _c
498 136 511 169 511 215 _c
511 260 498 293 473 315 _c
447 337 408 348 355 348 _c
197 348 _l
197 648 _m
197 428 _l
343 428 _l
391 428 426 437 450 455 _c
474 473 486 500 486 538 _c
486 574 474 602 450 620 _c
426 638 391 648 343 648 _c
197 648 _l
98 729 _m
350 729 _l
}_e{425 729 483 713 524 682 _c
564 650 585 606 585 549 _c
585 504 574 468 553 442 _c
532 416 502 399 462 393 _c
510 382 548 360 575 327 _c
601 294 615 253 615 204 _c
615 138 592 88 548 53 _c
504 17 441 0 360 0 _c
98 0 _l
98 729 _l
_cl}_e}_d
/D{770 0 98 0 711 729 _sc
197 648 _m
197 81 _l
316 81 _l
416 81 490 103 537 149 _c
583 195 607 267 607 365 _c
607 463 583 534 537 580 _c
490 625 416 648 316 648 _c
197 648 _l
98 729 _m
301 729 _l
442 729 546 699 612 641 _c
678 582 711 490 711 365 _c
711 239 677 147 611 88 _c
545 29 441 0 301 0 _c
98 0 _l
98 729 _l
_cl}_d
/F{575 0 98 0 517 729 _sc
98 729 _m
517 729 _l
517 646 _l
197 646 _l
197 431 _l
486 431 _l
486 348 _l
197 348 _l
197 0 _l
98 0 _l
98 729 _l
_cl}_d
/O{787 0 56 -13 731 742 _sc
394 662 _m
322 662 265 635 223 582 _c
181 528 160 456 160 364 _c
160 272 181 199 223 146 _c
265 92 322 66 394 66 _c
465 66 522 92 564 146 _c
606 199 627 272 627 364 _c
627 456 606 528 564 582 _c
522 635 465 662 394 662 _c
394 742 _m
496 742 577 707 639 639 _c
700 571 731 479 731 364 _c
731 248 700 157 639 89 _c
577 21 496 -13 394 -13 _c
291 -13 209 21 148 89 _c
86 157 56 248 56 364 _c
56 479 86 571 148 639 _c
209 707 291 742 394 742 _c
_cl}_d
/S{{635 0 66 -13 579 742 _sc
535 705 _m
535 609 _l
497 627 462 640 429 649 _c
395 657 363 662 333 662 _c
279 662 237 651 208 631 _c
179 610 165 580 165 542 _c
165 510 174 485 194 469 _c
213 452 250 439 304 429 _c
364 417 _l
437 403 491 378 526 343 _c
561 307 579 260 579 201 _c
579 130 555 77 508 41 _c
460 5 391 -13 300 -13 _c
265 -13 228 -9 189 -2 _c
}_e{150 5 110 16 69 32 _c
69 134 _l
109 111 148 94 186 83 _c
224 71 262 66 300 66 _c
356 66 399 77 430 99 _c
460 121 476 152 476 194 _c
476 230 465 258 443 278 _c
421 298 385 313 335 323 _c
275 335 _l
201 349 148 372 115 404 _c
82 435 66 478 66 534 _c
66 598 88 649 134 686 _c
179 723 242 742 322 742 _c
356 742 390 739 426 733 _c
461 727 497 717 535 705 _c
}_e{_cl}_e}_d
/T{611 0 -2 0 614 729 _sc
-2 729 _m
614 729 _l
614 646 _l
355 646 _l
355 0 _l
256 0 _l
256 646 _l
-2 646 _l
-2 729 _l
_cl}_d
/a{{613 0 60 -13 522 560 _sc
343 275 _m
270 275 220 266 192 250 _c
164 233 150 205 150 165 _c
150 133 160 107 181 89 _c
202 70 231 61 267 61 _c
317 61 357 78 387 114 _c
417 149 432 196 432 255 _c
432 275 _l
343 275 _l
522 312 _m
522 0 _l
432 0 _l
432 83 _l
411 49 385 25 355 10 _c
325 -5 287 -13 243 -13 _c
187 -13 142 2 109 33 _c
76 64 60 106 60 159 _c
}_e{60 220 80 266 122 298 _c
163 329 224 345 306 345 _c
432 345 _l
432 354 _l
432 395 418 427 391 450 _c
364 472 326 484 277 484 _c
245 484 215 480 185 472 _c
155 464 127 453 100 439 _c
100 522 _l
132 534 164 544 195 550 _c
226 556 256 560 286 560 _c
365 560 424 539 463 498 _c
502 457 522 395 522 312 _c
_cl}_e}_d
/c{{550 0 55 -13 488 560 _sc
488 526 _m
488 442 _l
462 456 437 466 411 473 _c
385 480 360 484 334 484 _c
276 484 230 465 198 428 _c
166 391 150 339 150 273 _c
150 206 166 154 198 117 _c
230 80 276 62 334 62 _c
360 62 385 65 411 72 _c
437 79 462 90 488 104 _c
488 21 _l
462 9 436 0 410 -5 _c
383 -10 354 -13 324 -13 _c
242 -13 176 12 128 64 _c
}_e{79 115 55 185 55 273 _c
55 362 79 432 128 483 _c
177 534 244 560 330 560 _c
358 560 385 557 411 551 _c
437 545 463 537 488 526 _c
_cl}_e}_d
/d{{635 0 55 -13 544 760 _sc
454 464 _m
454 760 _l
544 760 _l
544 0 _l
454 0 _l
454 82 _l
435 49 411 25 382 10 _c
353 -5 319 -13 279 -13 _c
213 -13 159 13 117 65 _c
75 117 55 187 55 273 _c
55 359 75 428 117 481 _c
159 533 213 560 279 560 _c
319 560 353 552 382 536 _c
411 520 435 496 454 464 _c
148 273 _m
148 207 161 155 188 117 _c
215 79 253 61 301 61 _c
}_e{348 61 385 79 413 117 _c
440 155 454 207 454 273 _c
454 339 440 390 413 428 _c
385 466 348 485 301 485 _c
253 485 215 466 188 428 _c
161 390 148 339 148 273 _c
_cl}_e}_d
/e{{615 0 55 -13 562 560 _sc
562 296 _m
562 252 _l
149 252 _l
153 190 171 142 205 110 _c
238 78 284 62 344 62 _c
378 62 412 66 444 74 _c
476 82 509 95 541 113 _c
541 28 _l
509 14 476 3 442 -3 _c
408 -9 373 -13 339 -13 _c
251 -13 182 12 131 62 _c
80 112 55 181 55 268 _c
55 357 79 428 127 481 _c
175 533 241 560 323 560 _c
397 560 455 536 498 489 _c
}_e{540 441 562 377 562 296 _c
472 322 _m
471 371 457 410 431 440 _c
404 469 368 484 324 484 _c
274 484 234 469 204 441 _c
174 413 156 373 152 322 _c
472 322 _l
_cl}_e}_d
/f{352 0 23 0 371 760 _sc
371 760 _m
371 685 _l
285 685 _l
253 685 230 678 218 665 _c
205 652 199 629 199 595 _c
199 547 _l
347 547 _l
347 477 _l
199 477 _l
199 0 _l
109 0 _l
109 477 _l
23 477 _l
23 547 _l
109 547 _l
109 585 _l
109 645 123 690 151 718 _c
179 746 224 760 286 760 _c
371 760 _l
_cl}_d
/g{{635 0 55 -207 544 560 _sc
454 280 _m
454 344 440 395 414 431 _c
387 467 349 485 301 485 _c
253 485 215 467 188 431 _c
161 395 148 344 148 280 _c
148 215 161 165 188 129 _c
215 93 253 75 301 75 _c
349 75 387 93 414 129 _c
440 165 454 215 454 280 _c
544 68 _m
544 -24 523 -93 482 -139 _c
440 -184 377 -207 292 -207 _c
260 -207 231 -204 203 -200 _c
175 -195 147 -188 121 -178 _c
}_e{121 -91 _l
147 -105 173 -115 199 -122 _c
225 -129 251 -133 278 -133 _c
336 -133 380 -117 410 -87 _c
439 -56 454 -10 454 52 _c
454 96 _l
435 64 411 40 382 24 _c
353 8 319 0 279 0 _c
211 0 157 25 116 76 _c
75 127 55 195 55 280 _c
55 364 75 432 116 483 _c
157 534 211 560 279 560 _c
319 560 353 552 382 536 _c
411 520 435 496 454 464 _c
454 547 _l
544 547 _l
}_e{544 68 _l
_cl}_e}_d
/h{634 0 91 0 549 760 _sc
549 330 _m
549 0 _l
459 0 _l
459 327 _l
459 379 448 417 428 443 _c
408 469 378 482 338 482 _c
289 482 251 466 223 435 _c
195 404 181 362 181 309 _c
181 0 _l
91 0 _l
91 760 _l
181 760 _l
181 462 _l
202 494 227 519 257 535 _c
286 551 320 560 358 560 _c
420 560 468 540 500 501 _c
532 462 549 405 549 330 _c
_cl}_d
/i{278 0 94 0 184 760 _sc
94 547 _m
184 547 _l
184 0 _l
94 0 _l
94 547 _l
94 760 _m
184 760 _l
184 646 _l
94 646 _l
94 760 _l
_cl}_d
/k{579 0 91 0 576 760 _sc
91 760 _m
181 760 _l
181 311 _l
449 547 _l
564 547 _l
274 291 _l
576 0 _l
459 0 _l
181 267 _l
181 0 _l
91 0 _l
91 760 _l
_cl}_d
/l{278 0 94 0 184 760 _sc
94 760 _m
184 760 _l
184 0 _l
94 0 _l
94 760 _l
_cl}_d
/n{634 0 91 0 549 560 _sc
549 330 _m
549 0 _l
459 0 _l
459 327 _l
459 379 448 417 428 443 _c
408 469 378 482 338 482 _c
289 482 251 466 223 435 _c
195 404 181 362 181 309 _c
181 0 _l
91 0 _l
91 547 _l
181 547 _l
181 462 _l
202 494 227 519 257 535 _c
286 551 320 560 358 560 _c
420 560 468 540 500 501 _c
532 462 549 405 549 330 _c
_cl}_d
/o{612 0 55 -13 557 560 _sc
306 484 _m
258 484 220 465 192 427 _c
164 389 150 338 150 273 _c
150 207 163 156 191 118 _c
219 80 257 62 306 62 _c
354 62 392 80 420 118 _c
448 156 462 207 462 273 _c
462 337 448 389 420 427 _c
392 465 354 484 306 484 _c
306 560 _m
384 560 445 534 490 484 _c
534 433 557 363 557 273 _c
557 183 534 113 490 63 _c
445 12 384 -13 306 -13 _c
227 -13 165 12 121 63 _c
77 113 55 183 55 273 _c
55 363 77 433 121 484 _c
165 534 227 560 306 560 _c
_cl}_d
/p{{635 0 91 -207 580 560 _sc
181 82 _m
181 -207 _l
91 -207 _l
91 547 _l
181 547 _l
181 464 _l
199 496 223 520 252 536 _c
281 552 316 560 356 560 _c
422 560 476 533 518 481 _c
559 428 580 359 580 273 _c
580 187 559 117 518 65 _c
476 13 422 -13 356 -13 _c
316 -13 281 -5 252 10 _c
223 25 199 49 181 82 _c
487 273 _m
487 339 473 390 446 428 _c
418 466 381 485 334 485 _c
}_e{286 485 249 466 222 428 _c
194 390 181 339 181 273 _c
181 207 194 155 222 117 _c
249 79 286 61 334 61 _c
381 61 418 79 446 117 _c
473 155 487 207 487 273 _c
_cl}_e}_d
/r{411 0 91 0 411 560 _sc
411 463 _m
401 469 390 473 378 476 _c
366 478 353 480 339 480 _c
288 480 249 463 222 430 _c
194 397 181 350 181 288 _c
181 0 _l
91 0 _l
91 547 _l
181 547 _l
181 462 _l
199 495 224 520 254 536 _c
284 552 321 560 365 560 _c
371 560 378 559 386 559 _c
393 558 401 557 411 555 _c
411 463 _l
_cl}_d
/s{{521 0 54 -13 472 560 _sc
443 531 _m
443 446 _l
417 458 391 468 364 475 _c
336 481 308 485 279 485 _c
234 485 200 478 178 464 _c
156 450 145 430 145 403 _c
145 382 153 366 169 354 _c
185 342 217 330 265 320 _c
296 313 _l
360 299 405 279 432 255 _c
458 230 472 195 472 151 _c
472 100 452 60 412 31 _c
372 1 316 -13 246 -13 _c
216 -13 186 -10 154 -5 _c
}_e{122 0 89 8 54 20 _c
54 113 _l
87 95 120 82 152 74 _c
184 65 216 61 248 61 _c
290 61 323 68 346 82 _c
368 96 380 117 380 144 _c
380 168 371 187 355 200 _c
339 213 303 226 247 238 _c
216 245 _l
160 257 119 275 95 299 _c
70 323 58 356 58 399 _c
58 450 76 490 112 518 _c
148 546 200 560 268 560 _c
301 560 332 557 362 552 _c
391 547 418 540 443 531 _c
}_e{_cl}_e}_d
/t{392 0 27 0 368 702 _sc
183 702 _m
183 547 _l
368 547 _l
368 477 _l
183 477 _l
183 180 _l
183 135 189 106 201 94 _c
213 81 238 75 276 75 _c
368 75 _l
368 0 _l
276 0 _l
206 0 158 13 132 39 _c
106 65 93 112 93 180 _c
93 477 _l
27 477 _l
27 547 _l
93 547 _l
93 702 _l
183 702 _l
_cl}_d
/u{634 0 85 -13 543 560 _sc
85 216 _m
85 547 _l
175 547 _l
175 219 _l
175 167 185 129 205 103 _c
225 77 255 64 296 64 _c
344 64 383 79 411 110 _c
439 141 453 183 453 237 _c
453 547 _l
543 547 _l
543 0 _l
453 0 _l
453 84 _l
431 50 405 26 377 10 _c
348 -5 315 -13 277 -13 _c
214 -13 166 6 134 45 _c
101 83 85 140 85 216 _c
311 560 _m
311 560 _l
_cl}_d
/v{592 0 30 0 562 547 _sc
30 547 _m
125 547 _l
296 88 _l
467 547 _l
562 547 _l
357 0 _l
235 0 _l
30 547 _l
_cl}_d
end readonly def

/BuildGlyph
 {exch begin
 CharStrings exch
 2 copy known not{pop /.notdef}if
 true 3 1 roll get exec
 end}_d

/BuildChar {
 1 index /Encoding get exch get
 1 index /BuildGlyph get exec
}_d

FontName currentdict end definefont pop
%!PS-Adobe-3.0 Resource-Font
%%Title: DejaVu Sans Oblique
%%Copyright: Copyright (c) 2003 by Bitstream, Inc. All Rights Reserved. Copyright (c) 2006 by Tavmjong Bah. All Rights Reserved. DejaVu changes are in public domain 
%%Creator: Converted from TrueType to type 3 by PPR
25 dict begin
/_d{bind def}bind def
/_m{moveto}_d
/_l{lineto}_d
/_cl{closepath eofill}_d
/_c{curveto}_d
/_sc{7 -1 roll{setcachedevice}{pop pop pop pop pop pop}ifelse}_d
/_e{exec}_d
/FontName /DejaVuSans-Oblique def
/PaintType 0 def
/FontMatrix[.001 0 0 .001 0 0]def
/FontBBox[-1016 -350 1659 1068]def
/FontType 3 def
/Encoding [ /t /delta ] def
/FontInfo 10 dict dup begin
/FamilyName (DejaVu Sans) def
/FullName (DejaVu Sans Oblique) def
/Notice (Copyright (c) 2003 by Bitstream, Inc. All Rights Reserved. Copyright (c) 2006 by Tavmjong Bah. All Rights Reserved. DejaVu changes are in public domain ) def
/Weight (Oblique) def
/Version (Version 2.35) def
/ItalicAngle -11.0 def
/isFixedPitch false def
/UnderlinePosition -130 def
/UnderlineThickness 90 def
end readonly def
/CharStrings 3 dict dup begin
/.notdef 0 def
/t{{392 0 64 0 423 702 _sc
423 547 _m
409 477 _l
230 477 _l
172 180 _l
170 169 168 160 167 152 _c
166 144 166 139 166 135 _c
166 114 172 99 185 89 _c
197 79 217 75 245 75 _c
336 75 _l
321 0 _l
235 0 _l
181 0 141 10 115 31 _c
89 52 76 84 76 126 _c
76 133 76 141 77 150 _c
78 159 80 169 82 180 _c
140 477 _l
64 477 _l
78 547 _l
153 547 _l
183 702 _l
}_e{273 702 _l
243 547 _l
423 547 _l
_cl}_e}_d
/delta{{612 0 38 -13 557 742 _sc
542 633 _m
514 655 461 667 383 667 _c
300 667 255 648 248 610 _c
242 580 280 557 364 542 _c
428 530 476 505 508 469 _c
546 425 556 358 539 268 _c
521 182 486 113 432 63 _c
377 12 310 -13 232 -13 _c
154 -13 98 12 63 63 _c
28 113 20 183 38 273 _c
50 339 84 399 139 453 _c
160 473 184 490 211 502 _c
165 528 147 563 156 609 _c
}_e{173 697 253 742 397 742 _c
469 742 522 730 557 708 _c
542 633 _l
274 478 _m
250 468 226 451 204 428 _c
168 391 144 339 132 273 _c
119 207 123 155 144 118 _c
164 80 199 62 248 62 _c
295 62 336 81 372 119 _c
407 156 431 206 443 268 _c
455 332 450 380 427 412 _c
401 445 369 464 329 468 _c
308 470 290 473 274 478 _c
_cl}_e}_d
end readonly def

/BuildGlyph
 {exch begin
 CharStrings exch
 2 copy known not{pop /.notdef}if
 true 3 1 roll get exec
 end}_d

/BuildChar {
 1 index /Encoding get exch get
 1 index /BuildGlyph get exec
}_d

FontName currentdict end definefont pop
end
%%EndProlog
mpldict begin
-95.094 98.468 translate
802.187 595.063 0 0 clipbox
gsave
0 0 m
802.1875 0 l
802.1875 595.063125 l
0 595.063125 l
cl
1.000 setgray
fill
grestore
gsave
110.121875 64.66875 m
779.721875 64.66875 l
779.721875 563.62875 l
110.121875 563.62875 l
cl
1.000 setgray
fill
grestore
0.800 setlinewidth
1 setlinejoin
0 setlinecap
[] 0 setdash
0.000 setgray
gsave
/o {
gsave
newpath
translate
0.8 setlinewidth
1 setlinejoin
0 setlinecap
0 0 m
0 -3.5 l

gsave
0.000 setgray
fill
grestore
stroke
grestore
} bind def
110.122 64.6688 o
grestore
/DejaVuSans findfont
24.000 scalefont
setfont
gsave
102.489063 39.434375 translate
0.000000 rotate
0.000000 0.000000 m /five glyphshow
grestore
gsave
/o {
gsave
newpath
translate
0.8 setlinewidth
1 setlinejoin
0 setlinecap
0 0 m
0 -3.5 l

gsave
0.000 setgray
fill
grestore
stroke
grestore
} bind def
184.522 64.6688 o
grestore
gsave
169.256250 39.434375 translate
0.000000 rotate
0.000000 0.000000 m /one glyphshow
15.269531 0.000000 m /zero glyphshow
grestore
gsave
/o {
gsave
newpath
translate
0.8 setlinewidth
1 setlinejoin
0 setlinecap
0 0 m
0 -3.5 l

gsave
0.000 setgray
fill
grestore
stroke
grestore
} bind def
258.922 64.6688 o
grestore
gsave
243.656250 39.434375 translate
0.000000 rotate
0.000000 0.000000 m /one glyphshow
15.269531 0.000000 m /five glyphshow
grestore
gsave
/o {
gsave
newpath
translate
0.8 setlinewidth
1 setlinejoin
0 setlinecap
0 0 m
0 -3.5 l

gsave
0.000 setgray
fill
grestore
stroke
grestore
} bind def
333.322 64.6688 o
grestore
gsave
318.056250 39.434375 translate
0.000000 rotate
0.000000 0.000000 m /two glyphshow
15.269531 0.000000 m /zero glyphshow
grestore
gsave
/o {
gsave
newpath
translate
0.8 setlinewidth
1 setlinejoin
0 setlinecap
0 0 m
0 -3.5 l

gsave
0.000 setgray
fill
grestore
stroke
grestore
} bind def
407.722 64.6688 o
grestore
gsave
392.456250 39.434375 translate
0.000000 rotate
0.000000 0.000000 m /two glyphshow
15.269531 0.000000 m /five glyphshow
grestore
gsave
/o {
gsave
newpath
translate
0.8 setlinewidth
1 setlinejoin
0 setlinecap
0 0 m
0 -3.5 l

gsave
0.000 setgray
fill
grestore
stroke
grestore
} bind def
482.122 64.6688 o
grestore
gsave
466.856250 39.434375 translate
0.000000 rotate
0.000000 0.000000 m /three glyphshow
15.269531 0.000000 m /zero glyphshow
grestore
gsave
/o {
gsave
newpath
translate
0.8 setlinewidth
1 setlinejoin
0 setlinecap
0 0 m
0 -3.5 l

gsave
0.000 setgray
fill
grestore
stroke
grestore
} bind def
556.522 64.6688 o
grestore
gsave
541.256250 39.434375 translate
0.000000 rotate
0.000000 0.000000 m /three glyphshow
15.269531 0.000000 m /five glyphshow
grestore
gsave
/o {
gsave
newpath
translate
0.8 setlinewidth
1 setlinejoin
0 setlinecap
0 0 m
0 -3.5 l

gsave
0.000 setgray
fill
grestore
stroke
grestore
} bind def
630.922 64.6688 o
grestore
gsave
615.656250 39.434375 translate
0.000000 rotate
0.000000 0.000000 m /four glyphshow
15.269531 0.000000 m /zero glyphshow
grestore
gsave
/o {
gsave
newpath
translate
0.8 setlinewidth
1 setlinejoin
0 setlinecap
0 0 m
0 -3.5 l

gsave
0.000 setgray
fill
grestore
stroke
grestore
} bind def
705.322 64.6688 o
grestore
gsave
690.056250 39.434375 translate
0.000000 rotate
0.000000 0.000000 m /four glyphshow
15.269531 0.000000 m /five glyphshow
grestore
gsave
/o {
gsave
newpath
translate
0.8 setlinewidth
1 setlinejoin
0 setlinecap
0 0 m
0 -3.5 l

gsave
0.000 setgray
fill
grestore
stroke
grestore
} bind def
779.722 64.6688 o
grestore
gsave
764.456250 39.434375 translate
0.000000 rotate
0.000000 0.000000 m /five glyphshow
15.269531 0.000000 m /zero glyphshow
grestore
gsave
382.570312 12.200000 translate
0.000000 rotate
0.000000 0.000000 m /S glyphshow
15.234375 0.000000 m /n glyphshow
30.445312 0.000000 m /a glyphshow
45.152344 0.000000 m /p glyphshow
60.386719 0.000000 m /s glyphshow
72.890625 0.000000 m /h glyphshow
88.101562 0.000000 m /o glyphshow
102.785156 0.000000 m /t glyphshow
112.195312 0.000000 m /s glyphshow
grestore
gsave
/o {
gsave
newpath
translate
0.8 setlinewidth
1 setlinejoin
0 setlinecap
0 0 m
-3.5 0 l

gsave
0.000 setgray
fill
grestore
stroke
grestore
} bind def
110.122 87.3488 o
grestore
gsave
34.434375 78.231563 translate
0.000000 rotate
0.000000 0.000000 m /zero glyphshow
15.269531 0.000000 m /period glyphshow
22.898438 0.000000 m /zero glyphshow
38.167969 0.000000 m /zero glyphshow
53.437500 0.000000 m /zero glyphshow
grestore
gsave
/o {
gsave
newpath
translate
0.8 setlinewidth
1 setlinejoin
0 setlinecap
0 0 m
-3.5 0 l

gsave
0.000 setgray
fill
grestore
stroke
grestore
} bind def
110.122 156.355 o
grestore
gsave
34.434375 147.237648 translate
0.000000 rotate
0.000000 0.000000 m /zero glyphshow
15.269531 0.000000 m /period glyphshow
22.898438 0.000000 m /zero glyphshow
38.167969 0.000000 m /zero glyphshow
53.437500 0.000000 m /five glyphshow
grestore
gsave
/o {
gsave
newpath
translate
0.8 setlinewidth
1 setlinejoin
0 setlinecap
0 0 m
-3.5 0 l

gsave
0.000 setgray
fill
grestore
stroke
grestore
} bind def
110.122 225.361 o
grestore
gsave
34.434375 216.243733 translate
0.000000 rotate
0.000000 0.000000 m /zero glyphshow
15.269531 0.000000 m /period glyphshow
22.898438 0.000000 m /zero glyphshow
38.167969 0.000000 m /one glyphshow
53.437500 0.000000 m /zero glyphshow
grestore
gsave
/o {
gsave
newpath
translate
0.8 setlinewidth
1 setlinejoin
0 setlinecap
0 0 m
-3.5 0 l

gsave
0.000 setgray
fill
grestore
stroke
grestore
} bind def
110.122 294.367 o
grestore
gsave
34.434375 285.249818 translate
0.000000 rotate
0.000000 0.000000 m /zero glyphshow
15.269531 0.000000 m /period glyphshow
22.898438 0.000000 m /zero glyphshow
38.167969 0.000000 m /one glyphshow
53.437500 0.000000 m /five glyphshow
grestore
gsave
/o {
gsave
newpath
translate
0.8 setlinewidth
1 setlinejoin
0 setlinecap
0 0 m
-3.5 0 l

gsave
0.000 setgray
fill
grestore
stroke
grestore
} bind def
110.122 363.373 o
grestore
gsave
34.434375 354.255903 translate
0.000000 rotate
0.000000 0.000000 m /zero glyphshow
15.269531 0.000000 m /period glyphshow
22.898438 0.000000 m /zero glyphshow
38.167969 0.000000 m /two glyphshow
53.437500 0.000000 m /zero glyphshow
grestore
gsave
/o {
gsave
newpath
translate
0.8 setlinewidth
1 setlinejoin
0 setlinecap
0 0 m
-3.5 0 l

gsave
0.000 setgray
fill
grestore
stroke
grestore
} bind def
110.122 432.379 o
grestore
gsave
34.434375 423.261988 translate
0.000000 rotate
0.000000 0.000000 m /zero glyphshow
15.269531 0.000000 m /period glyphshow
22.898438 0.000000 m /zero glyphshow
38.167969 0.000000 m /two glyphshow
53.437500 0.000000 m /five glyphshow
grestore
gsave
/o {
gsave
newpath
translate
0.8 setlinewidth
1 setlinejoin
0 setlinecap
0 0 m
-3.5 0 l

gsave
0.000 setgray
fill
grestore
stroke
grestore
} bind def
110.122 501.385 o
grestore
gsave
34.434375 492.268074 translate
0.000000 rotate
0.000000 0.000000 m /zero glyphshow
15.269531 0.000000 m /period glyphshow
22.898438 0.000000 m /zero glyphshow
38.167969 0.000000 m /three glyphshow
53.437500 0.000000 m /zero glyphshow
grestore
gsave
25.434375 265.367500 translate
90.000000 rotate
0.000000 0.000000 m /F glyphshow
13.789062 0.000000 m /r glyphshow
23.656250 0.000000 m /a glyphshow
38.363281 0.000000 m /c glyphshow
51.558594 0.000000 m /t glyphshow
60.968750 0.000000 m /i glyphshow
67.636719 0.000000 m /o glyphshow
82.320312 0.000000 m /n glyphshow
grestore
3.000 setlinewidth
2 setlinecap
1.000 0.000 0.000 setrgbcolor
gsave
669.6 499 110.1 64.67 clipbox
110.121875 132.892766 m
125.001875 154.054632 l
139.881875 171.076133 l
154.761875 155.894795 l
169.641875 146.233943 l
184.521875 128.292361 l
199.401875 121.851793 l
214.281875 115.871265 l
229.161875 112.650981 l
244.041875 119.55159 l
258.921875 117.711427 l
273.801875 120.931711 l
288.681875 118.171468 l
303.561875 112.650981 l
318.441875 116.331306 l
333.321875 113.571062 l
348.201875 113.111022 l
363.081875 111.7309 l
377.961875 111.27086 l
392.841875 110.810819 l
407.721875 116.791346 l
422.601875 113.111022 l
437.481875 114.951184 l
452.361875 117.711427 l
467.241875 119.091549 l
482.121875 120.471671 l
497.001875 120.471671 l
511.881875 118.631509 l
526.761875 118.631509 l
541.641875 119.55159 l
556.521875 111.7309 l
571.401875 114.491144 l
586.281875 115.411225 l
601.161875 120.01163 l
616.041875 114.951184 l
630.921875 117.251387 l
645.801875 117.251387 l
660.681875 117.251387 l
675.561875 119.091549 l
690.441875 115.871265 l
705.321875 113.571062 l
720.201875 113.111022 l
735.081875 113.571062 l
749.961875 104.830292 l
764.841875 99.309805 l
779.721875 95.62948 l
stroke
grestore
0.000 0.500 0.000 setrgbcolor
gsave
669.6 499 110.1 64.67 clipbox
110.121875 95.62948 m
125.001875 97.469642 l
139.881875 100.229886 l
154.761875 103.91021 l
169.641875 97.929683 l
184.521875 93.789318 l
199.401875 93.329277 l
214.281875 91.489115 l
229.161875 92.409196 l
244.041875 92.409196 l
258.921875 92.409196 l
273.801875 90.569034 l
288.681875 91.489115 l
303.561875 90.108993 l
318.441875 90.569034 l
333.321875 90.569034 l
348.201875 89.188912 l
363.081875 91.489115 l
377.961875 88.728872 l
392.841875 89.648953 l
407.721875 89.648953 l
422.601875 88.728872 l
437.481875 91.029075 l
452.361875 91.029075 l
467.241875 93.789318 l
482.121875 91.949156 l
497.001875 93.329277 l
511.881875 91.949156 l
526.761875 92.409196 l
541.641875 93.329277 l
556.521875 90.569034 l
571.401875 95.16944 l
586.281875 93.789318 l
601.161875 95.62948 l
616.041875 95.62948 l
630.921875 93.789318 l
645.801875 92.409196 l
660.681875 91.949156 l
675.561875 92.869237 l
690.441875 95.62948 l
705.321875 94.709399 l
720.201875 93.789318 l
735.081875 94.249359 l
749.961875 95.16944 l
764.841875 94.709399 l
779.721875 93.329277 l
stroke
grestore
0.000 0.000 1.000 setrgbcolor
gsave
669.6 499 110.1 64.67 clipbox
110.121875 91.029075 m
125.001875 90.569034 l
139.881875 90.569034 l
154.761875 93.789318 l
169.641875 90.569034 l
184.521875 87.34875 l
199.401875 89.648953 l
214.281875 88.268831 l
229.161875 90.108993 l
244.041875 90.569034 l
258.921875 88.268831 l
273.801875 89.188912 l
288.681875 88.268831 l
303.561875 89.188912 l
318.441875 88.268831 l
333.321875 89.648953 l
348.201875 88.268831 l
363.081875 88.728872 l
377.961875 89.188912 l
392.841875 87.808791 l
407.721875 89.188912 l
422.601875 88.728872 l
437.481875 88.268831 l
452.361875 88.268831 l
467.241875 89.188912 l
482.121875 88.268831 l
497.001875 87.808791 l
511.881875 89.188912 l
526.761875 89.648953 l
541.641875 88.728872 l
556.521875 90.108993 l
571.401875 90.108993 l
586.281875 88.268831 l
601.161875 89.648953 l
616.041875 90.108993 l
630.921875 88.728872 l
645.801875 89.648953 l
660.681875 89.188912 l
675.561875 89.188912 l
690.441875 90.569034 l
705.321875 90.108993 l
720.201875 88.728872 l
735.081875 88.728872 l
749.961875 88.728872 l
764.841875 89.188912 l
779.721875 88.728872 l
stroke
grestore
1.000 0.000 0.000 setrgbcolor
gsave
669.6 499 110.1 64.67 clipbox
110.121875 107.590535 m
125.001875 114.031103 l
139.881875 140.713456 l
154.761875 136.573091 l
169.641875 136.573091 l
184.521875 137.033131 l
199.401875 134.272888 l
214.281875 127.372279 l
229.161875 136.11305 l
244.041875 135.192969 l
258.921875 132.432726 l
273.801875 138.413253 l
288.681875 130.592563 l
303.561875 141.173496 l
318.441875 137.493172 l
333.321875 141.633537 l
348.201875 141.173496 l
363.081875 152.21447 l
377.961875 148.074105 l
392.841875 143.013659 l
407.721875 146.693983 l
422.601875 144.853821 l
437.481875 137.953212 l
452.361875 148.534146 l
467.241875 153.134551 l
482.121875 145.313862 l
497.001875 148.534146 l
511.881875 162.795403 l
526.761875 161.875322 l
541.641875 155.894795 l
556.521875 152.674511 l
571.401875 147.614064 l
586.281875 153.134551 l
601.161875 160.03516 l
616.041875 154.974713 l
630.921875 147.154024 l
645.801875 148.994186 l
660.681875 158.655038 l
675.561875 155.434754 l
690.441875 154.054632 l
705.321875 145.773902 l
720.201875 145.773902 l
735.081875 149.454227 l
749.961875 133.812847 l
764.841875 120.01163 l
779.721875 108.050576 l
stroke
grestore
1.000 setlinewidth
0 setlinecap
gsave
669.6 499 110.1 64.67 clipbox
/o {
gsave
newpath
translate
1.0 setlinewidth
1 setlinejoin
0 setlinecap
0 -10 m
2.652031 -10 5.195799 -8.946337 7.071068 -7.071068 c
8.946337 -5.195799 10 -2.652031 10 0 c
10 2.652031 8.946337 5.195799 7.071068 7.071068 c
5.195799 8.946337 2.652031 10 0 10 c
-2.652031 10 -5.195799 8.946337 -7.071068 7.071068 c
-8.946337 5.195799 -10 2.652031 -10 0 c
-10 -2.652031 -8.946337 -5.195799 -7.071068 -7.071068 c
-5.195799 -8.946337 -2.652031 -10 0 -10 c
cl

gsave
grestore
stroke
grestore
} bind def
110.122 107.591 o
125.002 114.031 o
139.882 140.713 o
154.762 136.573 o
169.642 136.573 o
184.522 137.033 o
199.402 134.273 o
214.282 127.372 o
229.162 136.113 o
244.042 135.193 o
258.922 132.433 o
273.802 138.413 o
288.682 130.593 o
303.562 141.173 o
318.442 137.493 o
333.322 141.634 o
348.202 141.173 o
363.082 152.214 o
377.962 148.074 o
392.842 143.014 o
407.722 146.694 o
422.602 144.854 o
437.482 137.953 o
452.362 148.534 o
467.242 153.135 o
482.122 145.314 o
497.002 148.534 o
511.882 162.795 o
526.762 161.875 o
541.642 155.895 o
556.522 152.675 o
571.402 147.614 o
586.282 153.135 o
601.162 160.035 o
616.042 154.975 o
630.922 147.154 o
645.802 148.994 o
660.682 158.655 o
675.562 155.435 o
690.442 154.055 o
705.322 145.774 o
720.202 145.774 o
735.082 149.454 o
749.962 133.813 o
764.842 120.012 o
779.722 108.051 o
grestore
3.000 setlinewidth
2 setlinecap
0.000 0.500 0.000 setrgbcolor
gsave
669.6 499 110.1 64.67 clipbox
110.121875 107.130494 m
125.001875 114.031103 l
139.881875 141.173496 l
154.761875 165.555647 l
169.641875 176.59662 l
184.521875 177.976742 l
199.401875 192.237999 l
214.281875 188.097634 l
229.161875 193.158081 l
244.041875 198.218527 l
258.921875 203.739014 l
273.801875 223.980799 l
288.681875 235.021772 l
303.561875 244.682624 l
318.441875 246.982827 l
333.321875 267.224612 l
348.201875 295.287087 l
363.081875 317.829075 l
377.961875 336.230697 l
392.841875 359.232726 l
407.721875 369.353618 l
422.601875 377.174308 l
437.481875 393.735768 l
452.361875 395.575931 l
467.241875 397.416093 l
482.121875 392.815687 l
497.001875 411.21731 l
511.881875 434.219338 l
526.761875 471.482624 l
541.641875 471.942665 l
556.521875 481.143476 l
571.401875 472.862746 l
586.281875 478.843273 l
601.161875 500.005139 l
616.041875 505.985667 l
630.921875 514.726438 l
645.801875 516.5666 l
660.681875 501.385261 l
675.561875 528.527655 l
690.441875 500.925221 l
705.321875 509.665991 l
720.201875 540.94875 l
735.081875 533.588101 l
749.961875 503.685464 l
764.841875 453.081002 l
779.721875 426.858689 l
stroke
grestore
1.000 setlinewidth
0 setlinecap
gsave
669.6 499 110.1 64.67 clipbox
/o {
gsave
newpath
translate
1.0 setlinewidth
1 setlinejoin
0 setlinecap
0 -10 m
2.652031 -10 5.195799 -8.946337 7.071068 -7.071068 c
8.946337 -5.195799 10 -2.652031 10 0 c
10 2.652031 8.946337 5.195799 7.071068 7.071068 c
5.195799 8.946337 2.652031 10 0 10 c
-2.652031 10 -5.195799 8.946337 -7.071068 7.071068 c
-8.946337 5.195799 -10 2.652031 -10 0 c
-10 -2.652031 -8.946337 -5.195799 -7.071068 -7.071068 c
-5.195799 -8.946337 -2.652031 -10 0 -10 c
cl

gsave
grestore
stroke
grestore
} bind def
110.122 107.13 o
125.002 114.031 o
139.882 141.173 o
154.762 165.556 o
169.642 176.597 o
184.522 177.977 o
199.402 192.238 o
214.282 188.098 o
229.162 193.158 o
244.042 198.219 o
258.922 203.739 o
273.802 223.981 o
288.682 235.022 o
303.562 244.683 o
318.442 246.983 o
333.322 267.225 o
348.202 295.287 o
363.082 317.829 o
377.962 336.231 o
392.842 359.233 o
407.722 369.354 o
422.602 377.174 o
437.482 393.736 o
452.362 395.576 o
467.242 397.416 o
482.122 392.816 o
497.002 411.217 o
511.882 434.219 o
526.762 471.483 o
541.642 471.943 o
556.522 481.143 o
571.402 472.863 o
586.282 478.843 o
601.162 500.005 o
616.042 505.986 o
630.922 514.726 o
645.802 516.567 o
660.682 501.385 o
675.562 528.528 o
690.442 500.925 o
705.322 509.666 o
720.202 540.949 o
735.082 533.588 o
749.962 503.685 o
764.842 453.081 o
779.722 426.859 o
grestore
3.000 setlinewidth
2 setlinecap
0.000 0.000 1.000 setrgbcolor
gsave
669.6 499 110.1 64.67 clipbox
110.121875 92.869237 m
125.001875 91.489115 l
139.881875 91.029075 l
154.761875 119.55159 l
169.641875 128.292361 l
184.521875 120.931711 l
199.401875 125.992158 l
214.281875 131.512645 l
229.161875 136.573091 l
244.041875 134.732928 l
258.921875 136.11305 l
273.801875 143.473699 l
288.681875 140.253415 l
303.561875 153.594592 l
318.441875 153.594592 l
333.321875 163.255444 l
348.201875 169.696012 l
363.081875 190.857878 l
377.961875 207.879379 l
392.841875 219.380393 l
407.721875 230.421367 l
422.601875 231.801488 l
437.481875 251.583233 l
452.361875 252.043273 l
467.241875 240.542259 l
482.121875 232.261529 l
497.001875 218.000271 l
511.881875 214.779987 l
526.761875 222.140636 l
541.641875 237.782016 l
556.521875 219.380393 l
571.401875 232.721569 l
586.281875 235.941853 l
601.161875 236.401894 l
616.041875 240.082219 l
630.921875 243.762543 l
645.801875 214.779987 l
660.681875 209.259501 l
675.561875 221.680596 l
690.441875 238.242056 l
705.321875 236.861935 l
720.201875 233.641651 l
735.081875 211.559703 l
749.961875 214.319947 l
764.841875 199.138608 l
779.721875 189.017716 l
stroke
grestore
1.000 setlinewidth
0 setlinecap
gsave
669.6 499 110.1 64.67 clipbox
/o {
gsave
newpath
translate
1.0 setlinewidth
1 setlinejoin
0 setlinecap
0 -10 m
2.652031 -10 5.195799 -8.946337 7.071068 -7.071068 c
8.946337 -5.195799 10 -2.652031 10 0 c
10 2.652031 8.946337 5.195799 7.071068 7.071068 c
5.195799 8.946337 2.652031 10 0 10 c
-2.652031 10 -5.195799 8.946337 -7.071068 7.071068 c
-8.946337 5.195799 -10 2.652031 -10 0 c
-10 -2.652031 -8.946337 -5.195799 -7.071068 -7.071068 c
-5.195799 -8.946337 -2.652031 -10 0 -10 c
cl

gsave
grestore
stroke
grestore
} bind def
110.122 92.8692 o
125.002 91.4891 o
139.882 91.0291 o
154.762 119.552 o
169.642 128.292 o
184.522 120.932 o
199.402 125.992 o
214.282 131.513 o
229.162 136.573 o
244.042 134.733 o
258.922 136.113 o
273.802 143.474 o
288.682 140.253 o
303.562 153.595 o
318.442 153.595 o
333.322 163.255 o
348.202 169.696 o
363.082 190.858 o
377.962 207.879 o
392.842 219.38 o
407.722 230.421 o
422.602 231.801 o
437.482 251.583 o
452.362 252.043 o
467.242 240.542 o
482.122 232.262 o
497.002 218 o
511.882 214.78 o
526.762 222.141 o
541.642 237.782 o
556.522 219.38 o
571.402 232.722 o
586.282 235.942 o
601.162 236.402 o
616.042 240.082 o
630.922 243.763 o
645.802 214.78 o
660.682 209.26 o
675.562 221.681 o
690.442 238.242 o
705.322 236.862 o
720.202 233.642 o
735.082 211.56 o
749.962 214.32 o
764.842 199.139 o
779.722 189.018 o
grestore
0.800 setlinewidth
0 setlinejoin
2 setlinecap
[] 0 setdash
0.000 setgray
gsave
110.121875 64.66875 m
110.121875 563.62875 l
stroke
grestore
gsave
779.721875 64.66875 m
779.721875 563.62875 l
stroke
grestore
gsave
110.121875 64.66875 m
779.721875 64.66875 l
stroke
grestore
gsave
110.121875 563.62875 m
779.721875 563.62875 l
stroke
grestore
gsave
194.156250 569.628750 translate
0.000000 rotate
0.000000 0.000000 m /F glyphshow
13.789062 0.000000 m /r glyphshow
23.656250 0.000000 m /a glyphshow
38.363281 0.000000 m /c glyphshow
51.558594 0.000000 m /t glyphshow
60.968750 0.000000 m /i glyphshow
67.636719 0.000000 m /o glyphshow
82.320312 0.000000 m /n glyphshow
97.531250 0.000000 m /space glyphshow
105.160156 0.000000 m /o glyphshow
119.843750 0.000000 m /f glyphshow
128.292969 0.000000 m /space glyphshow
135.921875 0.000000 m /T glyphshow
150.535156 0.000000 m /r glyphshow
160.402344 0.000000 m /a glyphshow
175.109375 0.000000 m /c glyphshow
188.304688 0.000000 m /k glyphshow
202.203125 0.000000 m /e glyphshow
216.968750 0.000000 m /d glyphshow
232.203125 0.000000 m /space glyphshow
239.832031 0.000000 m /g glyphshow
255.066406 0.000000 m /h glyphshow
270.277344 0.000000 m /o glyphshow
284.960938 0.000000 m /s glyphshow
297.464844 0.000000 m /t glyphshow
306.875000 0.000000 m /space glyphshow
314.503906 0.000000 m /p glyphshow
329.738281 0.000000 m /a glyphshow
344.445312 0.000000 m /r glyphshow
354.312500 0.000000 m /t glyphshow
363.722656 0.000000 m /i glyphshow
370.390625 0.000000 m /c glyphshow
383.585938 0.000000 m /l glyphshow
390.253906 0.000000 m /e glyphshow
405.019531 0.000000 m /s glyphshow
417.523438 0.000000 m /space glyphshow
425.152344 0.000000 m /three glyphshow
440.421875 0.000000 m /zero glyphshow
455.691406 0.000000 m /zero glyphshow
470.960938 0.000000 m /zero glyphshow
486.230469 0.000000 m /zero glyphshow
grestore
1.000 setlinewidth
0 setlinecap
0.800 setgray
gsave
579.221875 319.743 m
769.221875 319.743 l
771.221875 319.743 772.221875 320.743 772.221875 322.743 c
772.221875 453.33675 l
772.221875 455.33675 771.221875 456.33675 769.221875 456.33675 c
579.221875 456.33675 l
577.221875 456.33675 576.221875 455.33675 576.221875 453.33675 c
576.221875 322.743 l
576.221875 320.743 577.221875 319.743 579.221875 319.743 c
cl
gsave
1.000 setgray
fill
grestore
stroke
grestore
3.000 setlinewidth
1 setlinejoin
2 setlinecap
[] 0 setdash
1.000 0.000 0.000 setrgbcolor
gsave
582.221875 444.196125 m
612.221875 444.196125 l
stroke
grestore
0.000 setgray
gsave
624.221875 438.946125 translate
0.000000 rotate
/DejaVuSans findfont
15.0 scalefont
setfont
0.000000 0.609375 moveto
/S glyphshow

9.521484 0.609375 moveto
/T glyphshow

18.684082 0.609375 moveto
/B glyphshow

28.974609 0.609375 moveto
/space glyphshow

33.742676 0.609375 moveto
/D glyphshow

45.292969 0.609375 moveto
/a glyphshow

54.484863 0.609375 moveto
/v glyphshow

63.361816 0.609375 moveto
/i glyphshow

67.529297 0.609375 moveto
/s glyphshow

75.344238 0.609375 moveto
/comma glyphshow

80.112305 0.609375 moveto
/space glyphshow

84.880371 0.609375 moveto
/three glyphshow

/DejaVuSans-Oblique findfont
15.0 scalefont
setfont
94.423828 0.609375 moveto
/delta glyphshow

103.601074 0.609375 moveto
/t glyphshow


grestore
0.000 0.500 0.000 setrgbcolor
gsave
582.221875 422.1805 m
612.221875 422.1805 l
stroke
grestore
0.000 setgray
gsave
624.221875 416.930500 translate
0.000000 rotate
/DejaVuSans findfont
15.0 scalefont
setfont
0.000000 0.609375 moveto
/S glyphshow

9.521484 0.609375 moveto
/T glyphshow

18.684082 0.609375 moveto
/B glyphshow

28.974609 0.609375 moveto
/space glyphshow

33.742676 0.609375 moveto
/i glyphshow

37.910156 0.609375 moveto
/n glyphshow

47.416992 0.609375 moveto
/hyphen glyphshow

52.829590 0.609375 moveto
/h glyphshow

62.336426 0.609375 moveto
/o glyphshow

71.513672 0.609375 moveto
/u glyphshow

81.020508 0.609375 moveto
/s glyphshow

88.835449 0.609375 moveto
/e glyphshow

98.063965 0.609375 moveto
/comma glyphshow

102.832031 0.609375 moveto
/space glyphshow

107.600098 0.609375 moveto
/three glyphshow

/DejaVuSans-Oblique findfont
15.0 scalefont
setfont
117.143555 0.609375 moveto
/delta glyphshow

126.320801 0.609375 moveto
/t glyphshow


grestore
0.000 0.000 1.000 setrgbcolor
gsave
582.221875 400.164875 m
612.221875 400.164875 l
stroke
grestore
0.000 setgray
gsave
624.221875 394.914875 translate
0.000000 rotate
/DejaVuSans findfont
15.0 scalefont
setfont
0.000000 0.859375 moveto
/O glyphshow

11.806641 0.859375 moveto
/u glyphshow

21.313477 0.859375 moveto
/r glyphshow

27.480469 0.859375 moveto
/s glyphshow

35.295410 0.859375 moveto
/comma glyphshow

40.063477 0.859375 moveto
/space glyphshow

44.831543 0.859375 moveto
/three glyphshow

/DejaVuSans-Oblique findfont
15.0 scalefont
setfont
54.375000 0.859375 moveto
/delta glyphshow

63.552246 0.859375 moveto
/t glyphshow


grestore
1.000 0.000 0.000 setrgbcolor
gsave
582.221875 378.14925 m
612.221875 378.14925 l
stroke
grestore
1.000 setlinewidth
0 setlinecap
gsave
/o {
gsave
newpath
translate
1.0 setlinewidth
1 setlinejoin
0 setlinecap
0 -10 m
2.652031 -10 5.195799 -8.946337 7.071068 -7.071068 c
8.946337 -5.195799 10 -2.652031 10 0 c
10 2.652031 8.946337 5.195799 7.071068 7.071068 c
5.195799 8.946337 2.652031 10 0 10 c
-2.652031 10 -5.195799 8.946337 -7.071068 7.071068 c
-8.946337 5.195799 -10 2.652031 -10 0 c
-10 -2.652031 -8.946337 -5.195799 -7.071068 -7.071068 c
-5.195799 -8.946337 -2.652031 -10 0 -10 c
cl

gsave
grestore
stroke
grestore
} bind def
597.222 378.149 o
grestore
0.000 setgray
gsave
624.221875 372.899250 translate
0.000000 rotate
/DejaVuSans findfont
15.0 scalefont
setfont
0.000000 0.609375 moveto
/S glyphshow

9.521484 0.609375 moveto
/T glyphshow

18.684082 0.609375 moveto
/B glyphshow

28.974609 0.609375 moveto
/space glyphshow

33.742676 0.609375 moveto
/D glyphshow

45.292969 0.609375 moveto
/a glyphshow

54.484863 0.609375 moveto
/v glyphshow

63.361816 0.609375 moveto
/i glyphshow

67.529297 0.609375 moveto
/s glyphshow

75.344238 0.609375 moveto
/comma glyphshow

80.112305 0.609375 moveto
/space glyphshow

84.880371 0.609375 moveto
/one glyphshow

94.423828 0.609375 moveto
/five glyphshow

/DejaVuSans-Oblique findfont
15.0 scalefont
setfont
103.967285 0.609375 moveto
/delta glyphshow

113.144531 0.609375 moveto
/t glyphshow


grestore
3.000 setlinewidth
2 setlinecap
0.000 0.500 0.000 setrgbcolor
gsave
582.221875 356.133625 m
612.221875 356.133625 l
stroke
grestore
1.000 setlinewidth
0 setlinecap
gsave
/o {
gsave
newpath
translate
1.0 setlinewidth
1 setlinejoin
0 setlinecap
0 -10 m
2.652031 -10 5.195799 -8.946337 7.071068 -7.071068 c
8.946337 -5.195799 10 -2.652031 10 0 c
10 2.652031 8.946337 5.195799 7.071068 7.071068 c
5.195799 8.946337 2.652031 10 0 10 c
-2.652031 10 -5.195799 8.946337 -7.071068 7.071068 c
-8.946337 5.195799 -10 2.652031 -10 0 c
-10 -2.652031 -8.946337 -5.195799 -7.071068 -7.071068 c
-5.195799 -8.946337 -2.652031 -10 0 -10 c
cl

gsave
grestore
stroke
grestore
} bind def
597.222 356.134 o
grestore
0.000 setgray
gsave
624.221875 350.883625 translate
0.000000 rotate
/DejaVuSans findfont
15.0 scalefont
setfont
0.000000 0.609375 moveto
/S glyphshow

9.521484 0.609375 moveto
/T glyphshow

18.684082 0.609375 moveto
/B glyphshow

28.974609 0.609375 moveto
/space glyphshow

33.742676 0.609375 moveto
/i glyphshow

37.910156 0.609375 moveto
/n glyphshow

47.416992 0.609375 moveto
/hyphen glyphshow

52.829590 0.609375 moveto
/h glyphshow

62.336426 0.609375 moveto
/o glyphshow

71.513672 0.609375 moveto
/u glyphshow

81.020508 0.609375 moveto
/s glyphshow

88.835449 0.609375 moveto
/e glyphshow

98.063965 0.609375 moveto
/comma glyphshow

102.832031 0.609375 moveto
/space glyphshow

107.600098 0.609375 moveto
/one glyphshow

117.143555 0.609375 moveto
/five glyphshow

/DejaVuSans-Oblique findfont
15.0 scalefont
setfont
126.687012 0.609375 moveto
/delta glyphshow

135.864258 0.609375 moveto
/t glyphshow


grestore
3.000 setlinewidth
2 setlinecap
0.000 0.000 1.000 setrgbcolor
gsave
582.221875 334.118 m
612.221875 334.118 l
stroke
grestore
1.000 setlinewidth
0 setlinecap
gsave
/o {
gsave
newpath
translate
1.0 setlinewidth
1 setlinejoin
0 setlinecap
0 -10 m
2.652031 -10 5.195799 -8.946337 7.071068 -7.071068 c
8.946337 -5.195799 10 -2.652031 10 0 c
10 2.652031 8.946337 5.195799 7.071068 7.071068 c
5.195799 8.946337 2.652031 10 0 10 c
-2.652031 10 -5.195799 8.946337 -7.071068 7.071068 c
-8.946337 5.195799 -10 2.652031 -10 0 c
-10 -2.652031 -8.946337 -5.195799 -7.071068 -7.071068 c
-5.195799 -8.946337 -2.652031 -10 0 -10 c
cl

gsave
grestore
stroke
grestore
} bind def
597.222 334.118 o
grestore
0.000 setgray
gsave
624.221875 328.868000 translate
0.000000 rotate
/DejaVuSans findfont
15.0 scalefont
setfont
0.000000 0.859375 moveto
/O glyphshow

11.806641 0.859375 moveto
/u glyphshow

21.313477 0.859375 moveto
/r glyphshow

27.480469 0.859375 moveto
/s glyphshow

35.295410 0.859375 moveto
/comma glyphshow

40.063477 0.859375 moveto
/space glyphshow

44.831543 0.859375 moveto
/one glyphshow

54.375000 0.859375 moveto
/five glyphshow

/DejaVuSans-Oblique findfont
15.0 scalefont
setfont
63.918457 0.859375 moveto
/delta glyphshow

73.095703 0.859375 moveto
/t glyphshow


grestore

end
showpage
