%!PS-Adobe-3.0 EPSF-3.0
%%Title: /home/yin/040000_undetected_thin_3methods.eps
%%Creator: matplotlib version 3.1.1, http://matplotlib.org/
%%CreationDate: Thu May  7 21:47:42 2020
%%Orientation: portrait
%%BoundingBox: -79.82812499999997 98.46843750000004 691.828125 693.5315625
%%EndComments
%%BeginProlog
/mpldict 9 dict def
mpldict begin
/m { moveto } bind def
/l { lineto } bind def
/r { rlineto } bind def
/c { curveto } bind def
/cl { closepath } bind def
/box {
m
1 index 0 r
0 exch r
neg 0 r
cl
} bind def
/clipbox {
box
clip
newpath
} bind def
%!PS-Adobe-3.0 Resource-Font
%%Title: DejaVu Sans
%%Copyright: Copyright (c) 2003 by Bitstream, Inc. All Rights Reserved. Copyright (c) 2006 by Tavmjong Bah. All Rights Reserved. DejaVu changes are in public domain 
%%Creator: Converted from TrueType to type 3 by PPR
25 dict begin
/_d{bind def}bind def
/_m{moveto}_d
/_l{lineto}_d
/_cl{closepath eofill}_d
/_c{curveto}_d
/_sc{7 -1 roll{setcachedevice}{pop pop pop pop pop pop}ifelse}_d
/_e{exec}_d
/FontName /DejaVuSans def
/PaintType 0 def
/FontMatrix[.001 0 0 .001 0 0]def
/FontBBox[-1021 -463 1793 1232]def
/FontType 3 def
/Encoding [ /space /comma /hyphen /period /slash /zero /one /two /three /four /five /six /eight /B /D /F /O /P /S /T /U /a /c /d /e /f /h /i /k /l /n /o /p /r /s /t /u /v ] def
/FontInfo 10 dict dup begin
/FamilyName (DejaVu Sans) def
/FullName (DejaVu Sans) def
/Notice (Copyright (c) 2003 by Bitstream, Inc. All Rights Reserved. Copyright (c) 2006 by Tavmjong Bah. All Rights Reserved. DejaVu changes are in public domain ) def
/Weight (Book) def
/Version (Version 2.35) def
/ItalicAngle 0.0 def
/isFixedPitch false def
/UnderlinePosition -130 def
/UnderlineThickness 90 def
end readonly def
/CharStrings 39 dict dup begin
/.notdef 0 def
/space{318 0 0 0 0 0 _sc
}_d
/comma{318 0 77 -115 220 124 _sc
117 124 _m
220 124 _l
220 40 _l
140 -115 _l
77 -115 _l
117 40 _l
117 124 _l
_cl}_d
/hyphen{361 0 49 234 312 314 _sc
49 314 _m
312 314 _l
312 234 _l
49 234 _l
49 314 _l
_cl}_d
/period{318 0 107 0 210 124 _sc
107 124 _m
210 124 _l
210 0 _l
107 0 _l
107 124 _l
_cl}_d
/slash{337 0 0 -92 337 729 _sc
254 729 _m
337 729 _l
83 -92 _l
0 -92 _l
254 729 _l
_cl}_d
/zero{636 0 66 -13 570 742 _sc
318 664 _m
267 664 229 639 203 589 _c
177 539 165 464 165 364 _c
165 264 177 189 203 139 _c
229 89 267 64 318 64 _c
369 64 407 89 433 139 _c
458 189 471 264 471 364 _c
471 464 458 539 433 589 _c
407 639 369 664 318 664 _c
318 742 _m
399 742 461 709 505 645 _c
548 580 570 486 570 364 _c
570 241 548 147 505 83 _c
461 19 399 -13 318 -13 _c
236 -13 173 19 130 83 _c
87 147 66 241 66 364 _c
66 486 87 580 130 645 _c
173 709 236 742 318 742 _c
_cl}_d
/one{636 0 110 0 544 729 _sc
124 83 _m
285 83 _l
285 639 _l
110 604 _l
110 694 _l
284 729 _l
383 729 _l
383 83 _l
544 83 _l
544 0 _l
124 0 _l
124 83 _l
_cl}_d
/two{{636 0 73 0 536 742 _sc
192 83 _m
536 83 _l
536 0 _l
73 0 _l
73 83 _l
110 121 161 173 226 239 _c
290 304 331 346 348 365 _c
380 400 402 430 414 455 _c
426 479 433 504 433 528 _c
433 566 419 598 392 622 _c
365 646 330 659 286 659 _c
255 659 222 653 188 643 _c
154 632 117 616 78 594 _c
78 694 _l
118 710 155 722 189 730 _c
223 738 255 742 284 742 _c
}_e{359 742 419 723 464 685 _c
509 647 532 597 532 534 _c
532 504 526 475 515 449 _c
504 422 484 390 454 354 _c
446 344 420 317 376 272 _c
332 227 271 164 192 83 _c
_cl}_e}_d
/three{{636 0 76 -13 556 742 _sc
406 393 _m
453 383 490 362 516 330 _c
542 298 556 258 556 212 _c
556 140 531 84 482 45 _c
432 6 362 -13 271 -13 _c
240 -13 208 -10 176 -4 _c
144 1 110 10 76 22 _c
76 117 _l
103 101 133 89 166 81 _c
198 73 232 69 268 69 _c
330 69 377 81 409 105 _c
441 129 458 165 458 212 _c
458 254 443 288 413 312 _c
383 336 341 349 287 349 _c
}_e{202 349 _l
202 430 _l
291 430 _l
339 430 376 439 402 459 _c
428 478 441 506 441 543 _c
441 580 427 609 401 629 _c
374 649 336 659 287 659 _c
260 659 231 656 200 650 _c
169 644 135 635 98 623 _c
98 711 _l
135 721 170 729 203 734 _c
235 739 266 742 296 742 _c
370 742 429 725 473 691 _c
517 657 539 611 539 553 _c
539 513 527 479 504 451 _c
481 423 448 403 406 393 _c
_cl}_e}_d
/four{636 0 49 0 580 729 _sc
378 643 _m
129 254 _l
378 254 _l
378 643 _l
352 729 _m
476 729 _l
476 254 _l
580 254 _l
580 172 _l
476 172 _l
476 0 _l
378 0 _l
378 172 _l
49 172 _l
49 267 _l
352 729 _l
_cl}_d
/five{{636 0 77 -13 549 729 _sc
108 729 _m
495 729 _l
495 646 _l
198 646 _l
198 467 _l
212 472 227 476 241 478 _c
255 480 270 482 284 482 _c
365 482 429 459 477 415 _c
525 370 549 310 549 234 _c
549 155 524 94 475 51 _c
426 8 357 -13 269 -13 _c
238 -13 207 -10 175 -6 _c
143 -1 111 6 77 17 _c
77 116 _l
106 100 136 88 168 80 _c
199 72 232 69 267 69 _c
}_e{323 69 368 83 401 113 _c
433 143 450 183 450 234 _c
450 284 433 324 401 354 _c
368 384 323 399 267 399 _c
241 399 214 396 188 390 _c
162 384 135 375 108 363 _c
108 729 _l
_cl}_e}_d
/six{{636 0 70 -13 573 742 _sc
330 404 _m
286 404 251 388 225 358 _c
199 328 186 286 186 234 _c
186 181 199 139 225 109 _c
251 79 286 64 330 64 _c
374 64 409 79 435 109 _c
461 139 474 181 474 234 _c
474 286 461 328 435 358 _c
409 388 374 404 330 404 _c
526 713 _m
526 623 _l
501 635 476 644 451 650 _c
425 656 400 659 376 659 _c
310 659 260 637 226 593 _c
}_e{192 549 172 482 168 394 _c
187 422 211 444 240 459 _c
269 474 301 482 336 482 _c
409 482 467 459 509 415 _c
551 371 573 310 573 234 _c
573 159 550 99 506 54 _c
462 9 403 -13 330 -13 _c
246 -13 181 19 137 83 _c
92 147 70 241 70 364 _c
70 479 97 571 152 639 _c
206 707 280 742 372 742 _c
396 742 421 739 447 735 _c
472 730 498 723 526 713 _c
_cl}_e}_d
/eight{{636 0 68 -13 568 742 _sc
318 346 _m
271 346 234 333 207 308 _c
180 283 167 249 167 205 _c
167 161 180 126 207 101 _c
234 76 271 64 318 64 _c
364 64 401 76 428 102 _c
455 127 469 161 469 205 _c
469 249 455 283 429 308 _c
402 333 365 346 318 346 _c
219 388 _m
177 398 144 418 120 447 _c
96 476 85 511 85 553 _c
85 611 105 657 147 691 _c
188 725 245 742 318 742 _c
}_e{390 742 447 725 489 691 _c
530 657 551 611 551 553 _c
551 511 539 476 515 447 _c
491 418 459 398 417 388 _c
464 377 501 355 528 323 _c
554 291 568 251 568 205 _c
568 134 546 80 503 43 _c
459 5 398 -13 318 -13 _c
237 -13 175 5 132 43 _c
89 80 68 134 68 205 _c
68 251 81 291 108 323 _c
134 355 171 377 219 388 _c
183 544 _m
183 506 194 476 218 455 _c
}_e{242 434 275 424 318 424 _c
360 424 393 434 417 455 _c
441 476 453 506 453 544 _c
453 582 441 611 417 632 _c
393 653 360 664 318 664 _c
275 664 242 653 218 632 _c
194 611 183 582 183 544 _c
_cl}_e}_d
/B{{686 0 98 0 615 729 _sc
197 348 _m
197 81 _l
355 81 _l
408 81 447 92 473 114 _c
498 136 511 169 511 215 _c
511 260 498 293 473 315 _c
447 337 408 348 355 348 _c
197 348 _l
197 648 _m
197 428 _l
343 428 _l
391 428 426 437 450 455 _c
474 473 486 500 486 538 _c
486 574 474 602 450 620 _c
426 638 391 648 343 648 _c
197 648 _l
98 729 _m
350 729 _l
}_e{425 729 483 713 524 682 _c
564 650 585 606 585 549 _c
585 504 574 468 553 442 _c
532 416 502 399 462 393 _c
510 382 548 360 575 327 _c
601 294 615 253 615 204 _c
615 138 592 88 548 53 _c
504 17 441 0 360 0 _c
98 0 _l
98 729 _l
_cl}_e}_d
/D{770 0 98 0 711 729 _sc
197 648 _m
197 81 _l
316 81 _l
416 81 490 103 537 149 _c
583 195 607 267 607 365 _c
607 463 583 534 537 580 _c
490 625 416 648 316 648 _c
197 648 _l
98 729 _m
301 729 _l
442 729 546 699 612 641 _c
678 582 711 490 711 365 _c
711 239 677 147 611 88 _c
545 29 441 0 301 0 _c
98 0 _l
98 729 _l
_cl}_d
/F{575 0 98 0 517 729 _sc
98 729 _m
517 729 _l
517 646 _l
197 646 _l
197 431 _l
486 431 _l
486 348 _l
197 348 _l
197 0 _l
98 0 _l
98 729 _l
_cl}_d
/O{787 0 56 -13 731 742 _sc
394 662 _m
322 662 265 635 223 582 _c
181 528 160 456 160 364 _c
160 272 181 199 223 146 _c
265 92 322 66 394 66 _c
465 66 522 92 564 146 _c
606 199 627 272 627 364 _c
627 456 606 528 564 582 _c
522 635 465 662 394 662 _c
394 742 _m
496 742 577 707 639 639 _c
700 571 731 479 731 364 _c
731 248 700 157 639 89 _c
577 21 496 -13 394 -13 _c
291 -13 209 21 148 89 _c
86 157 56 248 56 364 _c
56 479 86 571 148 639 _c
209 707 291 742 394 742 _c
_cl}_d
/P{603 0 98 0 569 729 _sc
197 648 _m
197 374 _l
321 374 _l
367 374 402 385 427 409 _c
452 433 465 467 465 511 _c
465 555 452 588 427 612 _c
402 636 367 648 321 648 _c
197 648 _l
98 729 _m
321 729 _l
402 729 464 710 506 673 _c
548 636 569 582 569 511 _c
569 439 548 384 506 348 _c
464 311 402 293 321 293 _c
197 293 _l
197 0 _l
98 0 _l
98 729 _l
_cl}_d
/S{{635 0 66 -13 579 742 _sc
535 705 _m
535 609 _l
497 627 462 640 429 649 _c
395 657 363 662 333 662 _c
279 662 237 651 208 631 _c
179 610 165 580 165 542 _c
165 510 174 485 194 469 _c
213 452 250 439 304 429 _c
364 417 _l
437 403 491 378 526 343 _c
561 307 579 260 579 201 _c
579 130 555 77 508 41 _c
460 5 391 -13 300 -13 _c
265 -13 228 -9 189 -2 _c
}_e{150 5 110 16 69 32 _c
69 134 _l
109 111 148 94 186 83 _c
224 71 262 66 300 66 _c
356 66 399 77 430 99 _c
460 121 476 152 476 194 _c
476 230 465 258 443 278 _c
421 298 385 313 335 323 _c
275 335 _l
201 349 148 372 115 404 _c
82 435 66 478 66 534 _c
66 598 88 649 134 686 _c
179 723 242 742 322 742 _c
356 742 390 739 426 733 _c
461 727 497 717 535 705 _c
}_e{_cl}_e}_d
/T{611 0 -2 0 614 729 _sc
-2 729 _m
614 729 _l
614 646 _l
355 646 _l
355 0 _l
256 0 _l
256 646 _l
-2 646 _l
-2 729 _l
_cl}_d
/U{732 0 87 -13 645 729 _sc
87 729 _m
186 729 _l
186 286 _l
186 208 200 151 228 117 _c
256 83 302 66 366 66 _c
429 66 475 83 503 117 _c
531 151 546 208 546 286 _c
546 729 _l
645 729 _l
645 274 _l
645 178 621 107 574 59 _c
527 11 458 -13 366 -13 _c
274 -13 204 11 157 59 _c
110 107 87 178 87 274 _c
87 729 _l
_cl}_d
/a{{613 0 60 -13 522 560 _sc
343 275 _m
270 275 220 266 192 250 _c
164 233 150 205 150 165 _c
150 133 160 107 181 89 _c
202 70 231 61 267 61 _c
317 61 357 78 387 114 _c
417 149 432 196 432 255 _c
432 275 _l
343 275 _l
522 312 _m
522 0 _l
432 0 _l
432 83 _l
411 49 385 25 355 10 _c
325 -5 287 -13 243 -13 _c
187 -13 142 2 109 33 _c
76 64 60 106 60 159 _c
}_e{60 220 80 266 122 298 _c
163 329 224 345 306 345 _c
432 345 _l
432 354 _l
432 395 418 427 391 450 _c
364 472 326 484 277 484 _c
245 484 215 480 185 472 _c
155 464 127 453 100 439 _c
100 522 _l
132 534 164 544 195 550 _c
226 556 256 560 286 560 _c
365 560 424 539 463 498 _c
502 457 522 395 522 312 _c
_cl}_e}_d
/c{{550 0 55 -13 488 560 _sc
488 526 _m
488 442 _l
462 456 437 466 411 473 _c
385 480 360 484 334 484 _c
276 484 230 465 198 428 _c
166 391 150 339 150 273 _c
150 206 166 154 198 117 _c
230 80 276 62 334 62 _c
360 62 385 65 411 72 _c
437 79 462 90 488 104 _c
488 21 _l
462 9 436 0 410 -5 _c
383 -10 354 -13 324 -13 _c
242 -13 176 12 128 64 _c
}_e{79 115 55 185 55 273 _c
55 362 79 432 128 483 _c
177 534 244 560 330 560 _c
358 560 385 557 411 551 _c
437 545 463 537 488 526 _c
_cl}_e}_d
/d{{635 0 55 -13 544 760 _sc
454 464 _m
454 760 _l
544 760 _l
544 0 _l
454 0 _l
454 82 _l
435 49 411 25 382 10 _c
353 -5 319 -13 279 -13 _c
213 -13 159 13 117 65 _c
75 117 55 187 55 273 _c
55 359 75 428 117 481 _c
159 533 213 560 279 560 _c
319 560 353 552 382 536 _c
411 520 435 496 454 464 _c
148 273 _m
148 207 161 155 188 117 _c
215 79 253 61 301 61 _c
}_e{348 61 385 79 413 117 _c
440 155 454 207 454 273 _c
454 339 440 390 413 428 _c
385 466 348 485 301 485 _c
253 485 215 466 188 428 _c
161 390 148 339 148 273 _c
_cl}_e}_d
/e{{615 0 55 -13 562 560 _sc
562 296 _m
562 252 _l
149 252 _l
153 190 171 142 205 110 _c
238 78 284 62 344 62 _c
378 62 412 66 444 74 _c
476 82 509 95 541 113 _c
541 28 _l
509 14 476 3 442 -3 _c
408 -9 373 -13 339 -13 _c
251 -13 182 12 131 62 _c
80 112 55 181 55 268 _c
55 357 79 428 127 481 _c
175 533 241 560 323 560 _c
397 560 455 536 498 489 _c
}_e{540 441 562 377 562 296 _c
472 322 _m
471 371 457 410 431 440 _c
404 469 368 484 324 484 _c
274 484 234 469 204 441 _c
174 413 156 373 152 322 _c
472 322 _l
_cl}_e}_d
/f{352 0 23 0 371 760 _sc
371 760 _m
371 685 _l
285 685 _l
253 685 230 678 218 665 _c
205 652 199 629 199 595 _c
199 547 _l
347 547 _l
347 477 _l
199 477 _l
199 0 _l
109 0 _l
109 477 _l
23 477 _l
23 547 _l
109 547 _l
109 585 _l
109 645 123 690 151 718 _c
179 746 224 760 286 760 _c
371 760 _l
_cl}_d
/h{634 0 91 0 549 760 _sc
549 330 _m
549 0 _l
459 0 _l
459 327 _l
459 379 448 417 428 443 _c
408 469 378 482 338 482 _c
289 482 251 466 223 435 _c
195 404 181 362 181 309 _c
181 0 _l
91 0 _l
91 760 _l
181 760 _l
181 462 _l
202 494 227 519 257 535 _c
286 551 320 560 358 560 _c
420 560 468 540 500 501 _c
532 462 549 405 549 330 _c
_cl}_d
/i{278 0 94 0 184 760 _sc
94 547 _m
184 547 _l
184 0 _l
94 0 _l
94 547 _l
94 760 _m
184 760 _l
184 646 _l
94 646 _l
94 760 _l
_cl}_d
/k{579 0 91 0 576 760 _sc
91 760 _m
181 760 _l
181 311 _l
449 547 _l
564 547 _l
274 291 _l
576 0 _l
459 0 _l
181 267 _l
181 0 _l
91 0 _l
91 760 _l
_cl}_d
/l{278 0 94 0 184 760 _sc
94 760 _m
184 760 _l
184 0 _l
94 0 _l
94 760 _l
_cl}_d
/n{634 0 91 0 549 560 _sc
549 330 _m
549 0 _l
459 0 _l
459 327 _l
459 379 448 417 428 443 _c
408 469 378 482 338 482 _c
289 482 251 466 223 435 _c
195 404 181 362 181 309 _c
181 0 _l
91 0 _l
91 547 _l
181 547 _l
181 462 _l
202 494 227 519 257 535 _c
286 551 320 560 358 560 _c
420 560 468 540 500 501 _c
532 462 549 405 549 330 _c
_cl}_d
/o{612 0 55 -13 557 560 _sc
306 484 _m
258 484 220 465 192 427 _c
164 389 150 338 150 273 _c
150 207 163 156 191 118 _c
219 80 257 62 306 62 _c
354 62 392 80 420 118 _c
448 156 462 207 462 273 _c
462 337 448 389 420 427 _c
392 465 354 484 306 484 _c
306 560 _m
384 560 445 534 490 484 _c
534 433 557 363 557 273 _c
557 183 534 113 490 63 _c
445 12 384 -13 306 -13 _c
227 -13 165 12 121 63 _c
77 113 55 183 55 273 _c
55 363 77 433 121 484 _c
165 534 227 560 306 560 _c
_cl}_d
/p{{635 0 91 -207 580 560 _sc
181 82 _m
181 -207 _l
91 -207 _l
91 547 _l
181 547 _l
181 464 _l
199 496 223 520 252 536 _c
281 552 316 560 356 560 _c
422 560 476 533 518 481 _c
559 428 580 359 580 273 _c
580 187 559 117 518 65 _c
476 13 422 -13 356 -13 _c
316 -13 281 -5 252 10 _c
223 25 199 49 181 82 _c
487 273 _m
487 339 473 390 446 428 _c
418 466 381 485 334 485 _c
}_e{286 485 249 466 222 428 _c
194 390 181 339 181 273 _c
181 207 194 155 222 117 _c
249 79 286 61 334 61 _c
381 61 418 79 446 117 _c
473 155 487 207 487 273 _c
_cl}_e}_d
/r{411 0 91 0 411 560 _sc
411 463 _m
401 469 390 473 378 476 _c
366 478 353 480 339 480 _c
288 480 249 463 222 430 _c
194 397 181 350 181 288 _c
181 0 _l
91 0 _l
91 547 _l
181 547 _l
181 462 _l
199 495 224 520 254 536 _c
284 552 321 560 365 560 _c
371 560 378 559 386 559 _c
393 558 401 557 411 555 _c
411 463 _l
_cl}_d
/s{{521 0 54 -13 472 560 _sc
443 531 _m
443 446 _l
417 458 391 468 364 475 _c
336 481 308 485 279 485 _c
234 485 200 478 178 464 _c
156 450 145 430 145 403 _c
145 382 153 366 169 354 _c
185 342 217 330 265 320 _c
296 313 _l
360 299 405 279 432 255 _c
458 230 472 195 472 151 _c
472 100 452 60 412 31 _c
372 1 316 -13 246 -13 _c
216 -13 186 -10 154 -5 _c
}_e{122 0 89 8 54 20 _c
54 113 _l
87 95 120 82 152 74 _c
184 65 216 61 248 61 _c
290 61 323 68 346 82 _c
368 96 380 117 380 144 _c
380 168 371 187 355 200 _c
339 213 303 226 247 238 _c
216 245 _l
160 257 119 275 95 299 _c
70 323 58 356 58 399 _c
58 450 76 490 112 518 _c
148 546 200 560 268 560 _c
301 560 332 557 362 552 _c
391 547 418 540 443 531 _c
}_e{_cl}_e}_d
/t{392 0 27 0 368 702 _sc
183 702 _m
183 547 _l
368 547 _l
368 477 _l
183 477 _l
183 180 _l
183 135 189 106 201 94 _c
213 81 238 75 276 75 _c
368 75 _l
368 0 _l
276 0 _l
206 0 158 13 132 39 _c
106 65 93 112 93 180 _c
93 477 _l
27 477 _l
27 547 _l
93 547 _l
93 702 _l
183 702 _l
_cl}_d
/u{634 0 85 -13 543 560 _sc
85 216 _m
85 547 _l
175 547 _l
175 219 _l
175 167 185 129 205 103 _c
225 77 255 64 296 64 _c
344 64 383 79 411 110 _c
439 141 453 183 453 237 _c
453 547 _l
543 547 _l
543 0 _l
453 0 _l
453 84 _l
431 50 405 26 377 10 _c
348 -5 315 -13 277 -13 _c
214 -13 166 6 134 45 _c
101 83 85 140 85 216 _c
311 560 _m
311 560 _l
_cl}_d
/v{592 0 30 0 562 547 _sc
30 547 _m
125 547 _l
296 88 _l
467 547 _l
562 547 _l
357 0 _l
235 0 _l
30 547 _l
_cl}_d
end readonly def

/BuildGlyph
 {exch begin
 CharStrings exch
 2 copy known not{pop /.notdef}if
 true 3 1 roll get exec
 end}_d

/BuildChar {
 1 index /Encoding get exch get
 1 index /BuildGlyph get exec
}_d

FontName currentdict end definefont pop
%!PS-Adobe-3.0 Resource-Font
%%Title: DejaVu Sans Oblique
%%Copyright: Copyright (c) 2003 by Bitstream, Inc. All Rights Reserved. Copyright (c) 2006 by Tavmjong Bah. All Rights Reserved. DejaVu changes are in public domain 
%%Creator: Converted from TrueType to type 3 by PPR
25 dict begin
/_d{bind def}bind def
/_m{moveto}_d
/_l{lineto}_d
/_cl{closepath eofill}_d
/_c{curveto}_d
/_sc{7 -1 roll{setcachedevice}{pop pop pop pop pop pop}ifelse}_d
/_e{exec}_d
/FontName /DejaVuSans-Oblique def
/PaintType 0 def
/FontMatrix[.001 0 0 .001 0 0]def
/FontBBox[-1016 -350 1659 1068]def
/FontType 3 def
/Encoding [ /t /delta ] def
/FontInfo 10 dict dup begin
/FamilyName (DejaVu Sans) def
/FullName (DejaVu Sans Oblique) def
/Notice (Copyright (c) 2003 by Bitstream, Inc. All Rights Reserved. Copyright (c) 2006 by Tavmjong Bah. All Rights Reserved. DejaVu changes are in public domain ) def
/Weight (Oblique) def
/Version (Version 2.35) def
/ItalicAngle -11.0 def
/isFixedPitch false def
/UnderlinePosition -130 def
/UnderlineThickness 90 def
end readonly def
/CharStrings 3 dict dup begin
/.notdef 0 def
/t{{392 0 64 0 423 702 _sc
423 547 _m
409 477 _l
230 477 _l
172 180 _l
170 169 168 160 167 152 _c
166 144 166 139 166 135 _c
166 114 172 99 185 89 _c
197 79 217 75 245 75 _c
336 75 _l
321 0 _l
235 0 _l
181 0 141 10 115 31 _c
89 52 76 84 76 126 _c
76 133 76 141 77 150 _c
78 159 80 169 82 180 _c
140 477 _l
64 477 _l
78 547 _l
153 547 _l
183 702 _l
}_e{273 702 _l
243 547 _l
423 547 _l
_cl}_e}_d
/delta{{612 0 38 -13 557 742 _sc
542 633 _m
514 655 461 667 383 667 _c
300 667 255 648 248 610 _c
242 580 280 557 364 542 _c
428 530 476 505 508 469 _c
546 425 556 358 539 268 _c
521 182 486 113 432 63 _c
377 12 310 -13 232 -13 _c
154 -13 98 12 63 63 _c
28 113 20 183 38 273 _c
50 339 84 399 139 453 _c
160 473 184 490 211 502 _c
165 528 147 563 156 609 _c
}_e{173 697 253 742 397 742 _c
469 742 522 730 557 708 _c
542 633 _l
274 478 _m
250 468 226 451 204 428 _c
168 391 144 339 132 273 _c
119 207 123 155 144 118 _c
164 80 199 62 248 62 _c
295 62 336 81 372 119 _c
407 156 431 206 443 268 _c
455 332 450 380 427 412 _c
401 445 369 464 329 468 _c
308 470 290 473 274 478 _c
_cl}_e}_d
end readonly def

/BuildGlyph
 {exch begin
 CharStrings exch
 2 copy known not{pop /.notdef}if
 true 3 1 roll get exec
 end}_d

/BuildChar {
 1 index /Encoding get exch get
 1 index /BuildGlyph get exec
}_d

FontName currentdict end definefont pop
end
%%EndProlog
mpldict begin
-79.828 98.468 translate
771.656 595.063 0 0 clipbox
gsave
0 0 m
771.65625 0 l
771.65625 595.063125 l
0 595.063125 l
cl
1.000 setgray
fill
grestore
gsave
79.590625 64.66875 m
749.190625 64.66875 l
749.190625 563.62875 l
79.590625 563.62875 l
cl
1.000 setgray
fill
grestore
0.800 setlinewidth
1 setlinejoin
0 setlinecap
[] 0 setdash
0.000 setgray
gsave
/o {
gsave
newpath
translate
0.8 setlinewidth
1 setlinejoin
0 setlinecap
0 0 m
0 -3.5 l

gsave
0.000 setgray
fill
grestore
stroke
grestore
} bind def
79.5906 64.6688 o
grestore
/DejaVuSans findfont
24.000 scalefont
setfont
gsave
71.957813 39.434375 translate
0.000000 rotate
0.000000 0.000000 m /five glyphshow
grestore
gsave
/o {
gsave
newpath
translate
0.8 setlinewidth
1 setlinejoin
0 setlinecap
0 0 m
0 -3.5 l

gsave
0.000 setgray
fill
grestore
stroke
grestore
} bind def
153.991 64.6688 o
grestore
gsave
138.725000 39.434375 translate
0.000000 rotate
0.000000 0.000000 m /one glyphshow
15.269531 0.000000 m /zero glyphshow
grestore
gsave
/o {
gsave
newpath
translate
0.8 setlinewidth
1 setlinejoin
0 setlinecap
0 0 m
0 -3.5 l

gsave
0.000 setgray
fill
grestore
stroke
grestore
} bind def
228.391 64.6688 o
grestore
gsave
213.125000 39.434375 translate
0.000000 rotate
0.000000 0.000000 m /one glyphshow
15.269531 0.000000 m /five glyphshow
grestore
gsave
/o {
gsave
newpath
translate
0.8 setlinewidth
1 setlinejoin
0 setlinecap
0 0 m
0 -3.5 l

gsave
0.000 setgray
fill
grestore
stroke
grestore
} bind def
302.791 64.6688 o
grestore
gsave
287.525000 39.434375 translate
0.000000 rotate
0.000000 0.000000 m /two glyphshow
15.269531 0.000000 m /zero glyphshow
grestore
gsave
/o {
gsave
newpath
translate
0.8 setlinewidth
1 setlinejoin
0 setlinecap
0 0 m
0 -3.5 l

gsave
0.000 setgray
fill
grestore
stroke
grestore
} bind def
377.191 64.6688 o
grestore
gsave
361.925000 39.434375 translate
0.000000 rotate
0.000000 0.000000 m /two glyphshow
15.269531 0.000000 m /five glyphshow
grestore
gsave
/o {
gsave
newpath
translate
0.8 setlinewidth
1 setlinejoin
0 setlinecap
0 0 m
0 -3.5 l

gsave
0.000 setgray
fill
grestore
stroke
grestore
} bind def
451.591 64.6688 o
grestore
gsave
436.325000 39.434375 translate
0.000000 rotate
0.000000 0.000000 m /three glyphshow
15.269531 0.000000 m /zero glyphshow
grestore
gsave
/o {
gsave
newpath
translate
0.8 setlinewidth
1 setlinejoin
0 setlinecap
0 0 m
0 -3.5 l

gsave
0.000 setgray
fill
grestore
stroke
grestore
} bind def
525.991 64.6688 o
grestore
gsave
510.725000 39.434375 translate
0.000000 rotate
0.000000 0.000000 m /three glyphshow
15.269531 0.000000 m /five glyphshow
grestore
gsave
/o {
gsave
newpath
translate
0.8 setlinewidth
1 setlinejoin
0 setlinecap
0 0 m
0 -3.5 l

gsave
0.000 setgray
fill
grestore
stroke
grestore
} bind def
600.391 64.6688 o
grestore
gsave
585.125000 39.434375 translate
0.000000 rotate
0.000000 0.000000 m /four glyphshow
15.269531 0.000000 m /zero glyphshow
grestore
gsave
/o {
gsave
newpath
translate
0.8 setlinewidth
1 setlinejoin
0 setlinecap
0 0 m
0 -3.5 l

gsave
0.000 setgray
fill
grestore
stroke
grestore
} bind def
674.791 64.6688 o
grestore
gsave
659.525000 39.434375 translate
0.000000 rotate
0.000000 0.000000 m /four glyphshow
15.269531 0.000000 m /five glyphshow
grestore
gsave
/o {
gsave
newpath
translate
0.8 setlinewidth
1 setlinejoin
0 setlinecap
0 0 m
0 -3.5 l

gsave
0.000 setgray
fill
grestore
stroke
grestore
} bind def
749.191 64.6688 o
grestore
gsave
733.925000 39.434375 translate
0.000000 rotate
0.000000 0.000000 m /five glyphshow
15.269531 0.000000 m /zero glyphshow
grestore
gsave
352.039062 12.200000 translate
0.000000 rotate
0.000000 0.000000 m /S glyphshow
15.234375 0.000000 m /n glyphshow
30.445312 0.000000 m /a glyphshow
45.152344 0.000000 m /p glyphshow
60.386719 0.000000 m /s glyphshow
72.890625 0.000000 m /h glyphshow
88.101562 0.000000 m /o glyphshow
102.785156 0.000000 m /t glyphshow
112.195312 0.000000 m /s glyphshow
grestore
gsave
/o {
gsave
newpath
translate
0.8 setlinewidth
1 setlinejoin
0 setlinecap
0 0 m
-3.5 0 l

gsave
0.000 setgray
fill
grestore
stroke
grestore
} bind def
79.5906 85.445 o
grestore
gsave
34.434375 76.327799 translate
0.000000 rotate
0.000000 0.000000 m /zero glyphshow
15.269531 0.000000 m /period glyphshow
22.898438 0.000000 m /zero glyphshow
grestore
gsave
/o {
gsave
newpath
translate
0.8 setlinewidth
1 setlinejoin
0 setlinecap
0 0 m
-3.5 0 l

gsave
0.000 setgray
fill
grestore
stroke
grestore
} bind def
79.5906 186.307 o
grestore
gsave
34.434375 177.189437 translate
0.000000 rotate
0.000000 0.000000 m /zero glyphshow
15.269531 0.000000 m /period glyphshow
22.898438 0.000000 m /two glyphshow
grestore
gsave
/o {
gsave
newpath
translate
0.8 setlinewidth
1 setlinejoin
0 setlinecap
0 0 m
-3.5 0 l

gsave
0.000 setgray
fill
grestore
stroke
grestore
} bind def
79.5906 287.168 o
grestore
gsave
34.434375 278.051074 translate
0.000000 rotate
0.000000 0.000000 m /zero glyphshow
15.269531 0.000000 m /period glyphshow
22.898438 0.000000 m /four glyphshow
grestore
gsave
/o {
gsave
newpath
translate
0.8 setlinewidth
1 setlinejoin
0 setlinecap
0 0 m
-3.5 0 l

gsave
0.000 setgray
fill
grestore
stroke
grestore
} bind def
79.5906 388.03 o
grestore
gsave
34.434375 378.912712 translate
0.000000 rotate
0.000000 0.000000 m /zero glyphshow
15.269531 0.000000 m /period glyphshow
22.898438 0.000000 m /six glyphshow
grestore
gsave
/o {
gsave
newpath
translate
0.8 setlinewidth
1 setlinejoin
0 setlinecap
0 0 m
-3.5 0 l

gsave
0.000 setgray
fill
grestore
stroke
grestore
} bind def
79.5906 488.892 o
grestore
gsave
34.434375 479.774350 translate
0.000000 rotate
0.000000 0.000000 m /zero glyphshow
15.269531 0.000000 m /period glyphshow
22.898438 0.000000 m /eight glyphshow
grestore
gsave
25.434375 265.367500 translate
90.000000 rotate
0.000000 0.000000 m /F glyphshow
13.789062 0.000000 m /r glyphshow
23.656250 0.000000 m /a glyphshow
38.363281 0.000000 m /c glyphshow
51.558594 0.000000 m /t glyphshow
60.968750 0.000000 m /i glyphshow
67.636719 0.000000 m /o glyphshow
82.320312 0.000000 m /n glyphshow
grestore
3.000 setlinewidth
2 setlinecap
1.000 0.000 0.000 setrgbcolor
gsave
669.6 499 79.59 64.67 clipbox
79.590625 221.746882 m
94.470625 194.451201 l
109.350625 169.513162 l
124.230625 148.609587 l
139.110625 131.047055 l
153.990625 118.16198 l
168.870625 108.617948 l
183.750625 101.784572 l
198.630625 97.271014 l
213.510625 93.94258 l
228.390625 91.900131 l
243.270625 90.488068 l
258.150625 89.618137 l
273.030625 88.987752 l
287.910625 88.508659 l
302.790625 88.28172 l
317.670625 87.991743 l
332.550625 87.613512 l
347.430625 87.638727 l
362.310625 87.563081 l
377.190625 87.600904 l
392.070625 87.474827 l
406.950625 87.67655 l
421.830625 87.79002 l
436.710625 87.462219 l
451.590625 87.752197 l
466.470625 87.487435 l
481.350625 87.67655 l
496.230625 87.67655 l
511.110625 87.563081 l
525.990625 87.613512 l
540.870625 88.079997 l
555.750625 87.928704 l
570.630625 87.903489 l
585.510625 87.966528 l
600.390625 87.764804 l
615.270625 87.550473 l
630.150625 87.663943 l
645.030625 87.487435 l
659.910625 87.62612 l
674.790625 87.663943 l
689.670625 87.600904 l
704.550625 87.550473 l
719.430625 88.912105 l
734.310625 90.815869 l
749.190625 92.707025 l
stroke
grestore
0.000 0.500 0.000 setrgbcolor
gsave
669.6 499 79.59 64.67 clipbox
79.590625 188.601227 m
94.470625 183.608575 l
109.350625 178.855471 l
124.230625 174.039328 l
139.110625 169.538377 l
153.990625 165.07525 l
168.870625 161.444231 l
183.750625 157.989719 l
198.630625 154.093939 l
213.510625 150.273804 l
228.390625 146.831901 l
243.270625 142.053581 l
258.150625 138.094761 l
273.030625 134.526781 l
287.910625 131.047055 l
302.790625 127.416036 l
317.670625 124.440617 l
332.550625 121.364337 l
347.430625 118.93105 l
362.310625 116.422117 l
377.190625 113.459306 l
392.070625 111.530328 l
406.950625 109.727426 l
421.830625 107.848878 l
436.710625 106.285522 l
451.590625 104.734775 l
466.470625 103.49922 l
481.350625 102.490603 l
496.230625 101.532418 l
511.110625 100.42294 l
525.990625 99.805162 l
540.870625 99.363893 l
555.750625 98.292238 l
570.630625 97.750106 l
585.510625 97.195367 l
600.390625 96.564982 l
615.270625 96.211966 l
630.150625 95.80852 l
645.030625 95.253781 l
659.910625 94.686434 l
674.790625 94.131695 l
689.670625 93.904756 l
704.550625 93.551741 l
719.430625 95.316819 l
734.310625 97.321444 l
749.190625 99.036092 l
stroke
grestore
0.000 0.000 1.000 setrgbcolor
gsave
669.6 499 79.59 64.67 clipbox
79.590625 137.842607 m
94.470625 119.574043 l
109.350625 106.714184 l
124.230625 98.582215 l
139.110625 93.677818 l
153.990625 91.307569 l
168.870625 90.034191 l
183.750625 88.987752 l
198.630625 88.395189 l
213.510625 88.079997 l
228.390625 87.966528 l
243.270625 87.878274 l
258.150625 87.550473 l
273.030625 87.663943 l
287.910625 87.651335 l
302.790625 87.739589 l
317.670625 87.815235 l
332.550625 87.903489 l
347.430625 87.764804 l
362.310625 87.701766 l
377.190625 87.550473 l
392.070625 87.411789 l
406.950625 87.449612 l
421.830625 87.437004 l
436.710625 87.411789 l
451.590625 87.449612 l
466.470625 87.424396 l
481.350625 87.437004 l
496.230625 87.525258 l
511.110625 87.34875 l
525.990625 87.500042 l
540.870625 87.67655 l
555.750625 87.525258 l
570.630625 87.373965 l
585.510625 87.437004 l
600.390625 87.449612 l
615.270625 87.386573 l
630.150625 87.373965 l
645.030625 87.411789 l
659.910625 87.449612 l
674.790625 87.537866 l
689.670625 87.474827 l
704.550625 87.474827 l
719.430625 88.962536 l
734.310625 90.853692 l
749.190625 92.643986 l
stroke
grestore
1.000 0.000 0.000 setrgbcolor
gsave
669.6 499 79.59 64.67 clipbox
79.590625 162.843686 m
94.470625 151.963237 l
109.350625 143.251313 l
124.230625 138.044331 l
139.110625 133.240795 l
153.990625 131.160524 l
168.870625 130.429277 l
183.750625 130.240161 l
198.630625 130.341023 l
213.510625 130.920977 l
228.390625 131.500932 l
243.270625 133.480342 l
258.150625 134.804151 l
273.030625 136.203606 l
287.910625 138.031723 l
302.790625 138.788185 l
317.670625 140.754987 l
332.550625 142.204873 l
347.430625 144.133852 l
362.310625 146.201516 l
377.190625 147.916163 l
392.070625 149.164326 l
406.950625 150.362058 l
421.830625 151.963237 l
436.710625 153.476161 l
451.590625 153.917431 l
466.470625 155.430355 l
481.350625 157.044142 l
496.230625 158.002327 l
511.110625 158.620105 l
525.990625 158.04015 l
540.870625 159.225275 l
555.750625 160.385183 l
570.630625 160.839061 l
585.510625 160.914707 l
600.390625 161.482054 l
615.270625 161.973754 l
630.150625 162.213301 l
645.030625 162.919332 l
659.910625 163.53711 l
674.790625 164.293572 l
689.670625 165.037426 l
704.550625 164.709626 l
719.430625 182.196513 l
734.310625 201.43587 l
749.190625 220.511327 l
stroke
grestore
1.000 setlinewidth
0 setlinecap
gsave
669.6 499 79.59 64.67 clipbox
/o {
gsave
newpath
translate
1.0 setlinewidth
1 setlinejoin
0 setlinecap
0 -10 m
2.652031 -10 5.195799 -8.946337 7.071068 -7.071068 c
8.946337 -5.195799 10 -2.652031 10 0 c
10 2.652031 8.946337 5.195799 7.071068 7.071068 c
5.195799 8.946337 2.652031 10 0 10 c
-2.652031 10 -5.195799 8.946337 -7.071068 7.071068 c
-8.946337 5.195799 -10 2.652031 -10 0 c
-10 -2.652031 -8.946337 -5.195799 -7.071068 -7.071068 c
-5.195799 -8.946337 -2.652031 -10 0 -10 c
cl

gsave
grestore
stroke
grestore
} bind def
79.5906 162.844 o
94.4706 151.963 o
109.351 143.251 o
124.231 138.044 o
139.111 133.241 o
153.991 131.161 o
168.871 130.429 o
183.751 130.24 o
198.631 130.341 o
213.511 130.921 o
228.391 131.501 o
243.271 133.48 o
258.151 134.804 o
273.031 136.204 o
287.911 138.032 o
302.791 138.788 o
317.671 140.755 o
332.551 142.205 o
347.431 144.134 o
362.311 146.202 o
377.191 147.916 o
392.071 149.164 o
406.951 150.362 o
421.831 151.963 o
436.711 153.476 o
451.591 153.917 o
466.471 155.43 o
481.351 157.044 o
496.231 158.002 o
511.111 158.62 o
525.991 158.04 o
540.871 159.225 o
555.751 160.385 o
570.631 160.839 o
585.511 160.915 o
600.391 161.482 o
615.271 161.974 o
630.151 162.213 o
645.031 162.919 o
659.911 163.537 o
674.791 164.294 o
689.671 165.037 o
704.551 164.71 o
719.431 182.197 o
734.311 201.436 o
749.191 220.511 o
grestore
3.000 setlinewidth
2 setlinecap
0.000 0.500 0.000 setrgbcolor
gsave
669.6 499 79.59 64.67 clipbox
79.590625 243.659073 m
94.470625 247.239661 l
109.350625 252.370997 l
124.230625 259.885189 l
139.110625 267.878474 l
153.990625 275.833935 l
168.870625 284.444998 l
183.750625 293.850345 l
198.630625 302.587485 l
213.510625 312.055871 l
228.390625 321.473826 l
243.270625 330.412689 l
258.150625 339.41459 l
273.030625 347.71046 l
287.910625 355.602883 l
302.790625 364.150907 l
317.670625 372.988908 l
332.550625 381.070447 l
347.430625 388.168584 l
362.310625 394.938922 l
377.190625 402.465721 l
392.070625 408.794789 l
406.950625 416.107258 l
421.830625 423.243219 l
436.710625 428.84104 l
451.590625 434.665799 l
466.470625 440.629244 l
481.350625 447.525658 l
496.230625 451.736631 l
511.110625 458.670869 l
525.990625 463.133997 l
540.870625 467.962747 l
555.750625 472.816714 l
570.630625 477.632857 l
585.510625 482.247277 l
600.390625 486.080019 l
615.270625 489.849723 l
630.150625 495.006274 l
645.030625 498.460785 l
659.910625 501.953119 l
674.790625 505.218515 l
689.670625 509.870758 l
704.550625 511.875383 l
719.430625 521.646354 l
734.310625 531.682087 l
749.190625 540.94875 l
stroke
grestore
1.000 setlinewidth
0 setlinecap
gsave
669.6 499 79.59 64.67 clipbox
/o {
gsave
newpath
translate
1.0 setlinewidth
1 setlinejoin
0 setlinecap
0 -10 m
2.652031 -10 5.195799 -8.946337 7.071068 -7.071068 c
8.946337 -5.195799 10 -2.652031 10 0 c
10 2.652031 8.946337 5.195799 7.071068 7.071068 c
5.195799 8.946337 2.652031 10 0 10 c
-2.652031 10 -5.195799 8.946337 -7.071068 7.071068 c
-8.946337 5.195799 -10 2.652031 -10 0 c
-10 -2.652031 -8.946337 -5.195799 -7.071068 -7.071068 c
-5.195799 -8.946337 -2.652031 -10 0 -10 c
cl

gsave
grestore
stroke
grestore
} bind def
79.5906 243.659 o
94.4706 247.24 o
109.351 252.371 o
124.231 259.885 o
139.111 267.878 o
153.991 275.834 o
168.871 284.445 o
183.751 293.85 o
198.631 302.587 o
213.511 312.056 o
228.391 321.474 o
243.271 330.413 o
258.151 339.415 o
273.031 347.71 o
287.911 355.603 o
302.791 364.151 o
317.671 372.989 o
332.551 381.07 o
347.431 388.169 o
362.311 394.939 o
377.191 402.466 o
392.071 408.795 o
406.951 416.107 o
421.831 423.243 o
436.711 428.841 o
451.591 434.666 o
466.471 440.629 o
481.351 447.526 o
496.231 451.737 o
511.111 458.671 o
525.991 463.134 o
540.871 467.963 o
555.751 472.817 o
570.631 477.633 o
585.511 482.247 o
600.391 486.08 o
615.271 489.85 o
630.151 495.006 o
645.031 498.461 o
659.911 501.953 o
674.791 505.219 o
689.671 509.871 o
704.551 511.875 o
719.431 521.646 o
734.311 531.682 o
749.191 540.949 o
grestore
3.000 setlinewidth
2 setlinecap
0.000 0.000 1.000 setrgbcolor
gsave
669.6 499 79.59 64.67 clipbox
79.590625 177.443408 m
94.470625 158.405774 l
109.350625 144.562514 l
124.230625 134.035081 l
139.110625 125.827465 l
153.990625 120.897852 l
168.870625 116.800348 l
183.750625 114.631823 l
198.630625 114.102299 l
213.510625 114.694862 l
228.390625 115.955632 l
243.270625 117.405518 l
258.150625 118.994089 l
273.030625 121.061752 l
287.910625 123.520255 l
302.790625 125.310549 l
317.670625 126.079619 l
332.550625 128.802883 l
347.430625 130.757077 l
362.310625 132.270002 l
377.190625 134.413312 l
392.070625 136.140567 l
406.950625 139.141201 l
421.830625 140.79281 l
436.710625 142.381381 l
451.590625 143.604328 l
466.470625 145.318976 l
481.350625 146.0124 l
496.230625 148.029633 l
511.110625 149.517342 l
525.990625 151.370675 l
540.870625 152.530583 l
555.750625 154.068723 l
570.630625 155.342101 l
585.510625 156.842418 l
600.390625 156.817203 l
615.270625 158.216658 l
630.150625 159.502644 l
645.030625 160.473437 l
659.910625 162.604139 l
674.790625 163.373209 l
689.670625 164.608764 l
704.550625 165.693027 l
719.430625 178.830255 l
734.310625 192.446576 l
749.190625 205.93682 l
stroke
grestore
1.000 setlinewidth
0 setlinecap
gsave
669.6 499 79.59 64.67 clipbox
/o {
gsave
newpath
translate
1.0 setlinewidth
1 setlinejoin
0 setlinecap
0 -10 m
2.652031 -10 5.195799 -8.946337 7.071068 -7.071068 c
8.946337 -5.195799 10 -2.652031 10 0 c
10 2.652031 8.946337 5.195799 7.071068 7.071068 c
5.195799 8.946337 2.652031 10 0 10 c
-2.652031 10 -5.195799 8.946337 -7.071068 7.071068 c
-8.946337 5.195799 -10 2.652031 -10 0 c
-10 -2.652031 -8.946337 -5.195799 -7.071068 -7.071068 c
-5.195799 -8.946337 -2.652031 -10 0 -10 c
cl

gsave
grestore
stroke
grestore
} bind def
79.5906 177.443 o
94.4706 158.406 o
109.351 144.563 o
124.231 134.035 o
139.111 125.827 o
153.991 120.898 o
168.871 116.8 o
183.751 114.632 o
198.631 114.102 o
213.511 114.695 o
228.391 115.956 o
243.271 117.406 o
258.151 118.994 o
273.031 121.062 o
287.911 123.52 o
302.791 125.311 o
317.671 126.08 o
332.551 128.803 o
347.431 130.757 o
362.311 132.27 o
377.191 134.413 o
392.071 136.141 o
406.951 139.141 o
421.831 140.793 o
436.711 142.381 o
451.591 143.604 o
466.471 145.319 o
481.351 146.012 o
496.231 148.03 o
511.111 149.517 o
525.991 151.371 o
540.871 152.531 o
555.751 154.069 o
570.631 155.342 o
585.511 156.842 o
600.391 156.817 o
615.271 158.217 o
630.151 159.503 o
645.031 160.473 o
659.911 162.604 o
674.791 163.373 o
689.671 164.609 o
704.551 165.693 o
719.431 178.83 o
734.311 192.447 o
749.191 205.937 o
grestore
0.800 setlinewidth
0 setlinejoin
2 setlinecap
[] 0 setdash
0.000 setgray
gsave
79.590625 64.66875 m
79.590625 563.62875 l
stroke
grestore
gsave
749.190625 64.66875 m
749.190625 563.62875 l
stroke
grestore
gsave
79.590625 64.66875 m
749.190625 64.66875 l
stroke
grestore
gsave
79.590625 563.62875 m
749.190625 563.62875 l
stroke
grestore
gsave
132.460938 569.628750 translate
0.000000 rotate
0.000000 0.000000 m /F glyphshow
13.789062 0.000000 m /r glyphshow
23.656250 0.000000 m /a glyphshow
38.363281 0.000000 m /c glyphshow
51.558594 0.000000 m /t glyphshow
60.968750 0.000000 m /i glyphshow
67.636719 0.000000 m /o glyphshow
82.320312 0.000000 m /n glyphshow
97.531250 0.000000 m /space glyphshow
105.160156 0.000000 m /o glyphshow
119.843750 0.000000 m /f glyphshow
128.292969 0.000000 m /space glyphshow
135.921875 0.000000 m /U glyphshow
153.488281 0.000000 m /n glyphshow
168.699219 0.000000 m /d glyphshow
183.933594 0.000000 m /e glyphshow
198.699219 0.000000 m /t glyphshow
208.109375 0.000000 m /e glyphshow
222.875000 0.000000 m /c glyphshow
236.070312 0.000000 m /t glyphshow
245.480469 0.000000 m /e glyphshow
260.246094 0.000000 m /d glyphshow
275.480469 0.000000 m /space glyphshow
283.109375 0.000000 m /T glyphshow
297.722656 0.000000 m /r glyphshow
307.589844 0.000000 m /a glyphshow
322.296875 0.000000 m /c glyphshow
335.492188 0.000000 m /k glyphshow
349.390625 0.000000 m /s glyphshow
361.894531 0.000000 m /slash glyphshow
369.980469 0.000000 m /P glyphshow
384.437500 0.000000 m /a glyphshow
399.144531 0.000000 m /r glyphshow
409.011719 0.000000 m /t glyphshow
418.421875 0.000000 m /i glyphshow
425.089844 0.000000 m /c glyphshow
438.285156 0.000000 m /l glyphshow
444.953125 0.000000 m /e glyphshow
459.718750 0.000000 m /s glyphshow
472.222656 0.000000 m /comma glyphshow
479.851562 0.000000 m /space glyphshow
487.480469 0.000000 m /four glyphshow
502.750000 0.000000 m /zero glyphshow
518.019531 0.000000 m /zero glyphshow
533.289062 0.000000 m /zero glyphshow
548.558594 0.000000 m /zero glyphshow
grestore
1.000 setlinewidth
0 setlinecap
0.800 setgray
gsave
146.930625 419.535 m
336.930625 419.535 l
338.930625 419.535 339.930625 420.535 339.930625 422.535 c
339.930625 553.12875 l
339.930625 555.12875 338.930625 556.12875 336.930625 556.12875 c
146.930625 556.12875 l
144.930625 556.12875 143.930625 555.12875 143.930625 553.12875 c
143.930625 422.535 l
143.930625 420.535 144.930625 419.535 146.930625 419.535 c
cl
gsave
1.000 setgray
fill
grestore
stroke
grestore
3.000 setlinewidth
1 setlinejoin
2 setlinecap
[] 0 setdash
1.000 0.000 0.000 setrgbcolor
gsave
149.930625 543.988125 m
179.930625 543.988125 l
stroke
grestore
0.000 setgray
gsave
191.930625 538.738125 translate
0.000000 rotate
/DejaVuSans findfont
15.0 scalefont
setfont
0.000000 0.609375 moveto
/S glyphshow

9.521484 0.609375 moveto
/T glyphshow

18.684082 0.609375 moveto
/B glyphshow

28.974609 0.609375 moveto
/space glyphshow

33.742676 0.609375 moveto
/D glyphshow

45.292969 0.609375 moveto
/a glyphshow

54.484863 0.609375 moveto
/v glyphshow

63.361816 0.609375 moveto
/i glyphshow

67.529297 0.609375 moveto
/s glyphshow

75.344238 0.609375 moveto
/comma glyphshow

80.112305 0.609375 moveto
/space glyphshow

84.880371 0.609375 moveto
/three glyphshow

/DejaVuSans-Oblique findfont
15.0 scalefont
setfont
94.423828 0.609375 moveto
/delta glyphshow

103.601074 0.609375 moveto
/t glyphshow


grestore
0.000 0.500 0.000 setrgbcolor
gsave
149.930625 521.9725 m
179.930625 521.9725 l
stroke
grestore
0.000 setgray
gsave
191.930625 516.722500 translate
0.000000 rotate
/DejaVuSans findfont
15.0 scalefont
setfont
0.000000 0.609375 moveto
/S glyphshow

9.521484 0.609375 moveto
/T glyphshow

18.684082 0.609375 moveto
/B glyphshow

28.974609 0.609375 moveto
/space glyphshow

33.742676 0.609375 moveto
/i glyphshow

37.910156 0.609375 moveto
/n glyphshow

47.416992 0.609375 moveto
/hyphen glyphshow

52.829590 0.609375 moveto
/h glyphshow

62.336426 0.609375 moveto
/o glyphshow

71.513672 0.609375 moveto
/u glyphshow

81.020508 0.609375 moveto
/s glyphshow

88.835449 0.609375 moveto
/e glyphshow

98.063965 0.609375 moveto
/comma glyphshow

102.832031 0.609375 moveto
/space glyphshow

107.600098 0.609375 moveto
/three glyphshow

/DejaVuSans-Oblique findfont
15.0 scalefont
setfont
117.143555 0.609375 moveto
/delta glyphshow

126.320801 0.609375 moveto
/t glyphshow


grestore
0.000 0.000 1.000 setrgbcolor
gsave
149.930625 499.956875 m
179.930625 499.956875 l
stroke
grestore
0.000 setgray
gsave
191.930625 494.706875 translate
0.000000 rotate
/DejaVuSans findfont
15.0 scalefont
setfont
0.000000 0.859375 moveto
/O glyphshow

11.806641 0.859375 moveto
/u glyphshow

21.313477 0.859375 moveto
/r glyphshow

27.480469 0.859375 moveto
/s glyphshow

35.295410 0.859375 moveto
/comma glyphshow

40.063477 0.859375 moveto
/space glyphshow

44.831543 0.859375 moveto
/three glyphshow

/DejaVuSans-Oblique findfont
15.0 scalefont
setfont
54.375000 0.859375 moveto
/delta glyphshow

63.552246 0.859375 moveto
/t glyphshow


grestore
1.000 0.000 0.000 setrgbcolor
gsave
149.930625 477.94125 m
179.930625 477.94125 l
stroke
grestore
1.000 setlinewidth
0 setlinecap
gsave
/o {
gsave
newpath
translate
1.0 setlinewidth
1 setlinejoin
0 setlinecap
0 -10 m
2.652031 -10 5.195799 -8.946337 7.071068 -7.071068 c
8.946337 -5.195799 10 -2.652031 10 0 c
10 2.652031 8.946337 5.195799 7.071068 7.071068 c
5.195799 8.946337 2.652031 10 0 10 c
-2.652031 10 -5.195799 8.946337 -7.071068 7.071068 c
-8.946337 5.195799 -10 2.652031 -10 0 c
-10 -2.652031 -8.946337 -5.195799 -7.071068 -7.071068 c
-5.195799 -8.946337 -2.652031 -10 0 -10 c
cl

gsave
grestore
stroke
grestore
} bind def
164.931 477.941 o
grestore
0.000 setgray
gsave
191.930625 472.691250 translate
0.000000 rotate
/DejaVuSans findfont
15.0 scalefont
setfont
0.000000 0.609375 moveto
/S glyphshow

9.521484 0.609375 moveto
/T glyphshow

18.684082 0.609375 moveto
/B glyphshow

28.974609 0.609375 moveto
/space glyphshow

33.742676 0.609375 moveto
/D glyphshow

45.292969 0.609375 moveto
/a glyphshow

54.484863 0.609375 moveto
/v glyphshow

63.361816 0.609375 moveto
/i glyphshow

67.529297 0.609375 moveto
/s glyphshow

75.344238 0.609375 moveto
/comma glyphshow

80.112305 0.609375 moveto
/space glyphshow

84.880371 0.609375 moveto
/one glyphshow

94.423828 0.609375 moveto
/five glyphshow

/DejaVuSans-Oblique findfont
15.0 scalefont
setfont
103.967285 0.609375 moveto
/delta glyphshow

113.144531 0.609375 moveto
/t glyphshow


grestore
3.000 setlinewidth
2 setlinecap
0.000 0.500 0.000 setrgbcolor
gsave
149.930625 455.925625 m
179.930625 455.925625 l
stroke
grestore
1.000 setlinewidth
0 setlinecap
gsave
/o {
gsave
newpath
translate
1.0 setlinewidth
1 setlinejoin
0 setlinecap
0 -10 m
2.652031 -10 5.195799 -8.946337 7.071068 -7.071068 c
8.946337 -5.195799 10 -2.652031 10 0 c
10 2.652031 8.946337 5.195799 7.071068 7.071068 c
5.195799 8.946337 2.652031 10 0 10 c
-2.652031 10 -5.195799 8.946337 -7.071068 7.071068 c
-8.946337 5.195799 -10 2.652031 -10 0 c
-10 -2.652031 -8.946337 -5.195799 -7.071068 -7.071068 c
-5.195799 -8.946337 -2.652031 -10 0 -10 c
cl

gsave
grestore
stroke
grestore
} bind def
164.931 455.926 o
grestore
0.000 setgray
gsave
191.930625 450.675625 translate
0.000000 rotate
/DejaVuSans findfont
15.0 scalefont
setfont
0.000000 0.609375 moveto
/S glyphshow

9.521484 0.609375 moveto
/T glyphshow

18.684082 0.609375 moveto
/B glyphshow

28.974609 0.609375 moveto
/space glyphshow

33.742676 0.609375 moveto
/i glyphshow

37.910156 0.609375 moveto
/n glyphshow

47.416992 0.609375 moveto
/hyphen glyphshow

52.829590 0.609375 moveto
/h glyphshow

62.336426 0.609375 moveto
/o glyphshow

71.513672 0.609375 moveto
/u glyphshow

81.020508 0.609375 moveto
/s glyphshow

88.835449 0.609375 moveto
/e glyphshow

98.063965 0.609375 moveto
/comma glyphshow

102.832031 0.609375 moveto
/space glyphshow

107.600098 0.609375 moveto
/one glyphshow

117.143555 0.609375 moveto
/five glyphshow

/DejaVuSans-Oblique findfont
15.0 scalefont
setfont
126.687012 0.609375 moveto
/delta glyphshow

135.864258 0.609375 moveto
/t glyphshow


grestore
3.000 setlinewidth
2 setlinecap
0.000 0.000 1.000 setrgbcolor
gsave
149.930625 433.91 m
179.930625 433.91 l
stroke
grestore
1.000 setlinewidth
0 setlinecap
gsave
/o {
gsave
newpath
translate
1.0 setlinewidth
1 setlinejoin
0 setlinecap
0 -10 m
2.652031 -10 5.195799 -8.946337 7.071068 -7.071068 c
8.946337 -5.195799 10 -2.652031 10 0 c
10 2.652031 8.946337 5.195799 7.071068 7.071068 c
5.195799 8.946337 2.652031 10 0 10 c
-2.652031 10 -5.195799 8.946337 -7.071068 7.071068 c
-8.946337 5.195799 -10 2.652031 -10 0 c
-10 -2.652031 -8.946337 -5.195799 -7.071068 -7.071068 c
-5.195799 -8.946337 -2.652031 -10 0 -10 c
cl

gsave
grestore
stroke
grestore
} bind def
164.931 433.91 o
grestore
0.000 setgray
gsave
191.930625 428.660000 translate
0.000000 rotate
/DejaVuSans findfont
15.0 scalefont
setfont
0.000000 0.859375 moveto
/O glyphshow

11.806641 0.859375 moveto
/u glyphshow

21.313477 0.859375 moveto
/r glyphshow

27.480469 0.859375 moveto
/s glyphshow

35.295410 0.859375 moveto
/comma glyphshow

40.063477 0.859375 moveto
/space glyphshow

44.831543 0.859375 moveto
/one glyphshow

54.375000 0.859375 moveto
/five glyphshow

/DejaVuSans-Oblique findfont
15.0 scalefont
setfont
63.918457 0.859375 moveto
/delta glyphshow

73.095703 0.859375 moveto
/t glyphshow


grestore

end
showpage
