%!PS-Adobe-3.0 EPSF-3.0
%%Title: /home/yin/0.10_error_thin_3methods.eps
%%Creator: matplotlib version 3.1.1, http://matplotlib.org/
%%CreationDate: Sat May  9 16:47:48 2020
%%Orientation: portrait
%%BoundingBox: -87.46093749999999 98.08562500000005 699.4609375 693.914375
%%EndComments
%%BeginProlog
/mpldict 9 dict def
mpldict begin
/m { moveto } bind def
/l { lineto } bind def
/r { rlineto } bind def
/c { curveto } bind def
/cl { closepath } bind def
/box {
m
1 index 0 r
0 exch r
neg 0 r
cl
} bind def
/clipbox {
box
clip
newpath
} bind def
%!PS-Adobe-3.0 Resource-Font
%%Title: DejaVu Sans
%%Copyright: Copyright (c) 2003 by Bitstream, Inc. All Rights Reserved. Copyright (c) 2006 by Tavmjong Bah. All Rights Reserved. DejaVu changes are in public domain 
%%Creator: Converted from TrueType to type 3 by PPR
25 dict begin
/_d{bind def}bind def
/_m{moveto}_d
/_l{lineto}_d
/_cl{closepath eofill}_d
/_c{curveto}_d
/_sc{7 -1 roll{setcachedevice}{pop pop pop pop pop pop}ifelse}_d
/_e{exec}_d
/FontName /DejaVuSans def
/PaintType 0 def
/FontMatrix[.001 0 0 .001 0 0]def
/FontBBox[-1021 -463 1793 1232]def
/FontType 3 def
/Encoding [ /space /parenleft /parenright /comma /hyphen /period /zero /one /two /three /four /five /six /seven /eight /B /D /E /K /L /M /P /S /T /a /c /d /e /f /h /i /l /n /o /p /r /s /t /u /v /x ] def
/FontInfo 10 dict dup begin
/FamilyName (DejaVu Sans) def
/FullName (DejaVu Sans) def
/Notice (Copyright (c) 2003 by Bitstream, Inc. All Rights Reserved. Copyright (c) 2006 by Tavmjong Bah. All Rights Reserved. DejaVu changes are in public domain ) def
/Weight (Book) def
/Version (Version 2.35) def
/ItalicAngle 0.0 def
/isFixedPitch false def
/UnderlinePosition -130 def
/UnderlineThickness 90 def
end readonly def
/CharStrings 42 dict dup begin
/.notdef 0 def
/space{318 0 0 0 0 0 _sc
}_d
/parenleft{390 0 86 -131 310 759 _sc
310 759 _m
266 683 234 609 213 536 _c
191 463 181 389 181 314 _c
181 238 191 164 213 91 _c
234 17 266 -56 310 -131 _c
232 -131 _l
183 -54 146 20 122 94 _c
98 168 86 241 86 314 _c
86 386 98 459 122 533 _c
146 607 182 682 232 759 _c
310 759 _l
_cl}_d
/parenright{390 0 80 -131 304 759 _sc
80 759 _m
158 759 _l
206 682 243 607 267 533 _c
291 459 304 386 304 314 _c
304 241 291 168 267 94 _c
243 20 206 -54 158 -131 _c
80 -131 _l
123 -56 155 17 177 91 _c
198 164 209 238 209 314 _c
209 389 198 463 177 536 _c
155 609 123 683 80 759 _c
_cl}_d
/comma{318 0 77 -115 220 124 _sc
117 124 _m
220 124 _l
220 40 _l
140 -115 _l
77 -115 _l
117 40 _l
117 124 _l
_cl}_d
/hyphen{361 0 49 234 312 314 _sc
49 314 _m
312 314 _l
312 234 _l
49 234 _l
49 314 _l
_cl}_d
/period{318 0 107 0 210 124 _sc
107 124 _m
210 124 _l
210 0 _l
107 0 _l
107 124 _l
_cl}_d
/zero{636 0 66 -13 570 742 _sc
318 664 _m
267 664 229 639 203 589 _c
177 539 165 464 165 364 _c
165 264 177 189 203 139 _c
229 89 267 64 318 64 _c
369 64 407 89 433 139 _c
458 189 471 264 471 364 _c
471 464 458 539 433 589 _c
407 639 369 664 318 664 _c
318 742 _m
399 742 461 709 505 645 _c
548 580 570 486 570 364 _c
570 241 548 147 505 83 _c
461 19 399 -13 318 -13 _c
236 -13 173 19 130 83 _c
87 147 66 241 66 364 _c
66 486 87 580 130 645 _c
173 709 236 742 318 742 _c
_cl}_d
/one{636 0 110 0 544 729 _sc
124 83 _m
285 83 _l
285 639 _l
110 604 _l
110 694 _l
284 729 _l
383 729 _l
383 83 _l
544 83 _l
544 0 _l
124 0 _l
124 83 _l
_cl}_d
/two{{636 0 73 0 536 742 _sc
192 83 _m
536 83 _l
536 0 _l
73 0 _l
73 83 _l
110 121 161 173 226 239 _c
290 304 331 346 348 365 _c
380 400 402 430 414 455 _c
426 479 433 504 433 528 _c
433 566 419 598 392 622 _c
365 646 330 659 286 659 _c
255 659 222 653 188 643 _c
154 632 117 616 78 594 _c
78 694 _l
118 710 155 722 189 730 _c
223 738 255 742 284 742 _c
}_e{359 742 419 723 464 685 _c
509 647 532 597 532 534 _c
532 504 526 475 515 449 _c
504 422 484 390 454 354 _c
446 344 420 317 376 272 _c
332 227 271 164 192 83 _c
_cl}_e}_d
/three{{636 0 76 -13 556 742 _sc
406 393 _m
453 383 490 362 516 330 _c
542 298 556 258 556 212 _c
556 140 531 84 482 45 _c
432 6 362 -13 271 -13 _c
240 -13 208 -10 176 -4 _c
144 1 110 10 76 22 _c
76 117 _l
103 101 133 89 166 81 _c
198 73 232 69 268 69 _c
330 69 377 81 409 105 _c
441 129 458 165 458 212 _c
458 254 443 288 413 312 _c
383 336 341 349 287 349 _c
}_e{202 349 _l
202 430 _l
291 430 _l
339 430 376 439 402 459 _c
428 478 441 506 441 543 _c
441 580 427 609 401 629 _c
374 649 336 659 287 659 _c
260 659 231 656 200 650 _c
169 644 135 635 98 623 _c
98 711 _l
135 721 170 729 203 734 _c
235 739 266 742 296 742 _c
370 742 429 725 473 691 _c
517 657 539 611 539 553 _c
539 513 527 479 504 451 _c
481 423 448 403 406 393 _c
_cl}_e}_d
/four{636 0 49 0 580 729 _sc
378 643 _m
129 254 _l
378 254 _l
378 643 _l
352 729 _m
476 729 _l
476 254 _l
580 254 _l
580 172 _l
476 172 _l
476 0 _l
378 0 _l
378 172 _l
49 172 _l
49 267 _l
352 729 _l
_cl}_d
/five{{636 0 77 -13 549 729 _sc
108 729 _m
495 729 _l
495 646 _l
198 646 _l
198 467 _l
212 472 227 476 241 478 _c
255 480 270 482 284 482 _c
365 482 429 459 477 415 _c
525 370 549 310 549 234 _c
549 155 524 94 475 51 _c
426 8 357 -13 269 -13 _c
238 -13 207 -10 175 -6 _c
143 -1 111 6 77 17 _c
77 116 _l
106 100 136 88 168 80 _c
199 72 232 69 267 69 _c
}_e{323 69 368 83 401 113 _c
433 143 450 183 450 234 _c
450 284 433 324 401 354 _c
368 384 323 399 267 399 _c
241 399 214 396 188 390 _c
162 384 135 375 108 363 _c
108 729 _l
_cl}_e}_d
/six{{636 0 70 -13 573 742 _sc
330 404 _m
286 404 251 388 225 358 _c
199 328 186 286 186 234 _c
186 181 199 139 225 109 _c
251 79 286 64 330 64 _c
374 64 409 79 435 109 _c
461 139 474 181 474 234 _c
474 286 461 328 435 358 _c
409 388 374 404 330 404 _c
526 713 _m
526 623 _l
501 635 476 644 451 650 _c
425 656 400 659 376 659 _c
310 659 260 637 226 593 _c
}_e{192 549 172 482 168 394 _c
187 422 211 444 240 459 _c
269 474 301 482 336 482 _c
409 482 467 459 509 415 _c
551 371 573 310 573 234 _c
573 159 550 99 506 54 _c
462 9 403 -13 330 -13 _c
246 -13 181 19 137 83 _c
92 147 70 241 70 364 _c
70 479 97 571 152 639 _c
206 707 280 742 372 742 _c
396 742 421 739 447 735 _c
472 730 498 723 526 713 _c
_cl}_e}_d
/seven{636 0 82 0 551 729 _sc
82 729 _m
551 729 _l
551 687 _l
286 0 _l
183 0 _l
432 646 _l
82 646 _l
82 729 _l
_cl}_d
/eight{{636 0 68 -13 568 742 _sc
318 346 _m
271 346 234 333 207 308 _c
180 283 167 249 167 205 _c
167 161 180 126 207 101 _c
234 76 271 64 318 64 _c
364 64 401 76 428 102 _c
455 127 469 161 469 205 _c
469 249 455 283 429 308 _c
402 333 365 346 318 346 _c
219 388 _m
177 398 144 418 120 447 _c
96 476 85 511 85 553 _c
85 611 105 657 147 691 _c
188 725 245 742 318 742 _c
}_e{390 742 447 725 489 691 _c
530 657 551 611 551 553 _c
551 511 539 476 515 447 _c
491 418 459 398 417 388 _c
464 377 501 355 528 323 _c
554 291 568 251 568 205 _c
568 134 546 80 503 43 _c
459 5 398 -13 318 -13 _c
237 -13 175 5 132 43 _c
89 80 68 134 68 205 _c
68 251 81 291 108 323 _c
134 355 171 377 219 388 _c
183 544 _m
183 506 194 476 218 455 _c
}_e{242 434 275 424 318 424 _c
360 424 393 434 417 455 _c
441 476 453 506 453 544 _c
453 582 441 611 417 632 _c
393 653 360 664 318 664 _c
275 664 242 653 218 632 _c
194 611 183 582 183 544 _c
_cl}_e}_d
/B{{686 0 98 0 615 729 _sc
197 348 _m
197 81 _l
355 81 _l
408 81 447 92 473 114 _c
498 136 511 169 511 215 _c
511 260 498 293 473 315 _c
447 337 408 348 355 348 _c
197 348 _l
197 648 _m
197 428 _l
343 428 _l
391 428 426 437 450 455 _c
474 473 486 500 486 538 _c
486 574 474 602 450 620 _c
426 638 391 648 343 648 _c
197 648 _l
98 729 _m
350 729 _l
}_e{425 729 483 713 524 682 _c
564 650 585 606 585 549 _c
585 504 574 468 553 442 _c
532 416 502 399 462 393 _c
510 382 548 360 575 327 _c
601 294 615 253 615 204 _c
615 138 592 88 548 53 _c
504 17 441 0 360 0 _c
98 0 _l
98 729 _l
_cl}_e}_d
/D{770 0 98 0 711 729 _sc
197 648 _m
197 81 _l
316 81 _l
416 81 490 103 537 149 _c
583 195 607 267 607 365 _c
607 463 583 534 537 580 _c
490 625 416 648 316 648 _c
197 648 _l
98 729 _m
301 729 _l
442 729 546 699 612 641 _c
678 582 711 490 711 365 _c
711 239 677 147 611 88 _c
545 29 441 0 301 0 _c
98 0 _l
98 729 _l
_cl}_d
/E{632 0 98 0 568 729 _sc
98 729 _m
559 729 _l
559 646 _l
197 646 _l
197 430 _l
544 430 _l
544 347 _l
197 347 _l
197 83 _l
568 83 _l
568 0 _l
98 0 _l
98 729 _l
_cl}_d
/K{656 0 98 0 677 729 _sc
98 729 _m
197 729 _l
197 421 _l
524 729 _l
651 729 _l
289 389 _l
677 0 _l
547 0 _l
197 351 _l
197 0 _l
98 0 _l
98 729 _l
_cl}_d
/L{557 0 98 0 552 729 _sc
98 729 _m
197 729 _l
197 83 _l
552 83 _l
552 0 _l
98 0 _l
98 729 _l
_cl}_d
/M{863 0 98 0 765 729 _sc
98 729 _m
245 729 _l
431 233 _l
618 729 _l
765 729 _l
765 0 _l
669 0 _l
669 640 _l
481 140 _l
382 140 _l
194 640 _l
194 0 _l
98 0 _l
98 729 _l
_cl}_d
/P{603 0 98 0 569 729 _sc
197 648 _m
197 374 _l
321 374 _l
367 374 402 385 427 409 _c
452 433 465 467 465 511 _c
465 555 452 588 427 612 _c
402 636 367 648 321 648 _c
197 648 _l
98 729 _m
321 729 _l
402 729 464 710 506 673 _c
548 636 569 582 569 511 _c
569 439 548 384 506 348 _c
464 311 402 293 321 293 _c
197 293 _l
197 0 _l
98 0 _l
98 729 _l
_cl}_d
/S{{635 0 66 -13 579 742 _sc
535 705 _m
535 609 _l
497 627 462 640 429 649 _c
395 657 363 662 333 662 _c
279 662 237 651 208 631 _c
179 610 165 580 165 542 _c
165 510 174 485 194 469 _c
213 452 250 439 304 429 _c
364 417 _l
437 403 491 378 526 343 _c
561 307 579 260 579 201 _c
579 130 555 77 508 41 _c
460 5 391 -13 300 -13 _c
265 -13 228 -9 189 -2 _c
}_e{150 5 110 16 69 32 _c
69 134 _l
109 111 148 94 186 83 _c
224 71 262 66 300 66 _c
356 66 399 77 430 99 _c
460 121 476 152 476 194 _c
476 230 465 258 443 278 _c
421 298 385 313 335 323 _c
275 335 _l
201 349 148 372 115 404 _c
82 435 66 478 66 534 _c
66 598 88 649 134 686 _c
179 723 242 742 322 742 _c
356 742 390 739 426 733 _c
461 727 497 717 535 705 _c
}_e{_cl}_e}_d
/T{611 0 -2 0 614 729 _sc
-2 729 _m
614 729 _l
614 646 _l
355 646 _l
355 0 _l
256 0 _l
256 646 _l
-2 646 _l
-2 729 _l
_cl}_d
/a{{613 0 60 -13 522 560 _sc
343 275 _m
270 275 220 266 192 250 _c
164 233 150 205 150 165 _c
150 133 160 107 181 89 _c
202 70 231 61 267 61 _c
317 61 357 78 387 114 _c
417 149 432 196 432 255 _c
432 275 _l
343 275 _l
522 312 _m
522 0 _l
432 0 _l
432 83 _l
411 49 385 25 355 10 _c
325 -5 287 -13 243 -13 _c
187 -13 142 2 109 33 _c
76 64 60 106 60 159 _c
}_e{60 220 80 266 122 298 _c
163 329 224 345 306 345 _c
432 345 _l
432 354 _l
432 395 418 427 391 450 _c
364 472 326 484 277 484 _c
245 484 215 480 185 472 _c
155 464 127 453 100 439 _c
100 522 _l
132 534 164 544 195 550 _c
226 556 256 560 286 560 _c
365 560 424 539 463 498 _c
502 457 522 395 522 312 _c
_cl}_e}_d
/c{{550 0 55 -13 488 560 _sc
488 526 _m
488 442 _l
462 456 437 466 411 473 _c
385 480 360 484 334 484 _c
276 484 230 465 198 428 _c
166 391 150 339 150 273 _c
150 206 166 154 198 117 _c
230 80 276 62 334 62 _c
360 62 385 65 411 72 _c
437 79 462 90 488 104 _c
488 21 _l
462 9 436 0 410 -5 _c
383 -10 354 -13 324 -13 _c
242 -13 176 12 128 64 _c
}_e{79 115 55 185 55 273 _c
55 362 79 432 128 483 _c
177 534 244 560 330 560 _c
358 560 385 557 411 551 _c
437 545 463 537 488 526 _c
_cl}_e}_d
/d{{635 0 55 -13 544 760 _sc
454 464 _m
454 760 _l
544 760 _l
544 0 _l
454 0 _l
454 82 _l
435 49 411 25 382 10 _c
353 -5 319 -13 279 -13 _c
213 -13 159 13 117 65 _c
75 117 55 187 55 273 _c
55 359 75 428 117 481 _c
159 533 213 560 279 560 _c
319 560 353 552 382 536 _c
411 520 435 496 454 464 _c
148 273 _m
148 207 161 155 188 117 _c
215 79 253 61 301 61 _c
}_e{348 61 385 79 413 117 _c
440 155 454 207 454 273 _c
454 339 440 390 413 428 _c
385 466 348 485 301 485 _c
253 485 215 466 188 428 _c
161 390 148 339 148 273 _c
_cl}_e}_d
/e{{615 0 55 -13 562 560 _sc
562 296 _m
562 252 _l
149 252 _l
153 190 171 142 205 110 _c
238 78 284 62 344 62 _c
378 62 412 66 444 74 _c
476 82 509 95 541 113 _c
541 28 _l
509 14 476 3 442 -3 _c
408 -9 373 -13 339 -13 _c
251 -13 182 12 131 62 _c
80 112 55 181 55 268 _c
55 357 79 428 127 481 _c
175 533 241 560 323 560 _c
397 560 455 536 498 489 _c
}_e{540 441 562 377 562 296 _c
472 322 _m
471 371 457 410 431 440 _c
404 469 368 484 324 484 _c
274 484 234 469 204 441 _c
174 413 156 373 152 322 _c
472 322 _l
_cl}_e}_d
/f{352 0 23 0 371 760 _sc
371 760 _m
371 685 _l
285 685 _l
253 685 230 678 218 665 _c
205 652 199 629 199 595 _c
199 547 _l
347 547 _l
347 477 _l
199 477 _l
199 0 _l
109 0 _l
109 477 _l
23 477 _l
23 547 _l
109 547 _l
109 585 _l
109 645 123 690 151 718 _c
179 746 224 760 286 760 _c
371 760 _l
_cl}_d
/h{634 0 91 0 549 760 _sc
549 330 _m
549 0 _l
459 0 _l
459 327 _l
459 379 448 417 428 443 _c
408 469 378 482 338 482 _c
289 482 251 466 223 435 _c
195 404 181 362 181 309 _c
181 0 _l
91 0 _l
91 760 _l
181 760 _l
181 462 _l
202 494 227 519 257 535 _c
286 551 320 560 358 560 _c
420 560 468 540 500 501 _c
532 462 549 405 549 330 _c
_cl}_d
/i{278 0 94 0 184 760 _sc
94 547 _m
184 547 _l
184 0 _l
94 0 _l
94 547 _l
94 760 _m
184 760 _l
184 646 _l
94 646 _l
94 760 _l
_cl}_d
/l{278 0 94 0 184 760 _sc
94 760 _m
184 760 _l
184 0 _l
94 0 _l
94 760 _l
_cl}_d
/n{634 0 91 0 549 560 _sc
549 330 _m
549 0 _l
459 0 _l
459 327 _l
459 379 448 417 428 443 _c
408 469 378 482 338 482 _c
289 482 251 466 223 435 _c
195 404 181 362 181 309 _c
181 0 _l
91 0 _l
91 547 _l
181 547 _l
181 462 _l
202 494 227 519 257 535 _c
286 551 320 560 358 560 _c
420 560 468 540 500 501 _c
532 462 549 405 549 330 _c
_cl}_d
/o{612 0 55 -13 557 560 _sc
306 484 _m
258 484 220 465 192 427 _c
164 389 150 338 150 273 _c
150 207 163 156 191 118 _c
219 80 257 62 306 62 _c
354 62 392 80 420 118 _c
448 156 462 207 462 273 _c
462 337 448 389 420 427 _c
392 465 354 484 306 484 _c
306 560 _m
384 560 445 534 490 484 _c
534 433 557 363 557 273 _c
557 183 534 113 490 63 _c
445 12 384 -13 306 -13 _c
227 -13 165 12 121 63 _c
77 113 55 183 55 273 _c
55 363 77 433 121 484 _c
165 534 227 560 306 560 _c
_cl}_d
/p{{635 0 91 -207 580 560 _sc
181 82 _m
181 -207 _l
91 -207 _l
91 547 _l
181 547 _l
181 464 _l
199 496 223 520 252 536 _c
281 552 316 560 356 560 _c
422 560 476 533 518 481 _c
559 428 580 359 580 273 _c
580 187 559 117 518 65 _c
476 13 422 -13 356 -13 _c
316 -13 281 -5 252 10 _c
223 25 199 49 181 82 _c
487 273 _m
487 339 473 390 446 428 _c
418 466 381 485 334 485 _c
}_e{286 485 249 466 222 428 _c
194 390 181 339 181 273 _c
181 207 194 155 222 117 _c
249 79 286 61 334 61 _c
381 61 418 79 446 117 _c
473 155 487 207 487 273 _c
_cl}_e}_d
/r{411 0 91 0 411 560 _sc
411 463 _m
401 469 390 473 378 476 _c
366 478 353 480 339 480 _c
288 480 249 463 222 430 _c
194 397 181 350 181 288 _c
181 0 _l
91 0 _l
91 547 _l
181 547 _l
181 462 _l
199 495 224 520 254 536 _c
284 552 321 560 365 560 _c
371 560 378 559 386 559 _c
393 558 401 557 411 555 _c
411 463 _l
_cl}_d
/s{{521 0 54 -13 472 560 _sc
443 531 _m
443 446 _l
417 458 391 468 364 475 _c
336 481 308 485 279 485 _c
234 485 200 478 178 464 _c
156 450 145 430 145 403 _c
145 382 153 366 169 354 _c
185 342 217 330 265 320 _c
296 313 _l
360 299 405 279 432 255 _c
458 230 472 195 472 151 _c
472 100 452 60 412 31 _c
372 1 316 -13 246 -13 _c
216 -13 186 -10 154 -5 _c
}_e{122 0 89 8 54 20 _c
54 113 _l
87 95 120 82 152 74 _c
184 65 216 61 248 61 _c
290 61 323 68 346 82 _c
368 96 380 117 380 144 _c
380 168 371 187 355 200 _c
339 213 303 226 247 238 _c
216 245 _l
160 257 119 275 95 299 _c
70 323 58 356 58 399 _c
58 450 76 490 112 518 _c
148 546 200 560 268 560 _c
301 560 332 557 362 552 _c
391 547 418 540 443 531 _c
}_e{_cl}_e}_d
/t{392 0 27 0 368 702 _sc
183 702 _m
183 547 _l
368 547 _l
368 477 _l
183 477 _l
183 180 _l
183 135 189 106 201 94 _c
213 81 238 75 276 75 _c
368 75 _l
368 0 _l
276 0 _l
206 0 158 13 132 39 _c
106 65 93 112 93 180 _c
93 477 _l
27 477 _l
27 547 _l
93 547 _l
93 702 _l
183 702 _l
_cl}_d
/u{634 0 85 -13 543 560 _sc
85 216 _m
85 547 _l
175 547 _l
175 219 _l
175 167 185 129 205 103 _c
225 77 255 64 296 64 _c
344 64 383 79 411 110 _c
439 141 453 183 453 237 _c
453 547 _l
543 547 _l
543 0 _l
453 0 _l
453 84 _l
431 50 405 26 377 10 _c
348 -5 315 -13 277 -13 _c
214 -13 166 6 134 45 _c
101 83 85 140 85 216 _c
311 560 _m
311 560 _l
_cl}_d
/v{592 0 30 0 562 547 _sc
30 547 _m
125 547 _l
296 88 _l
467 547 _l
562 547 _l
357 0 _l
235 0 _l
30 547 _l
_cl}_d
/x{592 0 29 0 559 547 _sc
549 547 _m
351 281 _l
559 0 _l
453 0 _l
294 215 _l
135 0 _l
29 0 _l
241 286 _l
47 547 _l
153 547 _l
298 352 _l
443 547 _l
549 547 _l
_cl}_d
end readonly def

/BuildGlyph
 {exch begin
 CharStrings exch
 2 copy known not{pop /.notdef}if
 true 3 1 roll get exec
 end}_d

/BuildChar {
 1 index /Encoding get exch get
 1 index /BuildGlyph get exec
}_d

FontName currentdict end definefont pop
%!PS-Adobe-3.0 Resource-Font
%%Title: DejaVu Sans Oblique
%%Copyright: Copyright (c) 2003 by Bitstream, Inc. All Rights Reserved. Copyright (c) 2006 by Tavmjong Bah. All Rights Reserved. DejaVu changes are in public domain 
%%Creator: Converted from TrueType to type 3 by PPR
25 dict begin
/_d{bind def}bind def
/_m{moveto}_d
/_l{lineto}_d
/_cl{closepath eofill}_d
/_c{curveto}_d
/_sc{7 -1 roll{setcachedevice}{pop pop pop pop pop pop}ifelse}_d
/_e{exec}_d
/FontName /DejaVuSans-Oblique def
/PaintType 0 def
/FontMatrix[.001 0 0 .001 0 0]def
/FontBBox[-1016 -350 1659 1068]def
/FontType 3 def
/Encoding [ /t /delta ] def
/FontInfo 10 dict dup begin
/FamilyName (DejaVu Sans) def
/FullName (DejaVu Sans Oblique) def
/Notice (Copyright (c) 2003 by Bitstream, Inc. All Rights Reserved. Copyright (c) 2006 by Tavmjong Bah. All Rights Reserved. DejaVu changes are in public domain ) def
/Weight (Oblique) def
/Version (Version 2.35) def
/ItalicAngle -11.0 def
/isFixedPitch false def
/UnderlinePosition -130 def
/UnderlineThickness 90 def
end readonly def
/CharStrings 3 dict dup begin
/.notdef 0 def
/t{{392 0 64 0 423 702 _sc
423 547 _m
409 477 _l
230 477 _l
172 180 _l
170 169 168 160 167 152 _c
166 144 166 139 166 135 _c
166 114 172 99 185 89 _c
197 79 217 75 245 75 _c
336 75 _l
321 0 _l
235 0 _l
181 0 141 10 115 31 _c
89 52 76 84 76 126 _c
76 133 76 141 77 150 _c
78 159 80 169 82 180 _c
140 477 _l
64 477 _l
78 547 _l
153 547 _l
183 702 _l
}_e{273 702 _l
243 547 _l
423 547 _l
_cl}_e}_d
/delta{{612 0 38 -13 557 742 _sc
542 633 _m
514 655 461 667 383 667 _c
300 667 255 648 248 610 _c
242 580 280 557 364 542 _c
428 530 476 505 508 469 _c
546 425 556 358 539 268 _c
521 182 486 113 432 63 _c
377 12 310 -13 232 -13 _c
154 -13 98 12 63 63 _c
28 113 20 183 38 273 _c
50 339 84 399 139 453 _c
160 473 184 490 211 502 _c
165 528 147 563 156 609 _c
}_e{173 697 253 742 397 742 _c
469 742 522 730 557 708 _c
542 633 _l
274 478 _m
250 468 226 451 204 428 _c
168 391 144 339 132 273 _c
119 207 123 155 144 118 _c
164 80 199 62 248 62 _c
295 62 336 81 372 119 _c
407 156 431 206 443 268 _c
455 332 450 380 427 412 _c
401 445 369 464 329 468 _c
308 470 290 473 274 478 _c
_cl}_e}_d
end readonly def

/BuildGlyph
 {exch begin
 CharStrings exch
 2 copy known not{pop /.notdef}if
 true 3 1 roll get exec
 end}_d

/BuildChar {
 1 index /Encoding get exch get
 1 index /BuildGlyph get exec
}_d

FontName currentdict end definefont pop
end
%%EndProlog
mpldict begin
-87.461 98.086 translate
786.922 595.829 0 0 clipbox
gsave
0 0 m
786.921875 0 l
786.921875 595.82875 l
0 595.82875 l
cl
1.000 setgray
fill
grestore
gsave
94.85625 64.66875 m
764.45625 64.66875 l
764.45625 563.62875 l
94.85625 563.62875 l
cl
1.000 setgray
fill
grestore
0.800 setlinewidth
1 setlinejoin
0 setlinecap
[] 0 setdash
0.000 setgray
gsave
/o {
gsave
newpath
translate
0.8 setlinewidth
1 setlinejoin
0 setlinecap
0 0 m
0 -3.5 l

gsave
0.000 setgray
fill
grestore
stroke
grestore
} bind def
94.8563 64.6688 o
grestore
/DejaVuSans findfont
24.000 scalefont
setfont
gsave
87.223438 39.434375 translate
0.000000 rotate
0.000000 0.000000 m /five glyphshow
grestore
gsave
/o {
gsave
newpath
translate
0.8 setlinewidth
1 setlinejoin
0 setlinecap
0 0 m
0 -3.5 l

gsave
0.000 setgray
fill
grestore
stroke
grestore
} bind def
169.256 64.6688 o
grestore
gsave
153.990625 39.434375 translate
0.000000 rotate
0.000000 0.000000 m /one glyphshow
15.269531 0.000000 m /zero glyphshow
grestore
gsave
/o {
gsave
newpath
translate
0.8 setlinewidth
1 setlinejoin
0 setlinecap
0 0 m
0 -3.5 l

gsave
0.000 setgray
fill
grestore
stroke
grestore
} bind def
243.656 64.6688 o
grestore
gsave
228.390625 39.434375 translate
0.000000 rotate
0.000000 0.000000 m /one glyphshow
15.269531 0.000000 m /five glyphshow
grestore
gsave
/o {
gsave
newpath
translate
0.8 setlinewidth
1 setlinejoin
0 setlinecap
0 0 m
0 -3.5 l

gsave
0.000 setgray
fill
grestore
stroke
grestore
} bind def
318.056 64.6688 o
grestore
gsave
302.790625 39.434375 translate
0.000000 rotate
0.000000 0.000000 m /two glyphshow
15.269531 0.000000 m /zero glyphshow
grestore
gsave
/o {
gsave
newpath
translate
0.8 setlinewidth
1 setlinejoin
0 setlinecap
0 0 m
0 -3.5 l

gsave
0.000 setgray
fill
grestore
stroke
grestore
} bind def
392.456 64.6688 o
grestore
gsave
377.190625 39.434375 translate
0.000000 rotate
0.000000 0.000000 m /two glyphshow
15.269531 0.000000 m /five glyphshow
grestore
gsave
/o {
gsave
newpath
translate
0.8 setlinewidth
1 setlinejoin
0 setlinecap
0 0 m
0 -3.5 l

gsave
0.000 setgray
fill
grestore
stroke
grestore
} bind def
466.856 64.6688 o
grestore
gsave
451.590625 39.434375 translate
0.000000 rotate
0.000000 0.000000 m /three glyphshow
15.269531 0.000000 m /zero glyphshow
grestore
gsave
/o {
gsave
newpath
translate
0.8 setlinewidth
1 setlinejoin
0 setlinecap
0 0 m
0 -3.5 l

gsave
0.000 setgray
fill
grestore
stroke
grestore
} bind def
541.256 64.6688 o
grestore
gsave
525.990625 39.434375 translate
0.000000 rotate
0.000000 0.000000 m /three glyphshow
15.269531 0.000000 m /five glyphshow
grestore
gsave
/o {
gsave
newpath
translate
0.8 setlinewidth
1 setlinejoin
0 setlinecap
0 0 m
0 -3.5 l

gsave
0.000 setgray
fill
grestore
stroke
grestore
} bind def
615.656 64.6688 o
grestore
gsave
600.390625 39.434375 translate
0.000000 rotate
0.000000 0.000000 m /four glyphshow
15.269531 0.000000 m /zero glyphshow
grestore
gsave
/o {
gsave
newpath
translate
0.8 setlinewidth
1 setlinejoin
0 setlinecap
0 0 m
0 -3.5 l

gsave
0.000 setgray
fill
grestore
stroke
grestore
} bind def
690.056 64.6688 o
grestore
gsave
674.790625 39.434375 translate
0.000000 rotate
0.000000 0.000000 m /four glyphshow
15.269531 0.000000 m /five glyphshow
grestore
gsave
/o {
gsave
newpath
translate
0.8 setlinewidth
1 setlinejoin
0 setlinecap
0 0 m
0 -3.5 l

gsave
0.000 setgray
fill
grestore
stroke
grestore
} bind def
764.456 64.6688 o
grestore
gsave
749.190625 39.434375 translate
0.000000 rotate
0.000000 0.000000 m /five glyphshow
15.269531 0.000000 m /zero glyphshow
grestore
gsave
367.304688 12.200000 translate
0.000000 rotate
0.000000 0.000000 m /S glyphshow
15.234375 0.000000 m /n glyphshow
30.445312 0.000000 m /a glyphshow
45.152344 0.000000 m /p glyphshow
60.386719 0.000000 m /s glyphshow
72.890625 0.000000 m /h glyphshow
88.101562 0.000000 m /o glyphshow
102.785156 0.000000 m /t glyphshow
112.195312 0.000000 m /s glyphshow
grestore
gsave
/o {
gsave
newpath
translate
0.8 setlinewidth
1 setlinejoin
0 setlinecap
0 0 m
-3.5 0 l

gsave
0.000 setgray
fill
grestore
stroke
grestore
} bind def
94.8563 106.86 o
grestore
gsave
34.434375 97.742443 translate
0.000000 rotate
0.000000 0.000000 m /zero glyphshow
15.269531 0.000000 m /period glyphshow
22.898438 0.000000 m /zero glyphshow
38.167969 0.000000 m /two glyphshow
grestore
gsave
/o {
gsave
newpath
translate
0.8 setlinewidth
1 setlinejoin
0 setlinecap
0 0 m
-3.5 0 l

gsave
0.000 setgray
fill
grestore
stroke
grestore
} bind def
94.8563 180.699 o
grestore
gsave
34.434375 171.581564 translate
0.000000 rotate
0.000000 0.000000 m /zero glyphshow
15.269531 0.000000 m /period glyphshow
22.898438 0.000000 m /zero glyphshow
38.167969 0.000000 m /four glyphshow
grestore
gsave
/o {
gsave
newpath
translate
0.8 setlinewidth
1 setlinejoin
0 setlinecap
0 0 m
-3.5 0 l

gsave
0.000 setgray
fill
grestore
stroke
grestore
} bind def
94.8563 254.538 o
grestore
gsave
34.434375 245.420686 translate
0.000000 rotate
0.000000 0.000000 m /zero glyphshow
15.269531 0.000000 m /period glyphshow
22.898438 0.000000 m /zero glyphshow
38.167969 0.000000 m /six glyphshow
grestore
gsave
/o {
gsave
newpath
translate
0.8 setlinewidth
1 setlinejoin
0 setlinecap
0 0 m
-3.5 0 l

gsave
0.000 setgray
fill
grestore
stroke
grestore
} bind def
94.8563 328.377 o
grestore
gsave
34.434375 319.259807 translate
0.000000 rotate
0.000000 0.000000 m /zero glyphshow
15.269531 0.000000 m /period glyphshow
22.898438 0.000000 m /zero glyphshow
38.167969 0.000000 m /eight glyphshow
grestore
gsave
/o {
gsave
newpath
translate
0.8 setlinewidth
1 setlinejoin
0 setlinecap
0 0 m
-3.5 0 l

gsave
0.000 setgray
fill
grestore
stroke
grestore
} bind def
94.8563 402.216 o
grestore
gsave
34.434375 393.098929 translate
0.000000 rotate
0.000000 0.000000 m /zero glyphshow
15.269531 0.000000 m /period glyphshow
22.898438 0.000000 m /one glyphshow
38.167969 0.000000 m /zero glyphshow
grestore
gsave
/o {
gsave
newpath
translate
0.8 setlinewidth
1 setlinejoin
0 setlinecap
0 0 m
-3.5 0 l

gsave
0.000 setgray
fill
grestore
stroke
grestore
} bind def
94.8563 476.055 o
grestore
gsave
34.434375 466.938051 translate
0.000000 rotate
0.000000 0.000000 m /zero glyphshow
15.269531 0.000000 m /period glyphshow
22.898438 0.000000 m /one glyphshow
38.167969 0.000000 m /two glyphshow
grestore
gsave
/o {
gsave
newpath
translate
0.8 setlinewidth
1 setlinejoin
0 setlinecap
0 0 m
-3.5 0 l

gsave
0.000 setgray
fill
grestore
stroke
grestore
} bind def
94.8563 549.894 o
grestore
gsave
34.434375 540.777172 translate
0.000000 rotate
0.000000 0.000000 m /zero glyphshow
15.269531 0.000000 m /period glyphshow
22.898438 0.000000 m /one glyphshow
38.167969 0.000000 m /four glyphshow
grestore
gsave
25.434375 250.265938 translate
90.000000 rotate
0.000000 0.000000 m /E glyphshow
15.164062 0.000000 m /r glyphshow
25.031250 0.000000 m /r glyphshow
34.898438 0.000000 m /o glyphshow
49.582031 0.000000 m /r glyphshow
59.449219 0.000000 m /s glyphshow
71.953125 0.000000 m /space glyphshow
79.582031 0.000000 m /parenleft glyphshow
88.945312 0.000000 m /p glyphshow
104.179688 0.000000 m /x glyphshow
118.382812 0.000000 m /parenright glyphshow
grestore
3.000 setlinewidth
2 setlinecap
gsave
669.6 499 94.86 64.67 clipbox
94.85625 140.395144 m
109.73625 140.540607 l
124.61625 139.842827 l
139.49625 138.825324 l
154.37625 137.077922 l
169.25625 137.608086 l
184.13625 138.307343 l
199.01625 137.333774 l
213.89625 137.405398 l
228.77625 138.016786 l
243.65625 136.482778 l
258.53625 137.226707 l
273.41625 137.518372 l
288.29625 137.195695 l
303.17625 137.351496 l
318.05625 137.526125 l
332.93625 138.435454 l
347.81625 137.485144 l
362.69625 137.673065 l
377.57625 139.90153 l
392.45625 139.985337 l
407.33625 139.174583 l
422.21625 139.772311 l
437.09625 139.600635 l
451.97625 140.180641 l
466.85625 141.802887 l
481.73625 140.177688 l
496.61625 140.567928 l
511.49625 141.727571 l
526.37625 142.825559 l
541.25625 140.663919 l
556.13625 142.702617 l
571.01625 141.265707 l
585.89625 142.420551 l
600.77625 142.281364 l
615.65625 142.725876 l
630.53625 144.141003 l
645.41625 144.591052 l
660.29625 143.763685 l
675.17625 143.251241 l
690.05625 144.409408 l
704.93625 144.663045 l
719.81625 142.606257 l
734.69625 142.532787 l
749.57625 142.69634 l
764.45625 143.158942 l
stroke
grestore
0.000 0.000 1.000 setrgbcolor
gsave
669.6 499 94.86 64.67 clipbox
94.85625 97.456218 m
109.73625 93.886097 l
124.61625 93.227821 l
139.49625 92.557362 l
154.37625 93.499549 l
169.25625 91.686429 l
184.13625 92.827244 l
199.01625 93.904187 l
213.89625 94.359036 l
228.77625 93.721435 l
243.65625 93.906402 l
258.53625 94.759244 l
273.41625 95.225169 l
288.29625 95.078968 l
303.17625 95.000329 l
318.05625 95.445948 l
332.93625 94.744846 l
347.81625 95.3075 l
362.69625 94.924275 l
377.57625 95.38097 l
392.45625 96.155911 l
407.33625 95.883076 l
422.21625 96.346785 l
437.09625 97.107697 l
451.97625 97.064871 l
466.85625 98.347456 l
481.73625 97.916974 l
496.61625 98.415388 l
511.49625 98.376623 l
526.37625 98.36407 l
541.25625 97.890392 l
556.13625 99.944966 l
571.01625 99.902139 l
585.89625 99.189961 l
600.77625 100.003299 l
615.65625 100.437473 l
630.53625 100.046125 l
645.41625 100.34702 l
660.29625 100.157622 l
675.17625 101.548382 l
690.05625 101.613361 l
704.93625 102.103283 l
719.81625 102.050119 l
734.69625 101.425809 l
749.57625 100.98499 l
764.45625 101.299544 l
stroke
grestore
1.000 0.000 0.000 setrgbcolor
gsave
669.6 499 94.86 64.67 clipbox
94.85625 97.513074 m
109.73625 91.998769 l
124.61625 89.682435 l
139.49625 91.261854 l
154.37625 89.392986 l
169.25625 87.34875 l
184.13625 87.49126 l
199.01625 89.821622 l
213.89625 90.473622 l
228.77625 88.066835 l
243.65625 89.635548 l
258.53625 91.625881 l
273.41625 89.839344 l
288.29625 88.921523 l
303.17625 88.724004 l
318.05625 90.49282 l
332.93625 90.509064 l
347.81625 90.375785 l
362.69625 90.908534 l
377.57625 90.442609 l
392.45625 91.701935 l
407.33625 90.305268 l
422.21625 90.553368 l
437.09625 91.727041 l
451.97625 92.89296 l
466.85625 92.822813 l
481.73625 92.525611 l
496.61625 92.894068 l
511.49625 92.694333 l
526.37625 92.8841 l
541.25625 93.840316 l
556.13625 93.335626 l
571.01625 93.97655 l
585.89625 94.133088 l
600.77625 93.635782 l
615.65625 95.157975 l
630.53625 93.680824 l
645.41625 96.054382 l
660.29625 94.833453 l
675.17625 95.787085 l
690.05625 97.274205 l
704.93625 96.953743 l
719.81625 97.498306 l
734.69625 96.783175 l
749.57625 95.425273 l
764.45625 95.062723 l
stroke
grestore
0 setlinecap
[11.1 4.8] 0 setdash
0.000 setgray
gsave
669.6 499 94.86 64.67 clipbox
94.85625 283.811393 m
109.73625 257.998344 l
124.61625 241.216188 l
139.49625 233.498892 l
154.37625 228.54318 l
169.25625 222.817325 l
184.13625 221.494866 l
199.01625 219.484227 l
213.89625 219.529638 l
228.77625 218.584498 l
243.65625 217.226965 l
258.53625 219.26271 l
273.41625 220.053158 l
288.29625 216.106826 l
303.17625 217.058981 l
318.05625 216.869953 l
332.93625 217.918099 l
347.81625 217.207398 l
362.69625 217.090363 l
377.57625 219.908064 l
392.45625 218.944832 l
407.33625 221.440595 l
422.21625 219.067775 l
437.09625 219.625629 l
451.97625 221.136378 l
466.85625 219.775892 l
481.73625 220.225941 l
496.61625 221.217231 l
511.49625 222.061213 l
526.37625 220.406478 l
541.25625 221.724137 l
556.13625 225.214881 l
571.01625 224.586511 l
585.89625 220.770874 l
600.77625 221.549877 l
615.65625 221.716384 l
630.53625 223.452342 l
645.41625 222.452929 l
660.29625 225.416831 l
675.17625 224.708345 l
690.05625 223.336414 l
704.93625 225.078648 l
719.81625 226.34905 l
734.69625 222.750132 l
749.57625 227.17974 l
764.45625 223.211626 l
stroke
grestore
0.000 0.000 1.000 setrgbcolor
gsave
669.6 499 94.86 64.67 clipbox
94.85625 198.811488 m
109.73625 161.6154 l
124.61625 135.689746 l
139.49625 122.498756 l
154.37625 115.392479 l
169.25625 112.22072 l
184.13625 110.53608 l
199.01625 109.262355 l
213.89625 110.6461 l
228.77625 108.116741 l
243.65625 109.329918 l
258.53625 106.485266 l
273.41625 107.393856 l
288.29625 107.087055 l
303.17625 108.666843 l
318.05625 108.204979 l
332.93625 107.583992 l
347.81625 108.356718 l
362.69625 108.291002 l
377.57625 107.691797 l
392.45625 107.945804 l
407.33625 107.951711 l
422.21625 107.113268 l
437.09625 107.481356 l
451.97625 107.991953 l
466.85625 109.400434 l
481.73625 109.984871 l
496.61625 111.035971 l
511.49625 111.593826 l
526.37625 110.556386 l
541.25625 110.241462 l
556.13625 111.60564 l
571.01625 111.72489 l
585.89625 111.364186 l
600.77625 110.754275 l
615.65625 111.457962 l
630.53625 110.989452 l
645.41625 111.6193 l
660.29625 112.182323 l
675.17625 114.700237 l
690.05625 113.964061 l
704.93625 113.720023 l
719.81625 115.840683 l
734.69625 114.163427 l
749.57625 113.72593 l
764.45625 112.558534 l
stroke
grestore
1.000 0.000 0.000 setrgbcolor
gsave
669.6 499 94.86 64.67 clipbox
94.85625 146.942828 m
109.73625 128.341277 l
124.61625 105.941072 l
139.49625 99.018285 l
154.37625 96.576425 l
169.25625 97.678105 l
184.13625 97.403423 l
199.01625 97.864918 l
213.89625 97.603158 l
228.77625 98.096773 l
243.65625 98.767232 l
258.53625 98.824826 l
273.41625 98.479998 l
288.29625 98.728835 l
303.17625 98.773877 l
318.05625 100.054617 l
332.93625 100.077507 l
347.81625 99.868911 l
362.69625 101.178817 l
377.57625 100.542324 l
392.45625 99.898816 l
407.33625 99.850452 l
422.21625 99.429199 l
437.09625 101.076181 l
451.97625 101.020063 l
466.85625 100.916319 l
481.73625 100.780086 l
496.61625 100.475869 l
511.49625 102.321109 l
526.37625 100.822544 l
541.25625 101.09981 l
556.13625 101.820849 l
571.01625 101.748855 l
585.89625 103.043994 l
600.77625 102.68329 l
615.65625 104.282645 l
630.53625 103.017042 l
645.41625 103.410974 l
660.29625 104.72088 l
675.17625 106.000881 l
690.05625 107.092224 l
704.93625 105.379894 l
719.81625 106.690169 l
734.69625 105.912274 l
749.57625 104.216559 l
764.45625 103.873945 l
stroke
grestore
[3 4.95] 0 setdash
0.000 setgray
gsave
669.6 499 94.86 64.67 clipbox
94.85625 540.94875 m
109.73625 503.264954 l
124.61625 469.49094 l
139.49625 442.092934 l
154.37625 403.9218 l
169.25625 378.263813 l
184.13625 351.739324 l
199.01625 332.454391 l
213.89625 318.932971 l
228.77625 306.632112 l
243.65625 297.361241 l
258.53625 293.616859 l
273.41625 289.908659 l
288.29625 286.038012 l
303.17625 283.732016 l
318.05625 282.06436 l
332.93625 281.24733 l
347.81625 279.041017 l
362.69625 278.807685 l
377.57625 279.378092 l
392.45625 282.719313 l
407.33625 282.492257 l
422.21625 281.2333 l
437.09625 283.536712 l
451.97625 284.218616 l
466.85625 284.967345 l
481.73625 286.383579 l
496.61625 286.079731 l
511.49625 285.95162 l
526.37625 287.203193 l
541.25625 287.392221 l
556.13625 287.100926 l
571.01625 286.622818 l
585.89625 286.391332 l
600.77625 288.040529 l
615.65625 290.82131 l
630.53625 288.866789 l
645.41625 289.887245 l
660.29625 288.373543 l
675.17625 287.510733 l
690.05625 288.507192 l
704.93625 287.045916 l
719.81625 286.711425 l
734.69625 287.289216 l
749.57625 286.417176 l
764.45625 287.550975 l
stroke
grestore
0.000 0.000 1.000 setrgbcolor
gsave
669.6 499 94.86 64.67 clipbox
94.85625 473.873292 m
109.73625 455.265833 l
124.61625 438.622495 l
139.49625 423.068284 l
154.37625 405.804698 l
169.25625 390.41404 l
184.13625 374.653449 l
199.01625 367.941842 l
213.89625 352.660098 l
228.77625 339.891468 l
243.65625 328.928573 l
258.53625 312.463557 l
273.41625 301.988 l
288.29625 292.348672 l
303.17625 280.337262 l
318.05625 267.67533 l
332.93625 252.56563 l
347.81625 244.636047 l
362.69625 236.6485 l
377.57625 226.149316 l
392.45625 217.69732 l
407.33625 209.48198 l
422.21625 202.936142 l
437.09625 197.722361 l
451.97625 190.361708 l
466.85625 182.86593 l
481.73625 181.194582 l
496.61625 175.864135 l
511.49625 170.507107 l
526.37625 166.633138 l
541.25625 163.047141 l
556.13625 163.137594 l
571.01625 158.151238 l
585.89625 155.930526 l
600.77625 152.971423 l
615.65625 151.725019 l
630.53625 149.961372 l
645.41625 146.981963 l
660.29625 143.850815 l
675.17625 144.121066 l
690.05625 143.658464 l
704.93625 140.451631 l
719.81625 138.308081 l
734.69625 136.7342 l
749.57625 135.673132 l
764.45625 132.915979 l
stroke
grestore
1.000 0.000 0.000 setrgbcolor
gsave
669.6 499 94.86 64.67 clipbox
94.85625 327.691399 m
109.73625 280.680245 l
124.61625 219.246096 l
139.49625 179.624023 l
154.37625 147.142194 l
169.25625 131.447319 l
184.13625 120.251463 l
199.01625 114.442539 l
213.89625 111.65585 l
228.77625 111.121994 l
243.65625 111.252689 l
258.53625 109.930969 l
273.41625 111.42178 l
288.29625 111.641083 l
303.17625 109.028654 l
318.05625 110.052434 l
332.93625 109.950167 l
347.81625 110.925951 l
362.69625 110.447842 l
377.57625 110.731385 l
392.45625 110.250323 l
407.33625 112.547827 l
422.21625 111.05923 l
437.09625 111.751841 l
451.97625 111.472729 l
466.85625 112.859059 l
481.73625 111.863708 l
496.61625 111.573889 l
511.49625 112.481741 l
526.37625 110.646839 l
541.25625 110.142148 l
556.13625 110.908968 l
571.01625 110.555278 l
585.89625 111.807221 l
600.77625 111.039663 l
615.65625 109.949798 l
630.53625 111.092827 l
645.41625 112.627204 l
660.29625 111.381538 l
675.17625 112.508323 l
690.05625 113.601142 l
704.93625 114.182256 l
719.81625 114.013164 l
734.69625 113.372979 l
749.57625 112.032061 l
764.45625 112.083379 l
stroke
grestore
0.800 setlinewidth
0 setlinejoin
2 setlinecap
[] 0 setdash
0.000 setgray
gsave
94.85625 64.66875 m
94.85625 563.62875 l
stroke
grestore
gsave
764.45625 64.66875 m
764.45625 563.62875 l
stroke
grestore
gsave
94.85625 64.66875 m
764.45625 64.66875 l
stroke
grestore
gsave
94.85625 563.62875 m
764.45625 563.62875 l
stroke
grestore
gsave
208.156250 569.628750 translate
0.000000 rotate
/DejaVuSans findfont
24.0 scalefont
setfont
0.000000 0.765625 moveto
/M glyphshow

20.707031 0.765625 moveto
/e glyphshow

35.472656 0.765625 moveto
/a glyphshow

50.179688 0.765625 moveto
/n glyphshow

65.390625 0.765625 moveto
/space glyphshow

73.019531 0.765625 moveto
/e glyphshow

87.785156 0.765625 moveto
/r glyphshow

97.652344 0.765625 moveto
/r glyphshow

107.519531 0.765625 moveto
/o glyphshow

122.203125 0.765625 moveto
/r glyphshow

132.070312 0.765625 moveto
/space glyphshow

139.699219 0.765625 moveto
/o glyphshow

154.382812 0.765625 moveto
/f glyphshow

162.832031 0.765625 moveto
/space glyphshow

170.460938 0.765625 moveto
/d glyphshow

185.695312 0.765625 moveto
/e glyphshow

200.460938 0.765625 moveto
/t glyphshow

209.871094 0.765625 moveto
/e glyphshow

224.636719 0.765625 moveto
/c glyphshow

237.832031 0.765625 moveto
/t glyphshow

247.242188 0.765625 moveto
/e glyphshow

262.007812 0.765625 moveto
/d glyphshow

277.242188 0.765625 moveto
/space glyphshow

284.871094 0.765625 moveto
/p glyphshow

300.105469 0.765625 moveto
/a glyphshow

314.812500 0.765625 moveto
/r glyphshow

324.679688 0.765625 moveto
/t glyphshow

334.089844 0.765625 moveto
/i glyphshow

340.757812 0.765625 moveto
/c glyphshow

353.953125 0.765625 moveto
/l glyphshow

360.621094 0.765625 moveto
/e glyphshow

375.386719 0.765625 moveto
/s glyphshow

387.890625 0.765625 moveto
/comma glyphshow

395.519531 0.765625 moveto
/space glyphshow

403.148438 0.765625 moveto
/three glyphshow

/DejaVuSans-Oblique findfont
24.0 scalefont
setfont
418.417969 0.765625 moveto
/delta glyphshow

433.101562 0.765625 moveto
/t glyphshow


grestore
1.000 setlinewidth
0 setlinecap
0.800 setgray
gsave
523.4875 353.488125 m
753.95625 353.488125 l
755.95625 353.488125 756.95625 354.488125 756.95625 356.488125 c
756.95625 553.12875 l
756.95625 555.12875 755.95625 556.12875 753.95625 556.12875 c
523.4875 556.12875 l
521.4875 556.12875 520.4875 555.12875 520.4875 553.12875 c
520.4875 356.488125 l
520.4875 354.488125 521.4875 353.488125 523.4875 353.488125 c
cl
gsave
1.000 setgray
fill
grestore
stroke
grestore
3.000 setlinewidth
1 setlinejoin
2 setlinecap
[] 0 setdash
0.000 setgray
gsave
526.4875 543.988125 m
556.4875 543.988125 l
stroke
grestore
/DejaVuSans findfont
15.000 scalefont
setfont
gsave
568.487500 538.738125 translate
0.000000 rotate
0.000000 0.000000 m /P glyphshow
9.045410 0.000000 m /P glyphshow
18.090820 0.000000 m /P glyphshow
27.136230 0.000000 m /space glyphshow
31.904297 0.000000 m /zero glyphshow
41.447754 0.000000 m /period glyphshow
46.215820 0.000000 m /zero glyphshow
55.759277 0.000000 m /five glyphshow
65.302734 0.000000 m /comma glyphshow
70.070801 0.000000 m /space glyphshow
74.838867 0.000000 m /S glyphshow
84.360352 0.000000 m /T glyphshow
93.522949 0.000000 m /B glyphshow
103.813477 0.000000 m /space glyphshow
108.581543 0.000000 m /D glyphshow
120.131836 0.000000 m /a glyphshow
129.323730 0.000000 m /v glyphshow
138.200684 0.000000 m /i glyphshow
142.368164 0.000000 m /s glyphshow
grestore
0.000 0.000 1.000 setrgbcolor
gsave
526.4875 521.9725 m
556.4875 521.9725 l
stroke
grestore
0.000 setgray
gsave
568.487500 516.722500 translate
0.000000 rotate
0.000000 0.000000 m /P glyphshow
9.045410 0.000000 m /P glyphshow
18.090820 0.000000 m /P glyphshow
27.136230 0.000000 m /space glyphshow
31.904297 0.000000 m /zero glyphshow
41.447754 0.000000 m /period glyphshow
46.215820 0.000000 m /zero glyphshow
55.759277 0.000000 m /five glyphshow
65.302734 0.000000 m /comma glyphshow
70.070801 0.000000 m /space glyphshow
74.838867 0.000000 m /S glyphshow
84.360352 0.000000 m /T glyphshow
93.522949 0.000000 m /B glyphshow
103.813477 0.000000 m /space glyphshow
108.581543 0.000000 m /i glyphshow
112.749023 0.000000 m /n glyphshow
122.255859 0.000000 m /hyphen glyphshow
127.668457 0.000000 m /h glyphshow
137.175293 0.000000 m /o glyphshow
146.352539 0.000000 m /u glyphshow
155.859375 0.000000 m /s glyphshow
163.674316 0.000000 m /e glyphshow
grestore
1.000 0.000 0.000 setrgbcolor
gsave
526.4875 499.956875 m
556.4875 499.956875 l
stroke
grestore
0.000 setgray
gsave
568.487500 494.706875 translate
0.000000 rotate
0.000000 0.000000 m /P glyphshow
9.045410 0.000000 m /P glyphshow
18.090820 0.000000 m /P glyphshow
27.136230 0.000000 m /space glyphshow
31.904297 0.000000 m /zero glyphshow
41.447754 0.000000 m /period glyphshow
46.215820 0.000000 m /zero glyphshow
55.759277 0.000000 m /five glyphshow
65.302734 0.000000 m /comma glyphshow
70.070801 0.000000 m /space glyphshow
74.838867 0.000000 m /K glyphshow
84.675293 0.000000 m /L glyphshow
93.032227 0.000000 m /P glyphshow
102.077637 0.000000 m /T glyphshow
grestore
0 setlinecap
[11.1 4.8] 0 setdash
gsave
526.4875 477.94125 m
556.4875 477.94125 l
stroke
grestore
gsave
568.487500 472.691250 translate
0.000000 rotate
0.000000 0.000000 m /P glyphshow
9.045410 0.000000 m /P glyphshow
18.090820 0.000000 m /P glyphshow
27.136230 0.000000 m /space glyphshow
31.904297 0.000000 m /zero glyphshow
41.447754 0.000000 m /period glyphshow
46.215820 0.000000 m /zero glyphshow
55.759277 0.000000 m /seven glyphshow
65.302734 0.000000 m /five glyphshow
74.846191 0.000000 m /comma glyphshow
79.614258 0.000000 m /space glyphshow
84.382324 0.000000 m /S glyphshow
93.903809 0.000000 m /T glyphshow
103.066406 0.000000 m /B glyphshow
113.356934 0.000000 m /space glyphshow
118.125000 0.000000 m /D glyphshow
129.675293 0.000000 m /a glyphshow
138.867188 0.000000 m /v glyphshow
147.744141 0.000000 m /i glyphshow
151.911621 0.000000 m /s glyphshow
grestore
0.000 0.000 1.000 setrgbcolor
gsave
526.4875 455.925625 m
556.4875 455.925625 l
stroke
grestore
0.000 setgray
gsave
568.487500 450.675625 translate
0.000000 rotate
0.000000 0.000000 m /P glyphshow
9.045410 0.000000 m /P glyphshow
18.090820 0.000000 m /P glyphshow
27.136230 0.000000 m /space glyphshow
31.904297 0.000000 m /zero glyphshow
41.447754 0.000000 m /period glyphshow
46.215820 0.000000 m /zero glyphshow
55.759277 0.000000 m /seven glyphshow
65.302734 0.000000 m /five glyphshow
74.846191 0.000000 m /comma glyphshow
79.614258 0.000000 m /space glyphshow
84.382324 0.000000 m /S glyphshow
93.903809 0.000000 m /T glyphshow
103.066406 0.000000 m /B glyphshow
113.356934 0.000000 m /space glyphshow
118.125000 0.000000 m /i glyphshow
122.292480 0.000000 m /n glyphshow
131.799316 0.000000 m /hyphen glyphshow
137.211914 0.000000 m /h glyphshow
146.718750 0.000000 m /o glyphshow
155.895996 0.000000 m /u glyphshow
165.402832 0.000000 m /s glyphshow
173.217773 0.000000 m /e glyphshow
grestore
1.000 0.000 0.000 setrgbcolor
gsave
526.4875 433.91 m
556.4875 433.91 l
stroke
grestore
0.000 setgray
gsave
568.487500 428.660000 translate
0.000000 rotate
0.000000 0.000000 m /P glyphshow
9.045410 0.000000 m /P glyphshow
18.090820 0.000000 m /P glyphshow
27.136230 0.000000 m /space glyphshow
31.904297 0.000000 m /zero glyphshow
41.447754 0.000000 m /period glyphshow
46.215820 0.000000 m /zero glyphshow
55.759277 0.000000 m /seven glyphshow
65.302734 0.000000 m /five glyphshow
74.846191 0.000000 m /comma glyphshow
79.614258 0.000000 m /space glyphshow
84.382324 0.000000 m /K glyphshow
94.218750 0.000000 m /L glyphshow
102.575684 0.000000 m /P glyphshow
111.621094 0.000000 m /T glyphshow
grestore
[3 4.95] 0 setdash
gsave
526.4875 411.894375 m
556.4875 411.894375 l
stroke
grestore
gsave
568.487500 406.644375 translate
0.000000 rotate
0.000000 0.000000 m /P glyphshow
9.045410 0.000000 m /P glyphshow
18.090820 0.000000 m /P glyphshow
27.136230 0.000000 m /space glyphshow
31.904297 0.000000 m /zero glyphshow
41.447754 0.000000 m /period glyphshow
46.215820 0.000000 m /one glyphshow
55.759277 0.000000 m /comma glyphshow
60.527344 0.000000 m /space glyphshow
65.295410 0.000000 m /S glyphshow
74.816895 0.000000 m /T glyphshow
83.979492 0.000000 m /B glyphshow
94.270020 0.000000 m /space glyphshow
99.038086 0.000000 m /D glyphshow
110.588379 0.000000 m /a glyphshow
119.780273 0.000000 m /v glyphshow
128.657227 0.000000 m /i glyphshow
132.824707 0.000000 m /s glyphshow
grestore
0.000 0.000 1.000 setrgbcolor
gsave
526.4875 389.87875 m
556.4875 389.87875 l
stroke
grestore
0.000 setgray
gsave
568.487500 384.628750 translate
0.000000 rotate
0.000000 0.000000 m /P glyphshow
9.045410 0.000000 m /P glyphshow
18.090820 0.000000 m /P glyphshow
27.136230 0.000000 m /space glyphshow
31.904297 0.000000 m /zero glyphshow
41.447754 0.000000 m /period glyphshow
46.215820 0.000000 m /one glyphshow
55.759277 0.000000 m /comma glyphshow
60.527344 0.000000 m /space glyphshow
65.295410 0.000000 m /S glyphshow
74.816895 0.000000 m /T glyphshow
83.979492 0.000000 m /B glyphshow
94.270020 0.000000 m /space glyphshow
99.038086 0.000000 m /i glyphshow
103.205566 0.000000 m /n glyphshow
112.712402 0.000000 m /hyphen glyphshow
118.125000 0.000000 m /h glyphshow
127.631836 0.000000 m /o glyphshow
136.809082 0.000000 m /u glyphshow
146.315918 0.000000 m /s glyphshow
154.130859 0.000000 m /e glyphshow
grestore
1.000 0.000 0.000 setrgbcolor
gsave
526.4875 367.863125 m
556.4875 367.863125 l
stroke
grestore
0.000 setgray
gsave
568.487500 362.613125 translate
0.000000 rotate
0.000000 0.000000 m /P glyphshow
9.045410 0.000000 m /P glyphshow
18.090820 0.000000 m /P glyphshow
27.136230 0.000000 m /space glyphshow
31.904297 0.000000 m /zero glyphshow
41.447754 0.000000 m /period glyphshow
46.215820 0.000000 m /one glyphshow
55.759277 0.000000 m /comma glyphshow
60.527344 0.000000 m /space glyphshow
65.295410 0.000000 m /K glyphshow
75.131836 0.000000 m /L glyphshow
83.488770 0.000000 m /P glyphshow
92.534180 0.000000 m /T glyphshow
grestore

end
showpage
