%!PS-Adobe-3.0 EPSF-3.0
%%Title: /home/yin/0.10_undetected_thin_3methods.eps
%%Creator: matplotlib version 3.1.1, http://matplotlib.org/
%%CreationDate: Sat May  9 16:55:14 2020
%%Orientation: portrait
%%BoundingBox: -87.46093749999999 98.46843750000004 699.4609375 693.5315625
%%EndComments
%%BeginProlog
/mpldict 9 dict def
mpldict begin
/m { moveto } bind def
/l { lineto } bind def
/r { rlineto } bind def
/c { curveto } bind def
/cl { closepath } bind def
/box {
m
1 index 0 r
0 exch r
neg 0 r
cl
} bind def
/clipbox {
box
clip
newpath
} bind def
%!PS-Adobe-3.0 Resource-Font
%%Title: DejaVu Sans
%%Copyright: Copyright (c) 2003 by Bitstream, Inc. All Rights Reserved. Copyright (c) 2006 by Tavmjong Bah. All Rights Reserved. DejaVu changes are in public domain 
%%Creator: Converted from TrueType to type 3 by PPR
25 dict begin
/_d{bind def}bind def
/_m{moveto}_d
/_l{lineto}_d
/_cl{closepath eofill}_d
/_c{curveto}_d
/_sc{7 -1 roll{setcachedevice}{pop pop pop pop pop pop}ifelse}_d
/_e{exec}_d
/FontName /DejaVuSans def
/PaintType 0 def
/FontMatrix[.001 0 0 .001 0 0]def
/FontBBox[-1021 -463 1793 1232]def
/FontType 3 def
/Encoding [ /space /comma /hyphen /period /zero /one /two /three /four /five /seven /B /D /F /K /L /P /S /T /U /a /c /d /e /f /h /i /l /n /o /p /r /s /t /u /v ] def
/FontInfo 10 dict dup begin
/FamilyName (DejaVu Sans) def
/FullName (DejaVu Sans) def
/Notice (Copyright (c) 2003 by Bitstream, Inc. All Rights Reserved. Copyright (c) 2006 by Tavmjong Bah. All Rights Reserved. DejaVu changes are in public domain ) def
/Weight (Book) def
/Version (Version 2.35) def
/ItalicAngle 0.0 def
/isFixedPitch false def
/UnderlinePosition -130 def
/UnderlineThickness 90 def
end readonly def
/CharStrings 37 dict dup begin
/.notdef 0 def
/space{318 0 0 0 0 0 _sc
}_d
/comma{318 0 77 -115 220 124 _sc
117 124 _m
220 124 _l
220 40 _l
140 -115 _l
77 -115 _l
117 40 _l
117 124 _l
_cl}_d
/hyphen{361 0 49 234 312 314 _sc
49 314 _m
312 314 _l
312 234 _l
49 234 _l
49 314 _l
_cl}_d
/period{318 0 107 0 210 124 _sc
107 124 _m
210 124 _l
210 0 _l
107 0 _l
107 124 _l
_cl}_d
/zero{636 0 66 -13 570 742 _sc
318 664 _m
267 664 229 639 203 589 _c
177 539 165 464 165 364 _c
165 264 177 189 203 139 _c
229 89 267 64 318 64 _c
369 64 407 89 433 139 _c
458 189 471 264 471 364 _c
471 464 458 539 433 589 _c
407 639 369 664 318 664 _c
318 742 _m
399 742 461 709 505 645 _c
548 580 570 486 570 364 _c
570 241 548 147 505 83 _c
461 19 399 -13 318 -13 _c
236 -13 173 19 130 83 _c
87 147 66 241 66 364 _c
66 486 87 580 130 645 _c
173 709 236 742 318 742 _c
_cl}_d
/one{636 0 110 0 544 729 _sc
124 83 _m
285 83 _l
285 639 _l
110 604 _l
110 694 _l
284 729 _l
383 729 _l
383 83 _l
544 83 _l
544 0 _l
124 0 _l
124 83 _l
_cl}_d
/two{{636 0 73 0 536 742 _sc
192 83 _m
536 83 _l
536 0 _l
73 0 _l
73 83 _l
110 121 161 173 226 239 _c
290 304 331 346 348 365 _c
380 400 402 430 414 455 _c
426 479 433 504 433 528 _c
433 566 419 598 392 622 _c
365 646 330 659 286 659 _c
255 659 222 653 188 643 _c
154 632 117 616 78 594 _c
78 694 _l
118 710 155 722 189 730 _c
223 738 255 742 284 742 _c
}_e{359 742 419 723 464 685 _c
509 647 532 597 532 534 _c
532 504 526 475 515 449 _c
504 422 484 390 454 354 _c
446 344 420 317 376 272 _c
332 227 271 164 192 83 _c
_cl}_e}_d
/three{{636 0 76 -13 556 742 _sc
406 393 _m
453 383 490 362 516 330 _c
542 298 556 258 556 212 _c
556 140 531 84 482 45 _c
432 6 362 -13 271 -13 _c
240 -13 208 -10 176 -4 _c
144 1 110 10 76 22 _c
76 117 _l
103 101 133 89 166 81 _c
198 73 232 69 268 69 _c
330 69 377 81 409 105 _c
441 129 458 165 458 212 _c
458 254 443 288 413 312 _c
383 336 341 349 287 349 _c
}_e{202 349 _l
202 430 _l
291 430 _l
339 430 376 439 402 459 _c
428 478 441 506 441 543 _c
441 580 427 609 401 629 _c
374 649 336 659 287 659 _c
260 659 231 656 200 650 _c
169 644 135 635 98 623 _c
98 711 _l
135 721 170 729 203 734 _c
235 739 266 742 296 742 _c
370 742 429 725 473 691 _c
517 657 539 611 539 553 _c
539 513 527 479 504 451 _c
481 423 448 403 406 393 _c
_cl}_e}_d
/four{636 0 49 0 580 729 _sc
378 643 _m
129 254 _l
378 254 _l
378 643 _l
352 729 _m
476 729 _l
476 254 _l
580 254 _l
580 172 _l
476 172 _l
476 0 _l
378 0 _l
378 172 _l
49 172 _l
49 267 _l
352 729 _l
_cl}_d
/five{{636 0 77 -13 549 729 _sc
108 729 _m
495 729 _l
495 646 _l
198 646 _l
198 467 _l
212 472 227 476 241 478 _c
255 480 270 482 284 482 _c
365 482 429 459 477 415 _c
525 370 549 310 549 234 _c
549 155 524 94 475 51 _c
426 8 357 -13 269 -13 _c
238 -13 207 -10 175 -6 _c
143 -1 111 6 77 17 _c
77 116 _l
106 100 136 88 168 80 _c
199 72 232 69 267 69 _c
}_e{323 69 368 83 401 113 _c
433 143 450 183 450 234 _c
450 284 433 324 401 354 _c
368 384 323 399 267 399 _c
241 399 214 396 188 390 _c
162 384 135 375 108 363 _c
108 729 _l
_cl}_e}_d
/seven{636 0 82 0 551 729 _sc
82 729 _m
551 729 _l
551 687 _l
286 0 _l
183 0 _l
432 646 _l
82 646 _l
82 729 _l
_cl}_d
/B{{686 0 98 0 615 729 _sc
197 348 _m
197 81 _l
355 81 _l
408 81 447 92 473 114 _c
498 136 511 169 511 215 _c
511 260 498 293 473 315 _c
447 337 408 348 355 348 _c
197 348 _l
197 648 _m
197 428 _l
343 428 _l
391 428 426 437 450 455 _c
474 473 486 500 486 538 _c
486 574 474 602 450 620 _c
426 638 391 648 343 648 _c
197 648 _l
98 729 _m
350 729 _l
}_e{425 729 483 713 524 682 _c
564 650 585 606 585 549 _c
585 504 574 468 553 442 _c
532 416 502 399 462 393 _c
510 382 548 360 575 327 _c
601 294 615 253 615 204 _c
615 138 592 88 548 53 _c
504 17 441 0 360 0 _c
98 0 _l
98 729 _l
_cl}_e}_d
/D{770 0 98 0 711 729 _sc
197 648 _m
197 81 _l
316 81 _l
416 81 490 103 537 149 _c
583 195 607 267 607 365 _c
607 463 583 534 537 580 _c
490 625 416 648 316 648 _c
197 648 _l
98 729 _m
301 729 _l
442 729 546 699 612 641 _c
678 582 711 490 711 365 _c
711 239 677 147 611 88 _c
545 29 441 0 301 0 _c
98 0 _l
98 729 _l
_cl}_d
/F{575 0 98 0 517 729 _sc
98 729 _m
517 729 _l
517 646 _l
197 646 _l
197 431 _l
486 431 _l
486 348 _l
197 348 _l
197 0 _l
98 0 _l
98 729 _l
_cl}_d
/K{656 0 98 0 677 729 _sc
98 729 _m
197 729 _l
197 421 _l
524 729 _l
651 729 _l
289 389 _l
677 0 _l
547 0 _l
197 351 _l
197 0 _l
98 0 _l
98 729 _l
_cl}_d
/L{557 0 98 0 552 729 _sc
98 729 _m
197 729 _l
197 83 _l
552 83 _l
552 0 _l
98 0 _l
98 729 _l
_cl}_d
/P{603 0 98 0 569 729 _sc
197 648 _m
197 374 _l
321 374 _l
367 374 402 385 427 409 _c
452 433 465 467 465 511 _c
465 555 452 588 427 612 _c
402 636 367 648 321 648 _c
197 648 _l
98 729 _m
321 729 _l
402 729 464 710 506 673 _c
548 636 569 582 569 511 _c
569 439 548 384 506 348 _c
464 311 402 293 321 293 _c
197 293 _l
197 0 _l
98 0 _l
98 729 _l
_cl}_d
/S{{635 0 66 -13 579 742 _sc
535 705 _m
535 609 _l
497 627 462 640 429 649 _c
395 657 363 662 333 662 _c
279 662 237 651 208 631 _c
179 610 165 580 165 542 _c
165 510 174 485 194 469 _c
213 452 250 439 304 429 _c
364 417 _l
437 403 491 378 526 343 _c
561 307 579 260 579 201 _c
579 130 555 77 508 41 _c
460 5 391 -13 300 -13 _c
265 -13 228 -9 189 -2 _c
}_e{150 5 110 16 69 32 _c
69 134 _l
109 111 148 94 186 83 _c
224 71 262 66 300 66 _c
356 66 399 77 430 99 _c
460 121 476 152 476 194 _c
476 230 465 258 443 278 _c
421 298 385 313 335 323 _c
275 335 _l
201 349 148 372 115 404 _c
82 435 66 478 66 534 _c
66 598 88 649 134 686 _c
179 723 242 742 322 742 _c
356 742 390 739 426 733 _c
461 727 497 717 535 705 _c
}_e{_cl}_e}_d
/T{611 0 -2 0 614 729 _sc
-2 729 _m
614 729 _l
614 646 _l
355 646 _l
355 0 _l
256 0 _l
256 646 _l
-2 646 _l
-2 729 _l
_cl}_d
/U{732 0 87 -13 645 729 _sc
87 729 _m
186 729 _l
186 286 _l
186 208 200 151 228 117 _c
256 83 302 66 366 66 _c
429 66 475 83 503 117 _c
531 151 546 208 546 286 _c
546 729 _l
645 729 _l
645 274 _l
645 178 621 107 574 59 _c
527 11 458 -13 366 -13 _c
274 -13 204 11 157 59 _c
110 107 87 178 87 274 _c
87 729 _l
_cl}_d
/a{{613 0 60 -13 522 560 _sc
343 275 _m
270 275 220 266 192 250 _c
164 233 150 205 150 165 _c
150 133 160 107 181 89 _c
202 70 231 61 267 61 _c
317 61 357 78 387 114 _c
417 149 432 196 432 255 _c
432 275 _l
343 275 _l
522 312 _m
522 0 _l
432 0 _l
432 83 _l
411 49 385 25 355 10 _c
325 -5 287 -13 243 -13 _c
187 -13 142 2 109 33 _c
76 64 60 106 60 159 _c
}_e{60 220 80 266 122 298 _c
163 329 224 345 306 345 _c
432 345 _l
432 354 _l
432 395 418 427 391 450 _c
364 472 326 484 277 484 _c
245 484 215 480 185 472 _c
155 464 127 453 100 439 _c
100 522 _l
132 534 164 544 195 550 _c
226 556 256 560 286 560 _c
365 560 424 539 463 498 _c
502 457 522 395 522 312 _c
_cl}_e}_d
/c{{550 0 55 -13 488 560 _sc
488 526 _m
488 442 _l
462 456 437 466 411 473 _c
385 480 360 484 334 484 _c
276 484 230 465 198 428 _c
166 391 150 339 150 273 _c
150 206 166 154 198 117 _c
230 80 276 62 334 62 _c
360 62 385 65 411 72 _c
437 79 462 90 488 104 _c
488 21 _l
462 9 436 0 410 -5 _c
383 -10 354 -13 324 -13 _c
242 -13 176 12 128 64 _c
}_e{79 115 55 185 55 273 _c
55 362 79 432 128 483 _c
177 534 244 560 330 560 _c
358 560 385 557 411 551 _c
437 545 463 537 488 526 _c
_cl}_e}_d
/d{{635 0 55 -13 544 760 _sc
454 464 _m
454 760 _l
544 760 _l
544 0 _l
454 0 _l
454 82 _l
435 49 411 25 382 10 _c
353 -5 319 -13 279 -13 _c
213 -13 159 13 117 65 _c
75 117 55 187 55 273 _c
55 359 75 428 117 481 _c
159 533 213 560 279 560 _c
319 560 353 552 382 536 _c
411 520 435 496 454 464 _c
148 273 _m
148 207 161 155 188 117 _c
215 79 253 61 301 61 _c
}_e{348 61 385 79 413 117 _c
440 155 454 207 454 273 _c
454 339 440 390 413 428 _c
385 466 348 485 301 485 _c
253 485 215 466 188 428 _c
161 390 148 339 148 273 _c
_cl}_e}_d
/e{{615 0 55 -13 562 560 _sc
562 296 _m
562 252 _l
149 252 _l
153 190 171 142 205 110 _c
238 78 284 62 344 62 _c
378 62 412 66 444 74 _c
476 82 509 95 541 113 _c
541 28 _l
509 14 476 3 442 -3 _c
408 -9 373 -13 339 -13 _c
251 -13 182 12 131 62 _c
80 112 55 181 55 268 _c
55 357 79 428 127 481 _c
175 533 241 560 323 560 _c
397 560 455 536 498 489 _c
}_e{540 441 562 377 562 296 _c
472 322 _m
471 371 457 410 431 440 _c
404 469 368 484 324 484 _c
274 484 234 469 204 441 _c
174 413 156 373 152 322 _c
472 322 _l
_cl}_e}_d
/f{352 0 23 0 371 760 _sc
371 760 _m
371 685 _l
285 685 _l
253 685 230 678 218 665 _c
205 652 199 629 199 595 _c
199 547 _l
347 547 _l
347 477 _l
199 477 _l
199 0 _l
109 0 _l
109 477 _l
23 477 _l
23 547 _l
109 547 _l
109 585 _l
109 645 123 690 151 718 _c
179 746 224 760 286 760 _c
371 760 _l
_cl}_d
/h{634 0 91 0 549 760 _sc
549 330 _m
549 0 _l
459 0 _l
459 327 _l
459 379 448 417 428 443 _c
408 469 378 482 338 482 _c
289 482 251 466 223 435 _c
195 404 181 362 181 309 _c
181 0 _l
91 0 _l
91 760 _l
181 760 _l
181 462 _l
202 494 227 519 257 535 _c
286 551 320 560 358 560 _c
420 560 468 540 500 501 _c
532 462 549 405 549 330 _c
_cl}_d
/i{278 0 94 0 184 760 _sc
94 547 _m
184 547 _l
184 0 _l
94 0 _l
94 547 _l
94 760 _m
184 760 _l
184 646 _l
94 646 _l
94 760 _l
_cl}_d
/l{278 0 94 0 184 760 _sc
94 760 _m
184 760 _l
184 0 _l
94 0 _l
94 760 _l
_cl}_d
/n{634 0 91 0 549 560 _sc
549 330 _m
549 0 _l
459 0 _l
459 327 _l
459 379 448 417 428 443 _c
408 469 378 482 338 482 _c
289 482 251 466 223 435 _c
195 404 181 362 181 309 _c
181 0 _l
91 0 _l
91 547 _l
181 547 _l
181 462 _l
202 494 227 519 257 535 _c
286 551 320 560 358 560 _c
420 560 468 540 500 501 _c
532 462 549 405 549 330 _c
_cl}_d
/o{612 0 55 -13 557 560 _sc
306 484 _m
258 484 220 465 192 427 _c
164 389 150 338 150 273 _c
150 207 163 156 191 118 _c
219 80 257 62 306 62 _c
354 62 392 80 420 118 _c
448 156 462 207 462 273 _c
462 337 448 389 420 427 _c
392 465 354 484 306 484 _c
306 560 _m
384 560 445 534 490 484 _c
534 433 557 363 557 273 _c
557 183 534 113 490 63 _c
445 12 384 -13 306 -13 _c
227 -13 165 12 121 63 _c
77 113 55 183 55 273 _c
55 363 77 433 121 484 _c
165 534 227 560 306 560 _c
_cl}_d
/p{{635 0 91 -207 580 560 _sc
181 82 _m
181 -207 _l
91 -207 _l
91 547 _l
181 547 _l
181 464 _l
199 496 223 520 252 536 _c
281 552 316 560 356 560 _c
422 560 476 533 518 481 _c
559 428 580 359 580 273 _c
580 187 559 117 518 65 _c
476 13 422 -13 356 -13 _c
316 -13 281 -5 252 10 _c
223 25 199 49 181 82 _c
487 273 _m
487 339 473 390 446 428 _c
418 466 381 485 334 485 _c
}_e{286 485 249 466 222 428 _c
194 390 181 339 181 273 _c
181 207 194 155 222 117 _c
249 79 286 61 334 61 _c
381 61 418 79 446 117 _c
473 155 487 207 487 273 _c
_cl}_e}_d
/r{411 0 91 0 411 560 _sc
411 463 _m
401 469 390 473 378 476 _c
366 478 353 480 339 480 _c
288 480 249 463 222 430 _c
194 397 181 350 181 288 _c
181 0 _l
91 0 _l
91 547 _l
181 547 _l
181 462 _l
199 495 224 520 254 536 _c
284 552 321 560 365 560 _c
371 560 378 559 386 559 _c
393 558 401 557 411 555 _c
411 463 _l
_cl}_d
/s{{521 0 54 -13 472 560 _sc
443 531 _m
443 446 _l
417 458 391 468 364 475 _c
336 481 308 485 279 485 _c
234 485 200 478 178 464 _c
156 450 145 430 145 403 _c
145 382 153 366 169 354 _c
185 342 217 330 265 320 _c
296 313 _l
360 299 405 279 432 255 _c
458 230 472 195 472 151 _c
472 100 452 60 412 31 _c
372 1 316 -13 246 -13 _c
216 -13 186 -10 154 -5 _c
}_e{122 0 89 8 54 20 _c
54 113 _l
87 95 120 82 152 74 _c
184 65 216 61 248 61 _c
290 61 323 68 346 82 _c
368 96 380 117 380 144 _c
380 168 371 187 355 200 _c
339 213 303 226 247 238 _c
216 245 _l
160 257 119 275 95 299 _c
70 323 58 356 58 399 _c
58 450 76 490 112 518 _c
148 546 200 560 268 560 _c
301 560 332 557 362 552 _c
391 547 418 540 443 531 _c
}_e{_cl}_e}_d
/t{392 0 27 0 368 702 _sc
183 702 _m
183 547 _l
368 547 _l
368 477 _l
183 477 _l
183 180 _l
183 135 189 106 201 94 _c
213 81 238 75 276 75 _c
368 75 _l
368 0 _l
276 0 _l
206 0 158 13 132 39 _c
106 65 93 112 93 180 _c
93 477 _l
27 477 _l
27 547 _l
93 547 _l
93 702 _l
183 702 _l
_cl}_d
/u{634 0 85 -13 543 560 _sc
85 216 _m
85 547 _l
175 547 _l
175 219 _l
175 167 185 129 205 103 _c
225 77 255 64 296 64 _c
344 64 383 79 411 110 _c
439 141 453 183 453 237 _c
453 547 _l
543 547 _l
543 0 _l
453 0 _l
453 84 _l
431 50 405 26 377 10 _c
348 -5 315 -13 277 -13 _c
214 -13 166 6 134 45 _c
101 83 85 140 85 216 _c
311 560 _m
311 560 _l
_cl}_d
/v{592 0 30 0 562 547 _sc
30 547 _m
125 547 _l
296 88 _l
467 547 _l
562 547 _l
357 0 _l
235 0 _l
30 547 _l
_cl}_d
end readonly def

/BuildGlyph
 {exch begin
 CharStrings exch
 2 copy known not{pop /.notdef}if
 true 3 1 roll get exec
 end}_d

/BuildChar {
 1 index /Encoding get exch get
 1 index /BuildGlyph get exec
}_d

FontName currentdict end definefont pop
%!PS-Adobe-3.0 Resource-Font
%%Title: DejaVu Sans Oblique
%%Copyright: Copyright (c) 2003 by Bitstream, Inc. All Rights Reserved. Copyright (c) 2006 by Tavmjong Bah. All Rights Reserved. DejaVu changes are in public domain 
%%Creator: Converted from TrueType to type 3 by PPR
25 dict begin
/_d{bind def}bind def
/_m{moveto}_d
/_l{lineto}_d
/_cl{closepath eofill}_d
/_c{curveto}_d
/_sc{7 -1 roll{setcachedevice}{pop pop pop pop pop pop}ifelse}_d
/_e{exec}_d
/FontName /DejaVuSans-Oblique def
/PaintType 0 def
/FontMatrix[.001 0 0 .001 0 0]def
/FontBBox[-1016 -350 1659 1068]def
/FontType 3 def
/Encoding [ /t /delta ] def
/FontInfo 10 dict dup begin
/FamilyName (DejaVu Sans) def
/FullName (DejaVu Sans Oblique) def
/Notice (Copyright (c) 2003 by Bitstream, Inc. All Rights Reserved. Copyright (c) 2006 by Tavmjong Bah. All Rights Reserved. DejaVu changes are in public domain ) def
/Weight (Oblique) def
/Version (Version 2.35) def
/ItalicAngle -11.0 def
/isFixedPitch false def
/UnderlinePosition -130 def
/UnderlineThickness 90 def
end readonly def
/CharStrings 3 dict dup begin
/.notdef 0 def
/t{{392 0 64 0 423 702 _sc
423 547 _m
409 477 _l
230 477 _l
172 180 _l
170 169 168 160 167 152 _c
166 144 166 139 166 135 _c
166 114 172 99 185 89 _c
197 79 217 75 245 75 _c
336 75 _l
321 0 _l
235 0 _l
181 0 141 10 115 31 _c
89 52 76 84 76 126 _c
76 133 76 141 77 150 _c
78 159 80 169 82 180 _c
140 477 _l
64 477 _l
78 547 _l
153 547 _l
183 702 _l
}_e{273 702 _l
243 547 _l
423 547 _l
_cl}_e}_d
/delta{{612 0 38 -13 557 742 _sc
542 633 _m
514 655 461 667 383 667 _c
300 667 255 648 248 610 _c
242 580 280 557 364 542 _c
428 530 476 505 508 469 _c
546 425 556 358 539 268 _c
521 182 486 113 432 63 _c
377 12 310 -13 232 -13 _c
154 -13 98 12 63 63 _c
28 113 20 183 38 273 _c
50 339 84 399 139 453 _c
160 473 184 490 211 502 _c
165 528 147 563 156 609 _c
}_e{173 697 253 742 397 742 _c
469 742 522 730 557 708 _c
542 633 _l
274 478 _m
250 468 226 451 204 428 _c
168 391 144 339 132 273 _c
119 207 123 155 144 118 _c
164 80 199 62 248 62 _c
295 62 336 81 372 119 _c
407 156 431 206 443 268 _c
455 332 450 380 427 412 _c
401 445 369 464 329 468 _c
308 470 290 473 274 478 _c
_cl}_e}_d
end readonly def

/BuildGlyph
 {exch begin
 CharStrings exch
 2 copy known not{pop /.notdef}if
 true 3 1 roll get exec
 end}_d

/BuildChar {
 1 index /Encoding get exch get
 1 index /BuildGlyph get exec
}_d

FontName currentdict end definefont pop
end
%%EndProlog
mpldict begin
-87.461 98.468 translate
786.922 595.063 0 0 clipbox
gsave
0 0 m
786.921875 0 l
786.921875 595.063125 l
0 595.063125 l
cl
1.000 setgray
fill
grestore
gsave
94.85625 64.66875 m
764.45625 64.66875 l
764.45625 563.62875 l
94.85625 563.62875 l
cl
1.000 setgray
fill
grestore
0.800 setlinewidth
1 setlinejoin
0 setlinecap
[] 0 setdash
0.000 setgray
gsave
/o {
gsave
newpath
translate
0.8 setlinewidth
1 setlinejoin
0 setlinecap
0 0 m
0 -3.5 l

gsave
0.000 setgray
fill
grestore
stroke
grestore
} bind def
94.8563 64.6688 o
grestore
/DejaVuSans findfont
24.000 scalefont
setfont
gsave
87.223438 39.434375 translate
0.000000 rotate
0.000000 0.000000 m /five glyphshow
grestore
gsave
/o {
gsave
newpath
translate
0.8 setlinewidth
1 setlinejoin
0 setlinecap
0 0 m
0 -3.5 l

gsave
0.000 setgray
fill
grestore
stroke
grestore
} bind def
169.256 64.6688 o
grestore
gsave
153.990625 39.434375 translate
0.000000 rotate
0.000000 0.000000 m /one glyphshow
15.269531 0.000000 m /zero glyphshow
grestore
gsave
/o {
gsave
newpath
translate
0.8 setlinewidth
1 setlinejoin
0 setlinecap
0 0 m
0 -3.5 l

gsave
0.000 setgray
fill
grestore
stroke
grestore
} bind def
243.656 64.6688 o
grestore
gsave
228.390625 39.434375 translate
0.000000 rotate
0.000000 0.000000 m /one glyphshow
15.269531 0.000000 m /five glyphshow
grestore
gsave
/o {
gsave
newpath
translate
0.8 setlinewidth
1 setlinejoin
0 setlinecap
0 0 m
0 -3.5 l

gsave
0.000 setgray
fill
grestore
stroke
grestore
} bind def
318.056 64.6688 o
grestore
gsave
302.790625 39.434375 translate
0.000000 rotate
0.000000 0.000000 m /two glyphshow
15.269531 0.000000 m /zero glyphshow
grestore
gsave
/o {
gsave
newpath
translate
0.8 setlinewidth
1 setlinejoin
0 setlinecap
0 0 m
0 -3.5 l

gsave
0.000 setgray
fill
grestore
stroke
grestore
} bind def
392.456 64.6688 o
grestore
gsave
377.190625 39.434375 translate
0.000000 rotate
0.000000 0.000000 m /two glyphshow
15.269531 0.000000 m /five glyphshow
grestore
gsave
/o {
gsave
newpath
translate
0.8 setlinewidth
1 setlinejoin
0 setlinecap
0 0 m
0 -3.5 l

gsave
0.000 setgray
fill
grestore
stroke
grestore
} bind def
466.856 64.6688 o
grestore
gsave
451.590625 39.434375 translate
0.000000 rotate
0.000000 0.000000 m /three glyphshow
15.269531 0.000000 m /zero glyphshow
grestore
gsave
/o {
gsave
newpath
translate
0.8 setlinewidth
1 setlinejoin
0 setlinecap
0 0 m
0 -3.5 l

gsave
0.000 setgray
fill
grestore
stroke
grestore
} bind def
541.256 64.6688 o
grestore
gsave
525.990625 39.434375 translate
0.000000 rotate
0.000000 0.000000 m /three glyphshow
15.269531 0.000000 m /five glyphshow
grestore
gsave
/o {
gsave
newpath
translate
0.8 setlinewidth
1 setlinejoin
0 setlinecap
0 0 m
0 -3.5 l

gsave
0.000 setgray
fill
grestore
stroke
grestore
} bind def
615.656 64.6688 o
grestore
gsave
600.390625 39.434375 translate
0.000000 rotate
0.000000 0.000000 m /four glyphshow
15.269531 0.000000 m /zero glyphshow
grestore
gsave
/o {
gsave
newpath
translate
0.8 setlinewidth
1 setlinejoin
0 setlinecap
0 0 m
0 -3.5 l

gsave
0.000 setgray
fill
grestore
stroke
grestore
} bind def
690.056 64.6688 o
grestore
gsave
674.790625 39.434375 translate
0.000000 rotate
0.000000 0.000000 m /four glyphshow
15.269531 0.000000 m /five glyphshow
grestore
gsave
/o {
gsave
newpath
translate
0.8 setlinewidth
1 setlinejoin
0 setlinecap
0 0 m
0 -3.5 l

gsave
0.000 setgray
fill
grestore
stroke
grestore
} bind def
764.456 64.6688 o
grestore
gsave
749.190625 39.434375 translate
0.000000 rotate
0.000000 0.000000 m /five glyphshow
15.269531 0.000000 m /zero glyphshow
grestore
gsave
367.304688 12.200000 translate
0.000000 rotate
0.000000 0.000000 m /S glyphshow
15.234375 0.000000 m /n glyphshow
30.445312 0.000000 m /a glyphshow
45.152344 0.000000 m /p glyphshow
60.386719 0.000000 m /s glyphshow
72.890625 0.000000 m /h glyphshow
88.101562 0.000000 m /o glyphshow
102.785156 0.000000 m /t glyphshow
112.195312 0.000000 m /s glyphshow
grestore
gsave
/o {
gsave
newpath
translate
0.8 setlinewidth
1 setlinejoin
0 setlinecap
0 0 m
-3.5 0 l

gsave
0.000 setgray
fill
grestore
stroke
grestore
} bind def
94.8563 85.9177 o
grestore
gsave
34.434375 76.800515 translate
0.000000 rotate
0.000000 0.000000 m /zero glyphshow
15.269531 0.000000 m /period glyphshow
22.898438 0.000000 m /zero glyphshow
38.167969 0.000000 m /zero glyphshow
grestore
gsave
/o {
gsave
newpath
translate
0.8 setlinewidth
1 setlinejoin
0 setlinecap
0 0 m
-3.5 0 l

gsave
0.000 setgray
fill
grestore
stroke
grestore
} bind def
94.8563 170.097 o
grestore
gsave
34.434375 160.979786 translate
0.000000 rotate
0.000000 0.000000 m /zero glyphshow
15.269531 0.000000 m /period glyphshow
22.898438 0.000000 m /zero glyphshow
38.167969 0.000000 m /five glyphshow
grestore
gsave
/o {
gsave
newpath
translate
0.8 setlinewidth
1 setlinejoin
0 setlinecap
0 0 m
-3.5 0 l

gsave
0.000 setgray
fill
grestore
stroke
grestore
} bind def
94.8563 254.276 o
grestore
gsave
34.434375 245.159056 translate
0.000000 rotate
0.000000 0.000000 m /zero glyphshow
15.269531 0.000000 m /period glyphshow
22.898438 0.000000 m /one glyphshow
38.167969 0.000000 m /zero glyphshow
grestore
gsave
/o {
gsave
newpath
translate
0.8 setlinewidth
1 setlinejoin
0 setlinecap
0 0 m
-3.5 0 l

gsave
0.000 setgray
fill
grestore
stroke
grestore
} bind def
94.8563 338.456 o
grestore
gsave
34.434375 329.338327 translate
0.000000 rotate
0.000000 0.000000 m /zero glyphshow
15.269531 0.000000 m /period glyphshow
22.898438 0.000000 m /one glyphshow
38.167969 0.000000 m /five glyphshow
grestore
gsave
/o {
gsave
newpath
translate
0.8 setlinewidth
1 setlinejoin
0 setlinecap
0 0 m
-3.5 0 l

gsave
0.000 setgray
fill
grestore
stroke
grestore
} bind def
94.8563 422.635 o
grestore
gsave
34.434375 413.517598 translate
0.000000 rotate
0.000000 0.000000 m /zero glyphshow
15.269531 0.000000 m /period glyphshow
22.898438 0.000000 m /two glyphshow
38.167969 0.000000 m /zero glyphshow
grestore
gsave
/o {
gsave
newpath
translate
0.8 setlinewidth
1 setlinejoin
0 setlinecap
0 0 m
-3.5 0 l

gsave
0.000 setgray
fill
grestore
stroke
grestore
} bind def
94.8563 506.814 o
grestore
gsave
34.434375 497.696868 translate
0.000000 rotate
0.000000 0.000000 m /zero glyphshow
15.269531 0.000000 m /period glyphshow
22.898438 0.000000 m /two glyphshow
38.167969 0.000000 m /five glyphshow
grestore
gsave
25.434375 265.367500 translate
90.000000 rotate
0.000000 0.000000 m /F glyphshow
13.789062 0.000000 m /r glyphshow
23.656250 0.000000 m /a glyphshow
38.363281 0.000000 m /c glyphshow
51.558594 0.000000 m /t glyphshow
60.968750 0.000000 m /i glyphshow
67.636719 0.000000 m /o glyphshow
82.320312 0.000000 m /n glyphshow
grestore
3.000 setlinewidth
2 setlinecap
gsave
669.6 499 94.86 64.67 clipbox
94.85625 101.15415 m
109.73625 98.039517 l
124.61625 95.42996 l
139.49625 92.652044 l
154.37625 91.052638 l
169.25625 90.042487 l
184.13625 89.958307 l
199.01625 90.042487 l
213.89625 89.537411 l
228.77625 89.874128 l
243.65625 89.70577 l
258.53625 89.958307 l
273.41625 90.295024 l
288.29625 90.126666 l
303.17625 90.295024 l
318.05625 90.210845 l
332.93625 89.453232 l
347.81625 89.789949 l
362.69625 89.958307 l
377.57625 90.463383 l
392.45625 90.547562 l
407.33625 90.042487 l
422.21625 90.8001 l
437.09625 90.379204 l
451.97625 90.210845 l
466.85625 90.463383 l
481.73625 90.042487 l
496.61625 90.884279 l
511.49625 90.631742 l
526.37625 90.884279 l
541.25625 90.715921 l
556.13625 91.220996 l
571.01625 91.052638 l
585.89625 91.220996 l
600.77625 90.8001 l
615.65625 91.641893 l
630.53625 91.97861 l
645.41625 91.052638 l
660.29625 90.463383 l
675.17625 91.220996 l
690.05625 90.884279 l
704.93625 90.8001 l
719.81625 90.8001 l
734.69625 95.261601 l
749.57625 100.649075 l
764.45625 105.78401 l
stroke
grestore
0.000 0.000 1.000 setrgbcolor
gsave
669.6 499 94.86 64.67 clipbox
94.85625 92.820403 m
109.73625 90.631742 l
124.61625 89.537411 l
139.49625 88.779798 l
154.37625 89.116515 l
169.25625 89.284873 l
184.13625 89.537411 l
199.01625 89.032335 l
213.89625 88.863977 l
228.77625 89.453232 l
243.65625 89.789949 l
258.53625 89.537411 l
273.41625 89.453232 l
288.29625 89.70577 l
303.17625 89.70577 l
318.05625 89.70577 l
332.93625 89.116515 l
347.81625 89.453232 l
362.69625 89.537411 l
377.57625 89.453232 l
392.45625 90.715921 l
407.33625 90.8001 l
422.21625 90.715921 l
437.09625 90.8001 l
451.97625 90.379204 l
466.85625 90.126666 l
481.73625 90.126666 l
496.61625 90.042487 l
511.49625 90.126666 l
526.37625 90.547562 l
541.25625 90.968459 l
556.13625 91.726072 l
571.01625 91.052638 l
585.89625 91.136817 l
600.77625 91.557714 l
615.65625 92.399506 l
630.53625 91.97861 l
645.41625 91.894431 l
660.29625 91.305176 l
675.17625 92.483686 l
690.05625 92.399506 l
704.93625 92.736223 l
719.81625 92.062789 l
734.69625 96.692649 l
749.57625 102.248481 l
764.45625 107.215058 l
stroke
grestore
1.000 0.000 0.000 setrgbcolor
gsave
669.6 499 94.86 64.67 clipbox
94.85625 92.146968 m
109.73625 89.200694 l
124.61625 88.443081 l
139.49625 87.517109 l
154.37625 87.517109 l
169.25625 87.601288 l
184.13625 88.106363 l
199.01625 87.938005 l
213.89625 87.685467 l
228.77625 87.938005 l
243.65625 87.685467 l
258.53625 87.517109 l
273.41625 87.853826 l
288.29625 88.358901 l
303.17625 88.358901 l
318.05625 87.938005 l
332.93625 87.34875 l
347.81625 87.601288 l
362.69625 87.685467 l
377.57625 87.601288 l
392.45625 88.106363 l
407.33625 88.190543 l
422.21625 88.190543 l
437.09625 88.022184 l
451.97625 88.274722 l
466.85625 88.358901 l
481.73625 88.611439 l
496.61625 88.022184 l
511.49625 88.022184 l
526.37625 88.443081 l
541.25625 88.779798 l
556.13625 88.611439 l
571.01625 88.190543 l
585.89625 88.611439 l
600.77625 88.695618 l
615.65625 89.032335 l
630.53625 89.032335 l
645.41625 88.948156 l
660.29625 88.274722 l
675.17625 89.70577 l
690.05625 89.874128 l
704.93625 89.789949 l
719.81625 89.284873 l
734.69625 93.914733 l
749.57625 99.554744 l
764.45625 105.110576 l
stroke
grestore
0 setlinecap
[11.1 4.8] 0 setdash
0.000 setgray
gsave
669.6 499 94.86 64.67 clipbox
94.85625 121.721952 m
109.73625 107.860432 l
124.61625 99.835342 l
139.49625 93.493837 l
154.37625 90.463383 l
169.25625 90.295024 l
184.13625 90.463383 l
199.01625 90.070546 l
213.89625 89.902188 l
228.77625 89.789949 l
243.65625 89.958307 l
258.53625 90.407264 l
273.41625 89.789949 l
288.29625 89.116515 l
303.17625 89.733829 l
318.05625 89.902188 l
332.93625 89.565471 l
347.81625 88.892037 l
362.69625 89.565471 l
377.57625 88.667559 l
392.45625 89.172634 l
407.33625 88.835917 l
422.21625 89.284873 l
437.09625 89.509351 l
451.97625 89.228754 l
466.85625 89.228754 l
481.73625 89.62159 l
496.61625 89.509351 l
511.49625 89.172634 l
526.37625 88.948156 l
541.25625 89.509351 l
556.13625 90.295024 l
571.01625 90.182785 l
585.89625 90.407264 l
600.77625 89.902188 l
615.65625 90.8001 l
630.53625 90.575622 l
645.41625 90.519503 l
660.29625 90.575622 l
675.17625 90.182785 l
690.05625 90.182785 l
704.93625 89.789949 l
719.81625 90.575622 l
734.69625 95.121303 l
749.57625 100.733254 l
764.45625 107.243118 l
stroke
grestore
0.000 0.000 1.000 setrgbcolor
gsave
669.6 499 94.86 64.67 clipbox
94.85625 154.607987 m
109.73625 130.701074 l
124.61625 116.334479 l
139.49625 108.309388 l
154.37625 103.707588 l
169.25625 102.753557 l
184.13625 101.294449 l
199.01625 99.891461 l
213.89625 98.432354 l
228.77625 97.309964 l
243.65625 97.141605 l
258.53625 95.626378 l
273.41625 95.682498 l
288.29625 96.299812 l
303.17625 96.692649 l
318.05625 96.917127 l
332.93625 95.738617 l
347.81625 96.299812 l
362.69625 95.906976 l
377.57625 95.850856 l
392.45625 96.468171 l
407.33625 96.748769 l
422.21625 97.197725 l
437.09625 97.029366 l
451.97625 97.253844 l
466.85625 96.917127 l
481.73625 96.63653 l
496.61625 96.973247 l
511.49625 97.7028 l
526.37625 97.141605 l
541.25625 97.590561 l
556.13625 98.376234 l
571.01625 98.656832 l
585.89625 98.993549 l
600.77625 98.320115 l
615.65625 98.544593 l
630.53625 98.88131 l
645.41625 98.769071 l
660.29625 99.105788 l
675.17625 99.723103 l
690.05625 99.554744 l
704.93625 99.835342 l
719.81625 99.723103 l
734.69625 104.942218 l
749.57625 110.778647 l
764.45625 115.773284 l
stroke
grestore
1.000 0.000 0.000 setrgbcolor
gsave
669.6 499 94.86 64.67 clipbox
94.85625 114.089698 m
109.73625 99.218027 l
124.61625 94.447868 l
139.49625 92.315327 l
154.37625 91.192937 l
169.25625 91.529654 l
184.13625 91.473534 l
199.01625 91.305176 l
213.89625 91.024578 l
228.77625 90.238905 l
243.65625 89.846068 l
258.53625 89.62159 l
273.41625 89.902188 l
288.29625 89.565471 l
303.17625 89.565471 l
318.05625 90.014427 l
332.93625 89.62159 l
347.81625 89.733829 l
362.69625 89.340993 l
377.57625 89.958307 l
392.45625 89.902188 l
407.33625 90.014427 l
422.21625 89.902188 l
437.09625 89.846068 l
451.97625 89.565471 l
466.85625 89.116515 l
481.73625 89.228754 l
496.61625 89.509351 l
511.49625 89.565471 l
526.37625 89.172634 l
541.25625 90.014427 l
556.13625 90.519503 l
571.01625 90.687861 l
585.89625 91.080698 l
600.77625 91.473534 l
615.65625 90.687861 l
630.53625 90.295024 l
645.41625 90.351144 l
660.29625 90.463383 l
675.17625 91.136817 l
690.05625 90.8001 l
704.93625 90.014427 l
719.81625 90.126666 l
734.69625 95.345781 l
749.57625 101.069971 l
764.45625 106.569683 l
stroke
grestore
[3 4.95] 0 setdash
0.000 setgray
gsave
669.6 499 94.86 64.67 clipbox
94.85625 540.94875 m
109.73625 449.82469 l
124.61625 366.571391 l
139.49625 296.786775 l
154.37625 238.155913 l
169.25625 195.140306 l
184.13625 163.278452 l
199.01625 140.46587 l
213.89625 125.39778 l
228.77625 114.286117 l
243.65625 107.467596 l
258.53625 102.753557 l
273.41625 99.849372 l
288.29625 97.74489 l
303.17625 96.145484 l
318.05625 95.38787 l
332.93625 94.419809 l
347.81625 93.15712 l
362.69625 93.241299 l
377.57625 92.988761 l
392.45625 93.11503 l
407.33625 92.694134 l
422.21625 93.367568 l
437.09625 93.746375 l
451.97625 92.652044 l
466.85625 93.620106 l
481.73625 92.736223 l
496.61625 93.367568 l
511.49625 93.367568 l
526.37625 92.988761 l
541.25625 93.15712 l
556.13625 94.714436 l
571.01625 94.209361 l
585.89625 94.125181 l
600.77625 94.335629 l
615.65625 93.662195 l
630.53625 92.946671 l
645.41625 93.325478 l
660.29625 92.736223 l
675.17625 93.199209 l
690.05625 93.325478 l
704.93625 93.11503 l
719.81625 92.946671 l
734.69625 97.492352 l
749.57625 103.847887 l
764.45625 110.161332 l
stroke
grestore
0.000 0.000 1.000 setrgbcolor
gsave
669.6 499 94.86 64.67 clipbox
94.85625 430.295099 m
109.73625 413.627603 l
124.61625 397.759811 l
139.49625 381.68157 l
154.37625 366.65557 l
169.25625 351.755839 l
184.13625 339.634024 l
199.01625 328.101464 l
213.89625 315.095767 l
228.77625 302.342607 l
243.65625 290.852137 l
258.53625 274.900165 l
273.41625 261.68402 l
288.29625 249.772653 l
303.17625 238.155913 l
318.05625 226.034098 l
332.93625 216.100944 l
347.81625 205.831073 l
362.69625 197.707774 l
377.57625 189.331936 l
392.45625 179.440872 l
407.33625 173.001158 l
422.21625 166.98234 l
437.09625 160.710984 l
451.97625 155.49187 l
466.85625 150.314844 l
481.73625 146.19006 l
496.61625 142.822889 l
511.49625 139.624077 l
526.37625 135.920189 l
541.25625 133.857797 l
556.13625 132.38466 l
571.01625 128.807041 l
585.89625 126.997186 l
600.77625 125.145243 l
615.65625 123.040761 l
630.53625 121.862251 l
645.41625 120.515383 l
660.29625 118.663439 l
675.17625 116.769405 l
690.05625 114.917461 l
704.93625 114.159848 l
719.81625 112.981338 l
734.69625 118.873887 l
749.57625 125.566139 l
764.45625 131.290329 l
stroke
grestore
1.000 0.000 0.000 setrgbcolor
gsave
669.6 499 94.86 64.67 clipbox
94.85625 260.842227 m
109.73625 199.854345 l
124.61625 156.922917 l
139.49625 129.775102 l
154.37625 113.402234 l
169.25625 105.489383 l
184.13625 101.23833 l
199.01625 97.74489 l
213.89625 95.766677 l
228.77625 94.714436 l
243.65625 94.335629 l
258.53625 94.041002 l
273.41625 92.946671 l
288.29625 93.325478 l
303.17625 93.283389 l
318.05625 93.578016 l
332.93625 93.830554 l
347.81625 94.125181 l
362.69625 93.662195 l
377.57625 93.451747 l
392.45625 92.946671 l
407.33625 92.483686 l
422.21625 92.609954 l
437.09625 92.567865 l
451.97625 92.483686 l
466.85625 92.609954 l
481.73625 92.525775 l
496.61625 92.567865 l
511.49625 92.862492 l
526.37625 92.273237 l
541.25625 92.778313 l
556.13625 93.367568 l
571.01625 92.862492 l
585.89625 92.357417 l
600.77625 92.567865 l
615.65625 92.609954 l
630.53625 92.399506 l
645.41625 92.357417 l
660.29625 92.483686 l
675.17625 92.609954 l
690.05625 92.904582 l
704.93625 92.694134 l
719.81625 92.694134 l
734.69625 97.660711 l
749.57625 103.974156 l
764.45625 109.950884 l
stroke
grestore
0.800 setlinewidth
0 setlinejoin
2 setlinecap
[] 0 setdash
0.000 setgray
gsave
94.85625 64.66875 m
94.85625 563.62875 l
stroke
grestore
gsave
764.45625 64.66875 m
764.45625 563.62875 l
stroke
grestore
gsave
94.85625 64.66875 m
764.45625 64.66875 l
stroke
grestore
gsave
94.85625 563.62875 m
764.45625 563.62875 l
stroke
grestore
gsave
209.156250 569.628750 translate
0.000000 rotate
/DejaVuSans findfont
24.0 scalefont
setfont
0.000000 0.765625 moveto
/F glyphshow

13.804688 0.765625 moveto
/r glyphshow

23.671875 0.765625 moveto
/a glyphshow

38.378906 0.765625 moveto
/c glyphshow

51.574219 0.765625 moveto
/t glyphshow

60.984375 0.765625 moveto
/i glyphshow

67.652344 0.765625 moveto
/o glyphshow

82.335938 0.765625 moveto
/n glyphshow

97.546875 0.765625 moveto
/space glyphshow

105.175781 0.765625 moveto
/o glyphshow

119.859375 0.765625 moveto
/f glyphshow

128.308594 0.765625 moveto
/space glyphshow

135.937500 0.765625 moveto
/U glyphshow

153.503906 0.765625 moveto
/n glyphshow

168.714844 0.765625 moveto
/d glyphshow

183.949219 0.765625 moveto
/e glyphshow

198.714844 0.765625 moveto
/t glyphshow

208.125000 0.765625 moveto
/e glyphshow

222.890625 0.765625 moveto
/c glyphshow

236.085938 0.765625 moveto
/t glyphshow

245.496094 0.765625 moveto
/e glyphshow

260.261719 0.765625 moveto
/d glyphshow

275.496094 0.765625 moveto
/space glyphshow

283.125000 0.765625 moveto
/P glyphshow

297.597656 0.765625 moveto
/a glyphshow

312.304688 0.765625 moveto
/r glyphshow

322.171875 0.765625 moveto
/t glyphshow

331.582031 0.765625 moveto
/i glyphshow

338.250000 0.765625 moveto
/c glyphshow

351.445312 0.765625 moveto
/l glyphshow

358.113281 0.765625 moveto
/e glyphshow

372.878906 0.765625 moveto
/s glyphshow

385.382812 0.765625 moveto
/comma glyphshow

393.011719 0.765625 moveto
/space glyphshow

400.640625 0.765625 moveto
/three glyphshow

/DejaVuSans-Oblique findfont
24.0 scalefont
setfont
415.910156 0.765625 moveto
/delta glyphshow

430.593750 0.765625 moveto
/t glyphshow


grestore
1.000 setlinewidth
0 setlinecap
0.800 setgray
gsave
523.4875 353.488125 m
753.95625 353.488125 l
755.95625 353.488125 756.95625 354.488125 756.95625 356.488125 c
756.95625 553.12875 l
756.95625 555.12875 755.95625 556.12875 753.95625 556.12875 c
523.4875 556.12875 l
521.4875 556.12875 520.4875 555.12875 520.4875 553.12875 c
520.4875 356.488125 l
520.4875 354.488125 521.4875 353.488125 523.4875 353.488125 c
cl
gsave
1.000 setgray
fill
grestore
stroke
grestore
3.000 setlinewidth
1 setlinejoin
2 setlinecap
[] 0 setdash
0.000 setgray
gsave
526.4875 543.988125 m
556.4875 543.988125 l
stroke
grestore
/DejaVuSans findfont
15.000 scalefont
setfont
gsave
568.487500 538.738125 translate
0.000000 rotate
0.000000 0.000000 m /P glyphshow
9.045410 0.000000 m /P glyphshow
18.090820 0.000000 m /P glyphshow
27.136230 0.000000 m /space glyphshow
31.904297 0.000000 m /zero glyphshow
41.447754 0.000000 m /period glyphshow
46.215820 0.000000 m /zero glyphshow
55.759277 0.000000 m /five glyphshow
65.302734 0.000000 m /comma glyphshow
70.070801 0.000000 m /space glyphshow
74.838867 0.000000 m /S glyphshow
84.360352 0.000000 m /T glyphshow
93.522949 0.000000 m /B glyphshow
103.813477 0.000000 m /space glyphshow
108.581543 0.000000 m /D glyphshow
120.131836 0.000000 m /a glyphshow
129.323730 0.000000 m /v glyphshow
138.200684 0.000000 m /i glyphshow
142.368164 0.000000 m /s glyphshow
grestore
0.000 0.000 1.000 setrgbcolor
gsave
526.4875 521.9725 m
556.4875 521.9725 l
stroke
grestore
0.000 setgray
gsave
568.487500 516.722500 translate
0.000000 rotate
0.000000 0.000000 m /P glyphshow
9.045410 0.000000 m /P glyphshow
18.090820 0.000000 m /P glyphshow
27.136230 0.000000 m /space glyphshow
31.904297 0.000000 m /zero glyphshow
41.447754 0.000000 m /period glyphshow
46.215820 0.000000 m /zero glyphshow
55.759277 0.000000 m /five glyphshow
65.302734 0.000000 m /comma glyphshow
70.070801 0.000000 m /space glyphshow
74.838867 0.000000 m /S glyphshow
84.360352 0.000000 m /T glyphshow
93.522949 0.000000 m /B glyphshow
103.813477 0.000000 m /space glyphshow
108.581543 0.000000 m /i glyphshow
112.749023 0.000000 m /n glyphshow
122.255859 0.000000 m /hyphen glyphshow
127.668457 0.000000 m /h glyphshow
137.175293 0.000000 m /o glyphshow
146.352539 0.000000 m /u glyphshow
155.859375 0.000000 m /s glyphshow
163.674316 0.000000 m /e glyphshow
grestore
1.000 0.000 0.000 setrgbcolor
gsave
526.4875 499.956875 m
556.4875 499.956875 l
stroke
grestore
0.000 setgray
gsave
568.487500 494.706875 translate
0.000000 rotate
0.000000 0.000000 m /P glyphshow
9.045410 0.000000 m /P glyphshow
18.090820 0.000000 m /P glyphshow
27.136230 0.000000 m /space glyphshow
31.904297 0.000000 m /zero glyphshow
41.447754 0.000000 m /period glyphshow
46.215820 0.000000 m /zero glyphshow
55.759277 0.000000 m /five glyphshow
65.302734 0.000000 m /comma glyphshow
70.070801 0.000000 m /space glyphshow
74.838867 0.000000 m /K glyphshow
84.675293 0.000000 m /L glyphshow
93.032227 0.000000 m /P glyphshow
102.077637 0.000000 m /T glyphshow
grestore
0 setlinecap
[11.1 4.8] 0 setdash
gsave
526.4875 477.94125 m
556.4875 477.94125 l
stroke
grestore
gsave
568.487500 472.691250 translate
0.000000 rotate
0.000000 0.000000 m /P glyphshow
9.045410 0.000000 m /P glyphshow
18.090820 0.000000 m /P glyphshow
27.136230 0.000000 m /space glyphshow
31.904297 0.000000 m /zero glyphshow
41.447754 0.000000 m /period glyphshow
46.215820 0.000000 m /zero glyphshow
55.759277 0.000000 m /seven glyphshow
65.302734 0.000000 m /five glyphshow
74.846191 0.000000 m /comma glyphshow
79.614258 0.000000 m /space glyphshow
84.382324 0.000000 m /S glyphshow
93.903809 0.000000 m /T glyphshow
103.066406 0.000000 m /B glyphshow
113.356934 0.000000 m /space glyphshow
118.125000 0.000000 m /D glyphshow
129.675293 0.000000 m /a glyphshow
138.867188 0.000000 m /v glyphshow
147.744141 0.000000 m /i glyphshow
151.911621 0.000000 m /s glyphshow
grestore
0.000 0.000 1.000 setrgbcolor
gsave
526.4875 455.925625 m
556.4875 455.925625 l
stroke
grestore
0.000 setgray
gsave
568.487500 450.675625 translate
0.000000 rotate
0.000000 0.000000 m /P glyphshow
9.045410 0.000000 m /P glyphshow
18.090820 0.000000 m /P glyphshow
27.136230 0.000000 m /space glyphshow
31.904297 0.000000 m /zero glyphshow
41.447754 0.000000 m /period glyphshow
46.215820 0.000000 m /zero glyphshow
55.759277 0.000000 m /seven glyphshow
65.302734 0.000000 m /five glyphshow
74.846191 0.000000 m /comma glyphshow
79.614258 0.000000 m /space glyphshow
84.382324 0.000000 m /S glyphshow
93.903809 0.000000 m /T glyphshow
103.066406 0.000000 m /B glyphshow
113.356934 0.000000 m /space glyphshow
118.125000 0.000000 m /i glyphshow
122.292480 0.000000 m /n glyphshow
131.799316 0.000000 m /hyphen glyphshow
137.211914 0.000000 m /h glyphshow
146.718750 0.000000 m /o glyphshow
155.895996 0.000000 m /u glyphshow
165.402832 0.000000 m /s glyphshow
173.217773 0.000000 m /e glyphshow
grestore
1.000 0.000 0.000 setrgbcolor
gsave
526.4875 433.91 m
556.4875 433.91 l
stroke
grestore
0.000 setgray
gsave
568.487500 428.660000 translate
0.000000 rotate
0.000000 0.000000 m /P glyphshow
9.045410 0.000000 m /P glyphshow
18.090820 0.000000 m /P glyphshow
27.136230 0.000000 m /space glyphshow
31.904297 0.000000 m /zero glyphshow
41.447754 0.000000 m /period glyphshow
46.215820 0.000000 m /zero glyphshow
55.759277 0.000000 m /seven glyphshow
65.302734 0.000000 m /five glyphshow
74.846191 0.000000 m /comma glyphshow
79.614258 0.000000 m /space glyphshow
84.382324 0.000000 m /K glyphshow
94.218750 0.000000 m /L glyphshow
102.575684 0.000000 m /P glyphshow
111.621094 0.000000 m /T glyphshow
grestore
[3 4.95] 0 setdash
gsave
526.4875 411.894375 m
556.4875 411.894375 l
stroke
grestore
gsave
568.487500 406.644375 translate
0.000000 rotate
0.000000 0.000000 m /P glyphshow
9.045410 0.000000 m /P glyphshow
18.090820 0.000000 m /P glyphshow
27.136230 0.000000 m /space glyphshow
31.904297 0.000000 m /zero glyphshow
41.447754 0.000000 m /period glyphshow
46.215820 0.000000 m /one glyphshow
55.759277 0.000000 m /comma glyphshow
60.527344 0.000000 m /space glyphshow
65.295410 0.000000 m /S glyphshow
74.816895 0.000000 m /T glyphshow
83.979492 0.000000 m /B glyphshow
94.270020 0.000000 m /space glyphshow
99.038086 0.000000 m /D glyphshow
110.588379 0.000000 m /a glyphshow
119.780273 0.000000 m /v glyphshow
128.657227 0.000000 m /i glyphshow
132.824707 0.000000 m /s glyphshow
grestore
0.000 0.000 1.000 setrgbcolor
gsave
526.4875 389.87875 m
556.4875 389.87875 l
stroke
grestore
0.000 setgray
gsave
568.487500 384.628750 translate
0.000000 rotate
0.000000 0.000000 m /P glyphshow
9.045410 0.000000 m /P glyphshow
18.090820 0.000000 m /P glyphshow
27.136230 0.000000 m /space glyphshow
31.904297 0.000000 m /zero glyphshow
41.447754 0.000000 m /period glyphshow
46.215820 0.000000 m /one glyphshow
55.759277 0.000000 m /comma glyphshow
60.527344 0.000000 m /space glyphshow
65.295410 0.000000 m /S glyphshow
74.816895 0.000000 m /T glyphshow
83.979492 0.000000 m /B glyphshow
94.270020 0.000000 m /space glyphshow
99.038086 0.000000 m /i glyphshow
103.205566 0.000000 m /n glyphshow
112.712402 0.000000 m /hyphen glyphshow
118.125000 0.000000 m /h glyphshow
127.631836 0.000000 m /o glyphshow
136.809082 0.000000 m /u glyphshow
146.315918 0.000000 m /s glyphshow
154.130859 0.000000 m /e glyphshow
grestore
1.000 0.000 0.000 setrgbcolor
gsave
526.4875 367.863125 m
556.4875 367.863125 l
stroke
grestore
0.000 setgray
gsave
568.487500 362.613125 translate
0.000000 rotate
0.000000 0.000000 m /P glyphshow
9.045410 0.000000 m /P glyphshow
18.090820 0.000000 m /P glyphshow
27.136230 0.000000 m /space glyphshow
31.904297 0.000000 m /zero glyphshow
41.447754 0.000000 m /period glyphshow
46.215820 0.000000 m /one glyphshow
55.759277 0.000000 m /comma glyphshow
60.527344 0.000000 m /space glyphshow
65.295410 0.000000 m /K glyphshow
75.131836 0.000000 m /L glyphshow
83.488770 0.000000 m /P glyphshow
92.534180 0.000000 m /T glyphshow
grestore

end
showpage
