%!PS-Adobe-3.0 EPSF-3.0
%%Title: /home/yin/0.10_trackedghost_thin_3methods.eps
%%Creator: matplotlib version 3.1.1, http://matplotlib.org/
%%CreationDate: Sat May  9 16:55:06 2020
%%Orientation: portrait
%%BoundingBox: -87.46093749999999 98.08562500000005 699.4609375 693.914375
%%EndComments
%%BeginProlog
/mpldict 9 dict def
mpldict begin
/m { moveto } bind def
/l { lineto } bind def
/r { rlineto } bind def
/c { curveto } bind def
/cl { closepath } bind def
/box {
m
1 index 0 r
0 exch r
neg 0 r
cl
} bind def
/clipbox {
box
clip
newpath
} bind def
%!PS-Adobe-3.0 Resource-Font
%%Title: DejaVu Sans
%%Copyright: Copyright (c) 2003 by Bitstream, Inc. All Rights Reserved. Copyright (c) 2006 by Tavmjong Bah. All Rights Reserved. DejaVu changes are in public domain 
%%Creator: Converted from TrueType to type 3 by PPR
25 dict begin
/_d{bind def}bind def
/_m{moveto}_d
/_l{lineto}_d
/_cl{closepath eofill}_d
/_c{curveto}_d
/_sc{7 -1 roll{setcachedevice}{pop pop pop pop pop pop}ifelse}_d
/_e{exec}_d
/FontName /DejaVuSans def
/PaintType 0 def
/FontMatrix[.001 0 0 .001 0 0]def
/FontBBox[-1021 -463 1793 1232]def
/FontType 3 def
/Encoding [ /space /comma /hyphen /period /zero /one /two /three /four /five /seven /B /D /F /K /L /P /S /T /a /c /d /e /f /g /h /i /k /l /n /o /p /r /s /t /u /v ] def
/FontInfo 10 dict dup begin
/FamilyName (DejaVu Sans) def
/FullName (DejaVu Sans) def
/Notice (Copyright (c) 2003 by Bitstream, Inc. All Rights Reserved. Copyright (c) 2006 by Tavmjong Bah. All Rights Reserved. DejaVu changes are in public domain ) def
/Weight (Book) def
/Version (Version 2.35) def
/ItalicAngle 0.0 def
/isFixedPitch false def
/UnderlinePosition -130 def
/UnderlineThickness 90 def
end readonly def
/CharStrings 38 dict dup begin
/.notdef 0 def
/space{318 0 0 0 0 0 _sc
}_d
/comma{318 0 77 -115 220 124 _sc
117 124 _m
220 124 _l
220 40 _l
140 -115 _l
77 -115 _l
117 40 _l
117 124 _l
_cl}_d
/hyphen{361 0 49 234 312 314 _sc
49 314 _m
312 314 _l
312 234 _l
49 234 _l
49 314 _l
_cl}_d
/period{318 0 107 0 210 124 _sc
107 124 _m
210 124 _l
210 0 _l
107 0 _l
107 124 _l
_cl}_d
/zero{636 0 66 -13 570 742 _sc
318 664 _m
267 664 229 639 203 589 _c
177 539 165 464 165 364 _c
165 264 177 189 203 139 _c
229 89 267 64 318 64 _c
369 64 407 89 433 139 _c
458 189 471 264 471 364 _c
471 464 458 539 433 589 _c
407 639 369 664 318 664 _c
318 742 _m
399 742 461 709 505 645 _c
548 580 570 486 570 364 _c
570 241 548 147 505 83 _c
461 19 399 -13 318 -13 _c
236 -13 173 19 130 83 _c
87 147 66 241 66 364 _c
66 486 87 580 130 645 _c
173 709 236 742 318 742 _c
_cl}_d
/one{636 0 110 0 544 729 _sc
124 83 _m
285 83 _l
285 639 _l
110 604 _l
110 694 _l
284 729 _l
383 729 _l
383 83 _l
544 83 _l
544 0 _l
124 0 _l
124 83 _l
_cl}_d
/two{{636 0 73 0 536 742 _sc
192 83 _m
536 83 _l
536 0 _l
73 0 _l
73 83 _l
110 121 161 173 226 239 _c
290 304 331 346 348 365 _c
380 400 402 430 414 455 _c
426 479 433 504 433 528 _c
433 566 419 598 392 622 _c
365 646 330 659 286 659 _c
255 659 222 653 188 643 _c
154 632 117 616 78 594 _c
78 694 _l
118 710 155 722 189 730 _c
223 738 255 742 284 742 _c
}_e{359 742 419 723 464 685 _c
509 647 532 597 532 534 _c
532 504 526 475 515 449 _c
504 422 484 390 454 354 _c
446 344 420 317 376 272 _c
332 227 271 164 192 83 _c
_cl}_e}_d
/three{{636 0 76 -13 556 742 _sc
406 393 _m
453 383 490 362 516 330 _c
542 298 556 258 556 212 _c
556 140 531 84 482 45 _c
432 6 362 -13 271 -13 _c
240 -13 208 -10 176 -4 _c
144 1 110 10 76 22 _c
76 117 _l
103 101 133 89 166 81 _c
198 73 232 69 268 69 _c
330 69 377 81 409 105 _c
441 129 458 165 458 212 _c
458 254 443 288 413 312 _c
383 336 341 349 287 349 _c
}_e{202 349 _l
202 430 _l
291 430 _l
339 430 376 439 402 459 _c
428 478 441 506 441 543 _c
441 580 427 609 401 629 _c
374 649 336 659 287 659 _c
260 659 231 656 200 650 _c
169 644 135 635 98 623 _c
98 711 _l
135 721 170 729 203 734 _c
235 739 266 742 296 742 _c
370 742 429 725 473 691 _c
517 657 539 611 539 553 _c
539 513 527 479 504 451 _c
481 423 448 403 406 393 _c
_cl}_e}_d
/four{636 0 49 0 580 729 _sc
378 643 _m
129 254 _l
378 254 _l
378 643 _l
352 729 _m
476 729 _l
476 254 _l
580 254 _l
580 172 _l
476 172 _l
476 0 _l
378 0 _l
378 172 _l
49 172 _l
49 267 _l
352 729 _l
_cl}_d
/five{{636 0 77 -13 549 729 _sc
108 729 _m
495 729 _l
495 646 _l
198 646 _l
198 467 _l
212 472 227 476 241 478 _c
255 480 270 482 284 482 _c
365 482 429 459 477 415 _c
525 370 549 310 549 234 _c
549 155 524 94 475 51 _c
426 8 357 -13 269 -13 _c
238 -13 207 -10 175 -6 _c
143 -1 111 6 77 17 _c
77 116 _l
106 100 136 88 168 80 _c
199 72 232 69 267 69 _c
}_e{323 69 368 83 401 113 _c
433 143 450 183 450 234 _c
450 284 433 324 401 354 _c
368 384 323 399 267 399 _c
241 399 214 396 188 390 _c
162 384 135 375 108 363 _c
108 729 _l
_cl}_e}_d
/seven{636 0 82 0 551 729 _sc
82 729 _m
551 729 _l
551 687 _l
286 0 _l
183 0 _l
432 646 _l
82 646 _l
82 729 _l
_cl}_d
/B{{686 0 98 0 615 729 _sc
197 348 _m
197 81 _l
355 81 _l
408 81 447 92 473 114 _c
498 136 511 169 511 215 _c
511 260 498 293 473 315 _c
447 337 408 348 355 348 _c
197 348 _l
197 648 _m
197 428 _l
343 428 _l
391 428 426 437 450 455 _c
474 473 486 500 486 538 _c
486 574 474 602 450 620 _c
426 638 391 648 343 648 _c
197 648 _l
98 729 _m
350 729 _l
}_e{425 729 483 713 524 682 _c
564 650 585 606 585 549 _c
585 504 574 468 553 442 _c
532 416 502 399 462 393 _c
510 382 548 360 575 327 _c
601 294 615 253 615 204 _c
615 138 592 88 548 53 _c
504 17 441 0 360 0 _c
98 0 _l
98 729 _l
_cl}_e}_d
/D{770 0 98 0 711 729 _sc
197 648 _m
197 81 _l
316 81 _l
416 81 490 103 537 149 _c
583 195 607 267 607 365 _c
607 463 583 534 537 580 _c
490 625 416 648 316 648 _c
197 648 _l
98 729 _m
301 729 _l
442 729 546 699 612 641 _c
678 582 711 490 711 365 _c
711 239 677 147 611 88 _c
545 29 441 0 301 0 _c
98 0 _l
98 729 _l
_cl}_d
/F{575 0 98 0 517 729 _sc
98 729 _m
517 729 _l
517 646 _l
197 646 _l
197 431 _l
486 431 _l
486 348 _l
197 348 _l
197 0 _l
98 0 _l
98 729 _l
_cl}_d
/K{656 0 98 0 677 729 _sc
98 729 _m
197 729 _l
197 421 _l
524 729 _l
651 729 _l
289 389 _l
677 0 _l
547 0 _l
197 351 _l
197 0 _l
98 0 _l
98 729 _l
_cl}_d
/L{557 0 98 0 552 729 _sc
98 729 _m
197 729 _l
197 83 _l
552 83 _l
552 0 _l
98 0 _l
98 729 _l
_cl}_d
/P{603 0 98 0 569 729 _sc
197 648 _m
197 374 _l
321 374 _l
367 374 402 385 427 409 _c
452 433 465 467 465 511 _c
465 555 452 588 427 612 _c
402 636 367 648 321 648 _c
197 648 _l
98 729 _m
321 729 _l
402 729 464 710 506 673 _c
548 636 569 582 569 511 _c
569 439 548 384 506 348 _c
464 311 402 293 321 293 _c
197 293 _l
197 0 _l
98 0 _l
98 729 _l
_cl}_d
/S{{635 0 66 -13 579 742 _sc
535 705 _m
535 609 _l
497 627 462 640 429 649 _c
395 657 363 662 333 662 _c
279 662 237 651 208 631 _c
179 610 165 580 165 542 _c
165 510 174 485 194 469 _c
213 452 250 439 304 429 _c
364 417 _l
437 403 491 378 526 343 _c
561 307 579 260 579 201 _c
579 130 555 77 508 41 _c
460 5 391 -13 300 -13 _c
265 -13 228 -9 189 -2 _c
}_e{150 5 110 16 69 32 _c
69 134 _l
109 111 148 94 186 83 _c
224 71 262 66 300 66 _c
356 66 399 77 430 99 _c
460 121 476 152 476 194 _c
476 230 465 258 443 278 _c
421 298 385 313 335 323 _c
275 335 _l
201 349 148 372 115 404 _c
82 435 66 478 66 534 _c
66 598 88 649 134 686 _c
179 723 242 742 322 742 _c
356 742 390 739 426 733 _c
461 727 497 717 535 705 _c
}_e{_cl}_e}_d
/T{611 0 -2 0 614 729 _sc
-2 729 _m
614 729 _l
614 646 _l
355 646 _l
355 0 _l
256 0 _l
256 646 _l
-2 646 _l
-2 729 _l
_cl}_d
/a{{613 0 60 -13 522 560 _sc
343 275 _m
270 275 220 266 192 250 _c
164 233 150 205 150 165 _c
150 133 160 107 181 89 _c
202 70 231 61 267 61 _c
317 61 357 78 387 114 _c
417 149 432 196 432 255 _c
432 275 _l
343 275 _l
522 312 _m
522 0 _l
432 0 _l
432 83 _l
411 49 385 25 355 10 _c
325 -5 287 -13 243 -13 _c
187 -13 142 2 109 33 _c
76 64 60 106 60 159 _c
}_e{60 220 80 266 122 298 _c
163 329 224 345 306 345 _c
432 345 _l
432 354 _l
432 395 418 427 391 450 _c
364 472 326 484 277 484 _c
245 484 215 480 185 472 _c
155 464 127 453 100 439 _c
100 522 _l
132 534 164 544 195 550 _c
226 556 256 560 286 560 _c
365 560 424 539 463 498 _c
502 457 522 395 522 312 _c
_cl}_e}_d
/c{{550 0 55 -13 488 560 _sc
488 526 _m
488 442 _l
462 456 437 466 411 473 _c
385 480 360 484 334 484 _c
276 484 230 465 198 428 _c
166 391 150 339 150 273 _c
150 206 166 154 198 117 _c
230 80 276 62 334 62 _c
360 62 385 65 411 72 _c
437 79 462 90 488 104 _c
488 21 _l
462 9 436 0 410 -5 _c
383 -10 354 -13 324 -13 _c
242 -13 176 12 128 64 _c
}_e{79 115 55 185 55 273 _c
55 362 79 432 128 483 _c
177 534 244 560 330 560 _c
358 560 385 557 411 551 _c
437 545 463 537 488 526 _c
_cl}_e}_d
/d{{635 0 55 -13 544 760 _sc
454 464 _m
454 760 _l
544 760 _l
544 0 _l
454 0 _l
454 82 _l
435 49 411 25 382 10 _c
353 -5 319 -13 279 -13 _c
213 -13 159 13 117 65 _c
75 117 55 187 55 273 _c
55 359 75 428 117 481 _c
159 533 213 560 279 560 _c
319 560 353 552 382 536 _c
411 520 435 496 454 464 _c
148 273 _m
148 207 161 155 188 117 _c
215 79 253 61 301 61 _c
}_e{348 61 385 79 413 117 _c
440 155 454 207 454 273 _c
454 339 440 390 413 428 _c
385 466 348 485 301 485 _c
253 485 215 466 188 428 _c
161 390 148 339 148 273 _c
_cl}_e}_d
/e{{615 0 55 -13 562 560 _sc
562 296 _m
562 252 _l
149 252 _l
153 190 171 142 205 110 _c
238 78 284 62 344 62 _c
378 62 412 66 444 74 _c
476 82 509 95 541 113 _c
541 28 _l
509 14 476 3 442 -3 _c
408 -9 373 -13 339 -13 _c
251 -13 182 12 131 62 _c
80 112 55 181 55 268 _c
55 357 79 428 127 481 _c
175 533 241 560 323 560 _c
397 560 455 536 498 489 _c
}_e{540 441 562 377 562 296 _c
472 322 _m
471 371 457 410 431 440 _c
404 469 368 484 324 484 _c
274 484 234 469 204 441 _c
174 413 156 373 152 322 _c
472 322 _l
_cl}_e}_d
/f{352 0 23 0 371 760 _sc
371 760 _m
371 685 _l
285 685 _l
253 685 230 678 218 665 _c
205 652 199 629 199 595 _c
199 547 _l
347 547 _l
347 477 _l
199 477 _l
199 0 _l
109 0 _l
109 477 _l
23 477 _l
23 547 _l
109 547 _l
109 585 _l
109 645 123 690 151 718 _c
179 746 224 760 286 760 _c
371 760 _l
_cl}_d
/g{{635 0 55 -207 544 560 _sc
454 280 _m
454 344 440 395 414 431 _c
387 467 349 485 301 485 _c
253 485 215 467 188 431 _c
161 395 148 344 148 280 _c
148 215 161 165 188 129 _c
215 93 253 75 301 75 _c
349 75 387 93 414 129 _c
440 165 454 215 454 280 _c
544 68 _m
544 -24 523 -93 482 -139 _c
440 -184 377 -207 292 -207 _c
260 -207 231 -204 203 -200 _c
175 -195 147 -188 121 -178 _c
}_e{121 -91 _l
147 -105 173 -115 199 -122 _c
225 -129 251 -133 278 -133 _c
336 -133 380 -117 410 -87 _c
439 -56 454 -10 454 52 _c
454 96 _l
435 64 411 40 382 24 _c
353 8 319 0 279 0 _c
211 0 157 25 116 76 _c
75 127 55 195 55 280 _c
55 364 75 432 116 483 _c
157 534 211 560 279 560 _c
319 560 353 552 382 536 _c
411 520 435 496 454 464 _c
454 547 _l
544 547 _l
}_e{544 68 _l
_cl}_e}_d
/h{634 0 91 0 549 760 _sc
549 330 _m
549 0 _l
459 0 _l
459 327 _l
459 379 448 417 428 443 _c
408 469 378 482 338 482 _c
289 482 251 466 223 435 _c
195 404 181 362 181 309 _c
181 0 _l
91 0 _l
91 760 _l
181 760 _l
181 462 _l
202 494 227 519 257 535 _c
286 551 320 560 358 560 _c
420 560 468 540 500 501 _c
532 462 549 405 549 330 _c
_cl}_d
/i{278 0 94 0 184 760 _sc
94 547 _m
184 547 _l
184 0 _l
94 0 _l
94 547 _l
94 760 _m
184 760 _l
184 646 _l
94 646 _l
94 760 _l
_cl}_d
/k{579 0 91 0 576 760 _sc
91 760 _m
181 760 _l
181 311 _l
449 547 _l
564 547 _l
274 291 _l
576 0 _l
459 0 _l
181 267 _l
181 0 _l
91 0 _l
91 760 _l
_cl}_d
/l{278 0 94 0 184 760 _sc
94 760 _m
184 760 _l
184 0 _l
94 0 _l
94 760 _l
_cl}_d
/n{634 0 91 0 549 560 _sc
549 330 _m
549 0 _l
459 0 _l
459 327 _l
459 379 448 417 428 443 _c
408 469 378 482 338 482 _c
289 482 251 466 223 435 _c
195 404 181 362 181 309 _c
181 0 _l
91 0 _l
91 547 _l
181 547 _l
181 462 _l
202 494 227 519 257 535 _c
286 551 320 560 358 560 _c
420 560 468 540 500 501 _c
532 462 549 405 549 330 _c
_cl}_d
/o{612 0 55 -13 557 560 _sc
306 484 _m
258 484 220 465 192 427 _c
164 389 150 338 150 273 _c
150 207 163 156 191 118 _c
219 80 257 62 306 62 _c
354 62 392 80 420 118 _c
448 156 462 207 462 273 _c
462 337 448 389 420 427 _c
392 465 354 484 306 484 _c
306 560 _m
384 560 445 534 490 484 _c
534 433 557 363 557 273 _c
557 183 534 113 490 63 _c
445 12 384 -13 306 -13 _c
227 -13 165 12 121 63 _c
77 113 55 183 55 273 _c
55 363 77 433 121 484 _c
165 534 227 560 306 560 _c
_cl}_d
/p{{635 0 91 -207 580 560 _sc
181 82 _m
181 -207 _l
91 -207 _l
91 547 _l
181 547 _l
181 464 _l
199 496 223 520 252 536 _c
281 552 316 560 356 560 _c
422 560 476 533 518 481 _c
559 428 580 359 580 273 _c
580 187 559 117 518 65 _c
476 13 422 -13 356 -13 _c
316 -13 281 -5 252 10 _c
223 25 199 49 181 82 _c
487 273 _m
487 339 473 390 446 428 _c
418 466 381 485 334 485 _c
}_e{286 485 249 466 222 428 _c
194 390 181 339 181 273 _c
181 207 194 155 222 117 _c
249 79 286 61 334 61 _c
381 61 418 79 446 117 _c
473 155 487 207 487 273 _c
_cl}_e}_d
/r{411 0 91 0 411 560 _sc
411 463 _m
401 469 390 473 378 476 _c
366 478 353 480 339 480 _c
288 480 249 463 222 430 _c
194 397 181 350 181 288 _c
181 0 _l
91 0 _l
91 547 _l
181 547 _l
181 462 _l
199 495 224 520 254 536 _c
284 552 321 560 365 560 _c
371 560 378 559 386 559 _c
393 558 401 557 411 555 _c
411 463 _l
_cl}_d
/s{{521 0 54 -13 472 560 _sc
443 531 _m
443 446 _l
417 458 391 468 364 475 _c
336 481 308 485 279 485 _c
234 485 200 478 178 464 _c
156 450 145 430 145 403 _c
145 382 153 366 169 354 _c
185 342 217 330 265 320 _c
296 313 _l
360 299 405 279 432 255 _c
458 230 472 195 472 151 _c
472 100 452 60 412 31 _c
372 1 316 -13 246 -13 _c
216 -13 186 -10 154 -5 _c
}_e{122 0 89 8 54 20 _c
54 113 _l
87 95 120 82 152 74 _c
184 65 216 61 248 61 _c
290 61 323 68 346 82 _c
368 96 380 117 380 144 _c
380 168 371 187 355 200 _c
339 213 303 226 247 238 _c
216 245 _l
160 257 119 275 95 299 _c
70 323 58 356 58 399 _c
58 450 76 490 112 518 _c
148 546 200 560 268 560 _c
301 560 332 557 362 552 _c
391 547 418 540 443 531 _c
}_e{_cl}_e}_d
/t{392 0 27 0 368 702 _sc
183 702 _m
183 547 _l
368 547 _l
368 477 _l
183 477 _l
183 180 _l
183 135 189 106 201 94 _c
213 81 238 75 276 75 _c
368 75 _l
368 0 _l
276 0 _l
206 0 158 13 132 39 _c
106 65 93 112 93 180 _c
93 477 _l
27 477 _l
27 547 _l
93 547 _l
93 702 _l
183 702 _l
_cl}_d
/u{634 0 85 -13 543 560 _sc
85 216 _m
85 547 _l
175 547 _l
175 219 _l
175 167 185 129 205 103 _c
225 77 255 64 296 64 _c
344 64 383 79 411 110 _c
439 141 453 183 453 237 _c
453 547 _l
543 547 _l
543 0 _l
453 0 _l
453 84 _l
431 50 405 26 377 10 _c
348 -5 315 -13 277 -13 _c
214 -13 166 6 134 45 _c
101 83 85 140 85 216 _c
311 560 _m
311 560 _l
_cl}_d
/v{592 0 30 0 562 547 _sc
30 547 _m
125 547 _l
296 88 _l
467 547 _l
562 547 _l
357 0 _l
235 0 _l
30 547 _l
_cl}_d
end readonly def

/BuildGlyph
 {exch begin
 CharStrings exch
 2 copy known not{pop /.notdef}if
 true 3 1 roll get exec
 end}_d

/BuildChar {
 1 index /Encoding get exch get
 1 index /BuildGlyph get exec
}_d

FontName currentdict end definefont pop
%!PS-Adobe-3.0 Resource-Font
%%Title: DejaVu Sans Oblique
%%Copyright: Copyright (c) 2003 by Bitstream, Inc. All Rights Reserved. Copyright (c) 2006 by Tavmjong Bah. All Rights Reserved. DejaVu changes are in public domain 
%%Creator: Converted from TrueType to type 3 by PPR
25 dict begin
/_d{bind def}bind def
/_m{moveto}_d
/_l{lineto}_d
/_cl{closepath eofill}_d
/_c{curveto}_d
/_sc{7 -1 roll{setcachedevice}{pop pop pop pop pop pop}ifelse}_d
/_e{exec}_d
/FontName /DejaVuSans-Oblique def
/PaintType 0 def
/FontMatrix[.001 0 0 .001 0 0]def
/FontBBox[-1016 -350 1659 1068]def
/FontType 3 def
/Encoding [ /t /delta ] def
/FontInfo 10 dict dup begin
/FamilyName (DejaVu Sans) def
/FullName (DejaVu Sans Oblique) def
/Notice (Copyright (c) 2003 by Bitstream, Inc. All Rights Reserved. Copyright (c) 2006 by Tavmjong Bah. All Rights Reserved. DejaVu changes are in public domain ) def
/Weight (Oblique) def
/Version (Version 2.35) def
/ItalicAngle -11.0 def
/isFixedPitch false def
/UnderlinePosition -130 def
/UnderlineThickness 90 def
end readonly def
/CharStrings 3 dict dup begin
/.notdef 0 def
/t{{392 0 64 0 423 702 _sc
423 547 _m
409 477 _l
230 477 _l
172 180 _l
170 169 168 160 167 152 _c
166 144 166 139 166 135 _c
166 114 172 99 185 89 _c
197 79 217 75 245 75 _c
336 75 _l
321 0 _l
235 0 _l
181 0 141 10 115 31 _c
89 52 76 84 76 126 _c
76 133 76 141 77 150 _c
78 159 80 169 82 180 _c
140 477 _l
64 477 _l
78 547 _l
153 547 _l
183 702 _l
}_e{273 702 _l
243 547 _l
423 547 _l
_cl}_e}_d
/delta{{612 0 38 -13 557 742 _sc
542 633 _m
514 655 461 667 383 667 _c
300 667 255 648 248 610 _c
242 580 280 557 364 542 _c
428 530 476 505 508 469 _c
546 425 556 358 539 268 _c
521 182 486 113 432 63 _c
377 12 310 -13 232 -13 _c
154 -13 98 12 63 63 _c
28 113 20 183 38 273 _c
50 339 84 399 139 453 _c
160 473 184 490 211 502 _c
165 528 147 563 156 609 _c
}_e{173 697 253 742 397 742 _c
469 742 522 730 557 708 _c
542 633 _l
274 478 _m
250 468 226 451 204 428 _c
168 391 144 339 132 273 _c
119 207 123 155 144 118 _c
164 80 199 62 248 62 _c
295 62 336 81 372 119 _c
407 156 431 206 443 268 _c
455 332 450 380 427 412 _c
401 445 369 464 329 468 _c
308 470 290 473 274 478 _c
_cl}_e}_d
end readonly def

/BuildGlyph
 {exch begin
 CharStrings exch
 2 copy known not{pop /.notdef}if
 true 3 1 roll get exec
 end}_d

/BuildChar {
 1 index /Encoding get exch get
 1 index /BuildGlyph get exec
}_d

FontName currentdict end definefont pop
end
%%EndProlog
mpldict begin
-87.461 98.086 translate
786.922 595.829 0 0 clipbox
gsave
0 0 m
786.921875 0 l
786.921875 595.82875 l
0 595.82875 l
cl
1.000 setgray
fill
grestore
gsave
94.85625 64.66875 m
764.45625 64.66875 l
764.45625 563.62875 l
94.85625 563.62875 l
cl
1.000 setgray
fill
grestore
0.800 setlinewidth
1 setlinejoin
0 setlinecap
[] 0 setdash
0.000 setgray
gsave
/o {
gsave
newpath
translate
0.8 setlinewidth
1 setlinejoin
0 setlinecap
0 0 m
0 -3.5 l

gsave
0.000 setgray
fill
grestore
stroke
grestore
} bind def
94.8563 64.6688 o
grestore
/DejaVuSans findfont
24.000 scalefont
setfont
gsave
87.223438 39.434375 translate
0.000000 rotate
0.000000 0.000000 m /five glyphshow
grestore
gsave
/o {
gsave
newpath
translate
0.8 setlinewidth
1 setlinejoin
0 setlinecap
0 0 m
0 -3.5 l

gsave
0.000 setgray
fill
grestore
stroke
grestore
} bind def
169.256 64.6688 o
grestore
gsave
153.990625 39.434375 translate
0.000000 rotate
0.000000 0.000000 m /one glyphshow
15.269531 0.000000 m /zero glyphshow
grestore
gsave
/o {
gsave
newpath
translate
0.8 setlinewidth
1 setlinejoin
0 setlinecap
0 0 m
0 -3.5 l

gsave
0.000 setgray
fill
grestore
stroke
grestore
} bind def
243.656 64.6688 o
grestore
gsave
228.390625 39.434375 translate
0.000000 rotate
0.000000 0.000000 m /one glyphshow
15.269531 0.000000 m /five glyphshow
grestore
gsave
/o {
gsave
newpath
translate
0.8 setlinewidth
1 setlinejoin
0 setlinecap
0 0 m
0 -3.5 l

gsave
0.000 setgray
fill
grestore
stroke
grestore
} bind def
318.056 64.6688 o
grestore
gsave
302.790625 39.434375 translate
0.000000 rotate
0.000000 0.000000 m /two glyphshow
15.269531 0.000000 m /zero glyphshow
grestore
gsave
/o {
gsave
newpath
translate
0.8 setlinewidth
1 setlinejoin
0 setlinecap
0 0 m
0 -3.5 l

gsave
0.000 setgray
fill
grestore
stroke
grestore
} bind def
392.456 64.6688 o
grestore
gsave
377.190625 39.434375 translate
0.000000 rotate
0.000000 0.000000 m /two glyphshow
15.269531 0.000000 m /five glyphshow
grestore
gsave
/o {
gsave
newpath
translate
0.8 setlinewidth
1 setlinejoin
0 setlinecap
0 0 m
0 -3.5 l

gsave
0.000 setgray
fill
grestore
stroke
grestore
} bind def
466.856 64.6688 o
grestore
gsave
451.590625 39.434375 translate
0.000000 rotate
0.000000 0.000000 m /three glyphshow
15.269531 0.000000 m /zero glyphshow
grestore
gsave
/o {
gsave
newpath
translate
0.8 setlinewidth
1 setlinejoin
0 setlinecap
0 0 m
0 -3.5 l

gsave
0.000 setgray
fill
grestore
stroke
grestore
} bind def
541.256 64.6688 o
grestore
gsave
525.990625 39.434375 translate
0.000000 rotate
0.000000 0.000000 m /three glyphshow
15.269531 0.000000 m /five glyphshow
grestore
gsave
/o {
gsave
newpath
translate
0.8 setlinewidth
1 setlinejoin
0 setlinecap
0 0 m
0 -3.5 l

gsave
0.000 setgray
fill
grestore
stroke
grestore
} bind def
615.656 64.6688 o
grestore
gsave
600.390625 39.434375 translate
0.000000 rotate
0.000000 0.000000 m /four glyphshow
15.269531 0.000000 m /zero glyphshow
grestore
gsave
/o {
gsave
newpath
translate
0.8 setlinewidth
1 setlinejoin
0 setlinecap
0 0 m
0 -3.5 l

gsave
0.000 setgray
fill
grestore
stroke
grestore
} bind def
690.056 64.6688 o
grestore
gsave
674.790625 39.434375 translate
0.000000 rotate
0.000000 0.000000 m /four glyphshow
15.269531 0.000000 m /five glyphshow
grestore
gsave
/o {
gsave
newpath
translate
0.8 setlinewidth
1 setlinejoin
0 setlinecap
0 0 m
0 -3.5 l

gsave
0.000 setgray
fill
grestore
stroke
grestore
} bind def
764.456 64.6688 o
grestore
gsave
749.190625 39.434375 translate
0.000000 rotate
0.000000 0.000000 m /five glyphshow
15.269531 0.000000 m /zero glyphshow
grestore
gsave
367.304688 12.200000 translate
0.000000 rotate
0.000000 0.000000 m /S glyphshow
15.234375 0.000000 m /n glyphshow
30.445312 0.000000 m /a glyphshow
45.152344 0.000000 m /p glyphshow
60.386719 0.000000 m /s glyphshow
72.890625 0.000000 m /h glyphshow
88.101562 0.000000 m /o glyphshow
102.785156 0.000000 m /t glyphshow
112.195312 0.000000 m /s glyphshow
grestore
gsave
/o {
gsave
newpath
translate
0.8 setlinewidth
1 setlinejoin
0 setlinecap
0 0 m
-3.5 0 l

gsave
0.000 setgray
fill
grestore
stroke
grestore
} bind def
94.8563 87.3488 o
grestore
gsave
34.434375 78.231563 translate
0.000000 rotate
0.000000 0.000000 m /zero glyphshow
15.269531 0.000000 m /period glyphshow
22.898438 0.000000 m /zero glyphshow
38.167969 0.000000 m /zero glyphshow
grestore
gsave
/o {
gsave
newpath
translate
0.8 setlinewidth
1 setlinejoin
0 setlinecap
0 0 m
-3.5 0 l

gsave
0.000 setgray
fill
grestore
stroke
grestore
} bind def
94.8563 188.996 o
grestore
gsave
34.434375 179.878621 translate
0.000000 rotate
0.000000 0.000000 m /zero glyphshow
15.269531 0.000000 m /period glyphshow
22.898438 0.000000 m /zero glyphshow
38.167969 0.000000 m /one glyphshow
grestore
gsave
/o {
gsave
newpath
translate
0.8 setlinewidth
1 setlinejoin
0 setlinecap
0 0 m
-3.5 0 l

gsave
0.000 setgray
fill
grestore
stroke
grestore
} bind def
94.8563 290.643 o
grestore
gsave
34.434375 281.525680 translate
0.000000 rotate
0.000000 0.000000 m /zero glyphshow
15.269531 0.000000 m /period glyphshow
22.898438 0.000000 m /zero glyphshow
38.167969 0.000000 m /two glyphshow
grestore
gsave
/o {
gsave
newpath
translate
0.8 setlinewidth
1 setlinejoin
0 setlinecap
0 0 m
-3.5 0 l

gsave
0.000 setgray
fill
grestore
stroke
grestore
} bind def
94.8563 392.29 o
grestore
gsave
34.434375 383.172739 translate
0.000000 rotate
0.000000 0.000000 m /zero glyphshow
15.269531 0.000000 m /period glyphshow
22.898438 0.000000 m /zero glyphshow
38.167969 0.000000 m /three glyphshow
grestore
gsave
/o {
gsave
newpath
translate
0.8 setlinewidth
1 setlinejoin
0 setlinecap
0 0 m
-3.5 0 l

gsave
0.000 setgray
fill
grestore
stroke
grestore
} bind def
94.8563 493.937 o
grestore
gsave
34.434375 484.819798 translate
0.000000 rotate
0.000000 0.000000 m /zero glyphshow
15.269531 0.000000 m /period glyphshow
22.898438 0.000000 m /zero glyphshow
38.167969 0.000000 m /four glyphshow
grestore
gsave
25.434375 265.367500 translate
90.000000 rotate
0.000000 0.000000 m /F glyphshow
13.789062 0.000000 m /r glyphshow
23.656250 0.000000 m /a glyphshow
38.363281 0.000000 m /c glyphshow
51.558594 0.000000 m /t glyphshow
60.968750 0.000000 m /i glyphshow
67.636719 0.000000 m /o glyphshow
82.320312 0.000000 m /n glyphshow
grestore
3.000 setlinewidth
2 setlinecap
gsave
669.6 499 94.86 64.67 clipbox
94.85625 87.34875 m
109.73625 88.365221 l
124.61625 89.889926 l
139.49625 88.873456 l
154.37625 87.856985 l
169.25625 87.856985 l
184.13625 87.856985 l
199.01625 87.34875 l
213.89625 87.856985 l
228.77625 88.365221 l
243.65625 88.873456 l
258.53625 87.34875 l
273.41625 87.34875 l
288.29625 87.34875 l
303.17625 87.34875 l
318.05625 87.856985 l
332.93625 88.365221 l
347.81625 87.34875 l
362.69625 87.34875 l
377.57625 87.34875 l
392.45625 88.873456 l
407.33625 87.34875 l
422.21625 87.856985 l
437.09625 88.365221 l
451.97625 88.365221 l
466.85625 88.365221 l
481.73625 88.873456 l
496.61625 88.873456 l
511.49625 88.873456 l
526.37625 89.381691 l
541.25625 87.856985 l
556.13625 87.34875 l
571.01625 88.365221 l
585.89625 88.873456 l
600.77625 87.34875 l
615.65625 87.856985 l
630.53625 90.906397 l
645.41625 89.889926 l
660.29625 88.365221 l
675.17625 88.365221 l
690.05625 88.873456 l
704.93625 88.365221 l
719.81625 87.856985 l
734.69625 88.365221 l
749.57625 87.856985 l
764.45625 87.856985 l
stroke
grestore
0.000 0.000 1.000 setrgbcolor
gsave
669.6 499 94.86 64.67 clipbox
94.85625 87.856985 m
109.73625 87.34875 l
124.61625 87.34875 l
139.49625 88.873456 l
154.37625 88.365221 l
169.25625 87.856985 l
184.13625 88.873456 l
199.01625 88.365221 l
213.89625 87.856985 l
228.77625 88.873456 l
243.65625 87.856985 l
258.53625 89.889926 l
273.41625 88.365221 l
288.29625 88.365221 l
303.17625 87.856985 l
318.05625 88.873456 l
332.93625 88.873456 l
347.81625 89.381691 l
362.69625 87.856985 l
377.57625 87.856985 l
392.45625 88.365221 l
407.33625 88.873456 l
422.21625 88.873456 l
437.09625 88.873456 l
451.97625 87.856985 l
466.85625 88.365221 l
481.73625 88.873456 l
496.61625 87.856985 l
511.49625 87.34875 l
526.37625 88.365221 l
541.25625 88.365221 l
556.13625 89.889926 l
571.01625 88.365221 l
585.89625 87.856985 l
600.77625 88.365221 l
615.65625 89.381691 l
630.53625 88.873456 l
645.41625 88.873456 l
660.29625 87.856985 l
675.17625 88.873456 l
690.05625 87.856985 l
704.93625 88.365221 l
719.81625 88.873456 l
734.69625 87.856985 l
749.57625 87.856985 l
764.45625 87.856985 l
stroke
grestore
1.000 0.000 0.000 setrgbcolor
gsave
669.6 499 94.86 64.67 clipbox
94.85625 88.873456 m
109.73625 90.906397 l
124.61625 91.414632 l
139.49625 91.922868 l
154.37625 91.414632 l
169.25625 90.906397 l
184.13625 89.381691 l
199.01625 88.365221 l
213.89625 88.873456 l
228.77625 88.873456 l
243.65625 89.889926 l
258.53625 89.381691 l
273.41625 89.381691 l
288.29625 88.365221 l
303.17625 89.381691 l
318.05625 88.365221 l
332.93625 88.365221 l
347.81625 88.365221 l
362.69625 89.381691 l
377.57625 88.365221 l
392.45625 88.365221 l
407.33625 88.873456 l
422.21625 89.381691 l
437.09625 87.856985 l
451.97625 88.873456 l
466.85625 88.873456 l
481.73625 89.889926 l
496.61625 89.381691 l
511.49625 89.381691 l
526.37625 88.873456 l
541.25625 90.398162 l
556.13625 88.873456 l
571.01625 89.381691 l
585.89625 89.381691 l
600.77625 89.381691 l
615.65625 88.873456 l
630.53625 89.381691 l
645.41625 88.365221 l
660.29625 88.873456 l
675.17625 88.873456 l
690.05625 88.873456 l
704.93625 89.381691 l
719.81625 89.381691 l
734.69625 88.873456 l
749.57625 88.365221 l
764.45625 88.365221 l
stroke
grestore
0 setlinecap
[11.1 4.8] 0 setdash
0.000 setgray
gsave
669.6 499 94.86 64.67 clipbox
94.85625 120.892279 m
109.73625 136.478162 l
124.61625 149.014632 l
139.49625 137.833456 l
154.37625 130.718162 l
169.25625 117.504044 l
184.13625 112.760515 l
199.01625 108.355809 l
213.89625 105.984044 l
228.77625 111.066397 l
243.65625 109.711103 l
258.53625 112.082868 l
273.41625 110.049926 l
288.29625 105.984044 l
303.17625 108.694632 l
318.05625 106.661691 l
332.93625 106.322868 l
347.81625 105.306397 l
362.69625 104.967574 l
377.57625 104.62875 l
392.45625 109.033456 l
407.33625 106.322868 l
422.21625 107.678162 l
437.09625 109.711103 l
451.97625 110.727574 l
466.85625 111.744044 l
481.73625 111.744044 l
496.61625 110.38875 l
511.49625 110.38875 l
526.37625 111.066397 l
541.25625 105.306397 l
556.13625 107.339338 l
571.01625 108.016985 l
585.89625 111.405221 l
600.77625 107.678162 l
615.65625 109.372279 l
630.53625 109.372279 l
645.41625 109.372279 l
660.29625 110.727574 l
675.17625 108.355809 l
690.05625 106.661691 l
704.93625 106.322868 l
719.81625 106.661691 l
734.69625 100.224044 l
749.57625 96.158162 l
764.45625 93.447574 l
stroke
grestore
0.000 0.000 1.000 setrgbcolor
gsave
669.6 499 94.86 64.67 clipbox
94.85625 93.447574 m
109.73625 94.802868 l
124.61625 96.835809 l
139.49625 99.546397 l
154.37625 95.141691 l
169.25625 92.092279 l
184.13625 91.753456 l
199.01625 90.398162 l
213.89625 91.075809 l
228.77625 91.075809 l
243.65625 91.075809 l
258.53625 89.720515 l
273.41625 90.398162 l
288.29625 89.381691 l
303.17625 89.720515 l
318.05625 89.720515 l
332.93625 88.704044 l
347.81625 90.398162 l
362.69625 88.365221 l
377.57625 89.042868 l
392.45625 89.042868 l
407.33625 88.365221 l
422.21625 90.059338 l
437.09625 90.059338 l
451.97625 92.092279 l
466.85625 90.736985 l
481.73625 91.753456 l
496.61625 90.736985 l
511.49625 91.075809 l
526.37625 91.753456 l
541.25625 89.720515 l
556.13625 93.10875 l
571.01625 92.092279 l
585.89625 93.447574 l
600.77625 93.447574 l
615.65625 92.092279 l
630.53625 91.075809 l
645.41625 90.736985 l
660.29625 91.414632 l
675.17625 93.447574 l
690.05625 92.769926 l
704.93625 92.092279 l
719.81625 92.431103 l
734.69625 93.10875 l
749.57625 92.769926 l
764.45625 91.753456 l
stroke
grestore
1.000 0.000 0.000 setrgbcolor
gsave
669.6 499 94.86 64.67 clipbox
94.85625 90.059338 m
109.73625 89.720515 l
124.61625 89.720515 l
139.49625 92.092279 l
154.37625 89.720515 l
169.25625 87.34875 l
184.13625 89.042868 l
199.01625 88.026397 l
213.89625 89.381691 l
228.77625 89.720515 l
243.65625 88.026397 l
258.53625 88.704044 l
273.41625 88.026397 l
288.29625 88.704044 l
303.17625 88.026397 l
318.05625 89.042868 l
332.93625 88.026397 l
347.81625 88.365221 l
362.69625 88.704044 l
377.57625 87.687574 l
392.45625 88.704044 l
407.33625 88.365221 l
422.21625 88.026397 l
437.09625 88.026397 l
451.97625 88.704044 l
466.85625 88.026397 l
481.73625 87.687574 l
496.61625 88.704044 l
511.49625 89.042868 l
526.37625 88.365221 l
541.25625 89.381691 l
556.13625 89.381691 l
571.01625 88.026397 l
585.89625 89.042868 l
600.77625 89.381691 l
615.65625 88.365221 l
630.53625 89.042868 l
645.41625 88.704044 l
660.29625 88.704044 l
675.17625 89.720515 l
690.05625 89.381691 l
704.93625 88.365221 l
719.81625 88.365221 l
734.69625 88.365221 l
749.57625 88.704044 l
764.45625 88.365221 l
stroke
grestore
[3 4.95] 0 setdash
0.000 setgray
gsave
669.6 499 94.86 64.67 clipbox
94.85625 160.280515 m
109.73625 189.758162 l
124.61625 226.859338 l
139.49625 211.866397 l
154.37625 200.939338 l
169.25625 184.929926 l
184.13625 166.633456 l
199.01625 154.181691 l
213.89625 143.000515 l
228.77625 129.786397 l
243.65625 125.720515 l
258.53625 120.638162 l
273.41625 116.064044 l
288.29625 112.506397 l
303.17625 107.424044 l
318.05625 107.169926 l
332.93625 103.612279 l
347.81625 100.562868 l
362.69625 100.816985 l
377.57625 103.358162 l
392.45625 107.678162 l
407.33625 105.899338 l
422.21625 104.882868 l
437.09625 109.456985 l
451.97625 107.678162 l
466.85625 104.374632 l
481.73625 104.62875 l
496.61625 104.62875 l
511.49625 105.391103 l
526.37625 106.407574 l
541.25625 106.915809 l
556.13625 108.694632 l
571.01625 105.391103 l
585.89625 105.391103 l
600.77625 105.899338 l
615.65625 103.358162 l
630.53625 104.374632 l
645.41625 106.153456 l
660.29625 102.341691 l
675.17625 102.849926 l
690.05625 105.645221 l
704.93625 105.899338 l
719.81625 105.645221 l
734.69625 99.546397 l
749.57625 99.038162 l
764.45625 94.209926 l
stroke
grestore
0.000 0.000 1.000 setrgbcolor
gsave
669.6 499 94.86 64.67 clipbox
94.85625 294.70875 m
109.73625 381.362868 l
124.61625 448.195809 l
139.49625 531.292279 l
154.37625 540.94875 l
169.25625 539.169926 l
184.13625 534.341691 l
199.01625 521.127574 l
213.89625 498.256985 l
228.77625 473.607574 l
243.65625 453.532279 l
258.53625 418.464044 l
273.41625 394.576985 l
288.29625 354.934632 l
303.17625 331.301691 l
318.05625 312.496985 l
332.93625 289.880515 l
347.81625 258.624044 l
362.69625 250.238162 l
377.57625 241.344044 l
392.45625 219.235809 l
407.33625 202.718162 l
422.21625 192.299338 l
437.09625 177.560515 l
451.97625 168.920515 l
466.85625 160.026397 l
481.73625 149.607574 l
496.61625 144.271103 l
511.49625 139.18875 l
526.37625 129.786397 l
541.25625 129.786397 l
556.13625 126.482868 l
571.01625 123.941691 l
585.89625 123.179338 l
600.77625 119.113456 l
615.65625 116.064044 l
630.53625 115.555809 l
645.41625 114.285221 l
660.29625 109.202868 l
675.17625 108.694632 l
690.05625 105.899338 l
704.93625 104.882868 l
719.81625 104.374632 l
734.69625 104.62875 l
749.57625 101.071103 l
764.45625 97.767574 l
stroke
grestore
1.000 0.000 0.000 setrgbcolor
gsave
669.6 499 94.86 64.67 clipbox
94.85625 137.664044 m
109.73625 136.393456 l
124.61625 134.86875 l
139.49625 162.821691 l
154.37625 125.466397 l
169.25625 108.186397 l
184.13625 99.038162 l
199.01625 93.955809 l
213.89625 90.398162 l
228.77625 89.127574 l
243.65625 91.66875 l
258.53625 90.906397 l
273.41625 90.398162 l
288.29625 91.414632 l
303.17625 90.906397 l
318.05625 90.652279 l
332.93625 90.398162 l
347.81625 90.398162 l
362.69625 89.889926 l
377.57625 88.873456 l
392.45625 89.127574 l
407.33625 88.873456 l
422.21625 88.873456 l
437.09625 89.127574 l
451.97625 89.127574 l
466.85625 90.398162 l
481.73625 89.127574 l
496.61625 89.381691 l
511.49625 90.144044 l
526.37625 89.381691 l
541.25625 89.889926 l
556.13625 90.144044 l
571.01625 88.619338 l
585.89625 88.873456 l
600.77625 89.635809 l
615.65625 88.619338 l
630.53625 88.873456 l
645.41625 90.144044 l
660.29625 89.127574 l
675.17625 89.635809 l
690.05625 90.652279 l
704.93625 89.889926 l
719.81625 89.889926 l
734.69625 89.127574 l
749.57625 89.127574 l
764.45625 90.398162 l
stroke
grestore
0.800 setlinewidth
0 setlinejoin
2 setlinecap
[] 0 setdash
0.000 setgray
gsave
94.85625 64.66875 m
94.85625 563.62875 l
stroke
grestore
gsave
764.45625 64.66875 m
764.45625 563.62875 l
stroke
grestore
gsave
94.85625 64.66875 m
764.45625 64.66875 l
stroke
grestore
gsave
94.85625 563.62875 m
764.45625 563.62875 l
stroke
grestore
gsave
193.156250 569.628750 translate
0.000000 rotate
/DejaVuSans findfont
24.0 scalefont
setfont
0.000000 0.765625 moveto
/F glyphshow

13.804688 0.765625 moveto
/r glyphshow

23.671875 0.765625 moveto
/a glyphshow

38.378906 0.765625 moveto
/c glyphshow

51.574219 0.765625 moveto
/t glyphshow

60.984375 0.765625 moveto
/i glyphshow

67.652344 0.765625 moveto
/o glyphshow

82.335938 0.765625 moveto
/n glyphshow

97.546875 0.765625 moveto
/space glyphshow

105.175781 0.765625 moveto
/o glyphshow

119.859375 0.765625 moveto
/f glyphshow

128.308594 0.765625 moveto
/space glyphshow

135.937500 0.765625 moveto
/T glyphshow

150.597656 0.765625 moveto
/r glyphshow

160.464844 0.765625 moveto
/a glyphshow

175.171875 0.765625 moveto
/c glyphshow

188.367188 0.765625 moveto
/k glyphshow

202.265625 0.765625 moveto
/e glyphshow

217.031250 0.765625 moveto
/d glyphshow

232.265625 0.765625 moveto
/space glyphshow

239.894531 0.765625 moveto
/g glyphshow

255.128906 0.765625 moveto
/h glyphshow

270.339844 0.765625 moveto
/o glyphshow

285.023438 0.765625 moveto
/s glyphshow

297.527344 0.765625 moveto
/t glyphshow

306.937500 0.765625 moveto
/space glyphshow

314.566406 0.765625 moveto
/p glyphshow

329.800781 0.765625 moveto
/a glyphshow

344.507812 0.765625 moveto
/r glyphshow

354.375000 0.765625 moveto
/t glyphshow

363.785156 0.765625 moveto
/i glyphshow

370.453125 0.765625 moveto
/c glyphshow

383.648438 0.765625 moveto
/l glyphshow

390.316406 0.765625 moveto
/e glyphshow

405.082031 0.765625 moveto
/s glyphshow

417.585938 0.765625 moveto
/comma glyphshow

425.214844 0.765625 moveto
/space glyphshow

432.843750 0.765625 moveto
/three glyphshow

/DejaVuSans-Oblique findfont
24.0 scalefont
setfont
448.113281 0.765625 moveto
/delta glyphshow

462.796875 0.765625 moveto
/t glyphshow


grestore
1.000 setlinewidth
0 setlinecap
0.800 setgray
gsave
523.4875 353.488125 m
753.95625 353.488125 l
755.95625 353.488125 756.95625 354.488125 756.95625 356.488125 c
756.95625 553.12875 l
756.95625 555.12875 755.95625 556.12875 753.95625 556.12875 c
523.4875 556.12875 l
521.4875 556.12875 520.4875 555.12875 520.4875 553.12875 c
520.4875 356.488125 l
520.4875 354.488125 521.4875 353.488125 523.4875 353.488125 c
cl
gsave
1.000 setgray
fill
grestore
stroke
grestore
3.000 setlinewidth
1 setlinejoin
2 setlinecap
[] 0 setdash
0.000 setgray
gsave
526.4875 543.988125 m
556.4875 543.988125 l
stroke
grestore
/DejaVuSans findfont
15.000 scalefont
setfont
gsave
568.487500 538.738125 translate
0.000000 rotate
0.000000 0.000000 m /P glyphshow
9.045410 0.000000 m /P glyphshow
18.090820 0.000000 m /P glyphshow
27.136230 0.000000 m /space glyphshow
31.904297 0.000000 m /zero glyphshow
41.447754 0.000000 m /period glyphshow
46.215820 0.000000 m /zero glyphshow
55.759277 0.000000 m /five glyphshow
65.302734 0.000000 m /comma glyphshow
70.070801 0.000000 m /space glyphshow
74.838867 0.000000 m /S glyphshow
84.360352 0.000000 m /T glyphshow
93.522949 0.000000 m /B glyphshow
103.813477 0.000000 m /space glyphshow
108.581543 0.000000 m /D glyphshow
120.131836 0.000000 m /a glyphshow
129.323730 0.000000 m /v glyphshow
138.200684 0.000000 m /i glyphshow
142.368164 0.000000 m /s glyphshow
grestore
0.000 0.000 1.000 setrgbcolor
gsave
526.4875 521.9725 m
556.4875 521.9725 l
stroke
grestore
0.000 setgray
gsave
568.487500 516.722500 translate
0.000000 rotate
0.000000 0.000000 m /P glyphshow
9.045410 0.000000 m /P glyphshow
18.090820 0.000000 m /P glyphshow
27.136230 0.000000 m /space glyphshow
31.904297 0.000000 m /zero glyphshow
41.447754 0.000000 m /period glyphshow
46.215820 0.000000 m /zero glyphshow
55.759277 0.000000 m /five glyphshow
65.302734 0.000000 m /comma glyphshow
70.070801 0.000000 m /space glyphshow
74.838867 0.000000 m /S glyphshow
84.360352 0.000000 m /T glyphshow
93.522949 0.000000 m /B glyphshow
103.813477 0.000000 m /space glyphshow
108.581543 0.000000 m /i glyphshow
112.749023 0.000000 m /n glyphshow
122.255859 0.000000 m /hyphen glyphshow
127.668457 0.000000 m /h glyphshow
137.175293 0.000000 m /o glyphshow
146.352539 0.000000 m /u glyphshow
155.859375 0.000000 m /s glyphshow
163.674316 0.000000 m /e glyphshow
grestore
1.000 0.000 0.000 setrgbcolor
gsave
526.4875 499.956875 m
556.4875 499.956875 l
stroke
grestore
0.000 setgray
gsave
568.487500 494.706875 translate
0.000000 rotate
0.000000 0.000000 m /P glyphshow
9.045410 0.000000 m /P glyphshow
18.090820 0.000000 m /P glyphshow
27.136230 0.000000 m /space glyphshow
31.904297 0.000000 m /zero glyphshow
41.447754 0.000000 m /period glyphshow
46.215820 0.000000 m /zero glyphshow
55.759277 0.000000 m /five glyphshow
65.302734 0.000000 m /comma glyphshow
70.070801 0.000000 m /space glyphshow
74.838867 0.000000 m /K glyphshow
84.675293 0.000000 m /L glyphshow
93.032227 0.000000 m /P glyphshow
102.077637 0.000000 m /T glyphshow
grestore
0 setlinecap
[11.1 4.8] 0 setdash
gsave
526.4875 477.94125 m
556.4875 477.94125 l
stroke
grestore
gsave
568.487500 472.691250 translate
0.000000 rotate
0.000000 0.000000 m /P glyphshow
9.045410 0.000000 m /P glyphshow
18.090820 0.000000 m /P glyphshow
27.136230 0.000000 m /space glyphshow
31.904297 0.000000 m /zero glyphshow
41.447754 0.000000 m /period glyphshow
46.215820 0.000000 m /zero glyphshow
55.759277 0.000000 m /seven glyphshow
65.302734 0.000000 m /five glyphshow
74.846191 0.000000 m /comma glyphshow
79.614258 0.000000 m /space glyphshow
84.382324 0.000000 m /S glyphshow
93.903809 0.000000 m /T glyphshow
103.066406 0.000000 m /B glyphshow
113.356934 0.000000 m /space glyphshow
118.125000 0.000000 m /D glyphshow
129.675293 0.000000 m /a glyphshow
138.867188 0.000000 m /v glyphshow
147.744141 0.000000 m /i glyphshow
151.911621 0.000000 m /s glyphshow
grestore
0.000 0.000 1.000 setrgbcolor
gsave
526.4875 455.925625 m
556.4875 455.925625 l
stroke
grestore
0.000 setgray
gsave
568.487500 450.675625 translate
0.000000 rotate
0.000000 0.000000 m /P glyphshow
9.045410 0.000000 m /P glyphshow
18.090820 0.000000 m /P glyphshow
27.136230 0.000000 m /space glyphshow
31.904297 0.000000 m /zero glyphshow
41.447754 0.000000 m /period glyphshow
46.215820 0.000000 m /zero glyphshow
55.759277 0.000000 m /seven glyphshow
65.302734 0.000000 m /five glyphshow
74.846191 0.000000 m /comma glyphshow
79.614258 0.000000 m /space glyphshow
84.382324 0.000000 m /S glyphshow
93.903809 0.000000 m /T glyphshow
103.066406 0.000000 m /B glyphshow
113.356934 0.000000 m /space glyphshow
118.125000 0.000000 m /i glyphshow
122.292480 0.000000 m /n glyphshow
131.799316 0.000000 m /hyphen glyphshow
137.211914 0.000000 m /h glyphshow
146.718750 0.000000 m /o glyphshow
155.895996 0.000000 m /u glyphshow
165.402832 0.000000 m /s glyphshow
173.217773 0.000000 m /e glyphshow
grestore
1.000 0.000 0.000 setrgbcolor
gsave
526.4875 433.91 m
556.4875 433.91 l
stroke
grestore
0.000 setgray
gsave
568.487500 428.660000 translate
0.000000 rotate
0.000000 0.000000 m /P glyphshow
9.045410 0.000000 m /P glyphshow
18.090820 0.000000 m /P glyphshow
27.136230 0.000000 m /space glyphshow
31.904297 0.000000 m /zero glyphshow
41.447754 0.000000 m /period glyphshow
46.215820 0.000000 m /zero glyphshow
55.759277 0.000000 m /seven glyphshow
65.302734 0.000000 m /five glyphshow
74.846191 0.000000 m /comma glyphshow
79.614258 0.000000 m /space glyphshow
84.382324 0.000000 m /K glyphshow
94.218750 0.000000 m /L glyphshow
102.575684 0.000000 m /P glyphshow
111.621094 0.000000 m /T glyphshow
grestore
[3 4.95] 0 setdash
gsave
526.4875 411.894375 m
556.4875 411.894375 l
stroke
grestore
gsave
568.487500 406.644375 translate
0.000000 rotate
0.000000 0.000000 m /P glyphshow
9.045410 0.000000 m /P glyphshow
18.090820 0.000000 m /P glyphshow
27.136230 0.000000 m /space glyphshow
31.904297 0.000000 m /zero glyphshow
41.447754 0.000000 m /period glyphshow
46.215820 0.000000 m /one glyphshow
55.759277 0.000000 m /comma glyphshow
60.527344 0.000000 m /space glyphshow
65.295410 0.000000 m /S glyphshow
74.816895 0.000000 m /T glyphshow
83.979492 0.000000 m /B glyphshow
94.270020 0.000000 m /space glyphshow
99.038086 0.000000 m /D glyphshow
110.588379 0.000000 m /a glyphshow
119.780273 0.000000 m /v glyphshow
128.657227 0.000000 m /i glyphshow
132.824707 0.000000 m /s glyphshow
grestore
0.000 0.000 1.000 setrgbcolor
gsave
526.4875 389.87875 m
556.4875 389.87875 l
stroke
grestore
0.000 setgray
gsave
568.487500 384.628750 translate
0.000000 rotate
0.000000 0.000000 m /P glyphshow
9.045410 0.000000 m /P glyphshow
18.090820 0.000000 m /P glyphshow
27.136230 0.000000 m /space glyphshow
31.904297 0.000000 m /zero glyphshow
41.447754 0.000000 m /period glyphshow
46.215820 0.000000 m /one glyphshow
55.759277 0.000000 m /comma glyphshow
60.527344 0.000000 m /space glyphshow
65.295410 0.000000 m /S glyphshow
74.816895 0.000000 m /T glyphshow
83.979492 0.000000 m /B glyphshow
94.270020 0.000000 m /space glyphshow
99.038086 0.000000 m /i glyphshow
103.205566 0.000000 m /n glyphshow
112.712402 0.000000 m /hyphen glyphshow
118.125000 0.000000 m /h glyphshow
127.631836 0.000000 m /o glyphshow
136.809082 0.000000 m /u glyphshow
146.315918 0.000000 m /s glyphshow
154.130859 0.000000 m /e glyphshow
grestore
1.000 0.000 0.000 setrgbcolor
gsave
526.4875 367.863125 m
556.4875 367.863125 l
stroke
grestore
0.000 setgray
gsave
568.487500 362.613125 translate
0.000000 rotate
0.000000 0.000000 m /P glyphshow
9.045410 0.000000 m /P glyphshow
18.090820 0.000000 m /P glyphshow
27.136230 0.000000 m /space glyphshow
31.904297 0.000000 m /zero glyphshow
41.447754 0.000000 m /period glyphshow
46.215820 0.000000 m /one glyphshow
55.759277 0.000000 m /comma glyphshow
60.527344 0.000000 m /space glyphshow
65.295410 0.000000 m /K glyphshow
75.131836 0.000000 m /L glyphshow
83.488770 0.000000 m /P glyphshow
92.534180 0.000000 m /T glyphshow
grestore

end
showpage
