%!PS-Adobe-3.0 EPSF-3.0
%%Title: /home/yin/0.50_error_thin_3methods.eps
%%Creator: matplotlib version 3.1.1, http://matplotlib.org/
%%CreationDate: Sat May  9 17:08:11 2020
%%Orientation: portrait
%%BoundingBox: -87.46093749999999 98.08562500000005 699.4609375 693.914375
%%EndComments
%%BeginProlog
/mpldict 9 dict def
mpldict begin
/m { moveto } bind def
/l { lineto } bind def
/r { rlineto } bind def
/c { curveto } bind def
/cl { closepath } bind def
/box {
m
1 index 0 r
0 exch r
neg 0 r
cl
} bind def
/clipbox {
box
clip
newpath
} bind def
%!PS-Adobe-3.0 Resource-Font
%%Title: DejaVu Sans
%%Copyright: Copyright (c) 2003 by Bitstream, Inc. All Rights Reserved. Copyright (c) 2006 by Tavmjong Bah. All Rights Reserved. DejaVu changes are in public domain 
%%Creator: Converted from TrueType to type 3 by PPR
25 dict begin
/_d{bind def}bind def
/_m{moveto}_d
/_l{lineto}_d
/_cl{closepath eofill}_d
/_c{curveto}_d
/_sc{7 -1 roll{setcachedevice}{pop pop pop pop pop pop}ifelse}_d
/_e{exec}_d
/FontName /DejaVuSans def
/PaintType 0 def
/FontMatrix[.001 0 0 .001 0 0]def
/FontBBox[-1021 -463 1793 1232]def
/FontType 3 def
/Encoding [ /space /parenleft /parenright /comma /hyphen /period /zero /one /two /three /four /five /seven /B /D /E /K /L /M /P /S /T /a /c /d /e /f /h /i /l /n /o /p /r /s /t /u /v /x ] def
/FontInfo 10 dict dup begin
/FamilyName (DejaVu Sans) def
/FullName (DejaVu Sans) def
/Notice (Copyright (c) 2003 by Bitstream, Inc. All Rights Reserved. Copyright (c) 2006 by Tavmjong Bah. All Rights Reserved. DejaVu changes are in public domain ) def
/Weight (Book) def
/Version (Version 2.35) def
/ItalicAngle 0.0 def
/isFixedPitch false def
/UnderlinePosition -130 def
/UnderlineThickness 90 def
end readonly def
/CharStrings 40 dict dup begin
/.notdef 0 def
/space{318 0 0 0 0 0 _sc
}_d
/parenleft{390 0 86 -131 310 759 _sc
310 759 _m
266 683 234 609 213 536 _c
191 463 181 389 181 314 _c
181 238 191 164 213 91 _c
234 17 266 -56 310 -131 _c
232 -131 _l
183 -54 146 20 122 94 _c
98 168 86 241 86 314 _c
86 386 98 459 122 533 _c
146 607 182 682 232 759 _c
310 759 _l
_cl}_d
/parenright{390 0 80 -131 304 759 _sc
80 759 _m
158 759 _l
206 682 243 607 267 533 _c
291 459 304 386 304 314 _c
304 241 291 168 267 94 _c
243 20 206 -54 158 -131 _c
80 -131 _l
123 -56 155 17 177 91 _c
198 164 209 238 209 314 _c
209 389 198 463 177 536 _c
155 609 123 683 80 759 _c
_cl}_d
/comma{318 0 77 -115 220 124 _sc
117 124 _m
220 124 _l
220 40 _l
140 -115 _l
77 -115 _l
117 40 _l
117 124 _l
_cl}_d
/hyphen{361 0 49 234 312 314 _sc
49 314 _m
312 314 _l
312 234 _l
49 234 _l
49 314 _l
_cl}_d
/period{318 0 107 0 210 124 _sc
107 124 _m
210 124 _l
210 0 _l
107 0 _l
107 124 _l
_cl}_d
/zero{636 0 66 -13 570 742 _sc
318 664 _m
267 664 229 639 203 589 _c
177 539 165 464 165 364 _c
165 264 177 189 203 139 _c
229 89 267 64 318 64 _c
369 64 407 89 433 139 _c
458 189 471 264 471 364 _c
471 464 458 539 433 589 _c
407 639 369 664 318 664 _c
318 742 _m
399 742 461 709 505 645 _c
548 580 570 486 570 364 _c
570 241 548 147 505 83 _c
461 19 399 -13 318 -13 _c
236 -13 173 19 130 83 _c
87 147 66 241 66 364 _c
66 486 87 580 130 645 _c
173 709 236 742 318 742 _c
_cl}_d
/one{636 0 110 0 544 729 _sc
124 83 _m
285 83 _l
285 639 _l
110 604 _l
110 694 _l
284 729 _l
383 729 _l
383 83 _l
544 83 _l
544 0 _l
124 0 _l
124 83 _l
_cl}_d
/two{{636 0 73 0 536 742 _sc
192 83 _m
536 83 _l
536 0 _l
73 0 _l
73 83 _l
110 121 161 173 226 239 _c
290 304 331 346 348 365 _c
380 400 402 430 414 455 _c
426 479 433 504 433 528 _c
433 566 419 598 392 622 _c
365 646 330 659 286 659 _c
255 659 222 653 188 643 _c
154 632 117 616 78 594 _c
78 694 _l
118 710 155 722 189 730 _c
223 738 255 742 284 742 _c
}_e{359 742 419 723 464 685 _c
509 647 532 597 532 534 _c
532 504 526 475 515 449 _c
504 422 484 390 454 354 _c
446 344 420 317 376 272 _c
332 227 271 164 192 83 _c
_cl}_e}_d
/three{{636 0 76 -13 556 742 _sc
406 393 _m
453 383 490 362 516 330 _c
542 298 556 258 556 212 _c
556 140 531 84 482 45 _c
432 6 362 -13 271 -13 _c
240 -13 208 -10 176 -4 _c
144 1 110 10 76 22 _c
76 117 _l
103 101 133 89 166 81 _c
198 73 232 69 268 69 _c
330 69 377 81 409 105 _c
441 129 458 165 458 212 _c
458 254 443 288 413 312 _c
383 336 341 349 287 349 _c
}_e{202 349 _l
202 430 _l
291 430 _l
339 430 376 439 402 459 _c
428 478 441 506 441 543 _c
441 580 427 609 401 629 _c
374 649 336 659 287 659 _c
260 659 231 656 200 650 _c
169 644 135 635 98 623 _c
98 711 _l
135 721 170 729 203 734 _c
235 739 266 742 296 742 _c
370 742 429 725 473 691 _c
517 657 539 611 539 553 _c
539 513 527 479 504 451 _c
481 423 448 403 406 393 _c
_cl}_e}_d
/four{636 0 49 0 580 729 _sc
378 643 _m
129 254 _l
378 254 _l
378 643 _l
352 729 _m
476 729 _l
476 254 _l
580 254 _l
580 172 _l
476 172 _l
476 0 _l
378 0 _l
378 172 _l
49 172 _l
49 267 _l
352 729 _l
_cl}_d
/five{{636 0 77 -13 549 729 _sc
108 729 _m
495 729 _l
495 646 _l
198 646 _l
198 467 _l
212 472 227 476 241 478 _c
255 480 270 482 284 482 _c
365 482 429 459 477 415 _c
525 370 549 310 549 234 _c
549 155 524 94 475 51 _c
426 8 357 -13 269 -13 _c
238 -13 207 -10 175 -6 _c
143 -1 111 6 77 17 _c
77 116 _l
106 100 136 88 168 80 _c
199 72 232 69 267 69 _c
}_e{323 69 368 83 401 113 _c
433 143 450 183 450 234 _c
450 284 433 324 401 354 _c
368 384 323 399 267 399 _c
241 399 214 396 188 390 _c
162 384 135 375 108 363 _c
108 729 _l
_cl}_e}_d
/seven{636 0 82 0 551 729 _sc
82 729 _m
551 729 _l
551 687 _l
286 0 _l
183 0 _l
432 646 _l
82 646 _l
82 729 _l
_cl}_d
/B{{686 0 98 0 615 729 _sc
197 348 _m
197 81 _l
355 81 _l
408 81 447 92 473 114 _c
498 136 511 169 511 215 _c
511 260 498 293 473 315 _c
447 337 408 348 355 348 _c
197 348 _l
197 648 _m
197 428 _l
343 428 _l
391 428 426 437 450 455 _c
474 473 486 500 486 538 _c
486 574 474 602 450 620 _c
426 638 391 648 343 648 _c
197 648 _l
98 729 _m
350 729 _l
}_e{425 729 483 713 524 682 _c
564 650 585 606 585 549 _c
585 504 574 468 553 442 _c
532 416 502 399 462 393 _c
510 382 548 360 575 327 _c
601 294 615 253 615 204 _c
615 138 592 88 548 53 _c
504 17 441 0 360 0 _c
98 0 _l
98 729 _l
_cl}_e}_d
/D{770 0 98 0 711 729 _sc
197 648 _m
197 81 _l
316 81 _l
416 81 490 103 537 149 _c
583 195 607 267 607 365 _c
607 463 583 534 537 580 _c
490 625 416 648 316 648 _c
197 648 _l
98 729 _m
301 729 _l
442 729 546 699 612 641 _c
678 582 711 490 711 365 _c
711 239 677 147 611 88 _c
545 29 441 0 301 0 _c
98 0 _l
98 729 _l
_cl}_d
/E{632 0 98 0 568 729 _sc
98 729 _m
559 729 _l
559 646 _l
197 646 _l
197 430 _l
544 430 _l
544 347 _l
197 347 _l
197 83 _l
568 83 _l
568 0 _l
98 0 _l
98 729 _l
_cl}_d
/K{656 0 98 0 677 729 _sc
98 729 _m
197 729 _l
197 421 _l
524 729 _l
651 729 _l
289 389 _l
677 0 _l
547 0 _l
197 351 _l
197 0 _l
98 0 _l
98 729 _l
_cl}_d
/L{557 0 98 0 552 729 _sc
98 729 _m
197 729 _l
197 83 _l
552 83 _l
552 0 _l
98 0 _l
98 729 _l
_cl}_d
/M{863 0 98 0 765 729 _sc
98 729 _m
245 729 _l
431 233 _l
618 729 _l
765 729 _l
765 0 _l
669 0 _l
669 640 _l
481 140 _l
382 140 _l
194 640 _l
194 0 _l
98 0 _l
98 729 _l
_cl}_d
/P{603 0 98 0 569 729 _sc
197 648 _m
197 374 _l
321 374 _l
367 374 402 385 427 409 _c
452 433 465 467 465 511 _c
465 555 452 588 427 612 _c
402 636 367 648 321 648 _c
197 648 _l
98 729 _m
321 729 _l
402 729 464 710 506 673 _c
548 636 569 582 569 511 _c
569 439 548 384 506 348 _c
464 311 402 293 321 293 _c
197 293 _l
197 0 _l
98 0 _l
98 729 _l
_cl}_d
/S{{635 0 66 -13 579 742 _sc
535 705 _m
535 609 _l
497 627 462 640 429 649 _c
395 657 363 662 333 662 _c
279 662 237 651 208 631 _c
179 610 165 580 165 542 _c
165 510 174 485 194 469 _c
213 452 250 439 304 429 _c
364 417 _l
437 403 491 378 526 343 _c
561 307 579 260 579 201 _c
579 130 555 77 508 41 _c
460 5 391 -13 300 -13 _c
265 -13 228 -9 189 -2 _c
}_e{150 5 110 16 69 32 _c
69 134 _l
109 111 148 94 186 83 _c
224 71 262 66 300 66 _c
356 66 399 77 430 99 _c
460 121 476 152 476 194 _c
476 230 465 258 443 278 _c
421 298 385 313 335 323 _c
275 335 _l
201 349 148 372 115 404 _c
82 435 66 478 66 534 _c
66 598 88 649 134 686 _c
179 723 242 742 322 742 _c
356 742 390 739 426 733 _c
461 727 497 717 535 705 _c
}_e{_cl}_e}_d
/T{611 0 -2 0 614 729 _sc
-2 729 _m
614 729 _l
614 646 _l
355 646 _l
355 0 _l
256 0 _l
256 646 _l
-2 646 _l
-2 729 _l
_cl}_d
/a{{613 0 60 -13 522 560 _sc
343 275 _m
270 275 220 266 192 250 _c
164 233 150 205 150 165 _c
150 133 160 107 181 89 _c
202 70 231 61 267 61 _c
317 61 357 78 387 114 _c
417 149 432 196 432 255 _c
432 275 _l
343 275 _l
522 312 _m
522 0 _l
432 0 _l
432 83 _l
411 49 385 25 355 10 _c
325 -5 287 -13 243 -13 _c
187 -13 142 2 109 33 _c
76 64 60 106 60 159 _c
}_e{60 220 80 266 122 298 _c
163 329 224 345 306 345 _c
432 345 _l
432 354 _l
432 395 418 427 391 450 _c
364 472 326 484 277 484 _c
245 484 215 480 185 472 _c
155 464 127 453 100 439 _c
100 522 _l
132 534 164 544 195 550 _c
226 556 256 560 286 560 _c
365 560 424 539 463 498 _c
502 457 522 395 522 312 _c
_cl}_e}_d
/c{{550 0 55 -13 488 560 _sc
488 526 _m
488 442 _l
462 456 437 466 411 473 _c
385 480 360 484 334 484 _c
276 484 230 465 198 428 _c
166 391 150 339 150 273 _c
150 206 166 154 198 117 _c
230 80 276 62 334 62 _c
360 62 385 65 411 72 _c
437 79 462 90 488 104 _c
488 21 _l
462 9 436 0 410 -5 _c
383 -10 354 -13 324 -13 _c
242 -13 176 12 128 64 _c
}_e{79 115 55 185 55 273 _c
55 362 79 432 128 483 _c
177 534 244 560 330 560 _c
358 560 385 557 411 551 _c
437 545 463 537 488 526 _c
_cl}_e}_d
/d{{635 0 55 -13 544 760 _sc
454 464 _m
454 760 _l
544 760 _l
544 0 _l
454 0 _l
454 82 _l
435 49 411 25 382 10 _c
353 -5 319 -13 279 -13 _c
213 -13 159 13 117 65 _c
75 117 55 187 55 273 _c
55 359 75 428 117 481 _c
159 533 213 560 279 560 _c
319 560 353 552 382 536 _c
411 520 435 496 454 464 _c
148 273 _m
148 207 161 155 188 117 _c
215 79 253 61 301 61 _c
}_e{348 61 385 79 413 117 _c
440 155 454 207 454 273 _c
454 339 440 390 413 428 _c
385 466 348 485 301 485 _c
253 485 215 466 188 428 _c
161 390 148 339 148 273 _c
_cl}_e}_d
/e{{615 0 55 -13 562 560 _sc
562 296 _m
562 252 _l
149 252 _l
153 190 171 142 205 110 _c
238 78 284 62 344 62 _c
378 62 412 66 444 74 _c
476 82 509 95 541 113 _c
541 28 _l
509 14 476 3 442 -3 _c
408 -9 373 -13 339 -13 _c
251 -13 182 12 131 62 _c
80 112 55 181 55 268 _c
55 357 79 428 127 481 _c
175 533 241 560 323 560 _c
397 560 455 536 498 489 _c
}_e{540 441 562 377 562 296 _c
472 322 _m
471 371 457 410 431 440 _c
404 469 368 484 324 484 _c
274 484 234 469 204 441 _c
174 413 156 373 152 322 _c
472 322 _l
_cl}_e}_d
/f{352 0 23 0 371 760 _sc
371 760 _m
371 685 _l
285 685 _l
253 685 230 678 218 665 _c
205 652 199 629 199 595 _c
199 547 _l
347 547 _l
347 477 _l
199 477 _l
199 0 _l
109 0 _l
109 477 _l
23 477 _l
23 547 _l
109 547 _l
109 585 _l
109 645 123 690 151 718 _c
179 746 224 760 286 760 _c
371 760 _l
_cl}_d
/h{634 0 91 0 549 760 _sc
549 330 _m
549 0 _l
459 0 _l
459 327 _l
459 379 448 417 428 443 _c
408 469 378 482 338 482 _c
289 482 251 466 223 435 _c
195 404 181 362 181 309 _c
181 0 _l
91 0 _l
91 760 _l
181 760 _l
181 462 _l
202 494 227 519 257 535 _c
286 551 320 560 358 560 _c
420 560 468 540 500 501 _c
532 462 549 405 549 330 _c
_cl}_d
/i{278 0 94 0 184 760 _sc
94 547 _m
184 547 _l
184 0 _l
94 0 _l
94 547 _l
94 760 _m
184 760 _l
184 646 _l
94 646 _l
94 760 _l
_cl}_d
/l{278 0 94 0 184 760 _sc
94 760 _m
184 760 _l
184 0 _l
94 0 _l
94 760 _l
_cl}_d
/n{634 0 91 0 549 560 _sc
549 330 _m
549 0 _l
459 0 _l
459 327 _l
459 379 448 417 428 443 _c
408 469 378 482 338 482 _c
289 482 251 466 223 435 _c
195 404 181 362 181 309 _c
181 0 _l
91 0 _l
91 547 _l
181 547 _l
181 462 _l
202 494 227 519 257 535 _c
286 551 320 560 358 560 _c
420 560 468 540 500 501 _c
532 462 549 405 549 330 _c
_cl}_d
/o{612 0 55 -13 557 560 _sc
306 484 _m
258 484 220 465 192 427 _c
164 389 150 338 150 273 _c
150 207 163 156 191 118 _c
219 80 257 62 306 62 _c
354 62 392 80 420 118 _c
448 156 462 207 462 273 _c
462 337 448 389 420 427 _c
392 465 354 484 306 484 _c
306 560 _m
384 560 445 534 490 484 _c
534 433 557 363 557 273 _c
557 183 534 113 490 63 _c
445 12 384 -13 306 -13 _c
227 -13 165 12 121 63 _c
77 113 55 183 55 273 _c
55 363 77 433 121 484 _c
165 534 227 560 306 560 _c
_cl}_d
/p{{635 0 91 -207 580 560 _sc
181 82 _m
181 -207 _l
91 -207 _l
91 547 _l
181 547 _l
181 464 _l
199 496 223 520 252 536 _c
281 552 316 560 356 560 _c
422 560 476 533 518 481 _c
559 428 580 359 580 273 _c
580 187 559 117 518 65 _c
476 13 422 -13 356 -13 _c
316 -13 281 -5 252 10 _c
223 25 199 49 181 82 _c
487 273 _m
487 339 473 390 446 428 _c
418 466 381 485 334 485 _c
}_e{286 485 249 466 222 428 _c
194 390 181 339 181 273 _c
181 207 194 155 222 117 _c
249 79 286 61 334 61 _c
381 61 418 79 446 117 _c
473 155 487 207 487 273 _c
_cl}_e}_d
/r{411 0 91 0 411 560 _sc
411 463 _m
401 469 390 473 378 476 _c
366 478 353 480 339 480 _c
288 480 249 463 222 430 _c
194 397 181 350 181 288 _c
181 0 _l
91 0 _l
91 547 _l
181 547 _l
181 462 _l
199 495 224 520 254 536 _c
284 552 321 560 365 560 _c
371 560 378 559 386 559 _c
393 558 401 557 411 555 _c
411 463 _l
_cl}_d
/s{{521 0 54 -13 472 560 _sc
443 531 _m
443 446 _l
417 458 391 468 364 475 _c
336 481 308 485 279 485 _c
234 485 200 478 178 464 _c
156 450 145 430 145 403 _c
145 382 153 366 169 354 _c
185 342 217 330 265 320 _c
296 313 _l
360 299 405 279 432 255 _c
458 230 472 195 472 151 _c
472 100 452 60 412 31 _c
372 1 316 -13 246 -13 _c
216 -13 186 -10 154 -5 _c
}_e{122 0 89 8 54 20 _c
54 113 _l
87 95 120 82 152 74 _c
184 65 216 61 248 61 _c
290 61 323 68 346 82 _c
368 96 380 117 380 144 _c
380 168 371 187 355 200 _c
339 213 303 226 247 238 _c
216 245 _l
160 257 119 275 95 299 _c
70 323 58 356 58 399 _c
58 450 76 490 112 518 _c
148 546 200 560 268 560 _c
301 560 332 557 362 552 _c
391 547 418 540 443 531 _c
}_e{_cl}_e}_d
/t{392 0 27 0 368 702 _sc
183 702 _m
183 547 _l
368 547 _l
368 477 _l
183 477 _l
183 180 _l
183 135 189 106 201 94 _c
213 81 238 75 276 75 _c
368 75 _l
368 0 _l
276 0 _l
206 0 158 13 132 39 _c
106 65 93 112 93 180 _c
93 477 _l
27 477 _l
27 547 _l
93 547 _l
93 702 _l
183 702 _l
_cl}_d
/u{634 0 85 -13 543 560 _sc
85 216 _m
85 547 _l
175 547 _l
175 219 _l
175 167 185 129 205 103 _c
225 77 255 64 296 64 _c
344 64 383 79 411 110 _c
439 141 453 183 453 237 _c
453 547 _l
543 547 _l
543 0 _l
453 0 _l
453 84 _l
431 50 405 26 377 10 _c
348 -5 315 -13 277 -13 _c
214 -13 166 6 134 45 _c
101 83 85 140 85 216 _c
311 560 _m
311 560 _l
_cl}_d
/v{592 0 30 0 562 547 _sc
30 547 _m
125 547 _l
296 88 _l
467 547 _l
562 547 _l
357 0 _l
235 0 _l
30 547 _l
_cl}_d
/x{592 0 29 0 559 547 _sc
549 547 _m
351 281 _l
559 0 _l
453 0 _l
294 215 _l
135 0 _l
29 0 _l
241 286 _l
47 547 _l
153 547 _l
298 352 _l
443 547 _l
549 547 _l
_cl}_d
end readonly def

/BuildGlyph
 {exch begin
 CharStrings exch
 2 copy known not{pop /.notdef}if
 true 3 1 roll get exec
 end}_d

/BuildChar {
 1 index /Encoding get exch get
 1 index /BuildGlyph get exec
}_d

FontName currentdict end definefont pop
%!PS-Adobe-3.0 Resource-Font
%%Title: DejaVu Sans Oblique
%%Copyright: Copyright (c) 2003 by Bitstream, Inc. All Rights Reserved. Copyright (c) 2006 by Tavmjong Bah. All Rights Reserved. DejaVu changes are in public domain 
%%Creator: Converted from TrueType to type 3 by PPR
25 dict begin
/_d{bind def}bind def
/_m{moveto}_d
/_l{lineto}_d
/_cl{closepath eofill}_d
/_c{curveto}_d
/_sc{7 -1 roll{setcachedevice}{pop pop pop pop pop pop}ifelse}_d
/_e{exec}_d
/FontName /DejaVuSans-Oblique def
/PaintType 0 def
/FontMatrix[.001 0 0 .001 0 0]def
/FontBBox[-1016 -350 1659 1068]def
/FontType 3 def
/Encoding [ /t /delta ] def
/FontInfo 10 dict dup begin
/FamilyName (DejaVu Sans) def
/FullName (DejaVu Sans Oblique) def
/Notice (Copyright (c) 2003 by Bitstream, Inc. All Rights Reserved. Copyright (c) 2006 by Tavmjong Bah. All Rights Reserved. DejaVu changes are in public domain ) def
/Weight (Oblique) def
/Version (Version 2.35) def
/ItalicAngle -11.0 def
/isFixedPitch false def
/UnderlinePosition -130 def
/UnderlineThickness 90 def
end readonly def
/CharStrings 3 dict dup begin
/.notdef 0 def
/t{{392 0 64 0 423 702 _sc
423 547 _m
409 477 _l
230 477 _l
172 180 _l
170 169 168 160 167 152 _c
166 144 166 139 166 135 _c
166 114 172 99 185 89 _c
197 79 217 75 245 75 _c
336 75 _l
321 0 _l
235 0 _l
181 0 141 10 115 31 _c
89 52 76 84 76 126 _c
76 133 76 141 77 150 _c
78 159 80 169 82 180 _c
140 477 _l
64 477 _l
78 547 _l
153 547 _l
183 702 _l
}_e{273 702 _l
243 547 _l
423 547 _l
_cl}_e}_d
/delta{{612 0 38 -13 557 742 _sc
542 633 _m
514 655 461 667 383 667 _c
300 667 255 648 248 610 _c
242 580 280 557 364 542 _c
428 530 476 505 508 469 _c
546 425 556 358 539 268 _c
521 182 486 113 432 63 _c
377 12 310 -13 232 -13 _c
154 -13 98 12 63 63 _c
28 113 20 183 38 273 _c
50 339 84 399 139 453 _c
160 473 184 490 211 502 _c
165 528 147 563 156 609 _c
}_e{173 697 253 742 397 742 _c
469 742 522 730 557 708 _c
542 633 _l
274 478 _m
250 468 226 451 204 428 _c
168 391 144 339 132 273 _c
119 207 123 155 144 118 _c
164 80 199 62 248 62 _c
295 62 336 81 372 119 _c
407 156 431 206 443 268 _c
455 332 450 380 427 412 _c
401 445 369 464 329 468 _c
308 470 290 473 274 478 _c
_cl}_e}_d
end readonly def

/BuildGlyph
 {exch begin
 CharStrings exch
 2 copy known not{pop /.notdef}if
 true 3 1 roll get exec
 end}_d

/BuildChar {
 1 index /Encoding get exch get
 1 index /BuildGlyph get exec
}_d

FontName currentdict end definefont pop
end
%%EndProlog
mpldict begin
-87.461 98.086 translate
786.922 595.829 0 0 clipbox
gsave
0 0 m
786.921875 0 l
786.921875 595.82875 l
0 595.82875 l
cl
1.000 setgray
fill
grestore
gsave
94.85625 64.66875 m
764.45625 64.66875 l
764.45625 563.62875 l
94.85625 563.62875 l
cl
1.000 setgray
fill
grestore
0.800 setlinewidth
1 setlinejoin
0 setlinecap
[] 0 setdash
0.000 setgray
gsave
/o {
gsave
newpath
translate
0.8 setlinewidth
1 setlinejoin
0 setlinecap
0 0 m
0 -3.5 l

gsave
0.000 setgray
fill
grestore
stroke
grestore
} bind def
94.8563 64.6688 o
grestore
/DejaVuSans findfont
24.000 scalefont
setfont
gsave
87.223438 39.434375 translate
0.000000 rotate
0.000000 0.000000 m /five glyphshow
grestore
gsave
/o {
gsave
newpath
translate
0.8 setlinewidth
1 setlinejoin
0 setlinecap
0 0 m
0 -3.5 l

gsave
0.000 setgray
fill
grestore
stroke
grestore
} bind def
169.256 64.6688 o
grestore
gsave
153.990625 39.434375 translate
0.000000 rotate
0.000000 0.000000 m /one glyphshow
15.269531 0.000000 m /zero glyphshow
grestore
gsave
/o {
gsave
newpath
translate
0.8 setlinewidth
1 setlinejoin
0 setlinecap
0 0 m
0 -3.5 l

gsave
0.000 setgray
fill
grestore
stroke
grestore
} bind def
243.656 64.6688 o
grestore
gsave
228.390625 39.434375 translate
0.000000 rotate
0.000000 0.000000 m /one glyphshow
15.269531 0.000000 m /five glyphshow
grestore
gsave
/o {
gsave
newpath
translate
0.8 setlinewidth
1 setlinejoin
0 setlinecap
0 0 m
0 -3.5 l

gsave
0.000 setgray
fill
grestore
stroke
grestore
} bind def
318.056 64.6688 o
grestore
gsave
302.790625 39.434375 translate
0.000000 rotate
0.000000 0.000000 m /two glyphshow
15.269531 0.000000 m /zero glyphshow
grestore
gsave
/o {
gsave
newpath
translate
0.8 setlinewidth
1 setlinejoin
0 setlinecap
0 0 m
0 -3.5 l

gsave
0.000 setgray
fill
grestore
stroke
grestore
} bind def
392.456 64.6688 o
grestore
gsave
377.190625 39.434375 translate
0.000000 rotate
0.000000 0.000000 m /two glyphshow
15.269531 0.000000 m /five glyphshow
grestore
gsave
/o {
gsave
newpath
translate
0.8 setlinewidth
1 setlinejoin
0 setlinecap
0 0 m
0 -3.5 l

gsave
0.000 setgray
fill
grestore
stroke
grestore
} bind def
466.856 64.6688 o
grestore
gsave
451.590625 39.434375 translate
0.000000 rotate
0.000000 0.000000 m /three glyphshow
15.269531 0.000000 m /zero glyphshow
grestore
gsave
/o {
gsave
newpath
translate
0.8 setlinewidth
1 setlinejoin
0 setlinecap
0 0 m
0 -3.5 l

gsave
0.000 setgray
fill
grestore
stroke
grestore
} bind def
541.256 64.6688 o
grestore
gsave
525.990625 39.434375 translate
0.000000 rotate
0.000000 0.000000 m /three glyphshow
15.269531 0.000000 m /five glyphshow
grestore
gsave
/o {
gsave
newpath
translate
0.8 setlinewidth
1 setlinejoin
0 setlinecap
0 0 m
0 -3.5 l

gsave
0.000 setgray
fill
grestore
stroke
grestore
} bind def
615.656 64.6688 o
grestore
gsave
600.390625 39.434375 translate
0.000000 rotate
0.000000 0.000000 m /four glyphshow
15.269531 0.000000 m /zero glyphshow
grestore
gsave
/o {
gsave
newpath
translate
0.8 setlinewidth
1 setlinejoin
0 setlinecap
0 0 m
0 -3.5 l

gsave
0.000 setgray
fill
grestore
stroke
grestore
} bind def
690.056 64.6688 o
grestore
gsave
674.790625 39.434375 translate
0.000000 rotate
0.000000 0.000000 m /four glyphshow
15.269531 0.000000 m /five glyphshow
grestore
gsave
/o {
gsave
newpath
translate
0.8 setlinewidth
1 setlinejoin
0 setlinecap
0 0 m
0 -3.5 l

gsave
0.000 setgray
fill
grestore
stroke
grestore
} bind def
764.456 64.6688 o
grestore
gsave
749.190625 39.434375 translate
0.000000 rotate
0.000000 0.000000 m /five glyphshow
15.269531 0.000000 m /zero glyphshow
grestore
gsave
367.304688 12.200000 translate
0.000000 rotate
0.000000 0.000000 m /S glyphshow
15.234375 0.000000 m /n glyphshow
30.445312 0.000000 m /a glyphshow
45.152344 0.000000 m /p glyphshow
60.386719 0.000000 m /s glyphshow
72.890625 0.000000 m /h glyphshow
88.101562 0.000000 m /o glyphshow
102.785156 0.000000 m /t glyphshow
112.195312 0.000000 m /s glyphshow
grestore
gsave
/o {
gsave
newpath
translate
0.8 setlinewidth
1 setlinejoin
0 setlinecap
0 0 m
-3.5 0 l

gsave
0.000 setgray
fill
grestore
stroke
grestore
} bind def
94.8563 139.425 o
grestore
gsave
34.434375 130.307462 translate
0.000000 rotate
0.000000 0.000000 m /zero glyphshow
15.269531 0.000000 m /period glyphshow
22.898438 0.000000 m /zero glyphshow
38.167969 0.000000 m /five glyphshow
grestore
gsave
/o {
gsave
newpath
translate
0.8 setlinewidth
1 setlinejoin
0 setlinecap
0 0 m
-3.5 0 l

gsave
0.000 setgray
fill
grestore
stroke
grestore
} bind def
94.8563 226.189 o
grestore
gsave
34.434375 217.071707 translate
0.000000 rotate
0.000000 0.000000 m /zero glyphshow
15.269531 0.000000 m /period glyphshow
22.898438 0.000000 m /one glyphshow
38.167969 0.000000 m /zero glyphshow
grestore
gsave
/o {
gsave
newpath
translate
0.8 setlinewidth
1 setlinejoin
0 setlinecap
0 0 m
-3.5 0 l

gsave
0.000 setgray
fill
grestore
stroke
grestore
} bind def
94.8563 312.953 o
grestore
gsave
34.434375 303.835951 translate
0.000000 rotate
0.000000 0.000000 m /zero glyphshow
15.269531 0.000000 m /period glyphshow
22.898438 0.000000 m /one glyphshow
38.167969 0.000000 m /five glyphshow
grestore
gsave
/o {
gsave
newpath
translate
0.8 setlinewidth
1 setlinejoin
0 setlinecap
0 0 m
-3.5 0 l

gsave
0.000 setgray
fill
grestore
stroke
grestore
} bind def
94.8563 399.717 o
grestore
gsave
34.434375 390.600196 translate
0.000000 rotate
0.000000 0.000000 m /zero glyphshow
15.269531 0.000000 m /period glyphshow
22.898438 0.000000 m /two glyphshow
38.167969 0.000000 m /zero glyphshow
grestore
gsave
/o {
gsave
newpath
translate
0.8 setlinewidth
1 setlinejoin
0 setlinecap
0 0 m
-3.5 0 l

gsave
0.000 setgray
fill
grestore
stroke
grestore
} bind def
94.8563 486.482 o
grestore
gsave
34.434375 477.364440 translate
0.000000 rotate
0.000000 0.000000 m /zero glyphshow
15.269531 0.000000 m /period glyphshow
22.898438 0.000000 m /two glyphshow
38.167969 0.000000 m /five glyphshow
grestore
gsave
25.434375 250.265938 translate
90.000000 rotate
0.000000 0.000000 m /E glyphshow
15.164062 0.000000 m /r glyphshow
25.031250 0.000000 m /r glyphshow
34.898438 0.000000 m /o glyphshow
49.582031 0.000000 m /r glyphshow
59.449219 0.000000 m /s glyphshow
71.953125 0.000000 m /space glyphshow
79.582031 0.000000 m /parenleft glyphshow
88.945312 0.000000 m /p glyphshow
104.179688 0.000000 m /x glyphshow
118.382812 0.000000 m /parenright glyphshow
grestore
3.000 setlinewidth
2 setlinecap
gsave
669.6 499 94.86 64.67 clipbox
94.85625 106.733965 m
109.73625 108.418579 l
124.61625 109.70859 l
139.49625 108.437841 l
154.37625 108.870794 l
169.25625 108.84945 l
184.13625 109.923765 l
199.01625 110.045235 l
213.89625 110.434807 l
228.77625 110.320278 l
243.65625 110.652758 l
258.53625 110.62725 l
273.41625 110.41676 l
288.29625 109.928798 l
303.17625 111.385569 l
318.05625 111.867631 l
332.93625 111.569683 l
347.81625 111.286832 l
362.69625 111.6974 l
377.57625 112.010445 l
392.45625 113.517367 l
407.33625 113.750068 l
422.21625 114.43915 l
437.09625 113.946329 l
451.97625 112.833144 l
466.85625 112.663086 l
481.73625 112.767203 l
496.61625 115.608385 l
511.49625 113.23278 l
526.37625 114.731546 l
541.25625 114.524873 l
556.13625 114.096084 l
571.01625 115.994659 l
585.89625 114.997218 l
600.77625 115.888286 l
615.65625 115.161202 l
630.53625 115.081726 l
645.41625 115.813669 l
660.29625 114.650855 l
675.17625 116.875317 l
690.05625 116.08073 l
704.93625 117.647171 l
719.81625 117.150533 l
734.69625 115.675367 l
749.57625 116.08715 l
764.45625 113.608469 l
stroke
grestore
0.000 0.000 1.000 setrgbcolor
gsave
669.6 499 94.86 64.67 clipbox
94.85625 92.200607 m
109.73625 88.829122 l
124.61625 87.800271 l
139.49625 87.567396 l
154.37625 87.34875 l
169.25625 87.758624 l
184.13625 88.082081 l
199.01625 89.461633 l
213.89625 89.95671 l
228.77625 89.303895 l
243.65625 89.720711 l
258.53625 90.251535 l
273.41625 91.278823 l
288.29625 92.009725 l
303.17625 92.399123 l
318.05625 92.204077 l
332.93625 93.16369 l
347.81625 93.426585 l
362.69625 94.666793 l
377.57625 94.778199 l
392.45625 96.506022 l
407.33625 96.458996 l
422.21625 96.259785 l
437.09625 96.389411 l
451.97625 95.067297 l
466.85625 96.052765 l
481.73625 96.665495 l
496.61625 97.820847 l
511.49625 97.459734 l
526.37625 97.790306 l
541.25625 98.816033 l
556.13625 97.99802 l
571.01625 97.801586 l
585.89625 98.778204 l
600.77625 99.913601 l
615.65625 99.726711 l
630.53625 99.325686 l
645.41625 98.683284 l
660.29625 98.307768 l
675.17625 99.938589 l
690.05625 100.395316 l
704.93625 102.040019 l
719.81625 101.547719 l
734.69625 99.969824 l
749.57625 99.4921 l
764.45625 97.00266 l
stroke
grestore
1.000 0.000 0.000 setrgbcolor
gsave
669.6 499 94.86 64.67 clipbox
94.85625 90.573777 m
109.73625 92.964652 l
124.61625 88.112969 l
139.49625 91.599851 l
154.37625 89.237955 l
169.25625 88.928033 l
184.13625 88.00972 l
199.01625 88.800142 l
213.89625 89.351789 l
228.77625 89.336172 l
243.65625 90.162341 l
258.53625 90.644577 l
273.41625 90.336564 l
288.29625 91.101651 l
303.17625 89.721579 l
318.05625 90.614036 l
332.93625 91.094883 l
347.81625 90.782532 l
362.69625 91.508575 l
377.57625 92.962223 l
392.45625 92.718589 l
407.33625 92.614125 l
422.21625 92.945391 l
437.09625 92.993805 l
451.97625 92.750345 l
466.85625 91.79455 l
481.73625 92.670001 l
496.61625 92.80223 l
511.49625 91.625533 l
526.37625 91.531654 l
541.25625 92.291709 l
556.13625 93.734078 l
571.01625 92.895068 l
585.89625 93.343292 l
600.77625 94.993721 l
615.65625 94.085126 l
630.53625 93.578596 l
645.41625 93.56107 l
660.29625 94.404939 l
675.17625 95.333663 l
690.05625 95.720632 l
704.93625 96.987737 l
719.81625 96.900973 l
734.69625 96.743409 l
749.57625 96.477216 l
764.45625 96.060574 l
stroke
grestore
0 setlinecap
[11.1 4.8] 0 setdash
0.000 setgray
gsave
669.6 499 94.86 64.67 clipbox
94.85625 194.156056 m
109.73625 193.73282 l
124.61625 194.645927 l
139.49625 194.31119 l
154.37625 194.277873 l
169.25625 195.678942 l
184.13625 194.351622 l
199.01625 194.334096 l
213.89625 195.112545 l
228.77625 196.291844 l
243.65625 197.174757 l
258.53625 196.493658 l
273.41625 195.965611 l
288.29625 195.497257 l
303.17625 197.378827 l
318.05625 199.508715 l
332.93625 199.294061 l
347.81625 201.158104 l
362.69625 200.61843 l
377.57625 199.93681 l
392.45625 199.310893 l
407.33625 198.757164 l
422.21625 200.259747 l
437.09625 200.855817 l
451.97625 202.11199 l
466.85625 202.051949 l
481.73625 202.800377 l
496.61625 202.500694 l
511.49625 203.728928 l
526.37625 202.988656 l
541.25625 203.396795 l
556.13625 203.16444 l
571.01625 203.013991 l
585.89625 203.183702 l
600.77625 202.377488 l
615.65625 203.443474 l
630.53625 204.753788 l
645.41625 204.350681 l
660.29625 203.496921 l
675.17625 203.331895 l
690.05625 205.803808 l
704.93625 204.289425 l
719.81625 204.98458 l
734.69625 207.626552 l
749.57625 205.307864 l
764.45625 204.268775 l
stroke
grestore
0.000 0.000 1.000 setrgbcolor
gsave
669.6 499 94.86 64.67 clipbox
94.85625 125.341424 m
109.73625 114.37425 l
124.61625 110.410166 l
139.49625 106.947058 l
154.37625 105.736523 l
169.25625 107.488814 l
184.13625 104.375018 l
199.01625 105.143576 l
213.89625 106.023018 l
228.77625 106.99044 l
243.65625 106.57831 l
258.53625 108.368776 l
273.41625 108.341706 l
288.29625 108.762339 l
303.17625 108.172863 l
318.05625 109.274248 l
332.93625 109.808195 l
347.81625 110.604518 l
362.69625 112.233256 l
377.57625 111.737138 l
392.45625 113.024719 l
407.33625 112.918693 l
422.21625 113.596669 l
437.09625 113.16198 l
451.97625 114.947589 l
466.85625 114.483053 l
481.73625 115.725517 l
496.61625 114.621355 l
511.49625 113.971317 l
526.37625 115.522315 l
541.25625 116.189532 l
556.13625 115.101682 l
571.01625 117.819485 l
585.89625 116.077606 l
600.77625 117.378549 l
615.65625 117.261938 l
630.53625 116.136259 l
645.41625 116.759052 l
660.29625 117.707733 l
675.17625 118.059301 l
690.05625 119.869724 l
704.93625 119.137087 l
719.81625 119.990153 l
734.69625 117.614895 l
749.57625 115.532033 l
764.45625 112.227182 l
stroke
grestore
1.000 0.000 0.000 setrgbcolor
gsave
669.6 499 94.86 64.67 clipbox
94.85625 110.762776 m
109.73625 108.287045 l
124.61625 99.972948 l
139.49625 102.360873 l
154.37625 99.859981 l
169.25625 98.739854 l
184.13625 99.431712 l
199.01625 99.560644 l
213.89625 100.089385 l
228.77625 100.734911 l
243.65625 101.750747 l
258.53625 102.532666 l
273.41625 104.257019 l
288.29625 104.88311 l
303.17625 105.676655 l
318.05625 106.037248 l
332.93625 107.667721 l
347.81625 108.317239 l
362.69625 108.349688 l
377.57625 107.90667 l
392.45625 109.432333 l
407.33625 110.036906 l
422.21625 110.300843 l
437.09625 108.388559 l
451.97625 111.212908 l
466.85625 111.318761 l
481.73625 112.519751 l
496.61625 113.212824 l
511.49625 115.0406 l
526.37625 114.004461 l
541.25625 114.372342 l
556.13625 114.96633 l
571.01625 116.489216 l
585.89625 115.948501 l
600.77625 115.23044 l
615.65625 115.536544 l
630.53625 117.820526 l
645.41625 117.321111 l
660.29625 116.716538 l
675.17625 117.682571 l
690.05625 119.85671 l
704.93625 119.475814 l
719.81625 121.524318 l
734.69625 118.035702 l
749.57625 116.672635 l
764.45625 112.929105 l
stroke
grestore
[3 4.95] 0 setdash
0.000 setgray
gsave
669.6 499 94.86 64.67 clipbox
94.85625 260.141478 m
109.73625 257.95849 l
124.61625 255.933412 l
139.49625 252.499284 l
154.37625 250.531471 l
169.25625 248.822215 l
184.13625 248.721568 l
199.01625 249.545829 l
213.89625 250.031709 l
228.77625 250.869851 l
243.65625 251.541406 l
258.53625 252.679753 l
273.41625 251.050321 l
288.29625 252.700577 l
303.17625 252.818576 l
318.05625 252.586048 l
332.93625 252.502754 l
347.81625 253.20728 l
362.69625 253.182986 l
377.57625 252.865429 l
392.45625 252.108845 l
407.33625 251.879787 l
422.21625 253.729601 l
437.09625 253.455426 l
451.97625 254.746478 l
466.85625 254.213745 l
481.73625 254.895712 l
496.61625 254.9738 l
511.49625 258.010548 l
526.37625 258.20143 l
541.25625 258.411399 l
556.13625 258.085166 l
571.01625 259.23566 l
585.89625 261.009121 l
600.77625 262.576083 l
615.65625 261.654647 l
630.53625 262.976934 l
645.41625 262.468495 l
660.29625 261.748352 l
675.17625 260.054714 l
690.05625 262.170026 l
704.93625 264.009428 l
719.81625 263.341344 l
734.69625 261.434266 l
749.57625 260.216096 l
764.45625 258.381899 l
stroke
grestore
0.000 0.000 1.000 setrgbcolor
gsave
669.6 499 94.86 64.67 clipbox
94.85625 300.774909 m
109.73625 305.999852 l
124.61625 308.854396 l
139.49625 314.54266 l
154.37625 319.292134 l
169.25625 326.210715 l
184.13625 325.849776 l
199.01625 331.487717 l
213.89625 335.013816 l
228.77625 340.256111 l
243.65625 344.320148 l
258.53625 345.246791 l
273.41625 356.611171 l
288.29625 357.117874 l
303.17625 362.703757 l
318.05625 366.50403 l
332.93625 369.827101 l
347.81625 372.541087 l
362.69625 382.197947 l
377.57625 380.811454 l
392.45625 390.889989 l
407.33625 401.681726 l
422.21625 405.226913 l
437.09625 403.684245 l
451.97625 414.55754 l
466.85625 420.018481 l
481.73625 423.282552 l
496.61625 428.167379 l
511.49625 433.862584 l
526.37625 441.84663 l
541.25625 448.773887 l
556.13625 458.121867 l
571.01625 461.55079 l
585.89625 465.076889 l
600.77625 481.92824 l
615.65625 486.842567 l
630.53625 492.591566 l
645.41625 504.565032 l
660.29625 511.25282 l
675.17625 521.605529 l
690.05625 523.68093 l
704.93625 539.324523 l
719.81625 540.94875 l
734.69625 540.849839 l
749.57625 522.799405 l
764.45625 514.379803 l
stroke
grestore
1.000 0.000 0.000 setrgbcolor
gsave
669.6 499 94.86 64.67 clipbox
94.85625 222.142036 m
109.73625 216.398417 l
124.61625 189.143338 l
139.49625 179.725947 l
154.37625 162.809522 l
169.25625 151.257731 l
184.13625 144.16458 l
199.01625 135.595743 l
213.89625 131.974204 l
228.77625 128.856765 l
243.65625 128.07953 l
258.53625 126.400295 l
273.41625 126.542589 l
288.29625 126.61495 l
303.17625 126.957495 l
318.05625 128.150157 l
332.93625 127.736812 l
347.81625 127.076536 l
362.69625 127.036971 l
377.57625 126.473177 l
392.45625 129.4157 l
407.33625 129.218224 l
422.21625 129.769004 l
437.09625 130.183563 l
451.97625 130.812604 l
466.85625 130.871257 l
481.73625 133.432017 l
496.61625 134.458611 l
511.49625 134.148342 l
526.37625 133.768488 l
541.25625 133.02006 l
556.13625 136.168214 l
571.01625 136.861634 l
585.89625 136.156935 l
600.77625 135.229598 l
615.65625 137.044706 l
630.53625 137.910787 l
645.41625 138.092471 l
660.29625 137.83374 l
675.17625 139.642775 l
690.05625 138.273635 l
704.93625 140.840295 l
719.81625 140.18401 l
734.69625 138.291335 l
749.57625 132.769485 l
764.45625 130.514829 l
stroke
grestore
0.800 setlinewidth
0 setlinejoin
2 setlinecap
[] 0 setdash
0.000 setgray
gsave
94.85625 64.66875 m
94.85625 563.62875 l
stroke
grestore
gsave
764.45625 64.66875 m
764.45625 563.62875 l
stroke
grestore
gsave
94.85625 64.66875 m
764.45625 64.66875 l
stroke
grestore
gsave
94.85625 563.62875 m
764.45625 563.62875 l
stroke
grestore
gsave
200.656250 569.628750 translate
0.000000 rotate
/DejaVuSans findfont
24.0 scalefont
setfont
0.000000 0.765625 moveto
/M glyphshow

20.707031 0.765625 moveto
/e glyphshow

35.472656 0.765625 moveto
/a glyphshow

50.179688 0.765625 moveto
/n glyphshow

65.390625 0.765625 moveto
/space glyphshow

73.019531 0.765625 moveto
/e glyphshow

87.785156 0.765625 moveto
/r glyphshow

97.652344 0.765625 moveto
/r glyphshow

107.519531 0.765625 moveto
/o glyphshow

122.203125 0.765625 moveto
/r glyphshow

132.070312 0.765625 moveto
/space glyphshow

139.699219 0.765625 moveto
/o glyphshow

154.382812 0.765625 moveto
/f glyphshow

162.832031 0.765625 moveto
/space glyphshow

170.460938 0.765625 moveto
/d glyphshow

185.695312 0.765625 moveto
/e glyphshow

200.460938 0.765625 moveto
/t glyphshow

209.871094 0.765625 moveto
/e glyphshow

224.636719 0.765625 moveto
/c glyphshow

237.832031 0.765625 moveto
/t glyphshow

247.242188 0.765625 moveto
/e glyphshow

262.007812 0.765625 moveto
/d glyphshow

277.242188 0.765625 moveto
/space glyphshow

284.871094 0.765625 moveto
/p glyphshow

300.105469 0.765625 moveto
/a glyphshow

314.812500 0.765625 moveto
/r glyphshow

324.679688 0.765625 moveto
/t glyphshow

334.089844 0.765625 moveto
/i glyphshow

340.757812 0.765625 moveto
/c glyphshow

353.953125 0.765625 moveto
/l glyphshow

360.621094 0.765625 moveto
/e glyphshow

375.386719 0.765625 moveto
/s glyphshow

387.890625 0.765625 moveto
/comma glyphshow

395.519531 0.765625 moveto
/space glyphshow

403.148438 0.765625 moveto
/one glyphshow

418.417969 0.765625 moveto
/five glyphshow

/DejaVuSans-Oblique findfont
24.0 scalefont
setfont
433.687500 0.765625 moveto
/delta glyphshow

448.371094 0.765625 moveto
/t glyphshow


grestore
1.000 setlinewidth
0 setlinecap
0.800 setgray
gsave
523.4875 353.488125 m
753.95625 353.488125 l
755.95625 353.488125 756.95625 354.488125 756.95625 356.488125 c
756.95625 553.12875 l
756.95625 555.12875 755.95625 556.12875 753.95625 556.12875 c
523.4875 556.12875 l
521.4875 556.12875 520.4875 555.12875 520.4875 553.12875 c
520.4875 356.488125 l
520.4875 354.488125 521.4875 353.488125 523.4875 353.488125 c
cl
gsave
1.000 setgray
fill
grestore
stroke
grestore
3.000 setlinewidth
1 setlinejoin
2 setlinecap
[] 0 setdash
0.000 setgray
gsave
526.4875 543.988125 m
556.4875 543.988125 l
stroke
grestore
/DejaVuSans findfont
15.000 scalefont
setfont
gsave
568.487500 538.738125 translate
0.000000 rotate
0.000000 0.000000 m /P glyphshow
9.045410 0.000000 m /P glyphshow
18.090820 0.000000 m /P glyphshow
27.136230 0.000000 m /space glyphshow
31.904297 0.000000 m /zero glyphshow
41.447754 0.000000 m /period glyphshow
46.215820 0.000000 m /zero glyphshow
55.759277 0.000000 m /five glyphshow
65.302734 0.000000 m /comma glyphshow
70.070801 0.000000 m /space glyphshow
74.838867 0.000000 m /S glyphshow
84.360352 0.000000 m /T glyphshow
93.522949 0.000000 m /B glyphshow
103.813477 0.000000 m /space glyphshow
108.581543 0.000000 m /D glyphshow
120.131836 0.000000 m /a glyphshow
129.323730 0.000000 m /v glyphshow
138.200684 0.000000 m /i glyphshow
142.368164 0.000000 m /s glyphshow
grestore
0.000 0.000 1.000 setrgbcolor
gsave
526.4875 521.9725 m
556.4875 521.9725 l
stroke
grestore
0.000 setgray
gsave
568.487500 516.722500 translate
0.000000 rotate
0.000000 0.000000 m /P glyphshow
9.045410 0.000000 m /P glyphshow
18.090820 0.000000 m /P glyphshow
27.136230 0.000000 m /space glyphshow
31.904297 0.000000 m /zero glyphshow
41.447754 0.000000 m /period glyphshow
46.215820 0.000000 m /zero glyphshow
55.759277 0.000000 m /five glyphshow
65.302734 0.000000 m /comma glyphshow
70.070801 0.000000 m /space glyphshow
74.838867 0.000000 m /S glyphshow
84.360352 0.000000 m /T glyphshow
93.522949 0.000000 m /B glyphshow
103.813477 0.000000 m /space glyphshow
108.581543 0.000000 m /i glyphshow
112.749023 0.000000 m /n glyphshow
122.255859 0.000000 m /hyphen glyphshow
127.668457 0.000000 m /h glyphshow
137.175293 0.000000 m /o glyphshow
146.352539 0.000000 m /u glyphshow
155.859375 0.000000 m /s glyphshow
163.674316 0.000000 m /e glyphshow
grestore
1.000 0.000 0.000 setrgbcolor
gsave
526.4875 499.956875 m
556.4875 499.956875 l
stroke
grestore
0.000 setgray
gsave
568.487500 494.706875 translate
0.000000 rotate
0.000000 0.000000 m /P glyphshow
9.045410 0.000000 m /P glyphshow
18.090820 0.000000 m /P glyphshow
27.136230 0.000000 m /space glyphshow
31.904297 0.000000 m /zero glyphshow
41.447754 0.000000 m /period glyphshow
46.215820 0.000000 m /zero glyphshow
55.759277 0.000000 m /five glyphshow
65.302734 0.000000 m /comma glyphshow
70.070801 0.000000 m /space glyphshow
74.838867 0.000000 m /K glyphshow
84.675293 0.000000 m /L glyphshow
93.032227 0.000000 m /P glyphshow
102.077637 0.000000 m /T glyphshow
grestore
0 setlinecap
[11.1 4.8] 0 setdash
gsave
526.4875 477.94125 m
556.4875 477.94125 l
stroke
grestore
gsave
568.487500 472.691250 translate
0.000000 rotate
0.000000 0.000000 m /P glyphshow
9.045410 0.000000 m /P glyphshow
18.090820 0.000000 m /P glyphshow
27.136230 0.000000 m /space glyphshow
31.904297 0.000000 m /zero glyphshow
41.447754 0.000000 m /period glyphshow
46.215820 0.000000 m /zero glyphshow
55.759277 0.000000 m /seven glyphshow
65.302734 0.000000 m /five glyphshow
74.846191 0.000000 m /comma glyphshow
79.614258 0.000000 m /space glyphshow
84.382324 0.000000 m /S glyphshow
93.903809 0.000000 m /T glyphshow
103.066406 0.000000 m /B glyphshow
113.356934 0.000000 m /space glyphshow
118.125000 0.000000 m /D glyphshow
129.675293 0.000000 m /a glyphshow
138.867188 0.000000 m /v glyphshow
147.744141 0.000000 m /i glyphshow
151.911621 0.000000 m /s glyphshow
grestore
0.000 0.000 1.000 setrgbcolor
gsave
526.4875 455.925625 m
556.4875 455.925625 l
stroke
grestore
0.000 setgray
gsave
568.487500 450.675625 translate
0.000000 rotate
0.000000 0.000000 m /P glyphshow
9.045410 0.000000 m /P glyphshow
18.090820 0.000000 m /P glyphshow
27.136230 0.000000 m /space glyphshow
31.904297 0.000000 m /zero glyphshow
41.447754 0.000000 m /period glyphshow
46.215820 0.000000 m /zero glyphshow
55.759277 0.000000 m /seven glyphshow
65.302734 0.000000 m /five glyphshow
74.846191 0.000000 m /comma glyphshow
79.614258 0.000000 m /space glyphshow
84.382324 0.000000 m /S glyphshow
93.903809 0.000000 m /T glyphshow
103.066406 0.000000 m /B glyphshow
113.356934 0.000000 m /space glyphshow
118.125000 0.000000 m /i glyphshow
122.292480 0.000000 m /n glyphshow
131.799316 0.000000 m /hyphen glyphshow
137.211914 0.000000 m /h glyphshow
146.718750 0.000000 m /o glyphshow
155.895996 0.000000 m /u glyphshow
165.402832 0.000000 m /s glyphshow
173.217773 0.000000 m /e glyphshow
grestore
1.000 0.000 0.000 setrgbcolor
gsave
526.4875 433.91 m
556.4875 433.91 l
stroke
grestore
0.000 setgray
gsave
568.487500 428.660000 translate
0.000000 rotate
0.000000 0.000000 m /P glyphshow
9.045410 0.000000 m /P glyphshow
18.090820 0.000000 m /P glyphshow
27.136230 0.000000 m /space glyphshow
31.904297 0.000000 m /zero glyphshow
41.447754 0.000000 m /period glyphshow
46.215820 0.000000 m /zero glyphshow
55.759277 0.000000 m /seven glyphshow
65.302734 0.000000 m /five glyphshow
74.846191 0.000000 m /comma glyphshow
79.614258 0.000000 m /space glyphshow
84.382324 0.000000 m /K glyphshow
94.218750 0.000000 m /L glyphshow
102.575684 0.000000 m /P glyphshow
111.621094 0.000000 m /T glyphshow
grestore
[3 4.95] 0 setdash
gsave
526.4875 411.894375 m
556.4875 411.894375 l
stroke
grestore
gsave
568.487500 406.644375 translate
0.000000 rotate
0.000000 0.000000 m /P glyphshow
9.045410 0.000000 m /P glyphshow
18.090820 0.000000 m /P glyphshow
27.136230 0.000000 m /space glyphshow
31.904297 0.000000 m /zero glyphshow
41.447754 0.000000 m /period glyphshow
46.215820 0.000000 m /one glyphshow
55.759277 0.000000 m /comma glyphshow
60.527344 0.000000 m /space glyphshow
65.295410 0.000000 m /S glyphshow
74.816895 0.000000 m /T glyphshow
83.979492 0.000000 m /B glyphshow
94.270020 0.000000 m /space glyphshow
99.038086 0.000000 m /D glyphshow
110.588379 0.000000 m /a glyphshow
119.780273 0.000000 m /v glyphshow
128.657227 0.000000 m /i glyphshow
132.824707 0.000000 m /s glyphshow
grestore
0.000 0.000 1.000 setrgbcolor
gsave
526.4875 389.87875 m
556.4875 389.87875 l
stroke
grestore
0.000 setgray
gsave
568.487500 384.628750 translate
0.000000 rotate
0.000000 0.000000 m /P glyphshow
9.045410 0.000000 m /P glyphshow
18.090820 0.000000 m /P glyphshow
27.136230 0.000000 m /space glyphshow
31.904297 0.000000 m /zero glyphshow
41.447754 0.000000 m /period glyphshow
46.215820 0.000000 m /one glyphshow
55.759277 0.000000 m /comma glyphshow
60.527344 0.000000 m /space glyphshow
65.295410 0.000000 m /S glyphshow
74.816895 0.000000 m /T glyphshow
83.979492 0.000000 m /B glyphshow
94.270020 0.000000 m /space glyphshow
99.038086 0.000000 m /i glyphshow
103.205566 0.000000 m /n glyphshow
112.712402 0.000000 m /hyphen glyphshow
118.125000 0.000000 m /h glyphshow
127.631836 0.000000 m /o glyphshow
136.809082 0.000000 m /u glyphshow
146.315918 0.000000 m /s glyphshow
154.130859 0.000000 m /e glyphshow
grestore
1.000 0.000 0.000 setrgbcolor
gsave
526.4875 367.863125 m
556.4875 367.863125 l
stroke
grestore
0.000 setgray
gsave
568.487500 362.613125 translate
0.000000 rotate
0.000000 0.000000 m /P glyphshow
9.045410 0.000000 m /P glyphshow
18.090820 0.000000 m /P glyphshow
27.136230 0.000000 m /space glyphshow
31.904297 0.000000 m /zero glyphshow
41.447754 0.000000 m /period glyphshow
46.215820 0.000000 m /one glyphshow
55.759277 0.000000 m /comma glyphshow
60.527344 0.000000 m /space glyphshow
65.295410 0.000000 m /K glyphshow
75.131836 0.000000 m /L glyphshow
83.488770 0.000000 m /P glyphshow
92.534180 0.000000 m /T glyphshow
grestore

end
showpage
