%!PS-Adobe-3.0 EPSF-3.0
%%Title: /home/yin/0.50_undetected_thin_3methods.eps
%%Creator: matplotlib version 3.1.1, http://matplotlib.org/
%%CreationDate: Sat May  9 17:10:16 2020
%%Orientation: portrait
%%BoundingBox: -79.82812499999997 98.46843750000004 691.828125 693.5315625
%%EndComments
%%BeginProlog
/mpldict 9 dict def
mpldict begin
/m { moveto } bind def
/l { lineto } bind def
/r { rlineto } bind def
/c { curveto } bind def
/cl { closepath } bind def
/box {
m
1 index 0 r
0 exch r
neg 0 r
cl
} bind def
/clipbox {
box
clip
newpath
} bind def
%!PS-Adobe-3.0 Resource-Font
%%Title: DejaVu Sans
%%Copyright: Copyright (c) 2003 by Bitstream, Inc. All Rights Reserved. Copyright (c) 2006 by Tavmjong Bah. All Rights Reserved. DejaVu changes are in public domain 
%%Creator: Converted from TrueType to type 3 by PPR
25 dict begin
/_d{bind def}bind def
/_m{moveto}_d
/_l{lineto}_d
/_cl{closepath eofill}_d
/_c{curveto}_d
/_sc{7 -1 roll{setcachedevice}{pop pop pop pop pop pop}ifelse}_d
/_e{exec}_d
/FontName /DejaVuSans def
/PaintType 0 def
/FontMatrix[.001 0 0 .001 0 0]def
/FontBBox[-1021 -463 1793 1232]def
/FontType 3 def
/Encoding [ /space /comma /hyphen /period /zero /one /two /three /four /five /six /seven /eight /B /D /F /K /L /P /S /T /U /a /c /d /e /f /h /i /l /n /o /p /r /s /t /u /v ] def
/FontInfo 10 dict dup begin
/FamilyName (DejaVu Sans) def
/FullName (DejaVu Sans) def
/Notice (Copyright (c) 2003 by Bitstream, Inc. All Rights Reserved. Copyright (c) 2006 by Tavmjong Bah. All Rights Reserved. DejaVu changes are in public domain ) def
/Weight (Book) def
/Version (Version 2.35) def
/ItalicAngle 0.0 def
/isFixedPitch false def
/UnderlinePosition -130 def
/UnderlineThickness 90 def
end readonly def
/CharStrings 39 dict dup begin
/.notdef 0 def
/space{318 0 0 0 0 0 _sc
}_d
/comma{318 0 77 -115 220 124 _sc
117 124 _m
220 124 _l
220 40 _l
140 -115 _l
77 -115 _l
117 40 _l
117 124 _l
_cl}_d
/hyphen{361 0 49 234 312 314 _sc
49 314 _m
312 314 _l
312 234 _l
49 234 _l
49 314 _l
_cl}_d
/period{318 0 107 0 210 124 _sc
107 124 _m
210 124 _l
210 0 _l
107 0 _l
107 124 _l
_cl}_d
/zero{636 0 66 -13 570 742 _sc
318 664 _m
267 664 229 639 203 589 _c
177 539 165 464 165 364 _c
165 264 177 189 203 139 _c
229 89 267 64 318 64 _c
369 64 407 89 433 139 _c
458 189 471 264 471 364 _c
471 464 458 539 433 589 _c
407 639 369 664 318 664 _c
318 742 _m
399 742 461 709 505 645 _c
548 580 570 486 570 364 _c
570 241 548 147 505 83 _c
461 19 399 -13 318 -13 _c
236 -13 173 19 130 83 _c
87 147 66 241 66 364 _c
66 486 87 580 130 645 _c
173 709 236 742 318 742 _c
_cl}_d
/one{636 0 110 0 544 729 _sc
124 83 _m
285 83 _l
285 639 _l
110 604 _l
110 694 _l
284 729 _l
383 729 _l
383 83 _l
544 83 _l
544 0 _l
124 0 _l
124 83 _l
_cl}_d
/two{{636 0 73 0 536 742 _sc
192 83 _m
536 83 _l
536 0 _l
73 0 _l
73 83 _l
110 121 161 173 226 239 _c
290 304 331 346 348 365 _c
380 400 402 430 414 455 _c
426 479 433 504 433 528 _c
433 566 419 598 392 622 _c
365 646 330 659 286 659 _c
255 659 222 653 188 643 _c
154 632 117 616 78 594 _c
78 694 _l
118 710 155 722 189 730 _c
223 738 255 742 284 742 _c
}_e{359 742 419 723 464 685 _c
509 647 532 597 532 534 _c
532 504 526 475 515 449 _c
504 422 484 390 454 354 _c
446 344 420 317 376 272 _c
332 227 271 164 192 83 _c
_cl}_e}_d
/three{{636 0 76 -13 556 742 _sc
406 393 _m
453 383 490 362 516 330 _c
542 298 556 258 556 212 _c
556 140 531 84 482 45 _c
432 6 362 -13 271 -13 _c
240 -13 208 -10 176 -4 _c
144 1 110 10 76 22 _c
76 117 _l
103 101 133 89 166 81 _c
198 73 232 69 268 69 _c
330 69 377 81 409 105 _c
441 129 458 165 458 212 _c
458 254 443 288 413 312 _c
383 336 341 349 287 349 _c
}_e{202 349 _l
202 430 _l
291 430 _l
339 430 376 439 402 459 _c
428 478 441 506 441 543 _c
441 580 427 609 401 629 _c
374 649 336 659 287 659 _c
260 659 231 656 200 650 _c
169 644 135 635 98 623 _c
98 711 _l
135 721 170 729 203 734 _c
235 739 266 742 296 742 _c
370 742 429 725 473 691 _c
517 657 539 611 539 553 _c
539 513 527 479 504 451 _c
481 423 448 403 406 393 _c
_cl}_e}_d
/four{636 0 49 0 580 729 _sc
378 643 _m
129 254 _l
378 254 _l
378 643 _l
352 729 _m
476 729 _l
476 254 _l
580 254 _l
580 172 _l
476 172 _l
476 0 _l
378 0 _l
378 172 _l
49 172 _l
49 267 _l
352 729 _l
_cl}_d
/five{{636 0 77 -13 549 729 _sc
108 729 _m
495 729 _l
495 646 _l
198 646 _l
198 467 _l
212 472 227 476 241 478 _c
255 480 270 482 284 482 _c
365 482 429 459 477 415 _c
525 370 549 310 549 234 _c
549 155 524 94 475 51 _c
426 8 357 -13 269 -13 _c
238 -13 207 -10 175 -6 _c
143 -1 111 6 77 17 _c
77 116 _l
106 100 136 88 168 80 _c
199 72 232 69 267 69 _c
}_e{323 69 368 83 401 113 _c
433 143 450 183 450 234 _c
450 284 433 324 401 354 _c
368 384 323 399 267 399 _c
241 399 214 396 188 390 _c
162 384 135 375 108 363 _c
108 729 _l
_cl}_e}_d
/six{{636 0 70 -13 573 742 _sc
330 404 _m
286 404 251 388 225 358 _c
199 328 186 286 186 234 _c
186 181 199 139 225 109 _c
251 79 286 64 330 64 _c
374 64 409 79 435 109 _c
461 139 474 181 474 234 _c
474 286 461 328 435 358 _c
409 388 374 404 330 404 _c
526 713 _m
526 623 _l
501 635 476 644 451 650 _c
425 656 400 659 376 659 _c
310 659 260 637 226 593 _c
}_e{192 549 172 482 168 394 _c
187 422 211 444 240 459 _c
269 474 301 482 336 482 _c
409 482 467 459 509 415 _c
551 371 573 310 573 234 _c
573 159 550 99 506 54 _c
462 9 403 -13 330 -13 _c
246 -13 181 19 137 83 _c
92 147 70 241 70 364 _c
70 479 97 571 152 639 _c
206 707 280 742 372 742 _c
396 742 421 739 447 735 _c
472 730 498 723 526 713 _c
_cl}_e}_d
/seven{636 0 82 0 551 729 _sc
82 729 _m
551 729 _l
551 687 _l
286 0 _l
183 0 _l
432 646 _l
82 646 _l
82 729 _l
_cl}_d
/eight{{636 0 68 -13 568 742 _sc
318 346 _m
271 346 234 333 207 308 _c
180 283 167 249 167 205 _c
167 161 180 126 207 101 _c
234 76 271 64 318 64 _c
364 64 401 76 428 102 _c
455 127 469 161 469 205 _c
469 249 455 283 429 308 _c
402 333 365 346 318 346 _c
219 388 _m
177 398 144 418 120 447 _c
96 476 85 511 85 553 _c
85 611 105 657 147 691 _c
188 725 245 742 318 742 _c
}_e{390 742 447 725 489 691 _c
530 657 551 611 551 553 _c
551 511 539 476 515 447 _c
491 418 459 398 417 388 _c
464 377 501 355 528 323 _c
554 291 568 251 568 205 _c
568 134 546 80 503 43 _c
459 5 398 -13 318 -13 _c
237 -13 175 5 132 43 _c
89 80 68 134 68 205 _c
68 251 81 291 108 323 _c
134 355 171 377 219 388 _c
183 544 _m
183 506 194 476 218 455 _c
}_e{242 434 275 424 318 424 _c
360 424 393 434 417 455 _c
441 476 453 506 453 544 _c
453 582 441 611 417 632 _c
393 653 360 664 318 664 _c
275 664 242 653 218 632 _c
194 611 183 582 183 544 _c
_cl}_e}_d
/B{{686 0 98 0 615 729 _sc
197 348 _m
197 81 _l
355 81 _l
408 81 447 92 473 114 _c
498 136 511 169 511 215 _c
511 260 498 293 473 315 _c
447 337 408 348 355 348 _c
197 348 _l
197 648 _m
197 428 _l
343 428 _l
391 428 426 437 450 455 _c
474 473 486 500 486 538 _c
486 574 474 602 450 620 _c
426 638 391 648 343 648 _c
197 648 _l
98 729 _m
350 729 _l
}_e{425 729 483 713 524 682 _c
564 650 585 606 585 549 _c
585 504 574 468 553 442 _c
532 416 502 399 462 393 _c
510 382 548 360 575 327 _c
601 294 615 253 615 204 _c
615 138 592 88 548 53 _c
504 17 441 0 360 0 _c
98 0 _l
98 729 _l
_cl}_e}_d
/D{770 0 98 0 711 729 _sc
197 648 _m
197 81 _l
316 81 _l
416 81 490 103 537 149 _c
583 195 607 267 607 365 _c
607 463 583 534 537 580 _c
490 625 416 648 316 648 _c
197 648 _l
98 729 _m
301 729 _l
442 729 546 699 612 641 _c
678 582 711 490 711 365 _c
711 239 677 147 611 88 _c
545 29 441 0 301 0 _c
98 0 _l
98 729 _l
_cl}_d
/F{575 0 98 0 517 729 _sc
98 729 _m
517 729 _l
517 646 _l
197 646 _l
197 431 _l
486 431 _l
486 348 _l
197 348 _l
197 0 _l
98 0 _l
98 729 _l
_cl}_d
/K{656 0 98 0 677 729 _sc
98 729 _m
197 729 _l
197 421 _l
524 729 _l
651 729 _l
289 389 _l
677 0 _l
547 0 _l
197 351 _l
197 0 _l
98 0 _l
98 729 _l
_cl}_d
/L{557 0 98 0 552 729 _sc
98 729 _m
197 729 _l
197 83 _l
552 83 _l
552 0 _l
98 0 _l
98 729 _l
_cl}_d
/P{603 0 98 0 569 729 _sc
197 648 _m
197 374 _l
321 374 _l
367 374 402 385 427 409 _c
452 433 465 467 465 511 _c
465 555 452 588 427 612 _c
402 636 367 648 321 648 _c
197 648 _l
98 729 _m
321 729 _l
402 729 464 710 506 673 _c
548 636 569 582 569 511 _c
569 439 548 384 506 348 _c
464 311 402 293 321 293 _c
197 293 _l
197 0 _l
98 0 _l
98 729 _l
_cl}_d
/S{{635 0 66 -13 579 742 _sc
535 705 _m
535 609 _l
497 627 462 640 429 649 _c
395 657 363 662 333 662 _c
279 662 237 651 208 631 _c
179 610 165 580 165 542 _c
165 510 174 485 194 469 _c
213 452 250 439 304 429 _c
364 417 _l
437 403 491 378 526 343 _c
561 307 579 260 579 201 _c
579 130 555 77 508 41 _c
460 5 391 -13 300 -13 _c
265 -13 228 -9 189 -2 _c
}_e{150 5 110 16 69 32 _c
69 134 _l
109 111 148 94 186 83 _c
224 71 262 66 300 66 _c
356 66 399 77 430 99 _c
460 121 476 152 476 194 _c
476 230 465 258 443 278 _c
421 298 385 313 335 323 _c
275 335 _l
201 349 148 372 115 404 _c
82 435 66 478 66 534 _c
66 598 88 649 134 686 _c
179 723 242 742 322 742 _c
356 742 390 739 426 733 _c
461 727 497 717 535 705 _c
}_e{_cl}_e}_d
/T{611 0 -2 0 614 729 _sc
-2 729 _m
614 729 _l
614 646 _l
355 646 _l
355 0 _l
256 0 _l
256 646 _l
-2 646 _l
-2 729 _l
_cl}_d
/U{732 0 87 -13 645 729 _sc
87 729 _m
186 729 _l
186 286 _l
186 208 200 151 228 117 _c
256 83 302 66 366 66 _c
429 66 475 83 503 117 _c
531 151 546 208 546 286 _c
546 729 _l
645 729 _l
645 274 _l
645 178 621 107 574 59 _c
527 11 458 -13 366 -13 _c
274 -13 204 11 157 59 _c
110 107 87 178 87 274 _c
87 729 _l
_cl}_d
/a{{613 0 60 -13 522 560 _sc
343 275 _m
270 275 220 266 192 250 _c
164 233 150 205 150 165 _c
150 133 160 107 181 89 _c
202 70 231 61 267 61 _c
317 61 357 78 387 114 _c
417 149 432 196 432 255 _c
432 275 _l
343 275 _l
522 312 _m
522 0 _l
432 0 _l
432 83 _l
411 49 385 25 355 10 _c
325 -5 287 -13 243 -13 _c
187 -13 142 2 109 33 _c
76 64 60 106 60 159 _c
}_e{60 220 80 266 122 298 _c
163 329 224 345 306 345 _c
432 345 _l
432 354 _l
432 395 418 427 391 450 _c
364 472 326 484 277 484 _c
245 484 215 480 185 472 _c
155 464 127 453 100 439 _c
100 522 _l
132 534 164 544 195 550 _c
226 556 256 560 286 560 _c
365 560 424 539 463 498 _c
502 457 522 395 522 312 _c
_cl}_e}_d
/c{{550 0 55 -13 488 560 _sc
488 526 _m
488 442 _l
462 456 437 466 411 473 _c
385 480 360 484 334 484 _c
276 484 230 465 198 428 _c
166 391 150 339 150 273 _c
150 206 166 154 198 117 _c
230 80 276 62 334 62 _c
360 62 385 65 411 72 _c
437 79 462 90 488 104 _c
488 21 _l
462 9 436 0 410 -5 _c
383 -10 354 -13 324 -13 _c
242 -13 176 12 128 64 _c
}_e{79 115 55 185 55 273 _c
55 362 79 432 128 483 _c
177 534 244 560 330 560 _c
358 560 385 557 411 551 _c
437 545 463 537 488 526 _c
_cl}_e}_d
/d{{635 0 55 -13 544 760 _sc
454 464 _m
454 760 _l
544 760 _l
544 0 _l
454 0 _l
454 82 _l
435 49 411 25 382 10 _c
353 -5 319 -13 279 -13 _c
213 -13 159 13 117 65 _c
75 117 55 187 55 273 _c
55 359 75 428 117 481 _c
159 533 213 560 279 560 _c
319 560 353 552 382 536 _c
411 520 435 496 454 464 _c
148 273 _m
148 207 161 155 188 117 _c
215 79 253 61 301 61 _c
}_e{348 61 385 79 413 117 _c
440 155 454 207 454 273 _c
454 339 440 390 413 428 _c
385 466 348 485 301 485 _c
253 485 215 466 188 428 _c
161 390 148 339 148 273 _c
_cl}_e}_d
/e{{615 0 55 -13 562 560 _sc
562 296 _m
562 252 _l
149 252 _l
153 190 171 142 205 110 _c
238 78 284 62 344 62 _c
378 62 412 66 444 74 _c
476 82 509 95 541 113 _c
541 28 _l
509 14 476 3 442 -3 _c
408 -9 373 -13 339 -13 _c
251 -13 182 12 131 62 _c
80 112 55 181 55 268 _c
55 357 79 428 127 481 _c
175 533 241 560 323 560 _c
397 560 455 536 498 489 _c
}_e{540 441 562 377 562 296 _c
472 322 _m
471 371 457 410 431 440 _c
404 469 368 484 324 484 _c
274 484 234 469 204 441 _c
174 413 156 373 152 322 _c
472 322 _l
_cl}_e}_d
/f{352 0 23 0 371 760 _sc
371 760 _m
371 685 _l
285 685 _l
253 685 230 678 218 665 _c
205 652 199 629 199 595 _c
199 547 _l
347 547 _l
347 477 _l
199 477 _l
199 0 _l
109 0 _l
109 477 _l
23 477 _l
23 547 _l
109 547 _l
109 585 _l
109 645 123 690 151 718 _c
179 746 224 760 286 760 _c
371 760 _l
_cl}_d
/h{634 0 91 0 549 760 _sc
549 330 _m
549 0 _l
459 0 _l
459 327 _l
459 379 448 417 428 443 _c
408 469 378 482 338 482 _c
289 482 251 466 223 435 _c
195 404 181 362 181 309 _c
181 0 _l
91 0 _l
91 760 _l
181 760 _l
181 462 _l
202 494 227 519 257 535 _c
286 551 320 560 358 560 _c
420 560 468 540 500 501 _c
532 462 549 405 549 330 _c
_cl}_d
/i{278 0 94 0 184 760 _sc
94 547 _m
184 547 _l
184 0 _l
94 0 _l
94 547 _l
94 760 _m
184 760 _l
184 646 _l
94 646 _l
94 760 _l
_cl}_d
/l{278 0 94 0 184 760 _sc
94 760 _m
184 760 _l
184 0 _l
94 0 _l
94 760 _l
_cl}_d
/n{634 0 91 0 549 560 _sc
549 330 _m
549 0 _l
459 0 _l
459 327 _l
459 379 448 417 428 443 _c
408 469 378 482 338 482 _c
289 482 251 466 223 435 _c
195 404 181 362 181 309 _c
181 0 _l
91 0 _l
91 547 _l
181 547 _l
181 462 _l
202 494 227 519 257 535 _c
286 551 320 560 358 560 _c
420 560 468 540 500 501 _c
532 462 549 405 549 330 _c
_cl}_d
/o{612 0 55 -13 557 560 _sc
306 484 _m
258 484 220 465 192 427 _c
164 389 150 338 150 273 _c
150 207 163 156 191 118 _c
219 80 257 62 306 62 _c
354 62 392 80 420 118 _c
448 156 462 207 462 273 _c
462 337 448 389 420 427 _c
392 465 354 484 306 484 _c
306 560 _m
384 560 445 534 490 484 _c
534 433 557 363 557 273 _c
557 183 534 113 490 63 _c
445 12 384 -13 306 -13 _c
227 -13 165 12 121 63 _c
77 113 55 183 55 273 _c
55 363 77 433 121 484 _c
165 534 227 560 306 560 _c
_cl}_d
/p{{635 0 91 -207 580 560 _sc
181 82 _m
181 -207 _l
91 -207 _l
91 547 _l
181 547 _l
181 464 _l
199 496 223 520 252 536 _c
281 552 316 560 356 560 _c
422 560 476 533 518 481 _c
559 428 580 359 580 273 _c
580 187 559 117 518 65 _c
476 13 422 -13 356 -13 _c
316 -13 281 -5 252 10 _c
223 25 199 49 181 82 _c
487 273 _m
487 339 473 390 446 428 _c
418 466 381 485 334 485 _c
}_e{286 485 249 466 222 428 _c
194 390 181 339 181 273 _c
181 207 194 155 222 117 _c
249 79 286 61 334 61 _c
381 61 418 79 446 117 _c
473 155 487 207 487 273 _c
_cl}_e}_d
/r{411 0 91 0 411 560 _sc
411 463 _m
401 469 390 473 378 476 _c
366 478 353 480 339 480 _c
288 480 249 463 222 430 _c
194 397 181 350 181 288 _c
181 0 _l
91 0 _l
91 547 _l
181 547 _l
181 462 _l
199 495 224 520 254 536 _c
284 552 321 560 365 560 _c
371 560 378 559 386 559 _c
393 558 401 557 411 555 _c
411 463 _l
_cl}_d
/s{{521 0 54 -13 472 560 _sc
443 531 _m
443 446 _l
417 458 391 468 364 475 _c
336 481 308 485 279 485 _c
234 485 200 478 178 464 _c
156 450 145 430 145 403 _c
145 382 153 366 169 354 _c
185 342 217 330 265 320 _c
296 313 _l
360 299 405 279 432 255 _c
458 230 472 195 472 151 _c
472 100 452 60 412 31 _c
372 1 316 -13 246 -13 _c
216 -13 186 -10 154 -5 _c
}_e{122 0 89 8 54 20 _c
54 113 _l
87 95 120 82 152 74 _c
184 65 216 61 248 61 _c
290 61 323 68 346 82 _c
368 96 380 117 380 144 _c
380 168 371 187 355 200 _c
339 213 303 226 247 238 _c
216 245 _l
160 257 119 275 95 299 _c
70 323 58 356 58 399 _c
58 450 76 490 112 518 _c
148 546 200 560 268 560 _c
301 560 332 557 362 552 _c
391 547 418 540 443 531 _c
}_e{_cl}_e}_d
/t{392 0 27 0 368 702 _sc
183 702 _m
183 547 _l
368 547 _l
368 477 _l
183 477 _l
183 180 _l
183 135 189 106 201 94 _c
213 81 238 75 276 75 _c
368 75 _l
368 0 _l
276 0 _l
206 0 158 13 132 39 _c
106 65 93 112 93 180 _c
93 477 _l
27 477 _l
27 547 _l
93 547 _l
93 702 _l
183 702 _l
_cl}_d
/u{634 0 85 -13 543 560 _sc
85 216 _m
85 547 _l
175 547 _l
175 219 _l
175 167 185 129 205 103 _c
225 77 255 64 296 64 _c
344 64 383 79 411 110 _c
439 141 453 183 453 237 _c
453 547 _l
543 547 _l
543 0 _l
453 0 _l
453 84 _l
431 50 405 26 377 10 _c
348 -5 315 -13 277 -13 _c
214 -13 166 6 134 45 _c
101 83 85 140 85 216 _c
311 560 _m
311 560 _l
_cl}_d
/v{592 0 30 0 562 547 _sc
30 547 _m
125 547 _l
296 88 _l
467 547 _l
562 547 _l
357 0 _l
235 0 _l
30 547 _l
_cl}_d
end readonly def

/BuildGlyph
 {exch begin
 CharStrings exch
 2 copy known not{pop /.notdef}if
 true 3 1 roll get exec
 end}_d

/BuildChar {
 1 index /Encoding get exch get
 1 index /BuildGlyph get exec
}_d

FontName currentdict end definefont pop
%!PS-Adobe-3.0 Resource-Font
%%Title: DejaVu Sans Oblique
%%Copyright: Copyright (c) 2003 by Bitstream, Inc. All Rights Reserved. Copyright (c) 2006 by Tavmjong Bah. All Rights Reserved. DejaVu changes are in public domain 
%%Creator: Converted from TrueType to type 3 by PPR
25 dict begin
/_d{bind def}bind def
/_m{moveto}_d
/_l{lineto}_d
/_cl{closepath eofill}_d
/_c{curveto}_d
/_sc{7 -1 roll{setcachedevice}{pop pop pop pop pop pop}ifelse}_d
/_e{exec}_d
/FontName /DejaVuSans-Oblique def
/PaintType 0 def
/FontMatrix[.001 0 0 .001 0 0]def
/FontBBox[-1016 -350 1659 1068]def
/FontType 3 def
/Encoding [ /t /delta ] def
/FontInfo 10 dict dup begin
/FamilyName (DejaVu Sans) def
/FullName (DejaVu Sans Oblique) def
/Notice (Copyright (c) 2003 by Bitstream, Inc. All Rights Reserved. Copyright (c) 2006 by Tavmjong Bah. All Rights Reserved. DejaVu changes are in public domain ) def
/Weight (Oblique) def
/Version (Version 2.35) def
/ItalicAngle -11.0 def
/isFixedPitch false def
/UnderlinePosition -130 def
/UnderlineThickness 90 def
end readonly def
/CharStrings 3 dict dup begin
/.notdef 0 def
/t{{392 0 64 0 423 702 _sc
423 547 _m
409 477 _l
230 477 _l
172 180 _l
170 169 168 160 167 152 _c
166 144 166 139 166 135 _c
166 114 172 99 185 89 _c
197 79 217 75 245 75 _c
336 75 _l
321 0 _l
235 0 _l
181 0 141 10 115 31 _c
89 52 76 84 76 126 _c
76 133 76 141 77 150 _c
78 159 80 169 82 180 _c
140 477 _l
64 477 _l
78 547 _l
153 547 _l
183 702 _l
}_e{273 702 _l
243 547 _l
423 547 _l
_cl}_e}_d
/delta{{612 0 38 -13 557 742 _sc
542 633 _m
514 655 461 667 383 667 _c
300 667 255 648 248 610 _c
242 580 280 557 364 542 _c
428 530 476 505 508 469 _c
546 425 556 358 539 268 _c
521 182 486 113 432 63 _c
377 12 310 -13 232 -13 _c
154 -13 98 12 63 63 _c
28 113 20 183 38 273 _c
50 339 84 399 139 453 _c
160 473 184 490 211 502 _c
165 528 147 563 156 609 _c
}_e{173 697 253 742 397 742 _c
469 742 522 730 557 708 _c
542 633 _l
274 478 _m
250 468 226 451 204 428 _c
168 391 144 339 132 273 _c
119 207 123 155 144 118 _c
164 80 199 62 248 62 _c
295 62 336 81 372 119 _c
407 156 431 206 443 268 _c
455 332 450 380 427 412 _c
401 445 369 464 329 468 _c
308 470 290 473 274 478 _c
_cl}_e}_d
end readonly def

/BuildGlyph
 {exch begin
 CharStrings exch
 2 copy known not{pop /.notdef}if
 true 3 1 roll get exec
 end}_d

/BuildChar {
 1 index /Encoding get exch get
 1 index /BuildGlyph get exec
}_d

FontName currentdict end definefont pop
end
%%EndProlog
mpldict begin
-79.828 98.468 translate
771.656 595.063 0 0 clipbox
gsave
0 0 m
771.65625 0 l
771.65625 595.063125 l
0 595.063125 l
cl
1.000 setgray
fill
grestore
gsave
79.590625 64.66875 m
749.190625 64.66875 l
749.190625 563.62875 l
79.590625 563.62875 l
cl
1.000 setgray
fill
grestore
0.800 setlinewidth
1 setlinejoin
0 setlinecap
[] 0 setdash
0.000 setgray
gsave
/o {
gsave
newpath
translate
0.8 setlinewidth
1 setlinejoin
0 setlinecap
0 0 m
0 -3.5 l

gsave
0.000 setgray
fill
grestore
stroke
grestore
} bind def
79.5906 64.6688 o
grestore
/DejaVuSans findfont
24.000 scalefont
setfont
gsave
71.957813 39.434375 translate
0.000000 rotate
0.000000 0.000000 m /five glyphshow
grestore
gsave
/o {
gsave
newpath
translate
0.8 setlinewidth
1 setlinejoin
0 setlinecap
0 0 m
0 -3.5 l

gsave
0.000 setgray
fill
grestore
stroke
grestore
} bind def
153.991 64.6688 o
grestore
gsave
138.725000 39.434375 translate
0.000000 rotate
0.000000 0.000000 m /one glyphshow
15.269531 0.000000 m /zero glyphshow
grestore
gsave
/o {
gsave
newpath
translate
0.8 setlinewidth
1 setlinejoin
0 setlinecap
0 0 m
0 -3.5 l

gsave
0.000 setgray
fill
grestore
stroke
grestore
} bind def
228.391 64.6688 o
grestore
gsave
213.125000 39.434375 translate
0.000000 rotate
0.000000 0.000000 m /one glyphshow
15.269531 0.000000 m /five glyphshow
grestore
gsave
/o {
gsave
newpath
translate
0.8 setlinewidth
1 setlinejoin
0 setlinecap
0 0 m
0 -3.5 l

gsave
0.000 setgray
fill
grestore
stroke
grestore
} bind def
302.791 64.6688 o
grestore
gsave
287.525000 39.434375 translate
0.000000 rotate
0.000000 0.000000 m /two glyphshow
15.269531 0.000000 m /zero glyphshow
grestore
gsave
/o {
gsave
newpath
translate
0.8 setlinewidth
1 setlinejoin
0 setlinecap
0 0 m
0 -3.5 l

gsave
0.000 setgray
fill
grestore
stroke
grestore
} bind def
377.191 64.6688 o
grestore
gsave
361.925000 39.434375 translate
0.000000 rotate
0.000000 0.000000 m /two glyphshow
15.269531 0.000000 m /five glyphshow
grestore
gsave
/o {
gsave
newpath
translate
0.8 setlinewidth
1 setlinejoin
0 setlinecap
0 0 m
0 -3.5 l

gsave
0.000 setgray
fill
grestore
stroke
grestore
} bind def
451.591 64.6688 o
grestore
gsave
436.325000 39.434375 translate
0.000000 rotate
0.000000 0.000000 m /three glyphshow
15.269531 0.000000 m /zero glyphshow
grestore
gsave
/o {
gsave
newpath
translate
0.8 setlinewidth
1 setlinejoin
0 setlinecap
0 0 m
0 -3.5 l

gsave
0.000 setgray
fill
grestore
stroke
grestore
} bind def
525.991 64.6688 o
grestore
gsave
510.725000 39.434375 translate
0.000000 rotate
0.000000 0.000000 m /three glyphshow
15.269531 0.000000 m /five glyphshow
grestore
gsave
/o {
gsave
newpath
translate
0.8 setlinewidth
1 setlinejoin
0 setlinecap
0 0 m
0 -3.5 l

gsave
0.000 setgray
fill
grestore
stroke
grestore
} bind def
600.391 64.6688 o
grestore
gsave
585.125000 39.434375 translate
0.000000 rotate
0.000000 0.000000 m /four glyphshow
15.269531 0.000000 m /zero glyphshow
grestore
gsave
/o {
gsave
newpath
translate
0.8 setlinewidth
1 setlinejoin
0 setlinecap
0 0 m
0 -3.5 l

gsave
0.000 setgray
fill
grestore
stroke
grestore
} bind def
674.791 64.6688 o
grestore
gsave
659.525000 39.434375 translate
0.000000 rotate
0.000000 0.000000 m /four glyphshow
15.269531 0.000000 m /five glyphshow
grestore
gsave
/o {
gsave
newpath
translate
0.8 setlinewidth
1 setlinejoin
0 setlinecap
0 0 m
0 -3.5 l

gsave
0.000 setgray
fill
grestore
stroke
grestore
} bind def
749.191 64.6688 o
grestore
gsave
733.925000 39.434375 translate
0.000000 rotate
0.000000 0.000000 m /five glyphshow
15.269531 0.000000 m /zero glyphshow
grestore
gsave
352.039062 12.200000 translate
0.000000 rotate
0.000000 0.000000 m /S glyphshow
15.234375 0.000000 m /n glyphshow
30.445312 0.000000 m /a glyphshow
45.152344 0.000000 m /p glyphshow
60.386719 0.000000 m /s glyphshow
72.890625 0.000000 m /h glyphshow
88.101562 0.000000 m /o glyphshow
102.785156 0.000000 m /t glyphshow
112.195312 0.000000 m /s glyphshow
grestore
gsave
/o {
gsave
newpath
translate
0.8 setlinewidth
1 setlinejoin
0 setlinecap
0 0 m
-3.5 0 l

gsave
0.000 setgray
fill
grestore
stroke
grestore
} bind def
79.5906 81.9466 o
grestore
gsave
34.434375 72.829409 translate
0.000000 rotate
0.000000 0.000000 m /zero glyphshow
15.269531 0.000000 m /period glyphshow
22.898438 0.000000 m /zero glyphshow
grestore
gsave
/o {
gsave
newpath
translate
0.8 setlinewidth
1 setlinejoin
0 setlinecap
0 0 m
-3.5 0 l

gsave
0.000 setgray
fill
grestore
stroke
grestore
} bind def
79.5906 185.337 o
grestore
gsave
34.434375 176.219915 translate
0.000000 rotate
0.000000 0.000000 m /zero glyphshow
15.269531 0.000000 m /period glyphshow
22.898438 0.000000 m /two glyphshow
grestore
gsave
/o {
gsave
newpath
translate
0.8 setlinewidth
1 setlinejoin
0 setlinecap
0 0 m
-3.5 0 l

gsave
0.000 setgray
fill
grestore
stroke
grestore
} bind def
79.5906 288.728 o
grestore
gsave
34.434375 279.610422 translate
0.000000 rotate
0.000000 0.000000 m /zero glyphshow
15.269531 0.000000 m /period glyphshow
22.898438 0.000000 m /four glyphshow
grestore
gsave
/o {
gsave
newpath
translate
0.8 setlinewidth
1 setlinejoin
0 setlinecap
0 0 m
-3.5 0 l

gsave
0.000 setgray
fill
grestore
stroke
grestore
} bind def
79.5906 392.118 o
grestore
gsave
34.434375 383.000928 translate
0.000000 rotate
0.000000 0.000000 m /zero glyphshow
15.269531 0.000000 m /period glyphshow
22.898438 0.000000 m /six glyphshow
grestore
gsave
/o {
gsave
newpath
translate
0.8 setlinewidth
1 setlinejoin
0 setlinecap
0 0 m
-3.5 0 l

gsave
0.000 setgray
fill
grestore
stroke
grestore
} bind def
79.5906 495.509 o
grestore
gsave
34.434375 486.391435 translate
0.000000 rotate
0.000000 0.000000 m /zero glyphshow
15.269531 0.000000 m /period glyphshow
22.898438 0.000000 m /eight glyphshow
grestore
gsave
25.434375 265.367500 translate
90.000000 rotate
0.000000 0.000000 m /F glyphshow
13.789062 0.000000 m /r glyphshow
23.656250 0.000000 m /a glyphshow
38.363281 0.000000 m /c glyphshow
51.558594 0.000000 m /t glyphshow
60.968750 0.000000 m /i glyphshow
67.636719 0.000000 m /o glyphshow
82.320312 0.000000 m /n glyphshow
grestore
3.000 setlinewidth
2 setlinecap
gsave
669.6 499 79.59 64.67 clipbox
79.590625 113.635786 m
94.470625 112.679424 l
109.350625 112.653576 l
124.230625 111.619671 l
139.110625 110.663309 l
153.990625 109.991271 l
168.870625 110.353138 l
183.750625 110.198052 l
198.630625 110.404833 l
213.510625 109.732795 l
228.390625 110.947633 l
243.270625 111.516281 l
258.150625 111.361195 l
273.030625 110.895938 l
287.910625 111.74891 l
302.790625 111.361195 l
317.670625 111.74891 l
332.550625 111.723062 l
347.430625 112.886205 l
362.310625 113.713329 l
377.190625 114.204434 l
392.070625 113.144681 l
406.950625 112.188319 l
421.830625 112.679424 l
436.710625 112.084929 l
451.590625 112.653576 l
466.470625 112.576034 l
481.350625 112.886205 l
496.230625 112.343405 l
511.110625 113.351462 l
525.990625 112.808662 l
540.870625 113.196377 l
555.750625 113.842567 l
570.630625 114.256129 l
585.510625 114.540453 l
600.390625 114.307825 l
615.270625 115.057406 l
630.150625 114.669691 l
645.030625 114.617996 l
659.910625 115.470968 l
674.790625 115.238339 l
689.670625 116.143006 l
704.550625 115.083253 l
719.430625 130.876153 l
734.310625 147.57372 l
749.190625 164.167896 l
stroke
grestore
0.000 0.000 1.000 setrgbcolor
gsave
669.6 499 79.59 64.67 clipbox
79.590625 94.870409 m
94.470625 90.605551 l
109.350625 89.95936 l
124.230625 88.87376 l
139.110625 88.33096 l
153.990625 87.814007 l
168.870625 88.124179 l
183.750625 88.666979 l
198.630625 89.080541 l
213.510625 88.666979 l
228.390625 89.390713 l
243.270625 89.85597 l
258.150625 89.675036 l
273.030625 90.011056 l
287.910625 90.993265 l
302.790625 91.510218 l
317.670625 92.001323 l
332.550625 91.872085 l
347.430625 92.750904 l
362.310625 93.474638 l
377.190625 93.99159 l
392.070625 94.405152 l
406.950625 94.870409 l
421.830625 94.689476 l
436.710625 94.844562 l
451.590625 95.568295 l
466.470625 96.550505 l
481.350625 97.506867 l
496.230625 97.067458 l
511.110625 97.817039 l
525.990625 98.695858 l
540.870625 98.644163 l
555.750625 99.290354 l
570.630625 100.453497 l
585.510625 101.07384 l
600.390625 101.461554 l
615.270625 101.409859 l
630.150625 101.306468 l
645.030625 101.849269 l
659.910625 102.469612 l
674.790625 102.70224 l
689.670625 102.624697 l
704.550625 102.15944 l
719.430625 110.275595 l
734.310625 118.779464 l
749.190625 127.1024 l
stroke
grestore
1.000 0.000 0.000 setrgbcolor
gsave
669.6 499 79.59 64.67 clipbox
79.590625 95.5166 m
94.470625 90.993265 l
109.350625 90.321227 l
124.230625 88.279265 l
139.110625 87.736464 l
153.990625 87.633074 l
168.870625 87.400445 l
183.750625 87.452141 l
198.630625 87.684769 l
213.510625 87.34875 l
228.390625 87.710617 l
243.270625 87.917398 l
258.150625 87.34875 l
273.030625 87.969093 l
287.910625 87.969093 l
302.790625 88.175874 l
317.670625 88.666979 l
332.550625 87.917398 l
347.430625 87.762312 l
362.310625 88.098331 l
377.190625 88.486046 l
392.070625 87.89155 l
406.950625 88.486046 l
421.830625 88.175874 l
436.710625 88.408503 l
451.590625 88.227569 l
466.470625 89.31317 l
481.350625 89.158084 l
496.230625 88.460198 l
511.110625 88.718674 l
525.990625 89.132236 l
540.870625 88.43435 l
555.750625 89.132236 l
570.630625 89.519951 l
585.510625 90.011056 l
600.390625 89.41656 l
615.270625 89.364865 l
630.150625 89.132236 l
645.030625 90.062751 l
659.910625 89.881817 l
674.790625 90.39877 l
689.670625 89.881817 l
704.550625 89.545798 l
719.430625 99.936544 l
734.310625 111.438738 l
749.190625 122.217198 l
stroke
grestore
0 setlinecap
[11.1 4.8] 0 setdash
0.000 setgray
gsave
669.6 499 79.59 64.67 clipbox
79.590625 116.806429 m
94.470625 115.290034 l
109.350625 115.083253 l
124.230625 115.600206 l
139.110625 114.06658 l
153.990625 114.152739 l
168.870625 113.980421 l
183.750625 114.049348 l
198.630625 114.290593 l
213.510625 113.515164 l
228.390625 114.135507 l
243.270625 115.462352 l
258.150625 116.065463 l
273.030625 116.444562 l
287.910625 117.736943 l
302.790625 118.081578 l
317.670625 119.408423 l
332.550625 119.58074 l
347.430625 119.046556 l
362.310625 120.063229 l
377.190625 120.56295 l
392.070625 120.56295 l
406.950625 120.959281 l
421.830625 120.924817 l
436.710625 121.683014 l
451.590625 121.614087 l
466.470625 121.14883 l
481.350625 121.665782 l
496.230625 121.683014 l
511.110625 122.096576 l
525.990625 122.906468 l
540.870625 122.579065 l
555.750625 124.112691 l
570.630625 124.129923 l
585.510625 124.388399 l
600.390625 124.233313 l
615.270625 123.90591 l
630.150625 124.457326 l
645.030625 124.560716 l
659.910625 124.664107 l
674.790625 124.905352 l
689.670625 125.370609 l
704.550625 125.801403 l
719.430625 144.635707 l
734.310625 163.625096 l
749.190625 183.889636 l
stroke
grestore
0.000 0.000 1.000 setrgbcolor
gsave
669.6 499 79.59 64.67 clipbox
79.590625 112.550186 m
94.470625 106.570768 l
109.350625 104.020469 l
124.230625 103.313967 l
139.110625 103.486285 l
153.990625 103.796456 l
168.870625 104.761434 l
183.750625 105.60579 l
198.630625 107.070489 l
213.510625 108.55242 l
228.390625 109.879265 l
243.270625 112.274478 l
258.150625 114.35952 l
273.030625 116.685806 l
287.910625 118.408981 l
302.790625 120.235547 l
317.670625 122.682456 l
332.550625 124.922583 l
347.430625 127.403955 l
362.310625 129.454534 l
377.190625 131.625734 l
392.070625 133.728008 l
406.950625 135.41672 l
421.830625 137.329444 l
436.710625 138.828606 l
451.590625 139.741889 l
466.470625 142.188798 l
481.350625 144.928646 l
496.230625 146.651821 l
511.110625 148.478387 l
525.990625 150.942527 l
540.870625 152.682934 l
555.750625 154.337182 l
570.630625 157.025336 l
585.510625 158.93806 l
600.390625 160.695699 l
615.270625 162.642886 l
630.150625 163.814645 l
645.030625 165.692906 l
659.910625 166.864665 l
674.790625 168.346596 l
689.670625 169.552819 l
704.550625 170.052539 l
719.430625 178.823501 l
734.310625 186.853497 l
749.190625 196.193106 l
stroke
grestore
1.000 0.000 0.000 setrgbcolor
gsave
669.6 499 79.59 64.67 clipbox
79.590625 100.005471 m
94.470625 94.38792 l
109.350625 92.578586 l
124.230625 91.441291 l
139.110625 91.837621 l
153.990625 91.785926 l
168.870625 92.009939 l
183.750625 92.681977 l
198.630625 93.491869 l
213.510625 93.664187 l
228.390625 94.491311 l
243.270625 94.870409 l
258.150625 95.559679 l
273.030625 96.886524 l
287.910625 96.817597 l
302.790625 98.02382 l
317.670625 98.919871 l
332.550625 100.212252 l
347.430625 101.07384 l
362.310625 102.228367 l
377.190625 103.469053 l
392.070625 103.796456 l
406.950625 105.261155 l
421.830625 106.48461 l
436.710625 107.466819 l
451.590625 108.328407 l
466.470625 109.069372 l
481.350625 110.275595 l
496.230625 110.551303 l
511.110625 112.550186 l
525.990625 114.393983 l
540.870625 114.979863 l
555.750625 116.082695 l
570.630625 116.565184 l
585.510625 117.754175 l
600.390625 119.460118 l
615.270625 120.45956 l
630.150625 121.355611 l
645.030625 122.544602 l
659.910625 123.199408 l
674.790625 123.440653 l
689.670625 123.871446 l
704.550625 123.940373 l
719.430625 137.174358 l
734.310625 150.167099 l
749.190625 163.814645 l
stroke
grestore
[3 4.95] 0 setdash
0.000 setgray
gsave
669.6 499 79.59 64.67 clipbox
79.590625 161.285886 m
94.470625 150.132635 l
109.350625 141.20228 l
124.230625 135.864745 l
139.110625 130.940772 l
153.990625 128.808343 l
168.870625 128.058762 l
183.750625 127.864905 l
198.630625 127.968295 l
213.510625 128.562791 l
228.390625 129.157286 l
243.270625 131.186325 l
258.150625 132.543325 l
273.030625 133.977868 l
287.910625 135.851821 l
302.790625 136.62725 l
317.670625 138.643365 l
332.550625 140.129604 l
347.430625 142.106947 l
362.310625 144.226452 l
377.190625 145.984091 l
392.070625 147.263549 l
406.950625 148.491311 l
421.830625 150.132635 l
436.710625 151.683493 l
451.590625 152.135826 l
466.470625 153.686684 l
481.350625 155.340932 l
496.230625 156.323142 l
511.110625 156.956409 l
525.990625 156.361913 l
540.870625 157.576752 l
555.750625 158.765742 l
570.630625 159.231 l
585.510625 159.308543 l
600.390625 159.890114 l
615.270625 160.394143 l
630.150625 160.639695 l
645.030625 161.363429 l
659.910625 161.996696 l
674.790625 162.772125 l
689.670625 163.53463 l
704.550625 163.19861 l
719.430625 181.123939 l
734.310625 200.845679 l
749.190625 220.399408 l
stroke
grestore
0.000 0.000 1.000 setrgbcolor
gsave
669.6 499 79.59 64.67 clipbox
79.590625 236.231079 m
94.470625 237.562232 l
109.350625 240.857805 l
124.230625 246.712292 l
139.110625 254.828447 l
153.990625 262.027011 l
168.870625 270.492109 l
183.750625 278.750425 l
198.630625 286.814885 l
213.510625 294.375316 l
228.390625 304.042328 l
243.270625 313.799807 l
258.150625 322.549229 l
273.030625 331.815603 l
287.910625 339.388957 l
302.790625 347.143245 l
317.670625 355.504953 l
332.550625 361.52745 l
347.430625 370.987681 l
362.310625 379.38816 l
377.190625 386.186085 l
392.070625 392.647992 l
406.950625 400.544442 l
421.830625 408.350425 l
436.710625 413.972284 l
451.590625 420.395419 l
466.470625 426.081897 l
481.350625 432.724737 l
496.230625 438.760158 l
511.110625 445.028208 l
525.990625 451.024857 l
540.870625 456.181458 l
555.750625 460.872803 l
570.630625 464.76287 l
585.510625 470.371805 l
600.390625 475.269931 l
615.270625 480.45238 l
630.150625 483.760876 l
645.030625 488.814087 l
659.910625 493.505431 l
674.790625 498.636185 l
689.670625 503.482615 l
704.550625 508.264426 l
719.430625 519.004115 l
734.310625 529.89889 l
749.190625 540.94875 l
stroke
grestore
1.000 0.000 0.000 setrgbcolor
gsave
669.6 499 79.59 64.67 clipbox
79.590625 177.582815 m
94.470625 158.08078 l
109.350625 143.308862 l
124.230625 132.750106 l
139.110625 124.504713 l
153.990625 118.831159 l
168.870625 115.380501 l
183.750625 113.92011 l
198.630625 112.899129 l
213.510625 112.899129 l
228.390625 114.010577 l
243.270625 115.264187 l
258.150625 117.202759 l
273.030625 118.327131 l
287.910625 121.015284 l
302.790625 122.850465 l
317.670625 124.517637 l
332.550625 126.818076 l
347.430625 128.704953 l
362.310625 130.940772 l
377.190625 132.827649 l
392.070625 135.153935 l
406.950625 137.027888 l
421.830625 138.69506 l
436.710625 140.917956 l
451.590625 142.985766 l
466.470625 145.144043 l
481.350625 146.824139 l
496.230625 147.961434 l
511.110625 149.693225 l
525.990625 150.778826 l
540.870625 151.799807 l
555.750625 153.118036 l
570.630625 154.811056 l
585.510625 156.878866 l
600.390625 157.912771 l
615.270625 160.0452 l
630.150625 161.699448 l
645.030625 163.172763 l
659.910625 165.098411 l
674.790625 165.964306 l
689.670625 167.23084 l
704.550625 168.691231 l
719.430625 181.640892 l
734.310625 195.05581 l
749.190625 208.910138 l
stroke
grestore
0.800 setlinewidth
0 setlinejoin
2 setlinecap
[] 0 setdash
0.000 setgray
gsave
79.590625 64.66875 m
79.590625 563.62875 l
stroke
grestore
gsave
749.190625 64.66875 m
749.190625 563.62875 l
stroke
grestore
gsave
79.590625 64.66875 m
749.190625 64.66875 l
stroke
grestore
gsave
79.590625 563.62875 m
749.190625 563.62875 l
stroke
grestore
gsave
186.390625 569.628750 translate
0.000000 rotate
/DejaVuSans findfont
24.0 scalefont
setfont
0.000000 0.765625 moveto
/F glyphshow

13.804688 0.765625 moveto
/r glyphshow

23.671875 0.765625 moveto
/a glyphshow

38.378906 0.765625 moveto
/c glyphshow

51.574219 0.765625 moveto
/t glyphshow

60.984375 0.765625 moveto
/i glyphshow

67.652344 0.765625 moveto
/o glyphshow

82.335938 0.765625 moveto
/n glyphshow

97.546875 0.765625 moveto
/space glyphshow

105.175781 0.765625 moveto
/o glyphshow

119.859375 0.765625 moveto
/f glyphshow

128.308594 0.765625 moveto
/space glyphshow

135.937500 0.765625 moveto
/U glyphshow

153.503906 0.765625 moveto
/n glyphshow

168.714844 0.765625 moveto
/d glyphshow

183.949219 0.765625 moveto
/e glyphshow

198.714844 0.765625 moveto
/t glyphshow

208.125000 0.765625 moveto
/e glyphshow

222.890625 0.765625 moveto
/c glyphshow

236.085938 0.765625 moveto
/t glyphshow

245.496094 0.765625 moveto
/e glyphshow

260.261719 0.765625 moveto
/d glyphshow

275.496094 0.765625 moveto
/space glyphshow

283.125000 0.765625 moveto
/P glyphshow

297.597656 0.765625 moveto
/a glyphshow

312.304688 0.765625 moveto
/r glyphshow

322.171875 0.765625 moveto
/t glyphshow

331.582031 0.765625 moveto
/i glyphshow

338.250000 0.765625 moveto
/c glyphshow

351.445312 0.765625 moveto
/l glyphshow

358.113281 0.765625 moveto
/e glyphshow

372.878906 0.765625 moveto
/s glyphshow

385.382812 0.765625 moveto
/comma glyphshow

393.011719 0.765625 moveto
/space glyphshow

400.640625 0.765625 moveto
/one glyphshow

415.910156 0.765625 moveto
/five glyphshow

/DejaVuSans-Oblique findfont
24.0 scalefont
setfont
431.179688 0.765625 moveto
/delta glyphshow

445.863281 0.765625 moveto
/t glyphshow


grestore
1.000 setlinewidth
0 setlinecap
0.800 setgray
gsave
508.221875 353.488125 m
738.690625 353.488125 l
740.690625 353.488125 741.690625 354.488125 741.690625 356.488125 c
741.690625 553.12875 l
741.690625 555.12875 740.690625 556.12875 738.690625 556.12875 c
508.221875 556.12875 l
506.221875 556.12875 505.221875 555.12875 505.221875 553.12875 c
505.221875 356.488125 l
505.221875 354.488125 506.221875 353.488125 508.221875 353.488125 c
cl
gsave
1.000 setgray
fill
grestore
stroke
grestore
3.000 setlinewidth
1 setlinejoin
2 setlinecap
[] 0 setdash
0.000 setgray
gsave
511.221875 543.988125 m
541.221875 543.988125 l
stroke
grestore
/DejaVuSans findfont
15.000 scalefont
setfont
gsave
553.221875 538.738125 translate
0.000000 rotate
0.000000 0.000000 m /P glyphshow
9.045410 0.000000 m /P glyphshow
18.090820 0.000000 m /P glyphshow
27.136230 0.000000 m /space glyphshow
31.904297 0.000000 m /zero glyphshow
41.447754 0.000000 m /period glyphshow
46.215820 0.000000 m /zero glyphshow
55.759277 0.000000 m /five glyphshow
65.302734 0.000000 m /comma glyphshow
70.070801 0.000000 m /space glyphshow
74.838867 0.000000 m /S glyphshow
84.360352 0.000000 m /T glyphshow
93.522949 0.000000 m /B glyphshow
103.813477 0.000000 m /space glyphshow
108.581543 0.000000 m /D glyphshow
120.131836 0.000000 m /a glyphshow
129.323730 0.000000 m /v glyphshow
138.200684 0.000000 m /i glyphshow
142.368164 0.000000 m /s glyphshow
grestore
0.000 0.000 1.000 setrgbcolor
gsave
511.221875 521.9725 m
541.221875 521.9725 l
stroke
grestore
0.000 setgray
gsave
553.221875 516.722500 translate
0.000000 rotate
0.000000 0.000000 m /P glyphshow
9.045410 0.000000 m /P glyphshow
18.090820 0.000000 m /P glyphshow
27.136230 0.000000 m /space glyphshow
31.904297 0.000000 m /zero glyphshow
41.447754 0.000000 m /period glyphshow
46.215820 0.000000 m /zero glyphshow
55.759277 0.000000 m /five glyphshow
65.302734 0.000000 m /comma glyphshow
70.070801 0.000000 m /space glyphshow
74.838867 0.000000 m /S glyphshow
84.360352 0.000000 m /T glyphshow
93.522949 0.000000 m /B glyphshow
103.813477 0.000000 m /space glyphshow
108.581543 0.000000 m /i glyphshow
112.749023 0.000000 m /n glyphshow
122.255859 0.000000 m /hyphen glyphshow
127.668457 0.000000 m /h glyphshow
137.175293 0.000000 m /o glyphshow
146.352539 0.000000 m /u glyphshow
155.859375 0.000000 m /s glyphshow
163.674316 0.000000 m /e glyphshow
grestore
1.000 0.000 0.000 setrgbcolor
gsave
511.221875 499.956875 m
541.221875 499.956875 l
stroke
grestore
0.000 setgray
gsave
553.221875 494.706875 translate
0.000000 rotate
0.000000 0.000000 m /P glyphshow
9.045410 0.000000 m /P glyphshow
18.090820 0.000000 m /P glyphshow
27.136230 0.000000 m /space glyphshow
31.904297 0.000000 m /zero glyphshow
41.447754 0.000000 m /period glyphshow
46.215820 0.000000 m /zero glyphshow
55.759277 0.000000 m /five glyphshow
65.302734 0.000000 m /comma glyphshow
70.070801 0.000000 m /space glyphshow
74.838867 0.000000 m /K glyphshow
84.675293 0.000000 m /L glyphshow
93.032227 0.000000 m /P glyphshow
102.077637 0.000000 m /T glyphshow
grestore
0 setlinecap
[11.1 4.8] 0 setdash
gsave
511.221875 477.94125 m
541.221875 477.94125 l
stroke
grestore
gsave
553.221875 472.691250 translate
0.000000 rotate
0.000000 0.000000 m /P glyphshow
9.045410 0.000000 m /P glyphshow
18.090820 0.000000 m /P glyphshow
27.136230 0.000000 m /space glyphshow
31.904297 0.000000 m /zero glyphshow
41.447754 0.000000 m /period glyphshow
46.215820 0.000000 m /zero glyphshow
55.759277 0.000000 m /seven glyphshow
65.302734 0.000000 m /five glyphshow
74.846191 0.000000 m /comma glyphshow
79.614258 0.000000 m /space glyphshow
84.382324 0.000000 m /S glyphshow
93.903809 0.000000 m /T glyphshow
103.066406 0.000000 m /B glyphshow
113.356934 0.000000 m /space glyphshow
118.125000 0.000000 m /D glyphshow
129.675293 0.000000 m /a glyphshow
138.867188 0.000000 m /v glyphshow
147.744141 0.000000 m /i glyphshow
151.911621 0.000000 m /s glyphshow
grestore
0.000 0.000 1.000 setrgbcolor
gsave
511.221875 455.925625 m
541.221875 455.925625 l
stroke
grestore
0.000 setgray
gsave
553.221875 450.675625 translate
0.000000 rotate
0.000000 0.000000 m /P glyphshow
9.045410 0.000000 m /P glyphshow
18.090820 0.000000 m /P glyphshow
27.136230 0.000000 m /space glyphshow
31.904297 0.000000 m /zero glyphshow
41.447754 0.000000 m /period glyphshow
46.215820 0.000000 m /zero glyphshow
55.759277 0.000000 m /seven glyphshow
65.302734 0.000000 m /five glyphshow
74.846191 0.000000 m /comma glyphshow
79.614258 0.000000 m /space glyphshow
84.382324 0.000000 m /S glyphshow
93.903809 0.000000 m /T glyphshow
103.066406 0.000000 m /B glyphshow
113.356934 0.000000 m /space glyphshow
118.125000 0.000000 m /i glyphshow
122.292480 0.000000 m /n glyphshow
131.799316 0.000000 m /hyphen glyphshow
137.211914 0.000000 m /h glyphshow
146.718750 0.000000 m /o glyphshow
155.895996 0.000000 m /u glyphshow
165.402832 0.000000 m /s glyphshow
173.217773 0.000000 m /e glyphshow
grestore
1.000 0.000 0.000 setrgbcolor
gsave
511.221875 433.91 m
541.221875 433.91 l
stroke
grestore
0.000 setgray
gsave
553.221875 428.660000 translate
0.000000 rotate
0.000000 0.000000 m /P glyphshow
9.045410 0.000000 m /P glyphshow
18.090820 0.000000 m /P glyphshow
27.136230 0.000000 m /space glyphshow
31.904297 0.000000 m /zero glyphshow
41.447754 0.000000 m /period glyphshow
46.215820 0.000000 m /zero glyphshow
55.759277 0.000000 m /seven glyphshow
65.302734 0.000000 m /five glyphshow
74.846191 0.000000 m /comma glyphshow
79.614258 0.000000 m /space glyphshow
84.382324 0.000000 m /K glyphshow
94.218750 0.000000 m /L glyphshow
102.575684 0.000000 m /P glyphshow
111.621094 0.000000 m /T glyphshow
grestore
[3 4.95] 0 setdash
gsave
511.221875 411.894375 m
541.221875 411.894375 l
stroke
grestore
gsave
553.221875 406.644375 translate
0.000000 rotate
0.000000 0.000000 m /P glyphshow
9.045410 0.000000 m /P glyphshow
18.090820 0.000000 m /P glyphshow
27.136230 0.000000 m /space glyphshow
31.904297 0.000000 m /zero glyphshow
41.447754 0.000000 m /period glyphshow
46.215820 0.000000 m /one glyphshow
55.759277 0.000000 m /comma glyphshow
60.527344 0.000000 m /space glyphshow
65.295410 0.000000 m /S glyphshow
74.816895 0.000000 m /T glyphshow
83.979492 0.000000 m /B glyphshow
94.270020 0.000000 m /space glyphshow
99.038086 0.000000 m /D glyphshow
110.588379 0.000000 m /a glyphshow
119.780273 0.000000 m /v glyphshow
128.657227 0.000000 m /i glyphshow
132.824707 0.000000 m /s glyphshow
grestore
0.000 0.000 1.000 setrgbcolor
gsave
511.221875 389.87875 m
541.221875 389.87875 l
stroke
grestore
0.000 setgray
gsave
553.221875 384.628750 translate
0.000000 rotate
0.000000 0.000000 m /P glyphshow
9.045410 0.000000 m /P glyphshow
18.090820 0.000000 m /P glyphshow
27.136230 0.000000 m /space glyphshow
31.904297 0.000000 m /zero glyphshow
41.447754 0.000000 m /period glyphshow
46.215820 0.000000 m /one glyphshow
55.759277 0.000000 m /comma glyphshow
60.527344 0.000000 m /space glyphshow
65.295410 0.000000 m /S glyphshow
74.816895 0.000000 m /T glyphshow
83.979492 0.000000 m /B glyphshow
94.270020 0.000000 m /space glyphshow
99.038086 0.000000 m /i glyphshow
103.205566 0.000000 m /n glyphshow
112.712402 0.000000 m /hyphen glyphshow
118.125000 0.000000 m /h glyphshow
127.631836 0.000000 m /o glyphshow
136.809082 0.000000 m /u glyphshow
146.315918 0.000000 m /s glyphshow
154.130859 0.000000 m /e glyphshow
grestore
1.000 0.000 0.000 setrgbcolor
gsave
511.221875 367.863125 m
541.221875 367.863125 l
stroke
grestore
0.000 setgray
gsave
553.221875 362.613125 translate
0.000000 rotate
0.000000 0.000000 m /P glyphshow
9.045410 0.000000 m /P glyphshow
18.090820 0.000000 m /P glyphshow
27.136230 0.000000 m /space glyphshow
31.904297 0.000000 m /zero glyphshow
41.447754 0.000000 m /period glyphshow
46.215820 0.000000 m /one glyphshow
55.759277 0.000000 m /comma glyphshow
60.527344 0.000000 m /space glyphshow
65.295410 0.000000 m /K glyphshow
75.131836 0.000000 m /L glyphshow
83.488770 0.000000 m /P glyphshow
92.534180 0.000000 m /T glyphshow
grestore

end
showpage
