%!PS-Adobe-3.0 EPSF-3.0
%%Title: /Users/yin.yang/Documents/Davis_VS_LAPIV.eps
%%Creator: matplotlib version 3.0.2, http://matplotlib.org/
%%CreationDate: Sun May  5 16:19:33 2019
%%Orientation: portrait
%%BoundingBox: -126 -36 738 828
%%EndComments
%%BeginProlog
/mpldict 8 dict def
mpldict begin
/m { moveto } bind def
/l { lineto } bind def
/r { rlineto } bind def
/c { curveto } bind def
/cl { closepath } bind def
/box {
m
1 index 0 r
0 exch r
neg 0 r
cl
} bind def
/clipbox {
box
clip
newpath
} bind def
%!PS-Adobe-3.0 Resource-Font
%%Title: DejaVu Sans
%%Copyright: Copyright (c) 2003 by Bitstream, Inc. All Rights Reserved. Copyright (c) 2006 by Tavmjong Bah. All Rights Reserved. DejaVu changes are in public domain 
%%Creator: Converted from TrueType to type 3 by PPR
25 dict begin
/_d{bind def}bind def
/_m{moveto}_d
/_l{lineto}_d
/_cl{closepath eofill}_d
/_c{curveto}_d
/_sc{7 -1 roll{setcachedevice}{pop pop pop pop pop pop}ifelse}_d
/_e{exec}_d
/FontName /DejaVuSans def
/PaintType 0 def
/FontMatrix[.001 0 0 .001 0 0]def
/FontBBox[-1021 -463 1793 1232]def
/FontType 3 def
/Encoding [ /space /parenleft /parenright /comma /hyphen /period /zero /one /two /three /four /five /six /seven /eight /nine /A /D /I /O /P /S /V /a /e /h /i /l /n /o /p /r /s /t /u /x ] def
/FontInfo 10 dict dup begin
/FamilyName (DejaVu Sans) def
/FullName (DejaVu Sans) def
/Notice (Copyright (c) 2003 by Bitstream, Inc. All Rights Reserved. Copyright (c) 2006 by Tavmjong Bah. All Rights Reserved. DejaVu changes are in public domain ) def
/Weight (Book) def
/Version (Version 2.35) def
/ItalicAngle 0.0 def
/isFixedPitch false def
/UnderlinePosition -130 def
/UnderlineThickness 90 def
end readonly def
/CharStrings 37 dict dup begin
/.notdef 0 def
/space{318 0 0 0 0 0 _sc
}_d
/parenleft{390 0 86 -131 310 759 _sc
310 759 _m
266 683 234 609 213 536 _c
191 463 181 389 181 314 _c
181 238 191 164 213 91 _c
234 17 266 -56 310 -131 _c
232 -131 _l
183 -54 146 20 122 94 _c
98 168 86 241 86 314 _c
86 386 98 459 122 533 _c
146 607 182 682 232 759 _c
310 759 _l
_cl}_d
/parenright{390 0 80 -131 304 759 _sc
80 759 _m
158 759 _l
206 682 243 607 267 533 _c
291 459 304 386 304 314 _c
304 241 291 168 267 94 _c
243 20 206 -54 158 -131 _c
80 -131 _l
123 -56 155 17 177 91 _c
198 164 209 238 209 314 _c
209 389 198 463 177 536 _c
155 609 123 683 80 759 _c
_cl}_d
/comma{318 0 77 -115 220 124 _sc
117 124 _m
220 124 _l
220 40 _l
140 -115 _l
77 -115 _l
117 40 _l
117 124 _l
_cl}_d
/hyphen{361 0 49 234 312 314 _sc
49 314 _m
312 314 _l
312 234 _l
49 234 _l
49 314 _l
_cl}_d
/period{318 0 107 0 210 124 _sc
107 124 _m
210 124 _l
210 0 _l
107 0 _l
107 124 _l
_cl}_d
/zero{636 0 66 -13 570 742 _sc
318 664 _m
267 664 229 639 203 589 _c
177 539 165 464 165 364 _c
165 264 177 189 203 139 _c
229 89 267 64 318 64 _c
369 64 407 89 433 139 _c
458 189 471 264 471 364 _c
471 464 458 539 433 589 _c
407 639 369 664 318 664 _c
318 742 _m
399 742 461 709 505 645 _c
548 580 570 486 570 364 _c
570 241 548 147 505 83 _c
461 19 399 -13 318 -13 _c
236 -13 173 19 130 83 _c
87 147 66 241 66 364 _c
66 486 87 580 130 645 _c
173 709 236 742 318 742 _c
_cl}_d
/one{636 0 110 0 544 729 _sc
124 83 _m
285 83 _l
285 639 _l
110 604 _l
110 694 _l
284 729 _l
383 729 _l
383 83 _l
544 83 _l
544 0 _l
124 0 _l
124 83 _l
_cl}_d
/two{{636 0 73 0 536 742 _sc
192 83 _m
536 83 _l
536 0 _l
73 0 _l
73 83 _l
110 121 161 173 226 239 _c
290 304 331 346 348 365 _c
380 400 402 430 414 455 _c
426 479 433 504 433 528 _c
433 566 419 598 392 622 _c
365 646 330 659 286 659 _c
255 659 222 653 188 643 _c
154 632 117 616 78 594 _c
78 694 _l
118 710 155 722 189 730 _c
223 738 255 742 284 742 _c
}_e{359 742 419 723 464 685 _c
509 647 532 597 532 534 _c
532 504 526 475 515 449 _c
504 422 484 390 454 354 _c
446 344 420 317 376 272 _c
332 227 271 164 192 83 _c
_cl}_e}_d
/three{{636 0 76 -13 556 742 _sc
406 393 _m
453 383 490 362 516 330 _c
542 298 556 258 556 212 _c
556 140 531 84 482 45 _c
432 6 362 -13 271 -13 _c
240 -13 208 -10 176 -4 _c
144 1 110 10 76 22 _c
76 117 _l
103 101 133 89 166 81 _c
198 73 232 69 268 69 _c
330 69 377 81 409 105 _c
441 129 458 165 458 212 _c
458 254 443 288 413 312 _c
383 336 341 349 287 349 _c
}_e{202 349 _l
202 430 _l
291 430 _l
339 430 376 439 402 459 _c
428 478 441 506 441 543 _c
441 580 427 609 401 629 _c
374 649 336 659 287 659 _c
260 659 231 656 200 650 _c
169 644 135 635 98 623 _c
98 711 _l
135 721 170 729 203 734 _c
235 739 266 742 296 742 _c
370 742 429 725 473 691 _c
517 657 539 611 539 553 _c
539 513 527 479 504 451 _c
481 423 448 403 406 393 _c
_cl}_e}_d
/four{636 0 49 0 580 729 _sc
378 643 _m
129 254 _l
378 254 _l
378 643 _l
352 729 _m
476 729 _l
476 254 _l
580 254 _l
580 172 _l
476 172 _l
476 0 _l
378 0 _l
378 172 _l
49 172 _l
49 267 _l
352 729 _l
_cl}_d
/five{{636 0 77 -13 549 729 _sc
108 729 _m
495 729 _l
495 646 _l
198 646 _l
198 467 _l
212 472 227 476 241 478 _c
255 480 270 482 284 482 _c
365 482 429 459 477 415 _c
525 370 549 310 549 234 _c
549 155 524 94 475 51 _c
426 8 357 -13 269 -13 _c
238 -13 207 -10 175 -6 _c
143 -1 111 6 77 17 _c
77 116 _l
106 100 136 88 168 80 _c
199 72 232 69 267 69 _c
}_e{323 69 368 83 401 113 _c
433 143 450 183 450 234 _c
450 284 433 324 401 354 _c
368 384 323 399 267 399 _c
241 399 214 396 188 390 _c
162 384 135 375 108 363 _c
108 729 _l
_cl}_e}_d
/six{{636 0 70 -13 573 742 _sc
330 404 _m
286 404 251 388 225 358 _c
199 328 186 286 186 234 _c
186 181 199 139 225 109 _c
251 79 286 64 330 64 _c
374 64 409 79 435 109 _c
461 139 474 181 474 234 _c
474 286 461 328 435 358 _c
409 388 374 404 330 404 _c
526 713 _m
526 623 _l
501 635 476 644 451 650 _c
425 656 400 659 376 659 _c
310 659 260 637 226 593 _c
}_e{192 549 172 482 168 394 _c
187 422 211 444 240 459 _c
269 474 301 482 336 482 _c
409 482 467 459 509 415 _c
551 371 573 310 573 234 _c
573 159 550 99 506 54 _c
462 9 403 -13 330 -13 _c
246 -13 181 19 137 83 _c
92 147 70 241 70 364 _c
70 479 97 571 152 639 _c
206 707 280 742 372 742 _c
396 742 421 739 447 735 _c
472 730 498 723 526 713 _c
_cl}_e}_d
/seven{636 0 82 0 551 729 _sc
82 729 _m
551 729 _l
551 687 _l
286 0 _l
183 0 _l
432 646 _l
82 646 _l
82 729 _l
_cl}_d
/eight{{636 0 68 -13 568 742 _sc
318 346 _m
271 346 234 333 207 308 _c
180 283 167 249 167 205 _c
167 161 180 126 207 101 _c
234 76 271 64 318 64 _c
364 64 401 76 428 102 _c
455 127 469 161 469 205 _c
469 249 455 283 429 308 _c
402 333 365 346 318 346 _c
219 388 _m
177 398 144 418 120 447 _c
96 476 85 511 85 553 _c
85 611 105 657 147 691 _c
188 725 245 742 318 742 _c
}_e{390 742 447 725 489 691 _c
530 657 551 611 551 553 _c
551 511 539 476 515 447 _c
491 418 459 398 417 388 _c
464 377 501 355 528 323 _c
554 291 568 251 568 205 _c
568 134 546 80 503 43 _c
459 5 398 -13 318 -13 _c
237 -13 175 5 132 43 _c
89 80 68 134 68 205 _c
68 251 81 291 108 323 _c
134 355 171 377 219 388 _c
183 544 _m
183 506 194 476 218 455 _c
}_e{242 434 275 424 318 424 _c
360 424 393 434 417 455 _c
441 476 453 506 453 544 _c
453 582 441 611 417 632 _c
393 653 360 664 318 664 _c
275 664 242 653 218 632 _c
194 611 183 582 183 544 _c
_cl}_e}_d
/nine{{636 0 63 -13 566 742 _sc
110 15 _m
110 105 _l
134 93 159 84 185 78 _c
210 72 235 69 260 69 _c
324 69 374 90 408 134 _c
442 178 462 244 468 334 _c
448 306 424 284 396 269 _c
367 254 335 247 300 247 _c
226 247 168 269 126 313 _c
84 357 63 417 63 494 _c
63 568 85 628 129 674 _c
173 719 232 742 306 742 _c
390 742 455 709 499 645 _c
543 580 566 486 566 364 _c
}_e{566 248 538 157 484 89 _c
429 21 356 -13 264 -13 _c
239 -13 214 -10 189 -6 _c
163 -2 137 5 110 15 _c
306 324 _m
350 324 385 339 411 369 _c
437 399 450 441 450 494 _c
450 546 437 588 411 618 _c
385 648 350 664 306 664 _c
262 664 227 648 201 618 _c
175 588 162 546 162 494 _c
162 441 175 399 201 369 _c
227 339 262 324 306 324 _c
_cl}_e}_d
/A{684 0 8 0 676 729 _sc
342 632 _m
208 269 _l
476 269 _l
342 632 _l
286 729 _m
398 729 _l
676 0 _l
573 0 _l
507 187 _l
178 187 _l
112 0 _l
8 0 _l
286 729 _l
_cl}_d
/D{770 0 98 0 711 729 _sc
197 648 _m
197 81 _l
316 81 _l
416 81 490 103 537 149 _c
583 195 607 267 607 365 _c
607 463 583 534 537 580 _c
490 625 416 648 316 648 _c
197 648 _l
98 729 _m
301 729 _l
442 729 546 699 612 641 _c
678 582 711 490 711 365 _c
711 239 677 147 611 88 _c
545 29 441 0 301 0 _c
98 0 _l
98 729 _l
_cl}_d
/I{295 0 98 0 197 729 _sc
98 729 _m
197 729 _l
197 0 _l
98 0 _l
98 729 _l
_cl}_d
/O{787 0 56 -13 731 742 _sc
394 662 _m
322 662 265 635 223 582 _c
181 528 160 456 160 364 _c
160 272 181 199 223 146 _c
265 92 322 66 394 66 _c
465 66 522 92 564 146 _c
606 199 627 272 627 364 _c
627 456 606 528 564 582 _c
522 635 465 662 394 662 _c
394 742 _m
496 742 577 707 639 639 _c
700 571 731 479 731 364 _c
731 248 700 157 639 89 _c
577 21 496 -13 394 -13 _c
291 -13 209 21 148 89 _c
86 157 56 248 56 364 _c
56 479 86 571 148 639 _c
209 707 291 742 394 742 _c
_cl}_d
/P{603 0 98 0 569 729 _sc
197 648 _m
197 374 _l
321 374 _l
367 374 402 385 427 409 _c
452 433 465 467 465 511 _c
465 555 452 588 427 612 _c
402 636 367 648 321 648 _c
197 648 _l
98 729 _m
321 729 _l
402 729 464 710 506 673 _c
548 636 569 582 569 511 _c
569 439 548 384 506 348 _c
464 311 402 293 321 293 _c
197 293 _l
197 0 _l
98 0 _l
98 729 _l
_cl}_d
/S{{635 0 66 -13 579 742 _sc
535 705 _m
535 609 _l
497 627 462 640 429 649 _c
395 657 363 662 333 662 _c
279 662 237 651 208 631 _c
179 610 165 580 165 542 _c
165 510 174 485 194 469 _c
213 452 250 439 304 429 _c
364 417 _l
437 403 491 378 526 343 _c
561 307 579 260 579 201 _c
579 130 555 77 508 41 _c
460 5 391 -13 300 -13 _c
265 -13 228 -9 189 -2 _c
}_e{150 5 110 16 69 32 _c
69 134 _l
109 111 148 94 186 83 _c
224 71 262 66 300 66 _c
356 66 399 77 430 99 _c
460 121 476 152 476 194 _c
476 230 465 258 443 278 _c
421 298 385 313 335 323 _c
275 335 _l
201 349 148 372 115 404 _c
82 435 66 478 66 534 _c
66 598 88 649 134 686 _c
179 723 242 742 322 742 _c
356 742 390 739 426 733 _c
461 727 497 717 535 705 _c
}_e{_cl}_e}_d
/V{684 0 8 0 676 729 _sc
286 0 _m
8 729 _l
111 729 _l
342 115 _l
573 729 _l
676 729 _l
398 0 _l
286 0 _l
_cl}_d
/a{{613 0 60 -13 522 560 _sc
343 275 _m
270 275 220 266 192 250 _c
164 233 150 205 150 165 _c
150 133 160 107 181 89 _c
202 70 231 61 267 61 _c
317 61 357 78 387 114 _c
417 149 432 196 432 255 _c
432 275 _l
343 275 _l
522 312 _m
522 0 _l
432 0 _l
432 83 _l
411 49 385 25 355 10 _c
325 -5 287 -13 243 -13 _c
187 -13 142 2 109 33 _c
76 64 60 106 60 159 _c
}_e{60 220 80 266 122 298 _c
163 329 224 345 306 345 _c
432 345 _l
432 354 _l
432 395 418 427 391 450 _c
364 472 326 484 277 484 _c
245 484 215 480 185 472 _c
155 464 127 453 100 439 _c
100 522 _l
132 534 164 544 195 550 _c
226 556 256 560 286 560 _c
365 560 424 539 463 498 _c
502 457 522 395 522 312 _c
_cl}_e}_d
/e{{615 0 55 -13 562 560 _sc
562 296 _m
562 252 _l
149 252 _l
153 190 171 142 205 110 _c
238 78 284 62 344 62 _c
378 62 412 66 444 74 _c
476 82 509 95 541 113 _c
541 28 _l
509 14 476 3 442 -3 _c
408 -9 373 -13 339 -13 _c
251 -13 182 12 131 62 _c
80 112 55 181 55 268 _c
55 357 79 428 127 481 _c
175 533 241 560 323 560 _c
397 560 455 536 498 489 _c
}_e{540 441 562 377 562 296 _c
472 322 _m
471 371 457 410 431 440 _c
404 469 368 484 324 484 _c
274 484 234 469 204 441 _c
174 413 156 373 152 322 _c
472 322 _l
_cl}_e}_d
/h{634 0 91 0 549 760 _sc
549 330 _m
549 0 _l
459 0 _l
459 327 _l
459 379 448 417 428 443 _c
408 469 378 482 338 482 _c
289 482 251 466 223 435 _c
195 404 181 362 181 309 _c
181 0 _l
91 0 _l
91 760 _l
181 760 _l
181 462 _l
202 494 227 519 257 535 _c
286 551 320 560 358 560 _c
420 560 468 540 500 501 _c
532 462 549 405 549 330 _c
_cl}_d
/i{278 0 94 0 184 760 _sc
94 547 _m
184 547 _l
184 0 _l
94 0 _l
94 547 _l
94 760 _m
184 760 _l
184 646 _l
94 646 _l
94 760 _l
_cl}_d
/l{278 0 94 0 184 760 _sc
94 760 _m
184 760 _l
184 0 _l
94 0 _l
94 760 _l
_cl}_d
/n{634 0 91 0 549 560 _sc
549 330 _m
549 0 _l
459 0 _l
459 327 _l
459 379 448 417 428 443 _c
408 469 378 482 338 482 _c
289 482 251 466 223 435 _c
195 404 181 362 181 309 _c
181 0 _l
91 0 _l
91 547 _l
181 547 _l
181 462 _l
202 494 227 519 257 535 _c
286 551 320 560 358 560 _c
420 560 468 540 500 501 _c
532 462 549 405 549 330 _c
_cl}_d
/o{612 0 55 -13 557 560 _sc
306 484 _m
258 484 220 465 192 427 _c
164 389 150 338 150 273 _c
150 207 163 156 191 118 _c
219 80 257 62 306 62 _c
354 62 392 80 420 118 _c
448 156 462 207 462 273 _c
462 337 448 389 420 427 _c
392 465 354 484 306 484 _c
306 560 _m
384 560 445 534 490 484 _c
534 433 557 363 557 273 _c
557 183 534 113 490 63 _c
445 12 384 -13 306 -13 _c
227 -13 165 12 121 63 _c
77 113 55 183 55 273 _c
55 363 77 433 121 484 _c
165 534 227 560 306 560 _c
_cl}_d
/p{{635 0 91 -207 580 560 _sc
181 82 _m
181 -207 _l
91 -207 _l
91 547 _l
181 547 _l
181 464 _l
199 496 223 520 252 536 _c
281 552 316 560 356 560 _c
422 560 476 533 518 481 _c
559 428 580 359 580 273 _c
580 187 559 117 518 65 _c
476 13 422 -13 356 -13 _c
316 -13 281 -5 252 10 _c
223 25 199 49 181 82 _c
487 273 _m
487 339 473 390 446 428 _c
418 466 381 485 334 485 _c
}_e{286 485 249 466 222 428 _c
194 390 181 339 181 273 _c
181 207 194 155 222 117 _c
249 79 286 61 334 61 _c
381 61 418 79 446 117 _c
473 155 487 207 487 273 _c
_cl}_e}_d
/r{411 0 91 0 411 560 _sc
411 463 _m
401 469 390 473 378 476 _c
366 478 353 480 339 480 _c
288 480 249 463 222 430 _c
194 397 181 350 181 288 _c
181 0 _l
91 0 _l
91 547 _l
181 547 _l
181 462 _l
199 495 224 520 254 536 _c
284 552 321 560 365 560 _c
371 560 378 559 386 559 _c
393 558 401 557 411 555 _c
411 463 _l
_cl}_d
/s{{521 0 54 -13 472 560 _sc
443 531 _m
443 446 _l
417 458 391 468 364 475 _c
336 481 308 485 279 485 _c
234 485 200 478 178 464 _c
156 450 145 430 145 403 _c
145 382 153 366 169 354 _c
185 342 217 330 265 320 _c
296 313 _l
360 299 405 279 432 255 _c
458 230 472 195 472 151 _c
472 100 452 60 412 31 _c
372 1 316 -13 246 -13 _c
216 -13 186 -10 154 -5 _c
}_e{122 0 89 8 54 20 _c
54 113 _l
87 95 120 82 152 74 _c
184 65 216 61 248 61 _c
290 61 323 68 346 82 _c
368 96 380 117 380 144 _c
380 168 371 187 355 200 _c
339 213 303 226 247 238 _c
216 245 _l
160 257 119 275 95 299 _c
70 323 58 356 58 399 _c
58 450 76 490 112 518 _c
148 546 200 560 268 560 _c
301 560 332 557 362 552 _c
391 547 418 540 443 531 _c
}_e{_cl}_e}_d
/t{392 0 27 0 368 702 _sc
183 702 _m
183 547 _l
368 547 _l
368 477 _l
183 477 _l
183 180 _l
183 135 189 106 201 94 _c
213 81 238 75 276 75 _c
368 75 _l
368 0 _l
276 0 _l
206 0 158 13 132 39 _c
106 65 93 112 93 180 _c
93 477 _l
27 477 _l
27 547 _l
93 547 _l
93 702 _l
183 702 _l
_cl}_d
/u{634 0 85 -13 543 560 _sc
85 216 _m
85 547 _l
175 547 _l
175 219 _l
175 167 185 129 205 103 _c
225 77 255 64 296 64 _c
344 64 383 79 411 110 _c
439 141 453 183 453 237 _c
453 547 _l
543 547 _l
543 0 _l
453 0 _l
453 84 _l
431 50 405 26 377 10 _c
348 -5 315 -13 277 -13 _c
214 -13 166 6 134 45 _c
101 83 85 140 85 216 _c
311 560 _m
311 560 _l
_cl}_d
/x{592 0 29 0 559 547 _sc
549 547 _m
351 281 _l
559 0 _l
453 0 _l
294 215 _l
135 0 _l
29 0 _l
241 286 _l
47 547 _l
153 547 _l
298 352 _l
443 547 _l
549 547 _l
_cl}_d
end readonly def

/BuildGlyph
 {exch begin
 CharStrings exch
 2 copy known not{pop /.notdef}if
 true 3 1 roll get exec
 end}_d

/BuildChar {
 1 index /Encoding get exch get
 1 index /BuildGlyph get exec
}_d

FontName currentdict end definefont pop
end
%%EndProlog
mpldict begin
-126 -36 translate
864 864 0 0 clipbox
gsave
0 0 m
864 0 l
864 864 l
0 864 l
cl
1.000 setgray
fill
grestore
gsave
103.68 60.48 m
820.8 60.48 l
820.8 820.8 l
103.68 820.8 l
cl
1.000 setgray
fill
grestore
0.800 setlinewidth
1 setlinejoin
0 setlinecap
[] 0 setdash
0.000 setgray
gsave
/o {
gsave
newpath
translate
0.8 setlinewidth
1 setlinejoin
0 setlinecap
0 0 m
0 -3.5 l

gsave
0.000 setgray
fill
grestore
stroke
grestore
} bind def
103.68 60.48 o
grestore
/DejaVuSans findfont
20.000 scalefont
setfont
gsave
90.961250 38.276875 translate
0.000000 rotate
0.000000 0.000000 m /one glyphshow
12.724609 0.000000 m /zero glyphshow
grestore
gsave
/o {
gsave
newpath
translate
0.8 setlinewidth
1 setlinejoin
0 setlinecap
0 0 m
0 -3.5 l

gsave
0.000 setgray
fill
grestore
stroke
grestore
} bind def
193.32 60.48 o
grestore
gsave
180.601250 38.276875 translate
0.000000 rotate
0.000000 0.000000 m /one glyphshow
12.724609 0.000000 m /five glyphshow
grestore
gsave
/o {
gsave
newpath
translate
0.8 setlinewidth
1 setlinejoin
0 setlinecap
0 0 m
0 -3.5 l

gsave
0.000 setgray
fill
grestore
stroke
grestore
} bind def
282.96 60.48 o
grestore
gsave
270.241250 38.276875 translate
0.000000 rotate
0.000000 0.000000 m /two glyphshow
12.724609 0.000000 m /zero glyphshow
grestore
gsave
/o {
gsave
newpath
translate
0.8 setlinewidth
1 setlinejoin
0 setlinecap
0 0 m
0 -3.5 l

gsave
0.000 setgray
fill
grestore
stroke
grestore
} bind def
372.6 60.48 o
grestore
gsave
359.881250 38.276875 translate
0.000000 rotate
0.000000 0.000000 m /two glyphshow
12.724609 0.000000 m /five glyphshow
grestore
gsave
/o {
gsave
newpath
translate
0.8 setlinewidth
1 setlinejoin
0 setlinecap
0 0 m
0 -3.5 l

gsave
0.000 setgray
fill
grestore
stroke
grestore
} bind def
462.24 60.48 o
grestore
gsave
449.521250 38.276875 translate
0.000000 rotate
0.000000 0.000000 m /three glyphshow
12.724609 0.000000 m /zero glyphshow
grestore
gsave
/o {
gsave
newpath
translate
0.8 setlinewidth
1 setlinejoin
0 setlinecap
0 0 m
0 -3.5 l

gsave
0.000 setgray
fill
grestore
stroke
grestore
} bind def
551.88 60.48 o
grestore
gsave
539.161250 38.276875 translate
0.000000 rotate
0.000000 0.000000 m /three glyphshow
12.724609 0.000000 m /five glyphshow
grestore
gsave
/o {
gsave
newpath
translate
0.8 setlinewidth
1 setlinejoin
0 setlinecap
0 0 m
0 -3.5 l

gsave
0.000 setgray
fill
grestore
stroke
grestore
} bind def
641.52 60.48 o
grestore
gsave
628.801250 38.276875 translate
0.000000 rotate
0.000000 0.000000 m /four glyphshow
12.724609 0.000000 m /zero glyphshow
grestore
gsave
/o {
gsave
newpath
translate
0.8 setlinewidth
1 setlinejoin
0 setlinecap
0 0 m
0 -3.5 l

gsave
0.000 setgray
fill
grestore
stroke
grestore
} bind def
731.16 60.48 o
grestore
gsave
718.441250 38.276875 translate
0.000000 rotate
0.000000 0.000000 m /four glyphshow
12.724609 0.000000 m /five glyphshow
grestore
gsave
/o {
gsave
newpath
translate
0.8 setlinewidth
1 setlinejoin
0 setlinecap
0 0 m
0 -3.5 l

gsave
0.000 setgray
fill
grestore
stroke
grestore
} bind def
820.8 60.48 o
grestore
gsave
808.081250 38.276875 translate
0.000000 rotate
0.000000 0.000000 m /five glyphshow
12.724609 0.000000 m /zero glyphshow
grestore
gsave
410.279063 14.917500 translate
0.000000 rotate
0.000000 0.000000 m /S glyphshow
12.695312 0.000000 m /n glyphshow
25.371094 0.000000 m /a glyphshow
37.626953 0.000000 m /p glyphshow
50.322266 0.000000 m /s glyphshow
60.742188 0.000000 m /h glyphshow
73.417969 0.000000 m /o glyphshow
85.654297 0.000000 m /t glyphshow
93.496094 0.000000 m /s glyphshow
grestore
gsave
/o {
gsave
newpath
translate
0.8 setlinewidth
1 setlinejoin
0 setlinecap
0 0 m
-3.5 0 l

gsave
0.000 setgray
fill
grestore
stroke
grestore
} bind def
103.68 252.151 o
grestore
gsave
38.992500 244.549126 translate
0.000000 rotate
0.000000 0.000000 m /one glyphshow
12.724609 0.000000 m /e glyphshow
25.029297 0.000000 m /hyphen glyphshow
32.246094 0.000000 m /zero glyphshow
44.970703 0.000000 m /two glyphshow
grestore
gsave
/o {
gsave
newpath
translate
0.8 setlinewidth
1 setlinejoin
0 setlinecap
0 0 m
-3.5 0 l

gsave
0.000 setgray
fill
grestore
stroke
grestore
} bind def
103.68 810.474 o
grestore
gsave
38.992500 802.872003 translate
0.000000 rotate
0.000000 0.000000 m /one glyphshow
12.724609 0.000000 m /e glyphshow
25.029297 0.000000 m /hyphen glyphshow
32.246094 0.000000 m /zero glyphshow
44.970703 0.000000 m /one glyphshow
grestore
0.600 setlinewidth
gsave
/o {
gsave
newpath
translate
0.6 setlinewidth
1 setlinejoin
0 setlinecap
0 0 m
-2 0 l

gsave
0.000 setgray
fill
grestore
stroke
grestore
} bind def
103.68 84.0788 o
grestore
gsave
40.592500 76.477193 translate
0.000000 rotate
0.000000 0.000000 m /five glyphshow
12.724609 0.000000 m /e glyphshow
25.029297 0.000000 m /hyphen glyphshow
32.246094 0.000000 m /zero glyphshow
44.970703 0.000000 m /three glyphshow
grestore
gsave
/o {
gsave
newpath
translate
0.6 setlinewidth
1 setlinejoin
0 setlinecap
0 0 m
-2 0 l

gsave
0.000 setgray
fill
grestore
stroke
grestore
} bind def
103.68 128.287 o
grestore
gsave
40.592500 120.685894 translate
0.000000 rotate
0.000000 0.000000 m /six glyphshow
12.724609 0.000000 m /e glyphshow
25.029297 0.000000 m /hyphen glyphshow
32.246094 0.000000 m /zero glyphshow
44.970703 0.000000 m /three glyphshow
grestore
gsave
/o {
gsave
newpath
translate
0.6 setlinewidth
1 setlinejoin
0 setlinecap
0 0 m
-2 0 l

gsave
0.000 setgray
fill
grestore
stroke
grestore
} bind def
103.68 165.665 o
grestore
gsave
40.592500 158.063818 translate
0.000000 rotate
0.000000 0.000000 m /seven glyphshow
12.724609 0.000000 m /e glyphshow
25.029297 0.000000 m /hyphen glyphshow
32.246094 0.000000 m /zero glyphshow
44.970703 0.000000 m /three glyphshow
grestore
gsave
/o {
gsave
newpath
translate
0.6 setlinewidth
1 setlinejoin
0 setlinecap
0 0 m
-2 0 l

gsave
0.000 setgray
fill
grestore
stroke
grestore
} bind def
103.68 198.044 o
grestore
gsave
40.592500 190.442049 translate
0.000000 rotate
0.000000 0.000000 m /eight glyphshow
12.724609 0.000000 m /e glyphshow
25.029297 0.000000 m /hyphen glyphshow
32.246094 0.000000 m /zero glyphshow
44.970703 0.000000 m /three glyphshow
grestore
gsave
/o {
gsave
newpath
translate
0.6 setlinewidth
1 setlinejoin
0 setlinecap
0 0 m
-2 0 l

gsave
0.000 setgray
fill
grestore
stroke
grestore
} bind def
103.68 226.603 o
grestore
gsave
40.592500 219.001672 translate
0.000000 rotate
0.000000 0.000000 m /nine glyphshow
12.724609 0.000000 m /e glyphshow
25.029297 0.000000 m /hyphen glyphshow
32.246094 0.000000 m /zero glyphshow
44.970703 0.000000 m /three glyphshow
grestore
gsave
/o {
gsave
newpath
translate
0.6 setlinewidth
1 setlinejoin
0 setlinecap
0 0 m
-2 0 l

gsave
0.000 setgray
fill
grestore
stroke
grestore
} bind def
103.68 420.223 o
grestore
gsave
40.592500 412.621059 translate
0.000000 rotate
0.000000 0.000000 m /two glyphshow
12.724609 0.000000 m /e glyphshow
25.029297 0.000000 m /hyphen glyphshow
32.246094 0.000000 m /zero glyphshow
44.970703 0.000000 m /two glyphshow
grestore
gsave
/o {
gsave
newpath
translate
0.6 setlinewidth
1 setlinejoin
0 setlinecap
0 0 m
-2 0 l

gsave
0.000 setgray
fill
grestore
stroke
grestore
} bind def
103.68 518.538 o
grestore
gsave
40.592500 510.936838 translate
0.000000 rotate
0.000000 0.000000 m /three glyphshow
12.724609 0.000000 m /e glyphshow
25.029297 0.000000 m /hyphen glyphshow
32.246094 0.000000 m /zero glyphshow
44.970703 0.000000 m /two glyphshow
grestore
gsave
/o {
gsave
newpath
translate
0.6 setlinewidth
1 setlinejoin
0 setlinecap
0 0 m
-2 0 l

gsave
0.000 setgray
fill
grestore
stroke
grestore
} bind def
103.68 588.295 o
grestore
gsave
40.592500 580.692993 translate
0.000000 rotate
0.000000 0.000000 m /four glyphshow
12.724609 0.000000 m /e glyphshow
25.029297 0.000000 m /hyphen glyphshow
32.246094 0.000000 m /zero glyphshow
44.970703 0.000000 m /two glyphshow
grestore
gsave
/o {
gsave
newpath
translate
0.6 setlinewidth
1 setlinejoin
0 setlinecap
0 0 m
-2 0 l

gsave
0.000 setgray
fill
grestore
stroke
grestore
} bind def
103.68 642.402 o
grestore
gsave
40.592500 634.800070 translate
0.000000 rotate
0.000000 0.000000 m /five glyphshow
12.724609 0.000000 m /e glyphshow
25.029297 0.000000 m /hyphen glyphshow
32.246094 0.000000 m /zero glyphshow
44.970703 0.000000 m /two glyphshow
grestore
gsave
/o {
gsave
newpath
translate
0.6 setlinewidth
1 setlinejoin
0 setlinecap
0 0 m
-2 0 l

gsave
0.000 setgray
fill
grestore
stroke
grestore
} bind def
103.68 686.61 o
grestore
gsave
40.592500 679.008771 translate
0.000000 rotate
0.000000 0.000000 m /six glyphshow
12.724609 0.000000 m /e glyphshow
25.029297 0.000000 m /hyphen glyphshow
32.246094 0.000000 m /zero glyphshow
44.970703 0.000000 m /two glyphshow
grestore
gsave
/o {
gsave
newpath
translate
0.6 setlinewidth
1 setlinejoin
0 setlinecap
0 0 m
-2 0 l

gsave
0.000 setgray
fill
grestore
stroke
grestore
} bind def
103.68 723.988 o
grestore
gsave
40.592500 716.386695 translate
0.000000 rotate
0.000000 0.000000 m /seven glyphshow
12.724609 0.000000 m /e glyphshow
25.029297 0.000000 m /hyphen glyphshow
32.246094 0.000000 m /zero glyphshow
44.970703 0.000000 m /two glyphshow
grestore
gsave
/o {
gsave
newpath
translate
0.6 setlinewidth
1 setlinejoin
0 setlinecap
0 0 m
-2 0 l

gsave
0.000 setgray
fill
grestore
stroke
grestore
} bind def
103.68 756.366 o
grestore
gsave
40.592500 748.764926 translate
0.000000 rotate
0.000000 0.000000 m /eight glyphshow
12.724609 0.000000 m /e glyphshow
25.029297 0.000000 m /hyphen glyphshow
32.246094 0.000000 m /zero glyphshow
44.970703 0.000000 m /two glyphshow
grestore
gsave
/o {
gsave
newpath
translate
0.6 setlinewidth
1 setlinejoin
0 setlinecap
0 0 m
-2 0 l

gsave
0.000 setgray
fill
grestore
stroke
grestore
} bind def
103.68 784.926 o
grestore
gsave
40.592500 777.324549 translate
0.000000 rotate
0.000000 0.000000 m /nine glyphshow
12.724609 0.000000 m /e glyphshow
25.029297 0.000000 m /hyphen glyphshow
32.246094 0.000000 m /zero glyphshow
44.970703 0.000000 m /two glyphshow
grestore
gsave
30.836250 345.100938 translate
90.000000 rotate
0.000000 0.000000 m /P glyphshow
12.060547 0.000000 m /o glyphshow
24.296875 0.000000 m /s glyphshow
34.716797 0.000000 m /i glyphshow
40.273438 0.000000 m /t glyphshow
48.115234 0.000000 m /i glyphshow
53.671875 0.000000 m /o glyphshow
65.908203 0.000000 m /n glyphshow
78.583984 0.000000 m /space glyphshow
84.941406 0.000000 m /e glyphshow
97.246094 0.000000 m /r glyphshow
105.468750 0.000000 m /r glyphshow
113.691406 0.000000 m /o glyphshow
125.927734 0.000000 m /r glyphshow
134.150391 0.000000 m /s glyphshow
144.570312 0.000000 m /space glyphshow
150.927734 0.000000 m /parenleft glyphshow
158.730469 0.000000 m /p glyphshow
171.425781 0.000000 m /x glyphshow
183.261719 0.000000 m /parenright glyphshow
grestore
4.000 setlinewidth
2 setlinecap
gsave
717.1 760.3 103.7 60.48 clipbox
103.68 786.24 m
121.608 777.379097 l
139.536 773.352213 l
157.464 760.115192 l
175.392 753.070917 l
193.32 743.439615 l
211.248 737.90207 l
229.176 733.575397 l
247.104 728.497447 l
265.032 726.626981 l
282.96 724.578264 l
300.888 724.211567 l
318.816 723.334416 l
336.744 720.493812 l
354.672 721.264052 l
372.6 721.46807 l
390.528 721.25173 l
408.456 720.726658 l
426.384 722.034784 l
444.312 720.853485 l
462.24 721.02128 l
480.168 720.975822 l
498.096 722.328846 l
516.024 720.224899 l
533.952 720.63345 l
551.88 719.812973 l
569.808 719.988343 l
587.736 718.951991 l
605.664 719.991886 l
623.592 720.028381 l
641.52 719.687498 l
659.448 719.202259 l
677.376 718.565581 l
695.304 719.983241 l
713.232 721.673349 l
731.16 720.546801 l
749.088 719.604686 l
767.016 720.494076 l
784.944 720.328845 l
802.872 721.973161 l
820.8 721.99621 l
stroke
grestore
0 setlinecap
[14.8 6.4] 0 setdash
gsave
717.1 760.3 103.7 60.48 clipbox
103.68 649.409748 m
121.608 632.460246 l
139.536 602.456327 l
157.464 559.255891 l
175.392 521.966283 l
193.32 482.461808 l
211.248 447.055745 l
229.176 410.562304 l
247.104 374.580035 l
265.032 361.096586 l
282.96 344.162109 l
300.888 329.676966 l
318.816 323.819106 l
336.744 304.704164 l
354.672 297.556038 l
372.6 301.748337 l
390.528 299.501449 l
408.456 294.531953 l
426.384 296.118138 l
444.312 295.285792 l
462.24 294.797985 l
480.168 294.129783 l
498.096 290.272135 l
516.024 290.190813 l
533.952 292.52816 l
551.88 299.930716 l
569.808 279.80132 l
587.736 291.369533 l
605.664 287.873597 l
623.592 284.381154 l
641.52 287.355403 l
659.448 285.319519 l
677.376 286.736607 l
695.304 288.286123 l
713.232 293.54002 l
731.16 293.984475 l
749.088 289.955976 l
767.016 291.44548 l
784.944 293.84944 l
802.872 316.190166 l
820.8 302.601868 l
stroke
grestore
2 setlinecap
[] 0 setdash
1.000 0.000 0.000 setrgbcolor
gsave
717.1 760.3 103.7 60.48 clipbox
103.68 588.662544 m
121.608 584.691306 l
139.536 583.277419 l
157.464 581.587827 l
175.392 579.847778 l
193.32 578.037754 l
211.248 577.608954 l
229.176 577.791115 l
247.104 577.306401 l
265.032 577.310476 l
282.96 576.389763 l
300.888 576.486602 l
318.816 576.384756 l
336.744 576.802782 l
354.672 577.943146 l
372.6 576.876256 l
390.528 577.397686 l
408.456 577.373276 l
426.384 577.198912 l
444.312 576.882833 l
462.24 576.889826 l
480.168 577.63064 l
498.096 576.927932 l
516.024 577.599564 l
533.952 577.507042 l
551.88 578.054947 l
569.808 577.611279 l
587.736 578.274101 l
605.664 577.908296 l
623.592 577.281418 l
641.52 577.870552 l
659.448 578.843413 l
677.376 578.017488 l
695.304 578.460808 l
713.232 578.566831 l
731.16 578.507738 l
749.088 579.027768 l
767.016 579.608689 l
784.944 578.390314 l
802.872 578.032101 l
820.8 579.007725 l
stroke
grestore
0 setlinecap
[14.8 6.4] 0 setdash
gsave
717.1 760.3 103.7 60.48 clipbox
103.68 344.223789 m
121.608 256.636694 l
139.536 229.147967 l
157.464 219.703169 l
175.392 213.007128 l
193.32 204.797085 l
211.248 205.851618 l
229.176 199.883805 l
247.104 196.274571 l
265.032 191.659213 l
282.96 190.113067 l
300.888 190.790178 l
318.816 196.285984 l
336.744 193.321139 l
354.672 191.559225 l
372.6 195.665384 l
390.528 194.018005 l
408.456 196.407879 l
426.384 194.969516 l
444.312 193.635258 l
462.24 195.853804 l
480.168 194.49245 l
498.096 191.385339 l
516.024 193.808016 l
533.952 192.696989 l
551.88 195.956343 l
569.808 196.605273 l
587.736 199.248001 l
605.664 195.008533 l
623.592 196.397057 l
641.52 197.892838 l
659.448 201.591897 l
677.376 201.299446 l
695.304 202.286908 l
713.232 201.264173 l
731.16 203.739508 l
749.088 202.566903 l
767.016 200.763996 l
784.944 215.406127 l
802.872 227.317261 l
820.8 236.852396 l
stroke
grestore
2 setlinecap
[] 0 setdash
0.000 0.000 1.000 setrgbcolor
gsave
717.1 760.3 103.7 60.48 clipbox
103.68 570.822404 m
121.608 570.22755 l
139.536 569.804423 l
157.464 570.281718 l
175.392 568.961072 l
193.32 569.269942 l
211.248 568.969371 l
229.176 569.022224 l
247.104 568.220124 l
265.032 568.265125 l
282.96 568.842555 l
300.888 569.583022 l
318.816 569.066318 l
336.744 569.23402 l
354.672 569.701265 l
372.6 569.224069 l
390.528 568.283864 l
408.456 568.582945 l
426.384 568.620001 l
444.312 568.654403 l
462.24 568.78705 l
480.168 568.581487 l
498.096 568.142907 l
516.024 568.646496 l
533.952 568.051998 l
551.88 568.742295 l
569.808 569.566142 l
587.736 568.834025 l
605.664 569.532757 l
623.592 568.498487 l
641.52 569.685562 l
659.448 570.173812 l
677.376 568.683407 l
695.304 568.636519 l
713.232 570.441509 l
731.16 568.756461 l
749.088 569.170113 l
767.016 569.419466 l
784.944 569.005847 l
802.872 569.453137 l
820.8 569.070451 l
stroke
grestore
0 setlinecap
[14.8 6.4] 0 setdash
gsave
717.1 760.3 103.7 60.48 clipbox
103.68 192.179823 m
121.608 148.836701 l
139.536 142.690979 l
157.464 139.546145 l
175.392 134.487077 l
193.32 138.225703 l
211.248 138.763693 l
229.176 136.605706 l
247.104 131.623988 l
265.032 132.887 l
282.96 133.085058 l
300.888 136.884552 l
318.816 139.750929 l
336.744 142.053968 l
354.672 136.528399 l
372.6 142.826432 l
390.528 141.504463 l
408.456 140.680167 l
426.384 142.413248 l
444.312 144.904607 l
462.24 143.532552 l
480.168 142.920658 l
498.096 136.916119 l
516.024 144.246459 l
533.952 142.943075 l
551.88 141.48863 l
569.808 141.473913 l
587.736 145.391898 l
605.664 144.922423 l
623.592 144.319546 l
641.52 149.836798 l
659.448 146.918841 l
677.376 144.649371 l
695.304 150.0951 l
713.232 145.656668 l
731.16 145.384584 l
749.088 149.970522 l
767.016 151.534788 l
784.944 164.14642 l
802.872 172.435016 l
820.8 177.996126 l
stroke
grestore
2 setlinecap
[] 0 setdash
0.000 0.500 0.000 setrgbcolor
gsave
717.1 760.3 103.7 60.48 clipbox
103.68 499.03706 m
121.608 502.181688 l
139.536 500.286598 l
157.464 499.280879 l
175.392 497.545373 l
193.32 497.233573 l
211.248 499.123737 l
229.176 498.112618 l
247.104 498.408236 l
265.032 496.19753 l
282.96 497.542813 l
300.888 499.263235 l
318.816 503.174756 l
336.744 502.950792 l
354.672 498.785783 l
372.6 495.873906 l
390.528 498.999964 l
408.456 499.198269 l
426.384 497.859885 l
444.312 500.304709 l
462.24 502.621514 l
480.168 499.939556 l
498.096 499.157102 l
516.024 498.156648 l
533.952 498.811967 l
551.88 495.611753 l
569.808 496.865272 l
587.736 499.972372 l
605.664 498.119877 l
623.592 497.31106 l
641.52 497.825698 l
659.448 499.577641 l
677.376 498.336456 l
695.304 496.577166 l
713.232 498.203137 l
731.16 495.28431 l
749.088 494.857095 l
767.016 497.122156 l
784.944 494.621235 l
802.872 498.407851 l
820.8 500.413279 l
stroke
grestore
0 setlinecap
[14.8 6.4] 0 setdash
gsave
717.1 760.3 103.7 60.48 clipbox
103.68 123.968224 m
121.608 97.956755 l
139.536 101.1906 l
157.464 96.210601 l
175.392 100.529389 l
193.32 101.964693 l
211.248 105.541315 l
229.176 106.820128 l
247.104 102.308496 l
265.032 96.485215 l
282.96 95.04 l
300.888 96.480186 l
318.816 100.247757 l
336.744 98.942137 l
354.672 108.014198 l
372.6 101.456439 l
390.528 102.656883 l
408.456 104.810017 l
426.384 103.952222 l
444.312 105.691586 l
462.24 104.031312 l
480.168 104.054868 l
498.096 104.5381 l
516.024 109.989763 l
533.952 104.808445 l
551.88 111.289009 l
569.808 106.603009 l
587.736 112.7568 l
605.664 117.947007 l
623.592 122.560953 l
641.52 115.863157 l
659.448 112.901919 l
677.376 110.423599 l
695.304 104.722097 l
713.232 111.893286 l
731.16 107.516328 l
749.088 110.076596 l
767.016 113.444724 l
784.944 114.803043 l
802.872 114.604143 l
820.8 119.145357 l
stroke
grestore
0.800 setlinewidth
0 setlinejoin
2 setlinecap
[] 0 setdash
0.000 setgray
gsave
103.68 60.48 m
103.68 820.8 l
stroke
grestore
gsave
820.8 60.48 m
820.8 820.8 l
stroke
grestore
gsave
103.68 60.48 m
820.8 60.48 l
stroke
grestore
gsave
103.68 820.8 m
820.8 820.8 l
stroke
grestore
gsave
350.482188 826.800000 translate
0.000000 rotate
0.000000 0.000000 m /P glyphshow
12.060547 0.000000 m /o glyphshow
24.296875 0.000000 m /s glyphshow
34.716797 0.000000 m /i glyphshow
40.273438 0.000000 m /t glyphshow
48.115234 0.000000 m /i glyphshow
53.671875 0.000000 m /o glyphshow
65.908203 0.000000 m /n glyphshow
78.583984 0.000000 m /space glyphshow
84.941406 0.000000 m /e glyphshow
97.246094 0.000000 m /r glyphshow
105.468750 0.000000 m /r glyphshow
113.691406 0.000000 m /o glyphshow
125.927734 0.000000 m /r glyphshow
134.150391 0.000000 m /s glyphshow
144.570312 0.000000 m /space glyphshow
150.927734 0.000000 m /i glyphshow
156.484375 0.000000 m /n glyphshow
169.160156 0.000000 m /space glyphshow
175.517578 0.000000 m /p glyphshow
188.212891 0.000000 m /i glyphshow
193.769531 0.000000 m /x glyphshow
205.605469 0.000000 m /e glyphshow
217.910156 0.000000 m /l glyphshow
grestore
1.000 setlinewidth
0 setlinecap
0.800 setgray
gsave
568.925 569.925 m
806.8 569.925 l
809.466667 569.925 810.8 571.258333 810.8 573.925 c
810.8 806.8 l
810.8 809.466667 809.466667 810.8 806.8 810.8 c
568.925 810.8 l
566.258333 810.8 564.925 809.466667 564.925 806.8 c
564.925 573.925 l
564.925 571.258333 566.258333 569.925 568.925 569.925 c
cl
gsave
1.000 setgray
fill
grestore
stroke
grestore
4.000 setlinewidth
1 setlinejoin
2 setlinecap
[] 0 setdash
0.000 setgray
gsave
572.925 794.596875 m
612.925 794.596875 l
stroke
grestore
gsave
628.925000 787.596875 translate
0.000000 rotate
0.000000 0.000000 m /D glyphshow
15.400391 0.000000 m /A glyphshow
29.066406 0.000000 m /V glyphshow
42.748047 0.000000 m /I glyphshow
48.646484 0.000000 m /S glyphshow
61.341797 0.000000 m /comma glyphshow
67.699219 0.000000 m /space glyphshow
74.056641 0.000000 m /P glyphshow
86.117188 0.000000 m /P glyphshow
98.177734 0.000000 m /P glyphshow
110.238281 0.000000 m /space glyphshow
116.595703 0.000000 m /zero glyphshow
129.320312 0.000000 m /period glyphshow
135.677734 0.000000 m /one glyphshow
grestore
0 setlinecap
[14.8 6.4] 0 setdash
gsave
572.925 765.2375 m
612.925 765.2375 l
stroke
grestore
gsave
628.925000 758.237500 translate
0.000000 rotate
0.000000 0.000000 m /O glyphshow
15.742188 0.000000 m /u glyphshow
28.417969 0.000000 m /r glyphshow
36.640625 0.000000 m /s glyphshow
47.060547 0.000000 m /comma glyphshow
53.417969 0.000000 m /space glyphshow
59.775391 0.000000 m /P glyphshow
71.835938 0.000000 m /P glyphshow
83.896484 0.000000 m /P glyphshow
95.957031 0.000000 m /space glyphshow
102.314453 0.000000 m /zero glyphshow
115.039062 0.000000 m /period glyphshow
121.396484 0.000000 m /one glyphshow
grestore
2 setlinecap
[] 0 setdash
1.000 0.000 0.000 setrgbcolor
gsave
572.925 735.878125 m
612.925 735.878125 l
stroke
grestore
0.000 setgray
gsave
628.925000 728.878125 translate
0.000000 rotate
0.000000 0.000000 m /D glyphshow
15.400391 0.000000 m /A glyphshow
29.066406 0.000000 m /V glyphshow
42.748047 0.000000 m /I glyphshow
48.646484 0.000000 m /S glyphshow
61.341797 0.000000 m /comma glyphshow
67.699219 0.000000 m /space glyphshow
74.056641 0.000000 m /P glyphshow
86.117188 0.000000 m /P glyphshow
98.177734 0.000000 m /P glyphshow
110.238281 0.000000 m /space glyphshow
116.595703 0.000000 m /zero glyphshow
129.320312 0.000000 m /period glyphshow
135.677734 0.000000 m /zero glyphshow
148.402344 0.000000 m /seven glyphshow
161.126953 0.000000 m /five glyphshow
grestore
0 setlinecap
[14.8 6.4] 0 setdash
1.000 0.000 0.000 setrgbcolor
gsave
572.925 706.51875 m
612.925 706.51875 l
stroke
grestore
0.000 setgray
gsave
628.925000 699.518750 translate
0.000000 rotate
0.000000 0.000000 m /O glyphshow
15.742188 0.000000 m /u glyphshow
28.417969 0.000000 m /r glyphshow
36.640625 0.000000 m /s glyphshow
47.060547 0.000000 m /comma glyphshow
53.417969 0.000000 m /space glyphshow
59.775391 0.000000 m /P glyphshow
71.835938 0.000000 m /P glyphshow
83.896484 0.000000 m /P glyphshow
95.957031 0.000000 m /space glyphshow
102.314453 0.000000 m /zero glyphshow
115.039062 0.000000 m /period glyphshow
121.396484 0.000000 m /zero glyphshow
134.121094 0.000000 m /seven glyphshow
146.845703 0.000000 m /five glyphshow
grestore
2 setlinecap
[] 0 setdash
0.000 0.000 1.000 setrgbcolor
gsave
572.925 677.159375 m
612.925 677.159375 l
stroke
grestore
0.000 setgray
gsave
628.925000 670.159375 translate
0.000000 rotate
0.000000 0.000000 m /D glyphshow
15.400391 0.000000 m /A glyphshow
29.066406 0.000000 m /V glyphshow
42.748047 0.000000 m /I glyphshow
48.646484 0.000000 m /S glyphshow
61.341797 0.000000 m /comma glyphshow
67.699219 0.000000 m /space glyphshow
74.056641 0.000000 m /P glyphshow
86.117188 0.000000 m /P glyphshow
98.177734 0.000000 m /P glyphshow
110.238281 0.000000 m /space glyphshow
116.595703 0.000000 m /zero glyphshow
129.320312 0.000000 m /period glyphshow
135.677734 0.000000 m /zero glyphshow
148.402344 0.000000 m /five glyphshow
grestore
0 setlinecap
[14.8 6.4] 0 setdash
0.000 0.000 1.000 setrgbcolor
gsave
572.925 647.8 m
612.925 647.8 l
stroke
grestore
0.000 setgray
gsave
628.925000 640.800000 translate
0.000000 rotate
0.000000 0.000000 m /O glyphshow
15.742188 0.000000 m /u glyphshow
28.417969 0.000000 m /r glyphshow
36.640625 0.000000 m /s glyphshow
47.060547 0.000000 m /comma glyphshow
53.417969 0.000000 m /space glyphshow
59.775391 0.000000 m /P glyphshow
71.835938 0.000000 m /P glyphshow
83.896484 0.000000 m /P glyphshow
95.957031 0.000000 m /space glyphshow
102.314453 0.000000 m /zero glyphshow
115.039062 0.000000 m /period glyphshow
121.396484 0.000000 m /zero glyphshow
134.121094 0.000000 m /five glyphshow
grestore
2 setlinecap
[] 0 setdash
0.000 0.500 0.000 setrgbcolor
gsave
572.925 618.440625 m
612.925 618.440625 l
stroke
grestore
0.000 setgray
gsave
628.925000 611.440625 translate
0.000000 rotate
0.000000 0.000000 m /D glyphshow
15.400391 0.000000 m /A glyphshow
29.066406 0.000000 m /V glyphshow
42.748047 0.000000 m /I glyphshow
48.646484 0.000000 m /S glyphshow
61.341797 0.000000 m /comma glyphshow
67.699219 0.000000 m /space glyphshow
74.056641 0.000000 m /P glyphshow
86.117188 0.000000 m /P glyphshow
98.177734 0.000000 m /P glyphshow
110.238281 0.000000 m /space glyphshow
116.595703 0.000000 m /zero glyphshow
129.320312 0.000000 m /period glyphshow
135.677734 0.000000 m /zero glyphshow
148.402344 0.000000 m /two glyphshow
161.126953 0.000000 m /five glyphshow
grestore
0 setlinecap
[14.8 6.4] 0 setdash
0.000 0.500 0.000 setrgbcolor
gsave
572.925 589.08125 m
612.925 589.08125 l
stroke
grestore
0.000 setgray
gsave
628.925000 582.081250 translate
0.000000 rotate
0.000000 0.000000 m /O glyphshow
15.742188 0.000000 m /u glyphshow
28.417969 0.000000 m /r glyphshow
36.640625 0.000000 m /s glyphshow
47.060547 0.000000 m /comma glyphshow
53.417969 0.000000 m /space glyphshow
59.775391 0.000000 m /P glyphshow
71.835938 0.000000 m /P glyphshow
83.896484 0.000000 m /P glyphshow
95.957031 0.000000 m /space glyphshow
102.314453 0.000000 m /zero glyphshow
115.039062 0.000000 m /period glyphshow
121.396484 0.000000 m /zero glyphshow
134.121094 0.000000 m /two glyphshow
146.845703 0.000000 m /five glyphshow
grestore

end
showpage
