%!PS-Adobe-3.0 EPSF-3.0
%%Title: /Users/yin.yang/Documents/Davis_VS_LAPIV.eps
%%Creator: matplotlib version 3.0.2, http://matplotlib.org/
%%CreationDate: Sun May  5 14:57:18 2019
%%Orientation: portrait
%%BoundingBox: -126 -36 738 828
%%EndComments
%%BeginProlog
/mpldict 8 dict def
mpldict begin
/m { moveto } bind def
/l { lineto } bind def
/r { rlineto } bind def
/c { curveto } bind def
/cl { closepath } bind def
/box {
m
1 index 0 r
0 exch r
neg 0 r
cl
} bind def
/clipbox {
box
clip
newpath
} bind def
%!PS-Adobe-3.0 Resource-Font
%%Title: DejaVu Sans
%%Copyright: Copyright (c) 2003 by Bitstream, Inc. All Rights Reserved. Copyright (c) 2006 by Tavmjong Bah. All Rights Reserved. DejaVu changes are in public domain 
%%Creator: Converted from TrueType to type 3 by PPR
25 dict begin
/_d{bind def}bind def
/_m{moveto}_d
/_l{lineto}_d
/_cl{closepath eofill}_d
/_c{curveto}_d
/_sc{7 -1 roll{setcachedevice}{pop pop pop pop pop pop}ifelse}_d
/_e{exec}_d
/FontName /DejaVuSans def
/PaintType 0 def
/FontMatrix[.001 0 0 .001 0 0]def
/FontBBox[-1021 -463 1793 1232]def
/FontType 3 def
/Encoding [ /space /parenleft /parenright /comma /hyphen /period /zero /one /two /three /four /five /six /seven /eight /nine /equal /A /D /F /I /P /S /V /a /e /h /i /l /n /o /p /r /s /t /u /x ] def
/FontInfo 10 dict dup begin
/FamilyName (DejaVu Sans) def
/FullName (DejaVu Sans) def
/Notice (Copyright (c) 2003 by Bitstream, Inc. All Rights Reserved. Copyright (c) 2006 by Tavmjong Bah. All Rights Reserved. DejaVu changes are in public domain ) def
/Weight (Book) def
/Version (Version 2.35) def
/ItalicAngle 0.0 def
/isFixedPitch false def
/UnderlinePosition -130 def
/UnderlineThickness 90 def
end readonly def
/CharStrings 38 dict dup begin
/.notdef 0 def
/space{318 0 0 0 0 0 _sc
}_d
/parenleft{390 0 86 -131 310 759 _sc
310 759 _m
266 683 234 609 213 536 _c
191 463 181 389 181 314 _c
181 238 191 164 213 91 _c
234 17 266 -56 310 -131 _c
232 -131 _l
183 -54 146 20 122 94 _c
98 168 86 241 86 314 _c
86 386 98 459 122 533 _c
146 607 182 682 232 759 _c
310 759 _l
_cl}_d
/parenright{390 0 80 -131 304 759 _sc
80 759 _m
158 759 _l
206 682 243 607 267 533 _c
291 459 304 386 304 314 _c
304 241 291 168 267 94 _c
243 20 206 -54 158 -131 _c
80 -131 _l
123 -56 155 17 177 91 _c
198 164 209 238 209 314 _c
209 389 198 463 177 536 _c
155 609 123 683 80 759 _c
_cl}_d
/comma{318 0 77 -115 220 124 _sc
117 124 _m
220 124 _l
220 40 _l
140 -115 _l
77 -115 _l
117 40 _l
117 124 _l
_cl}_d
/hyphen{361 0 49 234 312 314 _sc
49 314 _m
312 314 _l
312 234 _l
49 234 _l
49 314 _l
_cl}_d
/period{318 0 107 0 210 124 _sc
107 124 _m
210 124 _l
210 0 _l
107 0 _l
107 124 _l
_cl}_d
/zero{636 0 66 -13 570 742 _sc
318 664 _m
267 664 229 639 203 589 _c
177 539 165 464 165 364 _c
165 264 177 189 203 139 _c
229 89 267 64 318 64 _c
369 64 407 89 433 139 _c
458 189 471 264 471 364 _c
471 464 458 539 433 589 _c
407 639 369 664 318 664 _c
318 742 _m
399 742 461 709 505 645 _c
548 580 570 486 570 364 _c
570 241 548 147 505 83 _c
461 19 399 -13 318 -13 _c
236 -13 173 19 130 83 _c
87 147 66 241 66 364 _c
66 486 87 580 130 645 _c
173 709 236 742 318 742 _c
_cl}_d
/one{636 0 110 0 544 729 _sc
124 83 _m
285 83 _l
285 639 _l
110 604 _l
110 694 _l
284 729 _l
383 729 _l
383 83 _l
544 83 _l
544 0 _l
124 0 _l
124 83 _l
_cl}_d
/two{{636 0 73 0 536 742 _sc
192 83 _m
536 83 _l
536 0 _l
73 0 _l
73 83 _l
110 121 161 173 226 239 _c
290 304 331 346 348 365 _c
380 400 402 430 414 455 _c
426 479 433 504 433 528 _c
433 566 419 598 392 622 _c
365 646 330 659 286 659 _c
255 659 222 653 188 643 _c
154 632 117 616 78 594 _c
78 694 _l
118 710 155 722 189 730 _c
223 738 255 742 284 742 _c
}_e{359 742 419 723 464 685 _c
509 647 532 597 532 534 _c
532 504 526 475 515 449 _c
504 422 484 390 454 354 _c
446 344 420 317 376 272 _c
332 227 271 164 192 83 _c
_cl}_e}_d
/three{{636 0 76 -13 556 742 _sc
406 393 _m
453 383 490 362 516 330 _c
542 298 556 258 556 212 _c
556 140 531 84 482 45 _c
432 6 362 -13 271 -13 _c
240 -13 208 -10 176 -4 _c
144 1 110 10 76 22 _c
76 117 _l
103 101 133 89 166 81 _c
198 73 232 69 268 69 _c
330 69 377 81 409 105 _c
441 129 458 165 458 212 _c
458 254 443 288 413 312 _c
383 336 341 349 287 349 _c
}_e{202 349 _l
202 430 _l
291 430 _l
339 430 376 439 402 459 _c
428 478 441 506 441 543 _c
441 580 427 609 401 629 _c
374 649 336 659 287 659 _c
260 659 231 656 200 650 _c
169 644 135 635 98 623 _c
98 711 _l
135 721 170 729 203 734 _c
235 739 266 742 296 742 _c
370 742 429 725 473 691 _c
517 657 539 611 539 553 _c
539 513 527 479 504 451 _c
481 423 448 403 406 393 _c
_cl}_e}_d
/four{636 0 49 0 580 729 _sc
378 643 _m
129 254 _l
378 254 _l
378 643 _l
352 729 _m
476 729 _l
476 254 _l
580 254 _l
580 172 _l
476 172 _l
476 0 _l
378 0 _l
378 172 _l
49 172 _l
49 267 _l
352 729 _l
_cl}_d
/five{{636 0 77 -13 549 729 _sc
108 729 _m
495 729 _l
495 646 _l
198 646 _l
198 467 _l
212 472 227 476 241 478 _c
255 480 270 482 284 482 _c
365 482 429 459 477 415 _c
525 370 549 310 549 234 _c
549 155 524 94 475 51 _c
426 8 357 -13 269 -13 _c
238 -13 207 -10 175 -6 _c
143 -1 111 6 77 17 _c
77 116 _l
106 100 136 88 168 80 _c
199 72 232 69 267 69 _c
}_e{323 69 368 83 401 113 _c
433 143 450 183 450 234 _c
450 284 433 324 401 354 _c
368 384 323 399 267 399 _c
241 399 214 396 188 390 _c
162 384 135 375 108 363 _c
108 729 _l
_cl}_e}_d
/six{{636 0 70 -13 573 742 _sc
330 404 _m
286 404 251 388 225 358 _c
199 328 186 286 186 234 _c
186 181 199 139 225 109 _c
251 79 286 64 330 64 _c
374 64 409 79 435 109 _c
461 139 474 181 474 234 _c
474 286 461 328 435 358 _c
409 388 374 404 330 404 _c
526 713 _m
526 623 _l
501 635 476 644 451 650 _c
425 656 400 659 376 659 _c
310 659 260 637 226 593 _c
}_e{192 549 172 482 168 394 _c
187 422 211 444 240 459 _c
269 474 301 482 336 482 _c
409 482 467 459 509 415 _c
551 371 573 310 573 234 _c
573 159 550 99 506 54 _c
462 9 403 -13 330 -13 _c
246 -13 181 19 137 83 _c
92 147 70 241 70 364 _c
70 479 97 571 152 639 _c
206 707 280 742 372 742 _c
396 742 421 739 447 735 _c
472 730 498 723 526 713 _c
_cl}_e}_d
/seven{636 0 82 0 551 729 _sc
82 729 _m
551 729 _l
551 687 _l
286 0 _l
183 0 _l
432 646 _l
82 646 _l
82 729 _l
_cl}_d
/eight{{636 0 68 -13 568 742 _sc
318 346 _m
271 346 234 333 207 308 _c
180 283 167 249 167 205 _c
167 161 180 126 207 101 _c
234 76 271 64 318 64 _c
364 64 401 76 428 102 _c
455 127 469 161 469 205 _c
469 249 455 283 429 308 _c
402 333 365 346 318 346 _c
219 388 _m
177 398 144 418 120 447 _c
96 476 85 511 85 553 _c
85 611 105 657 147 691 _c
188 725 245 742 318 742 _c
}_e{390 742 447 725 489 691 _c
530 657 551 611 551 553 _c
551 511 539 476 515 447 _c
491 418 459 398 417 388 _c
464 377 501 355 528 323 _c
554 291 568 251 568 205 _c
568 134 546 80 503 43 _c
459 5 398 -13 318 -13 _c
237 -13 175 5 132 43 _c
89 80 68 134 68 205 _c
68 251 81 291 108 323 _c
134 355 171 377 219 388 _c
183 544 _m
183 506 194 476 218 455 _c
}_e{242 434 275 424 318 424 _c
360 424 393 434 417 455 _c
441 476 453 506 453 544 _c
453 582 441 611 417 632 _c
393 653 360 664 318 664 _c
275 664 242 653 218 632 _c
194 611 183 582 183 544 _c
_cl}_e}_d
/nine{{636 0 63 -13 566 742 _sc
110 15 _m
110 105 _l
134 93 159 84 185 78 _c
210 72 235 69 260 69 _c
324 69 374 90 408 134 _c
442 178 462 244 468 334 _c
448 306 424 284 396 269 _c
367 254 335 247 300 247 _c
226 247 168 269 126 313 _c
84 357 63 417 63 494 _c
63 568 85 628 129 674 _c
173 719 232 742 306 742 _c
390 742 455 709 499 645 _c
543 580 566 486 566 364 _c
}_e{566 248 538 157 484 89 _c
429 21 356 -13 264 -13 _c
239 -13 214 -10 189 -6 _c
163 -2 137 5 110 15 _c
306 324 _m
350 324 385 339 411 369 _c
437 399 450 441 450 494 _c
450 546 437 588 411 618 _c
385 648 350 664 306 664 _c
262 664 227 648 201 618 _c
175 588 162 546 162 494 _c
162 441 175 399 201 369 _c
227 339 262 324 306 324 _c
_cl}_e}_d
/equal{838 0 106 172 732 454 _sc
106 454 _m
732 454 _l
732 372 _l
106 372 _l
106 454 _l
106 255 _m
732 255 _l
732 172 _l
106 172 _l
106 255 _l
_cl}_d
/A{684 0 8 0 676 729 _sc
342 632 _m
208 269 _l
476 269 _l
342 632 _l
286 729 _m
398 729 _l
676 0 _l
573 0 _l
507 187 _l
178 187 _l
112 0 _l
8 0 _l
286 729 _l
_cl}_d
/D{770 0 98 0 711 729 _sc
197 648 _m
197 81 _l
316 81 _l
416 81 490 103 537 149 _c
583 195 607 267 607 365 _c
607 463 583 534 537 580 _c
490 625 416 648 316 648 _c
197 648 _l
98 729 _m
301 729 _l
442 729 546 699 612 641 _c
678 582 711 490 711 365 _c
711 239 677 147 611 88 _c
545 29 441 0 301 0 _c
98 0 _l
98 729 _l
_cl}_d
/F{575 0 98 0 517 729 _sc
98 729 _m
517 729 _l
517 646 _l
197 646 _l
197 431 _l
486 431 _l
486 348 _l
197 348 _l
197 0 _l
98 0 _l
98 729 _l
_cl}_d
/I{295 0 98 0 197 729 _sc
98 729 _m
197 729 _l
197 0 _l
98 0 _l
98 729 _l
_cl}_d
/P{603 0 98 0 569 729 _sc
197 648 _m
197 374 _l
321 374 _l
367 374 402 385 427 409 _c
452 433 465 467 465 511 _c
465 555 452 588 427 612 _c
402 636 367 648 321 648 _c
197 648 _l
98 729 _m
321 729 _l
402 729 464 710 506 673 _c
548 636 569 582 569 511 _c
569 439 548 384 506 348 _c
464 311 402 293 321 293 _c
197 293 _l
197 0 _l
98 0 _l
98 729 _l
_cl}_d
/S{{635 0 66 -13 579 742 _sc
535 705 _m
535 609 _l
497 627 462 640 429 649 _c
395 657 363 662 333 662 _c
279 662 237 651 208 631 _c
179 610 165 580 165 542 _c
165 510 174 485 194 469 _c
213 452 250 439 304 429 _c
364 417 _l
437 403 491 378 526 343 _c
561 307 579 260 579 201 _c
579 130 555 77 508 41 _c
460 5 391 -13 300 -13 _c
265 -13 228 -9 189 -2 _c
}_e{150 5 110 16 69 32 _c
69 134 _l
109 111 148 94 186 83 _c
224 71 262 66 300 66 _c
356 66 399 77 430 99 _c
460 121 476 152 476 194 _c
476 230 465 258 443 278 _c
421 298 385 313 335 323 _c
275 335 _l
201 349 148 372 115 404 _c
82 435 66 478 66 534 _c
66 598 88 649 134 686 _c
179 723 242 742 322 742 _c
356 742 390 739 426 733 _c
461 727 497 717 535 705 _c
}_e{_cl}_e}_d
/V{684 0 8 0 676 729 _sc
286 0 _m
8 729 _l
111 729 _l
342 115 _l
573 729 _l
676 729 _l
398 0 _l
286 0 _l
_cl}_d
/a{{613 0 60 -13 522 560 _sc
343 275 _m
270 275 220 266 192 250 _c
164 233 150 205 150 165 _c
150 133 160 107 181 89 _c
202 70 231 61 267 61 _c
317 61 357 78 387 114 _c
417 149 432 196 432 255 _c
432 275 _l
343 275 _l
522 312 _m
522 0 _l
432 0 _l
432 83 _l
411 49 385 25 355 10 _c
325 -5 287 -13 243 -13 _c
187 -13 142 2 109 33 _c
76 64 60 106 60 159 _c
}_e{60 220 80 266 122 298 _c
163 329 224 345 306 345 _c
432 345 _l
432 354 _l
432 395 418 427 391 450 _c
364 472 326 484 277 484 _c
245 484 215 480 185 472 _c
155 464 127 453 100 439 _c
100 522 _l
132 534 164 544 195 550 _c
226 556 256 560 286 560 _c
365 560 424 539 463 498 _c
502 457 522 395 522 312 _c
_cl}_e}_d
/e{{615 0 55 -13 562 560 _sc
562 296 _m
562 252 _l
149 252 _l
153 190 171 142 205 110 _c
238 78 284 62 344 62 _c
378 62 412 66 444 74 _c
476 82 509 95 541 113 _c
541 28 _l
509 14 476 3 442 -3 _c
408 -9 373 -13 339 -13 _c
251 -13 182 12 131 62 _c
80 112 55 181 55 268 _c
55 357 79 428 127 481 _c
175 533 241 560 323 560 _c
397 560 455 536 498 489 _c
}_e{540 441 562 377 562 296 _c
472 322 _m
471 371 457 410 431 440 _c
404 469 368 484 324 484 _c
274 484 234 469 204 441 _c
174 413 156 373 152 322 _c
472 322 _l
_cl}_e}_d
/h{634 0 91 0 549 760 _sc
549 330 _m
549 0 _l
459 0 _l
459 327 _l
459 379 448 417 428 443 _c
408 469 378 482 338 482 _c
289 482 251 466 223 435 _c
195 404 181 362 181 309 _c
181 0 _l
91 0 _l
91 760 _l
181 760 _l
181 462 _l
202 494 227 519 257 535 _c
286 551 320 560 358 560 _c
420 560 468 540 500 501 _c
532 462 549 405 549 330 _c
_cl}_d
/i{278 0 94 0 184 760 _sc
94 547 _m
184 547 _l
184 0 _l
94 0 _l
94 547 _l
94 760 _m
184 760 _l
184 646 _l
94 646 _l
94 760 _l
_cl}_d
/l{278 0 94 0 184 760 _sc
94 760 _m
184 760 _l
184 0 _l
94 0 _l
94 760 _l
_cl}_d
/n{634 0 91 0 549 560 _sc
549 330 _m
549 0 _l
459 0 _l
459 327 _l
459 379 448 417 428 443 _c
408 469 378 482 338 482 _c
289 482 251 466 223 435 _c
195 404 181 362 181 309 _c
181 0 _l
91 0 _l
91 547 _l
181 547 _l
181 462 _l
202 494 227 519 257 535 _c
286 551 320 560 358 560 _c
420 560 468 540 500 501 _c
532 462 549 405 549 330 _c
_cl}_d
/o{612 0 55 -13 557 560 _sc
306 484 _m
258 484 220 465 192 427 _c
164 389 150 338 150 273 _c
150 207 163 156 191 118 _c
219 80 257 62 306 62 _c
354 62 392 80 420 118 _c
448 156 462 207 462 273 _c
462 337 448 389 420 427 _c
392 465 354 484 306 484 _c
306 560 _m
384 560 445 534 490 484 _c
534 433 557 363 557 273 _c
557 183 534 113 490 63 _c
445 12 384 -13 306 -13 _c
227 -13 165 12 121 63 _c
77 113 55 183 55 273 _c
55 363 77 433 121 484 _c
165 534 227 560 306 560 _c
_cl}_d
/p{{635 0 91 -207 580 560 _sc
181 82 _m
181 -207 _l
91 -207 _l
91 547 _l
181 547 _l
181 464 _l
199 496 223 520 252 536 _c
281 552 316 560 356 560 _c
422 560 476 533 518 481 _c
559 428 580 359 580 273 _c
580 187 559 117 518 65 _c
476 13 422 -13 356 -13 _c
316 -13 281 -5 252 10 _c
223 25 199 49 181 82 _c
487 273 _m
487 339 473 390 446 428 _c
418 466 381 485 334 485 _c
}_e{286 485 249 466 222 428 _c
194 390 181 339 181 273 _c
181 207 194 155 222 117 _c
249 79 286 61 334 61 _c
381 61 418 79 446 117 _c
473 155 487 207 487 273 _c
_cl}_e}_d
/r{411 0 91 0 411 560 _sc
411 463 _m
401 469 390 473 378 476 _c
366 478 353 480 339 480 _c
288 480 249 463 222 430 _c
194 397 181 350 181 288 _c
181 0 _l
91 0 _l
91 547 _l
181 547 _l
181 462 _l
199 495 224 520 254 536 _c
284 552 321 560 365 560 _c
371 560 378 559 386 559 _c
393 558 401 557 411 555 _c
411 463 _l
_cl}_d
/s{{521 0 54 -13 472 560 _sc
443 531 _m
443 446 _l
417 458 391 468 364 475 _c
336 481 308 485 279 485 _c
234 485 200 478 178 464 _c
156 450 145 430 145 403 _c
145 382 153 366 169 354 _c
185 342 217 330 265 320 _c
296 313 _l
360 299 405 279 432 255 _c
458 230 472 195 472 151 _c
472 100 452 60 412 31 _c
372 1 316 -13 246 -13 _c
216 -13 186 -10 154 -5 _c
}_e{122 0 89 8 54 20 _c
54 113 _l
87 95 120 82 152 74 _c
184 65 216 61 248 61 _c
290 61 323 68 346 82 _c
368 96 380 117 380 144 _c
380 168 371 187 355 200 _c
339 213 303 226 247 238 _c
216 245 _l
160 257 119 275 95 299 _c
70 323 58 356 58 399 _c
58 450 76 490 112 518 _c
148 546 200 560 268 560 _c
301 560 332 557 362 552 _c
391 547 418 540 443 531 _c
}_e{_cl}_e}_d
/t{392 0 27 0 368 702 _sc
183 702 _m
183 547 _l
368 547 _l
368 477 _l
183 477 _l
183 180 _l
183 135 189 106 201 94 _c
213 81 238 75 276 75 _c
368 75 _l
368 0 _l
276 0 _l
206 0 158 13 132 39 _c
106 65 93 112 93 180 _c
93 477 _l
27 477 _l
27 547 _l
93 547 _l
93 702 _l
183 702 _l
_cl}_d
/u{634 0 85 -13 543 560 _sc
85 216 _m
85 547 _l
175 547 _l
175 219 _l
175 167 185 129 205 103 _c
225 77 255 64 296 64 _c
344 64 383 79 411 110 _c
439 141 453 183 453 237 _c
453 547 _l
543 547 _l
543 0 _l
453 0 _l
453 84 _l
431 50 405 26 377 10 _c
348 -5 315 -13 277 -13 _c
214 -13 166 6 134 45 _c
101 83 85 140 85 216 _c
311 560 _m
311 560 _l
_cl}_d
/x{592 0 29 0 559 547 _sc
549 547 _m
351 281 _l
559 0 _l
453 0 _l
294 215 _l
135 0 _l
29 0 _l
241 286 _l
47 547 _l
153 547 _l
298 352 _l
443 547 _l
549 547 _l
_cl}_d
end readonly def

/BuildGlyph
 {exch begin
 CharStrings exch
 2 copy known not{pop /.notdef}if
 true 3 1 roll get exec
 end}_d

/BuildChar {
 1 index /Encoding get exch get
 1 index /BuildGlyph get exec
}_d

FontName currentdict end definefont pop
end
%%EndProlog
mpldict begin
-126 -36 translate
864 864 0 0 clipbox
gsave
0 0 m
864 0 l
864 864 l
0 864 l
cl
1.000 setgray
fill
grestore
gsave
103.68 60.48 m
820.8 60.48 l
820.8 820.8 l
103.68 820.8 l
cl
1.000 setgray
fill
grestore
0.800 setlinewidth
1 setlinejoin
0 setlinecap
[] 0 setdash
0.000 setgray
gsave
/o {
gsave
newpath
translate
0.8 setlinewidth
1 setlinejoin
0 setlinecap
0 0 m
0 -3.5 l

gsave
0.000 setgray
fill
grestore
stroke
grestore
} bind def
103.68 60.48 o
grestore
/DejaVuSans findfont
20.000 scalefont
setfont
gsave
90.961250 38.276875 translate
0.000000 rotate
0.000000 0.000000 m /one glyphshow
12.724609 0.000000 m /zero glyphshow
grestore
gsave
/o {
gsave
newpath
translate
0.8 setlinewidth
1 setlinejoin
0 setlinecap
0 0 m
0 -3.5 l

gsave
0.000 setgray
fill
grestore
stroke
grestore
} bind def
193.32 60.48 o
grestore
gsave
180.601250 38.276875 translate
0.000000 rotate
0.000000 0.000000 m /one glyphshow
12.724609 0.000000 m /five glyphshow
grestore
gsave
/o {
gsave
newpath
translate
0.8 setlinewidth
1 setlinejoin
0 setlinecap
0 0 m
0 -3.5 l

gsave
0.000 setgray
fill
grestore
stroke
grestore
} bind def
282.96 60.48 o
grestore
gsave
270.241250 38.276875 translate
0.000000 rotate
0.000000 0.000000 m /two glyphshow
12.724609 0.000000 m /zero glyphshow
grestore
gsave
/o {
gsave
newpath
translate
0.8 setlinewidth
1 setlinejoin
0 setlinecap
0 0 m
0 -3.5 l

gsave
0.000 setgray
fill
grestore
stroke
grestore
} bind def
372.6 60.48 o
grestore
gsave
359.881250 38.276875 translate
0.000000 rotate
0.000000 0.000000 m /two glyphshow
12.724609 0.000000 m /five glyphshow
grestore
gsave
/o {
gsave
newpath
translate
0.8 setlinewidth
1 setlinejoin
0 setlinecap
0 0 m
0 -3.5 l

gsave
0.000 setgray
fill
grestore
stroke
grestore
} bind def
462.24 60.48 o
grestore
gsave
449.521250 38.276875 translate
0.000000 rotate
0.000000 0.000000 m /three glyphshow
12.724609 0.000000 m /zero glyphshow
grestore
gsave
/o {
gsave
newpath
translate
0.8 setlinewidth
1 setlinejoin
0 setlinecap
0 0 m
0 -3.5 l

gsave
0.000 setgray
fill
grestore
stroke
grestore
} bind def
551.88 60.48 o
grestore
gsave
539.161250 38.276875 translate
0.000000 rotate
0.000000 0.000000 m /three glyphshow
12.724609 0.000000 m /five glyphshow
grestore
gsave
/o {
gsave
newpath
translate
0.8 setlinewidth
1 setlinejoin
0 setlinecap
0 0 m
0 -3.5 l

gsave
0.000 setgray
fill
grestore
stroke
grestore
} bind def
641.52 60.48 o
grestore
gsave
628.801250 38.276875 translate
0.000000 rotate
0.000000 0.000000 m /four glyphshow
12.724609 0.000000 m /zero glyphshow
grestore
gsave
/o {
gsave
newpath
translate
0.8 setlinewidth
1 setlinejoin
0 setlinecap
0 0 m
0 -3.5 l

gsave
0.000 setgray
fill
grestore
stroke
grestore
} bind def
731.16 60.48 o
grestore
gsave
718.441250 38.276875 translate
0.000000 rotate
0.000000 0.000000 m /four glyphshow
12.724609 0.000000 m /five glyphshow
grestore
gsave
/o {
gsave
newpath
translate
0.8 setlinewidth
1 setlinejoin
0 setlinecap
0 0 m
0 -3.5 l

gsave
0.000 setgray
fill
grestore
stroke
grestore
} bind def
820.8 60.48 o
grestore
gsave
808.081250 38.276875 translate
0.000000 rotate
0.000000 0.000000 m /five glyphshow
12.724609 0.000000 m /zero glyphshow
grestore
gsave
410.279063 14.917500 translate
0.000000 rotate
0.000000 0.000000 m /S glyphshow
12.695312 0.000000 m /n glyphshow
25.371094 0.000000 m /a glyphshow
37.626953 0.000000 m /p glyphshow
50.322266 0.000000 m /s glyphshow
60.742188 0.000000 m /h glyphshow
73.417969 0.000000 m /o glyphshow
85.654297 0.000000 m /t glyphshow
93.496094 0.000000 m /s glyphshow
grestore
gsave
/o {
gsave
newpath
translate
0.8 setlinewidth
1 setlinejoin
0 setlinecap
0 0 m
-3.5 0 l

gsave
0.000 setgray
fill
grestore
stroke
grestore
} bind def
103.68 648.893 o
grestore
gsave
38.992500 641.291905 translate
0.000000 rotate
0.000000 0.000000 m /one glyphshow
12.724609 0.000000 m /e glyphshow
25.029297 0.000000 m /hyphen glyphshow
32.246094 0.000000 m /zero glyphshow
44.970703 0.000000 m /one glyphshow
grestore
0.600 setlinewidth
gsave
/o {
gsave
newpath
translate
0.6 setlinewidth
1 setlinejoin
0 setlinecap
0 0 m
-2 0 l

gsave
0.000 setgray
fill
grestore
stroke
grestore
} bind def
103.68 136.979 o
grestore
gsave
40.592500 129.377672 translate
0.000000 rotate
0.000000 0.000000 m /three glyphshow
12.724609 0.000000 m /e glyphshow
25.029297 0.000000 m /hyphen glyphshow
32.246094 0.000000 m /zero glyphshow
44.970703 0.000000 m /two glyphshow
grestore
gsave
/o {
gsave
newpath
translate
0.6 setlinewidth
1 setlinejoin
0 setlinecap
0 0 m
-2 0 l

gsave
0.000 setgray
fill
grestore
stroke
grestore
} bind def
103.68 259.298 o
grestore
gsave
40.592500 251.696504 translate
0.000000 rotate
0.000000 0.000000 m /four glyphshow
12.724609 0.000000 m /e glyphshow
25.029297 0.000000 m /hyphen glyphshow
32.246094 0.000000 m /zero glyphshow
44.970703 0.000000 m /two glyphshow
grestore
gsave
/o {
gsave
newpath
translate
0.6 setlinewidth
1 setlinejoin
0 setlinecap
0 0 m
-2 0 l

gsave
0.000 setgray
fill
grestore
stroke
grestore
} bind def
103.68 354.176 o
grestore
gsave
40.592500 346.574361 translate
0.000000 rotate
0.000000 0.000000 m /five glyphshow
12.724609 0.000000 m /e glyphshow
25.029297 0.000000 m /hyphen glyphshow
32.246094 0.000000 m /zero glyphshow
44.970703 0.000000 m /two glyphshow
grestore
gsave
/o {
gsave
newpath
translate
0.6 setlinewidth
1 setlinejoin
0 setlinecap
0 0 m
-2 0 l

gsave
0.000 setgray
fill
grestore
stroke
grestore
} bind def
103.68 431.697 o
grestore
gsave
40.592500 424.095215 translate
0.000000 rotate
0.000000 0.000000 m /six glyphshow
12.724609 0.000000 m /e glyphshow
25.029297 0.000000 m /hyphen glyphshow
32.246094 0.000000 m /zero glyphshow
44.970703 0.000000 m /two glyphshow
grestore
gsave
/o {
gsave
newpath
translate
0.6 setlinewidth
1 setlinejoin
0 setlinecap
0 0 m
-2 0 l

gsave
0.000 setgray
fill
grestore
stroke
grestore
} bind def
103.68 497.24 o
grestore
gsave
40.592500 489.638163 translate
0.000000 rotate
0.000000 0.000000 m /seven glyphshow
12.724609 0.000000 m /e glyphshow
25.029297 0.000000 m /hyphen glyphshow
32.246094 0.000000 m /zero glyphshow
44.970703 0.000000 m /two glyphshow
grestore
gsave
/o {
gsave
newpath
translate
0.6 setlinewidth
1 setlinejoin
0 setlinecap
0 0 m
-2 0 l

gsave
0.000 setgray
fill
grestore
stroke
grestore
} bind def
103.68 554.016 o
grestore
gsave
40.592500 546.414048 translate
0.000000 rotate
0.000000 0.000000 m /eight glyphshow
12.724609 0.000000 m /e glyphshow
25.029297 0.000000 m /hyphen glyphshow
32.246094 0.000000 m /zero glyphshow
44.970703 0.000000 m /two glyphshow
grestore
gsave
/o {
gsave
newpath
translate
0.6 setlinewidth
1 setlinejoin
0 setlinecap
0 0 m
-2 0 l

gsave
0.000 setgray
fill
grestore
stroke
grestore
} bind def
103.68 604.095 o
grestore
gsave
40.592500 596.493927 translate
0.000000 rotate
0.000000 0.000000 m /nine glyphshow
12.724609 0.000000 m /e glyphshow
25.029297 0.000000 m /hyphen glyphshow
32.246094 0.000000 m /zero glyphshow
44.970703 0.000000 m /two glyphshow
grestore
gsave
30.836250 345.100938 translate
90.000000 rotate
0.000000 0.000000 m /P glyphshow
12.060547 0.000000 m /o glyphshow
24.296875 0.000000 m /s glyphshow
34.716797 0.000000 m /i glyphshow
40.273438 0.000000 m /t glyphshow
48.115234 0.000000 m /i glyphshow
53.671875 0.000000 m /o glyphshow
65.908203 0.000000 m /n glyphshow
78.583984 0.000000 m /space glyphshow
84.941406 0.000000 m /e glyphshow
97.246094 0.000000 m /r glyphshow
105.468750 0.000000 m /r glyphshow
113.691406 0.000000 m /o glyphshow
125.927734 0.000000 m /r glyphshow
134.150391 0.000000 m /s glyphshow
144.570312 0.000000 m /space glyphshow
150.927734 0.000000 m /parenleft glyphshow
158.730469 0.000000 m /p glyphshow
171.425781 0.000000 m /x glyphshow
183.261719 0.000000 m /parenright glyphshow
grestore
4.000 setlinewidth
2 setlinecap
gsave
717.1 760.3 103.7 60.48 clipbox
103.68 696.056628 m
121.608 689.076601 l
139.536 703.254792 l
157.464 718.559142 l
175.392 737.017699 l
193.32 758.539776 l
211.248 769.217919 l
229.176 778.43008 l
247.104 786.24 l
265.032 781.577411 l
282.96 778.122131 l
300.888 778.434256 l
318.816 778.426738 l
336.744 767.258541 l
354.672 759.306998 l
372.6 759.129453 l
390.528 738.402866 l
408.456 720.534861 l
426.384 716.758012 l
444.312 712.126046 l
462.24 705.213767 l
480.168 698.573902 l
498.096 697.620519 l
516.024 691.309735 l
533.952 691.676158 l
551.88 693.971108 l
569.808 685.805676 l
587.736 683.431203 l
605.664 681.822434 l
623.592 684.169109 l
641.52 680.866147 l
659.448 676.052066 l
677.376 664.298087 l
695.304 660.956417 l
713.232 660.923508 l
731.16 650.607832 l
749.088 647.642892 l
767.016 645.069786 l
784.944 644.01638 l
802.872 641.800224 l
820.8 640.199156 l
stroke
grestore
0 setlinecap
[14.8 6.4] 0 setdash
gsave
717.1 760.3 103.7 60.48 clipbox
103.68 606.399419 m
121.608 590.861646 l
139.536 583.800422 l
157.464 560.589038 l
175.392 548.236759 l
193.32 531.348075 l
211.248 521.637879 l
229.176 514.050969 l
247.104 505.146681 l
265.032 501.866781 l
282.96 498.274314 l
300.888 497.631303 l
318.816 496.093202 l
336.744 491.112145 l
354.672 492.462776 l
372.6 492.820527 l
390.528 492.441169 l
408.456 491.520444 l
426.384 493.814271 l
444.312 491.742838 l
462.24 492.03707 l
480.168 491.957359 l
498.096 494.329914 l
516.024 490.640601 l
533.952 491.357003 l
551.88 489.91828 l
569.808 490.225795 l
587.736 488.40853 l
605.664 490.232008 l
623.592 490.296001 l
641.52 489.698256 l
659.448 488.847381 l
677.376 487.730953 l
695.304 490.216849 l
713.232 493.180486 l
731.16 491.205062 l
749.088 489.553043 l
767.016 491.112608 l
784.944 490.822872 l
802.872 493.706214 l
820.8 493.74663 l
stroke
grestore
2 setlinecap
[] 0 setdash
1.000 0.000 0.000 setrgbcolor
gsave
717.1 760.3 103.7 60.48 clipbox
103.68 356.462187 m
121.608 357.504918 l
139.536 360.347433 l
157.464 356.815527 l
175.392 355.910098 l
193.32 356.034684 l
211.248 350.459707 l
229.176 347.746426 l
247.104 351.190505 l
265.032 347.635962 l
282.96 346.071263 l
300.888 347.815802 l
318.816 344.523763 l
336.744 350.213376 l
354.672 346.050423 l
372.6 349.518854 l
390.528 347.237821 l
408.456 348.105352 l
426.384 348.119295 l
444.312 350.078297 l
462.24 349.458384 l
480.168 354.491957 l
498.096 346.334534 l
516.024 349.283486 l
533.952 346.973627 l
551.88 349.716893 l
569.808 346.826922 l
587.736 348.158756 l
605.664 347.406177 l
623.592 349.327181 l
641.52 348.836034 l
659.448 351.007517 l
677.376 348.476901 l
695.304 349.330681 l
713.232 350.044711 l
731.16 350.087173 l
749.088 349.531615 l
767.016 346.458542 l
784.944 345.78861 l
802.872 347.440076 l
820.8 349.291716 l
stroke
grestore
0 setlinecap
[14.8 6.4] 0 setdash
gsave
717.1 760.3 103.7 60.48 clipbox
103.68 259.943343 m
121.608 252.979695 l
139.536 250.500416 l
157.464 247.537683 l
175.392 244.486472 l
193.32 241.312557 l
211.248 240.560648 l
229.176 240.880072 l
247.104 240.030116 l
265.032 240.03726 l
282.96 238.422772 l
300.888 238.592582 l
318.816 238.413992 l
336.744 239.14701 l
354.672 241.14666 l
372.6 239.275847 l
390.528 240.190185 l
408.456 240.147382 l
426.384 239.841631 l
444.312 239.28738 l
462.24 239.299643 l
480.168 240.598675 l
498.096 239.366463 l
516.024 240.544183 l
533.952 240.381944 l
551.88 241.342706 l
569.808 240.564725 l
587.736 241.726997 l
605.664 241.08555 l
623.592 239.986308 l
641.52 241.019366 l
659.448 242.725298 l
677.376 241.277021 l
695.304 242.054392 l
713.232 242.240305 l
731.16 242.136685 l
749.088 243.048568 l
767.016 244.067224 l
784.944 241.930778 l
802.872 241.302645 l
820.8 243.013422 l
stroke
grestore
2 setlinecap
[] 0 setdash
0.000 0.000 1.000 setrgbcolor
gsave
717.1 760.3 103.7 60.48 clipbox
103.68 325.072406 m
121.608 329.835281 l
139.536 329.629541 l
157.464 328.915332 l
175.392 330.419448 l
193.32 325.874336 l
211.248 320.477669 l
229.176 322.015143 l
247.104 321.909119 l
265.032 316.912128 l
282.96 319.131745 l
300.888 321.734299 l
318.816 321.765825 l
336.744 319.603957 l
354.672 320.152188 l
372.6 320.821342 l
390.528 318.699269 l
408.456 321.302712 l
426.384 323.27038 l
444.312 319.372981 l
462.24 324.398306 l
480.168 322.939213 l
498.096 323.408574 l
516.024 324.119409 l
533.952 319.991746 l
551.88 321.972011 l
569.808 324.729244 l
587.736 318.553894 l
605.664 322.792673 l
623.592 321.132533 l
641.52 323.826377 l
659.448 326.633894 l
677.376 320.313801 l
695.304 318.965691 l
713.232 320.214622 l
731.16 320.234145 l
749.088 317.167423 l
767.016 320.142438 l
784.944 318.280467 l
802.872 321.735238 l
820.8 317.884645 l
stroke
grestore
0 setlinecap
[14.8 6.4] 0 setdash
gsave
717.1 760.3 103.7 60.48 clipbox
103.68 228.660295 m
121.608 227.617207 l
139.536 226.875244 l
157.464 227.712192 l
175.392 225.396412 l
193.32 225.938022 l
211.248 225.410964 l
229.176 225.503643 l
247.104 224.097144 l
265.032 224.176055 l
282.96 225.188589 l
300.888 226.487014 l
318.816 225.580962 l
336.744 225.875032 l
354.672 226.694356 l
372.6 225.857582 l
390.528 224.208915 l
408.456 224.733359 l
426.384 224.798337 l
444.312 224.858662 l
462.24 225.09126 l
480.168 224.730801 l
498.096 223.961743 l
516.024 224.844796 l
533.952 223.802332 l
551.88 225.012781 l
569.808 226.457413 l
587.736 225.173633 l
605.664 226.398873 l
623.592 224.585259 l
641.52 226.666819 l
659.448 227.522976 l
677.376 224.90952 l
695.304 224.827301 l
713.232 227.992388 l
731.16 225.037623 l
749.088 225.762969 l
767.016 226.200214 l
784.944 225.474926 l
802.872 226.259258 l
820.8 225.588209 l
stroke
grestore
2 setlinecap
[] 0 setdash
0.000 0.500 0.000 setrgbcolor
gsave
717.1 760.3 103.7 60.48 clipbox
103.68 265.35408 m
121.608 267.531286 l
139.536 259.614909 l
157.464 254.349621 l
175.392 259.080222 l
193.32 262.66092 l
211.248 256.934049 l
229.176 258.01055 l
247.104 260.7254 l
265.032 261.17134 l
282.96 258.645451 l
300.888 259.745664 l
318.816 260.342983 l
336.744 252.127676 l
354.672 254.083351 l
372.6 254.689858 l
390.528 254.129482 l
408.456 256.970359 l
426.384 253.353078 l
444.312 252.929777 l
462.24 253.167611 l
480.168 252.844832 l
498.096 252.48843 l
516.024 254.464605 l
533.952 251.384109 l
551.88 257.384463 l
569.808 258.229045 l
587.736 259.451304 l
605.664 261.309393 l
623.592 262.631762 l
641.52 262.101977 l
659.448 256.345033 l
677.376 261.463475 l
695.304 257.62267 l
713.232 259.331361 l
731.16 259.559309 l
749.088 258.25585 l
767.016 256.82905 l
784.944 259.44454 l
802.872 260.170106 l
820.8 260.882999 l
stroke
grestore
0 setlinecap
[14.8 6.4] 0 setdash
gsave
717.1 760.3 103.7 60.48 clipbox
103.68 102.783239 m
121.608 108.297407 l
139.536 104.974328 l
157.464 103.21078 l
175.392 100.167536 l
193.32 99.620788 l
211.248 102.935229 l
229.176 101.162211 l
247.104 101.680583 l
265.032 97.804065 l
282.96 100.163045 l
300.888 103.17984 l
318.816 110.038772 l
336.744 109.646048 l
354.672 102.34262 l
372.6 97.236584 l
390.528 102.71819 l
408.456 103.065922 l
426.384 100.719038 l
444.312 105.006087 l
462.24 109.06865 l
480.168 104.365784 l
498.096 102.993735 l
516.024 101.239418 l
533.952 102.388534 l
551.88 96.776894 l
569.808 98.974963 l
587.736 104.423328 l
605.664 101.17494 l
623.592 99.756663 l
641.52 100.659091 l
659.448 103.731158 l
677.376 101.554715 l
695.304 98.469764 l
713.232 101.320937 l
731.16 96.202716 l
749.088 95.453585 l
767.016 99.425415 l
784.944 95.04 l
802.872 101.679907 l
820.8 105.196467 l
stroke
grestore
0.800 setlinewidth
0 setlinejoin
2 setlinecap
[] 0 setdash
0.000 setgray
gsave
103.68 60.48 m
103.68 820.8 l
stroke
grestore
gsave
820.8 60.48 m
820.8 820.8 l
stroke
grestore
gsave
103.68 60.48 m
820.8 60.48 l
stroke
grestore
gsave
103.68 820.8 m
820.8 820.8 l
stroke
grestore
gsave
350.482188 826.800000 translate
0.000000 rotate
0.000000 0.000000 m /P glyphshow
12.060547 0.000000 m /o glyphshow
24.296875 0.000000 m /s glyphshow
34.716797 0.000000 m /i glyphshow
40.273438 0.000000 m /t glyphshow
48.115234 0.000000 m /i glyphshow
53.671875 0.000000 m /o glyphshow
65.908203 0.000000 m /n glyphshow
78.583984 0.000000 m /space glyphshow
84.941406 0.000000 m /e glyphshow
97.246094 0.000000 m /r glyphshow
105.468750 0.000000 m /r glyphshow
113.691406 0.000000 m /o glyphshow
125.927734 0.000000 m /r glyphshow
134.150391 0.000000 m /s glyphshow
144.570312 0.000000 m /space glyphshow
150.927734 0.000000 m /i glyphshow
156.484375 0.000000 m /n glyphshow
169.160156 0.000000 m /space glyphshow
175.517578 0.000000 m /p glyphshow
188.212891 0.000000 m /i glyphshow
193.769531 0.000000 m /x glyphshow
205.605469 0.000000 m /e glyphshow
217.910156 0.000000 m /l glyphshow
grestore
1.000 setlinewidth
0 setlinecap
0.800 setgray
gsave
451.909375 569.925 m
806.8 569.925 l
809.466667 569.925 810.8 571.258333 810.8 573.925 c
810.8 806.8 l
810.8 809.466667 809.466667 810.8 806.8 810.8 c
451.909375 810.8 l
449.242708 810.8 447.909375 809.466667 447.909375 806.8 c
447.909375 573.925 l
447.909375 571.258333 449.242708 569.925 451.909375 569.925 c
cl
gsave
1.000 setgray
fill
grestore
stroke
grestore
4.000 setlinewidth
1 setlinejoin
2 setlinecap
[] 0 setdash
0.000 setgray
gsave
455.909375 794.596875 m
495.909375 794.596875 l
stroke
grestore
gsave
511.909375 787.596875 translate
0.000000 rotate
0.000000 0.000000 m /D glyphshow
15.400391 0.000000 m /A glyphshow
29.066406 0.000000 m /V glyphshow
42.748047 0.000000 m /I glyphshow
48.646484 0.000000 m /S glyphshow
61.341797 0.000000 m /comma glyphshow
67.699219 0.000000 m /space glyphshow
74.056641 0.000000 m /F glyphshow
85.544922 0.000000 m /r glyphshow
93.767578 0.000000 m /e glyphshow
106.072266 0.000000 m /e glyphshow
118.376953 0.000000 m /space glyphshow
124.734375 0.000000 m /r glyphshow
132.957031 0.000000 m /u glyphshow
145.632812 0.000000 m /n glyphshow
158.308594 0.000000 m /comma glyphshow
164.666016 0.000000 m /space glyphshow
171.023438 0.000000 m /P glyphshow
183.083984 0.000000 m /P glyphshow
195.144531 0.000000 m /P glyphshow
207.205078 0.000000 m /equal glyphshow
223.962891 0.000000 m /zero glyphshow
236.687500 0.000000 m /period glyphshow
243.044922 0.000000 m /one glyphshow
grestore
0 setlinecap
[14.8 6.4] 0 setdash
gsave
455.909375 765.2375 m
495.909375 765.2375 l
stroke
grestore
gsave
511.909375 758.237500 translate
0.000000 rotate
0.000000 0.000000 m /D glyphshow
15.400391 0.000000 m /A glyphshow
29.066406 0.000000 m /V glyphshow
42.748047 0.000000 m /I glyphshow
48.646484 0.000000 m /S glyphshow
61.341797 0.000000 m /comma glyphshow
67.699219 0.000000 m /space glyphshow
74.056641 0.000000 m /F glyphshow
85.544922 0.000000 m /i glyphshow
91.101562 0.000000 m /n glyphshow
103.777344 0.000000 m /e glyphshow
116.082031 0.000000 m /space glyphshow
122.439453 0.000000 m /t glyphshow
130.281250 0.000000 m /u glyphshow
142.957031 0.000000 m /n glyphshow
155.632812 0.000000 m /e glyphshow
167.937500 0.000000 m /comma glyphshow
174.294922 0.000000 m /space glyphshow
180.652344 0.000000 m /P glyphshow
192.712891 0.000000 m /P glyphshow
204.773438 0.000000 m /P glyphshow
216.833984 0.000000 m /equal glyphshow
233.591797 0.000000 m /zero glyphshow
246.316406 0.000000 m /period glyphshow
252.673828 0.000000 m /one glyphshow
grestore
2 setlinecap
[] 0 setdash
1.000 0.000 0.000 setrgbcolor
gsave
455.909375 735.878125 m
495.909375 735.878125 l
stroke
grestore
0.000 setgray
gsave
511.909375 728.878125 translate
0.000000 rotate
0.000000 0.000000 m /D glyphshow
15.400391 0.000000 m /A glyphshow
29.066406 0.000000 m /V glyphshow
42.748047 0.000000 m /I glyphshow
48.646484 0.000000 m /S glyphshow
61.341797 0.000000 m /comma glyphshow
67.699219 0.000000 m /space glyphshow
74.056641 0.000000 m /F glyphshow
85.544922 0.000000 m /r glyphshow
93.767578 0.000000 m /e glyphshow
106.072266 0.000000 m /e glyphshow
118.376953 0.000000 m /space glyphshow
124.734375 0.000000 m /r glyphshow
132.957031 0.000000 m /u glyphshow
145.632812 0.000000 m /n glyphshow
158.308594 0.000000 m /comma glyphshow
164.666016 0.000000 m /space glyphshow
171.023438 0.000000 m /P glyphshow
183.083984 0.000000 m /P glyphshow
195.144531 0.000000 m /P glyphshow
207.205078 0.000000 m /equal glyphshow
223.962891 0.000000 m /zero glyphshow
236.687500 0.000000 m /period glyphshow
243.044922 0.000000 m /zero glyphshow
255.769531 0.000000 m /seven glyphshow
268.494141 0.000000 m /five glyphshow
grestore
0 setlinecap
[14.8 6.4] 0 setdash
1.000 0.000 0.000 setrgbcolor
gsave
455.909375 706.51875 m
495.909375 706.51875 l
stroke
grestore
0.000 setgray
gsave
511.909375 699.518750 translate
0.000000 rotate
0.000000 0.000000 m /D glyphshow
15.400391 0.000000 m /A glyphshow
29.066406 0.000000 m /V glyphshow
42.748047 0.000000 m /I glyphshow
48.646484 0.000000 m /S glyphshow
61.341797 0.000000 m /comma glyphshow
67.699219 0.000000 m /space glyphshow
74.056641 0.000000 m /F glyphshow
85.544922 0.000000 m /i glyphshow
91.101562 0.000000 m /n glyphshow
103.777344 0.000000 m /e glyphshow
116.082031 0.000000 m /space glyphshow
122.439453 0.000000 m /t glyphshow
130.281250 0.000000 m /u glyphshow
142.957031 0.000000 m /n glyphshow
155.632812 0.000000 m /e glyphshow
167.937500 0.000000 m /comma glyphshow
174.294922 0.000000 m /space glyphshow
180.652344 0.000000 m /P glyphshow
192.712891 0.000000 m /P glyphshow
204.773438 0.000000 m /P glyphshow
216.833984 0.000000 m /equal glyphshow
233.591797 0.000000 m /zero glyphshow
246.316406 0.000000 m /period glyphshow
252.673828 0.000000 m /zero glyphshow
265.398438 0.000000 m /seven glyphshow
278.123047 0.000000 m /five glyphshow
grestore
2 setlinecap
[] 0 setdash
0.000 0.000 1.000 setrgbcolor
gsave
455.909375 677.159375 m
495.909375 677.159375 l
stroke
grestore
0.000 setgray
gsave
511.909375 670.159375 translate
0.000000 rotate
0.000000 0.000000 m /D glyphshow
15.400391 0.000000 m /A glyphshow
29.066406 0.000000 m /V glyphshow
42.748047 0.000000 m /I glyphshow
48.646484 0.000000 m /S glyphshow
61.341797 0.000000 m /comma glyphshow
67.699219 0.000000 m /space glyphshow
74.056641 0.000000 m /F glyphshow
85.544922 0.000000 m /r glyphshow
93.767578 0.000000 m /e glyphshow
106.072266 0.000000 m /e glyphshow
118.376953 0.000000 m /space glyphshow
124.734375 0.000000 m /r glyphshow
132.957031 0.000000 m /u glyphshow
145.632812 0.000000 m /n glyphshow
158.308594 0.000000 m /comma glyphshow
164.666016 0.000000 m /space glyphshow
171.023438 0.000000 m /P glyphshow
183.083984 0.000000 m /P glyphshow
195.144531 0.000000 m /P glyphshow
207.205078 0.000000 m /equal glyphshow
223.962891 0.000000 m /zero glyphshow
236.687500 0.000000 m /period glyphshow
243.044922 0.000000 m /zero glyphshow
255.769531 0.000000 m /five glyphshow
grestore
0 setlinecap
[14.8 6.4] 0 setdash
0.000 0.000 1.000 setrgbcolor
gsave
455.909375 647.8 m
495.909375 647.8 l
stroke
grestore
0.000 setgray
gsave
511.909375 640.800000 translate
0.000000 rotate
0.000000 0.000000 m /D glyphshow
15.400391 0.000000 m /A glyphshow
29.066406 0.000000 m /V glyphshow
42.748047 0.000000 m /I glyphshow
48.646484 0.000000 m /S glyphshow
61.341797 0.000000 m /comma glyphshow
67.699219 0.000000 m /space glyphshow
74.056641 0.000000 m /F glyphshow
85.544922 0.000000 m /i glyphshow
91.101562 0.000000 m /n glyphshow
103.777344 0.000000 m /e glyphshow
116.082031 0.000000 m /space glyphshow
122.439453 0.000000 m /t glyphshow
130.281250 0.000000 m /u glyphshow
142.957031 0.000000 m /n glyphshow
155.632812 0.000000 m /e glyphshow
167.937500 0.000000 m /comma glyphshow
174.294922 0.000000 m /space glyphshow
180.652344 0.000000 m /P glyphshow
192.712891 0.000000 m /P glyphshow
204.773438 0.000000 m /P glyphshow
216.833984 0.000000 m /equal glyphshow
233.591797 0.000000 m /zero glyphshow
246.316406 0.000000 m /period glyphshow
252.673828 0.000000 m /zero glyphshow
265.398438 0.000000 m /five glyphshow
grestore
2 setlinecap
[] 0 setdash
0.000 0.500 0.000 setrgbcolor
gsave
455.909375 618.440625 m
495.909375 618.440625 l
stroke
grestore
0.000 setgray
gsave
511.909375 611.440625 translate
0.000000 rotate
0.000000 0.000000 m /D glyphshow
15.400391 0.000000 m /A glyphshow
29.066406 0.000000 m /V glyphshow
42.748047 0.000000 m /I glyphshow
48.646484 0.000000 m /S glyphshow
61.341797 0.000000 m /comma glyphshow
67.699219 0.000000 m /space glyphshow
74.056641 0.000000 m /F glyphshow
85.544922 0.000000 m /r glyphshow
93.767578 0.000000 m /e glyphshow
106.072266 0.000000 m /e glyphshow
118.376953 0.000000 m /space glyphshow
124.734375 0.000000 m /r glyphshow
132.957031 0.000000 m /u glyphshow
145.632812 0.000000 m /n glyphshow
158.308594 0.000000 m /comma glyphshow
164.666016 0.000000 m /space glyphshow
171.023438 0.000000 m /P glyphshow
183.083984 0.000000 m /P glyphshow
195.144531 0.000000 m /P glyphshow
207.205078 0.000000 m /equal glyphshow
223.962891 0.000000 m /zero glyphshow
236.687500 0.000000 m /period glyphshow
243.044922 0.000000 m /zero glyphshow
255.769531 0.000000 m /two glyphshow
268.494141 0.000000 m /five glyphshow
grestore
0 setlinecap
[14.8 6.4] 0 setdash
0.000 0.500 0.000 setrgbcolor
gsave
455.909375 589.08125 m
495.909375 589.08125 l
stroke
grestore
0.000 setgray
gsave
511.909375 582.081250 translate
0.000000 rotate
0.000000 0.000000 m /D glyphshow
15.400391 0.000000 m /A glyphshow
29.066406 0.000000 m /V glyphshow
42.748047 0.000000 m /I glyphshow
48.646484 0.000000 m /S glyphshow
61.341797 0.000000 m /comma glyphshow
67.699219 0.000000 m /space glyphshow
74.056641 0.000000 m /F glyphshow
85.544922 0.000000 m /i glyphshow
91.101562 0.000000 m /n glyphshow
103.777344 0.000000 m /e glyphshow
116.082031 0.000000 m /space glyphshow
122.439453 0.000000 m /t glyphshow
130.281250 0.000000 m /u glyphshow
142.957031 0.000000 m /n glyphshow
155.632812 0.000000 m /e glyphshow
167.937500 0.000000 m /comma glyphshow
174.294922 0.000000 m /space glyphshow
180.652344 0.000000 m /P glyphshow
192.712891 0.000000 m /P glyphshow
204.773438 0.000000 m /P glyphshow
216.833984 0.000000 m /equal glyphshow
233.591797 0.000000 m /zero glyphshow
246.316406 0.000000 m /period glyphshow
252.673828 0.000000 m /zero glyphshow
265.398438 0.000000 m /two glyphshow
278.123047 0.000000 m /five glyphshow
grestore

end
showpage
