%!PS-Adobe-3.0 EPSF-3.0
%%Title: /Users/yin.yang/Desktop/err_ss_0.1.eps
%%Creator: matplotlib version 2.0.2, http://matplotlib.org/
%%CreationDate: Sun Jul  1 17:49:15 2018
%%Orientation: portrait
%%BoundingBox: -18 72 630 720
%%EndComments
%%BeginProlog
/mpldict 9 dict def
mpldict begin
/m { moveto } bind def
/l { lineto } bind def
/r { rlineto } bind def
/c { curveto } bind def
/cl { closepath } bind def
/box {
m
1 index 0 r
0 exch r
neg 0 r
cl
} bind def
/clipbox {
box
clip
newpath
} bind def
%!PS-Adobe-3.0 Resource-Font
%%Title: DejaVu Sans
%%Copyright: Copyright (c) 2003 by Bitstream, Inc. All Rights Reserved. Copyright (c) 2006 by Tavmjong Bah. All Rights Reserved. DejaVu changes are in public domain 
%%Creator: Converted from TrueType to type 3 by PPR
25 dict begin
/_d{bind def}bind def
/_m{moveto}_d
/_l{lineto}_d
/_cl{closepath eofill}_d
/_c{curveto}_d
/_sc{7 -1 roll{setcachedevice}{pop pop pop pop pop pop}ifelse}_d
/_e{exec}_d
/FontName /DejaVuSans def
/PaintType 0 def
/FontMatrix[.001 0 0 .001 0 0]def
/FontBBox[-1021 -463 1793 1232]def
/FontType 3 def
/Encoding [ /space /period /zero /one /two /three /four /five /equal /E /M /P /S /a /e /f /h /i /l /n /o /p /r /s /t /x /uni0394 /minus ] def
/FontInfo 10 dict dup begin
/FamilyName (DejaVu Sans) def
/FullName (DejaVu Sans) def
/Notice (Copyright (c) 2003 by Bitstream, Inc. All Rights Reserved. Copyright (c) 2006 by Tavmjong Bah. All Rights Reserved. DejaVu changes are in public domain ) def
/Weight (Book) def
/Version (Version 2.35) def
/ItalicAngle 0.0 def
/isFixedPitch false def
/UnderlinePosition -130 def
/UnderlineThickness 90 def
end readonly def
/CharStrings 28 dict dup begin
/space{318 0 0 0 0 0 _sc
}_d
/period{318 0 107 0 210 124 _sc
107 124 _m
210 124 _l
210 0 _l
107 0 _l
107 124 _l
_cl}_d
/zero{636 0 66 -13 570 742 _sc
318 664 _m
267 664 229 639 203 589 _c
177 539 165 464 165 364 _c
165 264 177 189 203 139 _c
229 89 267 64 318 64 _c
369 64 407 89 433 139 _c
458 189 471 264 471 364 _c
471 464 458 539 433 589 _c
407 639 369 664 318 664 _c
318 742 _m
399 742 461 709 505 645 _c
548 580 570 486 570 364 _c
570 241 548 147 505 83 _c
461 19 399 -13 318 -13 _c
236 -13 173 19 130 83 _c
87 147 66 241 66 364 _c
66 486 87 580 130 645 _c
173 709 236 742 318 742 _c
_cl}_d
/one{636 0 110 0 544 729 _sc
124 83 _m
285 83 _l
285 639 _l
110 604 _l
110 694 _l
284 729 _l
383 729 _l
383 83 _l
544 83 _l
544 0 _l
124 0 _l
124 83 _l
_cl}_d
/two{{636 0 73 0 536 742 _sc
192 83 _m
536 83 _l
536 0 _l
73 0 _l
73 83 _l
110 121 161 173 226 239 _c
290 304 331 346 348 365 _c
380 400 402 430 414 455 _c
426 479 433 504 433 528 _c
433 566 419 598 392 622 _c
365 646 330 659 286 659 _c
255 659 222 653 188 643 _c
154 632 117 616 78 594 _c
78 694 _l
118 710 155 722 189 730 _c
223 738 255 742 284 742 _c
}_e{359 742 419 723 464 685 _c
509 647 532 597 532 534 _c
532 504 526 475 515 449 _c
504 422 484 390 454 354 _c
446 344 420 317 376 272 _c
332 227 271 164 192 83 _c
_cl}_e}_d
/three{{636 0 76 -13 556 742 _sc
406 393 _m
453 383 490 362 516 330 _c
542 298 556 258 556 212 _c
556 140 531 84 482 45 _c
432 6 362 -13 271 -13 _c
240 -13 208 -10 176 -4 _c
144 1 110 10 76 22 _c
76 117 _l
103 101 133 89 166 81 _c
198 73 232 69 268 69 _c
330 69 377 81 409 105 _c
441 129 458 165 458 212 _c
458 254 443 288 413 312 _c
383 336 341 349 287 349 _c
}_e{202 349 _l
202 430 _l
291 430 _l
339 430 376 439 402 459 _c
428 478 441 506 441 543 _c
441 580 427 609 401 629 _c
374 649 336 659 287 659 _c
260 659 231 656 200 650 _c
169 644 135 635 98 623 _c
98 711 _l
135 721 170 729 203 734 _c
235 739 266 742 296 742 _c
370 742 429 725 473 691 _c
517 657 539 611 539 553 _c
539 513 527 479 504 451 _c
481 423 448 403 406 393 _c
_cl}_e}_d
/four{636 0 49 0 580 729 _sc
378 643 _m
129 254 _l
378 254 _l
378 643 _l
352 729 _m
476 729 _l
476 254 _l
580 254 _l
580 172 _l
476 172 _l
476 0 _l
378 0 _l
378 172 _l
49 172 _l
49 267 _l
352 729 _l
_cl}_d
/five{{636 0 77 -13 549 729 _sc
108 729 _m
495 729 _l
495 646 _l
198 646 _l
198 467 _l
212 472 227 476 241 478 _c
255 480 270 482 284 482 _c
365 482 429 459 477 415 _c
525 370 549 310 549 234 _c
549 155 524 94 475 51 _c
426 8 357 -13 269 -13 _c
238 -13 207 -10 175 -6 _c
143 -1 111 6 77 17 _c
77 116 _l
106 100 136 88 168 80 _c
199 72 232 69 267 69 _c
}_e{323 69 368 83 401 113 _c
433 143 450 183 450 234 _c
450 284 433 324 401 354 _c
368 384 323 399 267 399 _c
241 399 214 396 188 390 _c
162 384 135 375 108 363 _c
108 729 _l
_cl}_e}_d
/equal{838 0 106 172 732 454 _sc
106 454 _m
732 454 _l
732 372 _l
106 372 _l
106 454 _l
106 255 _m
732 255 _l
732 172 _l
106 172 _l
106 255 _l
_cl}_d
/E{632 0 98 0 568 729 _sc
98 729 _m
559 729 _l
559 646 _l
197 646 _l
197 430 _l
544 430 _l
544 347 _l
197 347 _l
197 83 _l
568 83 _l
568 0 _l
98 0 _l
98 729 _l
_cl}_d
/M{863 0 98 0 765 729 _sc
98 729 _m
245 729 _l
431 233 _l
618 729 _l
765 729 _l
765 0 _l
669 0 _l
669 640 _l
481 140 _l
382 140 _l
194 640 _l
194 0 _l
98 0 _l
98 729 _l
_cl}_d
/P{603 0 98 0 569 729 _sc
197 648 _m
197 374 _l
321 374 _l
367 374 402 385 427 409 _c
452 433 465 467 465 511 _c
465 555 452 588 427 612 _c
402 636 367 648 321 648 _c
197 648 _l
98 729 _m
321 729 _l
402 729 464 710 506 673 _c
548 636 569 582 569 511 _c
569 439 548 384 506 348 _c
464 311 402 293 321 293 _c
197 293 _l
197 0 _l
98 0 _l
98 729 _l
_cl}_d
/S{{635 0 66 -13 579 742 _sc
535 705 _m
535 609 _l
497 627 462 640 429 649 _c
395 657 363 662 333 662 _c
279 662 237 651 208 631 _c
179 610 165 580 165 542 _c
165 510 174 485 194 469 _c
213 452 250 439 304 429 _c
364 417 _l
437 403 491 378 526 343 _c
561 307 579 260 579 201 _c
579 130 555 77 508 41 _c
460 5 391 -13 300 -13 _c
265 -13 228 -9 189 -2 _c
}_e{150 5 110 16 69 32 _c
69 134 _l
109 111 148 94 186 83 _c
224 71 262 66 300 66 _c
356 66 399 77 430 99 _c
460 121 476 152 476 194 _c
476 230 465 258 443 278 _c
421 298 385 313 335 323 _c
275 335 _l
201 349 148 372 115 404 _c
82 435 66 478 66 534 _c
66 598 88 649 134 686 _c
179 723 242 742 322 742 _c
356 742 390 739 426 733 _c
461 727 497 717 535 705 _c
}_e{_cl}_e}_d
/a{{613 0 60 -13 522 560 _sc
343 275 _m
270 275 220 266 192 250 _c
164 233 150 205 150 165 _c
150 133 160 107 181 89 _c
202 70 231 61 267 61 _c
317 61 357 78 387 114 _c
417 149 432 196 432 255 _c
432 275 _l
343 275 _l
522 312 _m
522 0 _l
432 0 _l
432 83 _l
411 49 385 25 355 10 _c
325 -5 287 -13 243 -13 _c
187 -13 142 2 109 33 _c
76 64 60 106 60 159 _c
}_e{60 220 80 266 122 298 _c
163 329 224 345 306 345 _c
432 345 _l
432 354 _l
432 395 418 427 391 450 _c
364 472 326 484 277 484 _c
245 484 215 480 185 472 _c
155 464 127 453 100 439 _c
100 522 _l
132 534 164 544 195 550 _c
226 556 256 560 286 560 _c
365 560 424 539 463 498 _c
502 457 522 395 522 312 _c
_cl}_e}_d
/e{{615 0 55 -13 562 560 _sc
562 296 _m
562 252 _l
149 252 _l
153 190 171 142 205 110 _c
238 78 284 62 344 62 _c
378 62 412 66 444 74 _c
476 82 509 95 541 113 _c
541 28 _l
509 14 476 3 442 -3 _c
408 -9 373 -13 339 -13 _c
251 -13 182 12 131 62 _c
80 112 55 181 55 268 _c
55 357 79 428 127 481 _c
175 533 241 560 323 560 _c
397 560 455 536 498 489 _c
}_e{540 441 562 377 562 296 _c
472 322 _m
471 371 457 410 431 440 _c
404 469 368 484 324 484 _c
274 484 234 469 204 441 _c
174 413 156 373 152 322 _c
472 322 _l
_cl}_e}_d
/f{352 0 23 0 371 760 _sc
371 760 _m
371 685 _l
285 685 _l
253 685 230 678 218 665 _c
205 652 199 629 199 595 _c
199 547 _l
347 547 _l
347 477 _l
199 477 _l
199 0 _l
109 0 _l
109 477 _l
23 477 _l
23 547 _l
109 547 _l
109 585 _l
109 645 123 690 151 718 _c
179 746 224 760 286 760 _c
371 760 _l
_cl}_d
/h{634 0 91 0 549 760 _sc
549 330 _m
549 0 _l
459 0 _l
459 327 _l
459 379 448 417 428 443 _c
408 469 378 482 338 482 _c
289 482 251 466 223 435 _c
195 404 181 362 181 309 _c
181 0 _l
91 0 _l
91 760 _l
181 760 _l
181 462 _l
202 494 227 519 257 535 _c
286 551 320 560 358 560 _c
420 560 468 540 500 501 _c
532 462 549 405 549 330 _c
_cl}_d
/i{278 0 94 0 184 760 _sc
94 547 _m
184 547 _l
184 0 _l
94 0 _l
94 547 _l
94 760 _m
184 760 _l
184 646 _l
94 646 _l
94 760 _l
_cl}_d
/l{278 0 94 0 184 760 _sc
94 760 _m
184 760 _l
184 0 _l
94 0 _l
94 760 _l
_cl}_d
/n{634 0 91 0 549 560 _sc
549 330 _m
549 0 _l
459 0 _l
459 327 _l
459 379 448 417 428 443 _c
408 469 378 482 338 482 _c
289 482 251 466 223 435 _c
195 404 181 362 181 309 _c
181 0 _l
91 0 _l
91 547 _l
181 547 _l
181 462 _l
202 494 227 519 257 535 _c
286 551 320 560 358 560 _c
420 560 468 540 500 501 _c
532 462 549 405 549 330 _c
_cl}_d
/o{612 0 55 -13 557 560 _sc
306 484 _m
258 484 220 465 192 427 _c
164 389 150 338 150 273 _c
150 207 163 156 191 118 _c
219 80 257 62 306 62 _c
354 62 392 80 420 118 _c
448 156 462 207 462 273 _c
462 337 448 389 420 427 _c
392 465 354 484 306 484 _c
306 560 _m
384 560 445 534 490 484 _c
534 433 557 363 557 273 _c
557 183 534 113 490 63 _c
445 12 384 -13 306 -13 _c
227 -13 165 12 121 63 _c
77 113 55 183 55 273 _c
55 363 77 433 121 484 _c
165 534 227 560 306 560 _c
_cl}_d
/p{{635 0 91 -207 580 560 _sc
181 82 _m
181 -207 _l
91 -207 _l
91 547 _l
181 547 _l
181 464 _l
199 496 223 520 252 536 _c
281 552 316 560 356 560 _c
422 560 476 533 518 481 _c
559 428 580 359 580 273 _c
580 187 559 117 518 65 _c
476 13 422 -13 356 -13 _c
316 -13 281 -5 252 10 _c
223 25 199 49 181 82 _c
487 273 _m
487 339 473 390 446 428 _c
418 466 381 485 334 485 _c
}_e{286 485 249 466 222 428 _c
194 390 181 339 181 273 _c
181 207 194 155 222 117 _c
249 79 286 61 334 61 _c
381 61 418 79 446 117 _c
473 155 487 207 487 273 _c
_cl}_e}_d
/r{411 0 91 0 411 560 _sc
411 463 _m
401 469 390 473 378 476 _c
366 478 353 480 339 480 _c
288 480 249 463 222 430 _c
194 397 181 350 181 288 _c
181 0 _l
91 0 _l
91 547 _l
181 547 _l
181 462 _l
199 495 224 520 254 536 _c
284 552 321 560 365 560 _c
371 560 378 559 386 559 _c
393 558 401 557 411 555 _c
411 463 _l
_cl}_d
/s{{521 0 54 -13 472 560 _sc
443 531 _m
443 446 _l
417 458 391 468 364 475 _c
336 481 308 485 279 485 _c
234 485 200 478 178 464 _c
156 450 145 430 145 403 _c
145 382 153 366 169 354 _c
185 342 217 330 265 320 _c
296 313 _l
360 299 405 279 432 255 _c
458 230 472 195 472 151 _c
472 100 452 60 412 31 _c
372 1 316 -13 246 -13 _c
216 -13 186 -10 154 -5 _c
}_e{122 0 89 8 54 20 _c
54 113 _l
87 95 120 82 152 74 _c
184 65 216 61 248 61 _c
290 61 323 68 346 82 _c
368 96 380 117 380 144 _c
380 168 371 187 355 200 _c
339 213 303 226 247 238 _c
216 245 _l
160 257 119 275 95 299 _c
70 323 58 356 58 399 _c
58 450 76 490 112 518 _c
148 546 200 560 268 560 _c
301 560 332 557 362 552 _c
391 547 418 540 443 531 _c
}_e{_cl}_e}_d
/t{392 0 27 0 368 702 _sc
183 702 _m
183 547 _l
368 547 _l
368 477 _l
183 477 _l
183 180 _l
183 135 189 106 201 94 _c
213 81 238 75 276 75 _c
368 75 _l
368 0 _l
276 0 _l
206 0 158 13 132 39 _c
106 65 93 112 93 180 _c
93 477 _l
27 477 _l
27 547 _l
93 547 _l
93 702 _l
183 702 _l
_cl}_d
/x{592 0 29 0 559 547 _sc
549 547 _m
351 281 _l
559 0 _l
453 0 _l
294 215 _l
135 0 _l
29 0 _l
241 286 _l
47 547 _l
153 547 _l
298 352 _l
443 547 _l
549 547 _l
_cl}_d
/uni0394{684 0 8 0 676 729 _sc
342 632 _m
142 82 _l
542 82 _l
342 632 _l
8 0 _m
286 729 _l
398 729 _l
676 0 _l
8 0 _l
_cl}_d
/minus{838 0 106 272 732 355 _sc
106 355 _m
732 355 _l
732 272 _l
106 272 _l
106 355 _l
_cl}_d
end readonly def

/BuildGlyph
 {exch begin
 CharStrings exch
 2 copy known not{pop /.notdef}if
 true 3 1 roll get exec
 end}_d

/BuildChar {
 1 index /Encoding get exch get
 1 index /BuildGlyph get exec
}_d

FontName currentdict end definefont pop
%!PS-Adobe-3.0 Resource-Font
%%Title: DejaVu Sans Oblique
%%Copyright: Copyright (c) 2003 by Bitstream, Inc. All Rights Reserved. Copyright (c) 2006 by Tavmjong Bah. All Rights Reserved. DejaVu changes are in public domain 
%%Creator: Converted from TrueType to type 3 by PPR
25 dict begin
/_d{bind def}bind def
/_m{moveto}_d
/_l{lineto}_d
/_cl{closepath eofill}_d
/_c{curveto}_d
/_sc{7 -1 roll{setcachedevice}{pop pop pop pop pop pop}ifelse}_d
/_e{exec}_d
/FontName /DejaVuSans-Oblique def
/PaintType 0 def
/FontMatrix[.001 0 0 .001 0 0]def
/FontBBox[-1016 -350 1659 1068]def
/FontType 3 def
/Encoding [ /T /b /o /s ] def
/FontInfo 10 dict dup begin
/FamilyName (DejaVu Sans) def
/FullName (DejaVu Sans Oblique) def
/Notice (Copyright (c) 2003 by Bitstream, Inc. All Rights Reserved. Copyright (c) 2006 by Tavmjong Bah. All Rights Reserved. DejaVu changes are in public domain ) def
/Weight (Oblique) def
/Version (Version 2.35) def
/ItalicAngle -11.0 def
/isFixedPitch false def
/UnderlinePosition -130 def
/UnderlineThickness 90 def
end readonly def
/CharStrings 4 dict dup begin
/T{611 0 43 0 676 729 _sc
59 729 _m
676 729 _l
660 646 _l
400 646 _l
275 0 _l
176 0 _l
301 646 _l
43 646 _l
59 729 _l
_cl}_d
/b{{635 0 36 -13 587 760 _sc
495 334 _m
495 381 484 418 462 445 _c
440 471 411 485 373 485 _c
345 485 319 478 295 464 _c
271 450 250 431 232 406 _c
213 378 198 347 187 311 _c
176 275 171 240 171 205 _c
171 160 181 125 203 99 _c
224 73 253 61 291 61 _c
319 61 345 67 369 81 _c
393 94 415 113 433 139 _c
451 165 466 196 478 232 _c
489 268 495 302 495 334 _c
216 464 _m
}_e{238 494 265 517 299 534 _c
332 551 367 560 404 560 _c
460 560 504 541 537 503 _c
570 465 587 414 587 350 _c
587 297 577 246 558 197 _c
538 147 511 103 475 65 _c
451 39 424 20 394 7 _c
363 -6 331 -13 298 -13 _c
262 -13 232 -5 206 11 _c
180 27 158 51 142 83 _c
126 0 _l
36 0 _l
184 760 _l
274 760 _l
216 464 _l
_cl}_e}_d
/o{{612 0 46 -13 566 560 _sc
254 -13 _m
190 -13 139 6 102 45 _c
64 84 46 138 46 207 _c
46 247 52 287 65 328 _c
77 369 94 404 115 432 _c
147 476 183 508 223 529 _c
263 549 308 560 358 560 _c
420 560 470 540 508 502 _c
546 463 566 412 566 350 _c
566 306 559 263 547 220 _c
534 177 517 142 497 114 _c
465 70 429 37 389 17 _c
349 -3 304 -13 254 -13 _c
139 210 _m
}_e{139 160 149 123 170 99 _c
190 74 222 62 264 62 _c
324 62 373 88 413 141 _c
453 193 473 260 473 341 _c
473 388 462 424 441 448 _c
420 472 389 484 348 484 _c
314 484 283 476 257 460 _c
231 444 207 420 187 388 _c
171 364 159 336 151 305 _c
143 274 139 242 139 210 _c
_cl}_e}_d
/s{{521 0 11 -13 500 560 _sc
500 531 _m
483 446 _l
459 458 433 468 407 475 _c
381 481 354 485 326 485 _c
278 485 241 477 214 461 _c
187 445 174 423 174 395 _c
174 363 205 338 269 321 _c
273 319 277 318 279 318 _c
308 309 _l
368 292 408 274 428 256 _c
448 238 458 213 458 182 _c
458 124 435 77 389 41 _c
343 5 282 -13 208 -13 _c
179 -13 149 -10 117 -5 _c
}_e{85 0 49 8 11 20 _c
29 113 _l
61 95 94 82 126 74 _c
158 65 188 61 218 61 _c
262 61 297 70 325 89 _c
352 108 366 132 366 161 _c
366 192 330 217 258 237 _c
249 239 _l
218 247 _l
172 259 138 274 117 294 _c
96 314 86 339 86 370 _c
86 428 107 475 151 509 _c
195 543 254 560 330 560 _c
360 560 389 557 417 552 _c
445 547 472 540 500 531 _c
_cl}_e}_d
end readonly def

/BuildGlyph
 {exch begin
 CharStrings exch
 2 copy known not{pop /.notdef}if
 true 3 1 roll get exec
 end}_d

/BuildChar {
 1 index /Encoding get exch get
 1 index /BuildGlyph get exec
}_d

FontName currentdict end definefont pop
end
%%EndProlog
mpldict begin
-18 72 translate
648 648 0 0 clipbox
gsave
0 0 m
648 0 l
648 648 l
0 648 l
cl
1.000 setgray
fill
grestore
gsave
100.285714 71.28 m
599.4 71.28 l
599.4 570.24 l
100.285714 570.24 l
cl
1.000 setgray
fill
grestore
0.800 setlinewidth
1 setlinejoin
0 setlinecap
[] 0 setdash
0.000 setgray
gsave
/o {
gsave
newpath
translate
0.8 setlinewidth
1 setlinejoin
0 setlinecap
0 0 m
0 -3.5 l

gsave
0.000 setgray
fill
grestore
stroke
grestore
} bind def
100.286 71.28 o
grestore
/DejaVuSans findfont
24.000 scalefont
setfont
gsave
85.020089 46.045625 translate
0.000000 rotate
0.000000 0.000000 m /one glyphshow
15.269531 0.000000 m /zero glyphshow
grestore
gsave
/o {
gsave
newpath
translate
0.8 setlinewidth
1 setlinejoin
0 setlinecap
0 0 m
0 -3.5 l

gsave
0.000 setgray
fill
grestore
stroke
grestore
} bind def
225.064 71.28 o
grestore
gsave
209.798661 46.045625 translate
0.000000 rotate
0.000000 0.000000 m /two glyphshow
15.269531 0.000000 m /zero glyphshow
grestore
gsave
/o {
gsave
newpath
translate
0.8 setlinewidth
1 setlinejoin
0 setlinecap
0 0 m
0 -3.5 l

gsave
0.000 setgray
fill
grestore
stroke
grestore
} bind def
349.843 71.28 o
grestore
gsave
334.577232 46.045625 translate
0.000000 rotate
0.000000 0.000000 m /three glyphshow
15.269531 0.000000 m /zero glyphshow
grestore
gsave
/o {
gsave
newpath
translate
0.8 setlinewidth
1 setlinejoin
0 setlinecap
0 0 m
0 -3.5 l

gsave
0.000 setgray
fill
grestore
stroke
grestore
} bind def
474.621 71.28 o
grestore
gsave
459.355804 46.045625 translate
0.000000 rotate
0.000000 0.000000 m /four glyphshow
15.269531 0.000000 m /zero glyphshow
grestore
gsave
/o {
gsave
newpath
translate
0.8 setlinewidth
1 setlinejoin
0 setlinecap
0 0 m
0 -3.5 l

gsave
0.000 setgray
fill
grestore
stroke
grestore
} bind def
599.4 71.28 o
grestore
gsave
584.134375 46.045625 translate
0.000000 rotate
0.000000 0.000000 m /five glyphshow
15.269531 0.000000 m /zero glyphshow
grestore
gsave
287.491295 18.811250 translate
0.000000 rotate
0.000000 0.000000 m /S glyphshow
15.234375 0.000000 m /n glyphshow
30.445312 0.000000 m /a glyphshow
45.152344 0.000000 m /p glyphshow
60.386719 0.000000 m /s glyphshow
72.890625 0.000000 m /h glyphshow
88.101562 0.000000 m /o glyphshow
102.785156 0.000000 m /t glyphshow
112.195312 0.000000 m /s glyphshow
grestore
gsave
/o {
gsave
newpath
translate
0.8 setlinewidth
1 setlinejoin
0 setlinecap
0 0 m
-3.5 0 l

gsave
0.000 setgray
fill
grestore
stroke
grestore
} bind def
100.286 205.153 o
grestore
gsave
36.285714 196.035359 translate
0.000000 rotate
/DejaVuSans findfont
24.0 scalefont
setfont
0.000000 0.343750 moveto
/one glyphshow

15.269531 0.343750 moveto
/zero glyphshow

/DejaVuSans findfont
16.8 scalefont
setfont
30.768750 9.531250 moveto
/minus glyphshow

44.845312 9.531250 moveto
/three glyphshow


grestore
gsave
/o {
gsave
newpath
translate
0.8 setlinewidth
1 setlinejoin
0 setlinecap
0 0 m
-3.5 0 l

gsave
0.000 setgray
fill
grestore
stroke
grestore
} bind def
100.286 529.31 o
grestore
gsave
36.285714 520.192920 translate
0.000000 rotate
/DejaVuSans findfont
24.0 scalefont
setfont
0.000000 0.343750 moveto
/one glyphshow

15.269531 0.343750 moveto
/zero glyphshow

/DejaVuSans findfont
16.8 scalefont
setfont
30.768750 9.531250 moveto
/minus glyphshow

44.845312 9.531250 moveto
/two glyphshow


grestore
0.600 setlinewidth
gsave
/o {
gsave
newpath
translate
0.6 setlinewidth
1 setlinejoin
0 setlinecap
0 0 m
-2 0 l

gsave
0.000 setgray
fill
grestore
stroke
grestore
} bind def
100.286 76.1573 o
grestore
gsave
/o {
gsave
newpath
translate
0.6 setlinewidth
1 setlinejoin
0 setlinecap
0 0 m
-2 0 l

gsave
0.000 setgray
fill
grestore
stroke
grestore
} bind def
100.286 107.571 o
grestore
gsave
/o {
gsave
newpath
translate
0.6 setlinewidth
1 setlinejoin
0 setlinecap
0 0 m
-2 0 l

gsave
0.000 setgray
fill
grestore
stroke
grestore
} bind def
100.286 133.239 o
grestore
gsave
/o {
gsave
newpath
translate
0.6 setlinewidth
1 setlinejoin
0 setlinecap
0 0 m
-2 0 l

gsave
0.000 setgray
fill
grestore
stroke
grestore
} bind def
100.286 154.94 o
grestore
gsave
/o {
gsave
newpath
translate
0.6 setlinewidth
1 setlinejoin
0 setlinecap
0 0 m
-2 0 l

gsave
0.000 setgray
fill
grestore
stroke
grestore
} bind def
100.286 173.738 o
grestore
gsave
/o {
gsave
newpath
translate
0.6 setlinewidth
1 setlinejoin
0 setlinecap
0 0 m
-2 0 l

gsave
0.000 setgray
fill
grestore
stroke
grestore
} bind def
100.286 190.32 o
grestore
gsave
/o {
gsave
newpath
translate
0.6 setlinewidth
1 setlinejoin
0 setlinecap
0 0 m
-2 0 l

gsave
0.000 setgray
fill
grestore
stroke
grestore
} bind def
100.286 302.734 o
grestore
gsave
/o {
gsave
newpath
translate
0.6 setlinewidth
1 setlinejoin
0 setlinecap
0 0 m
-2 0 l

gsave
0.000 setgray
fill
grestore
stroke
grestore
} bind def
100.286 359.815 o
grestore
gsave
/o {
gsave
newpath
translate
0.6 setlinewidth
1 setlinejoin
0 setlinecap
0 0 m
-2 0 l

gsave
0.000 setgray
fill
grestore
stroke
grestore
} bind def
100.286 400.315 o
grestore
gsave
/o {
gsave
newpath
translate
0.6 setlinewidth
1 setlinejoin
0 setlinecap
0 0 m
-2 0 l

gsave
0.000 setgray
fill
grestore
stroke
grestore
} bind def
100.286 431.729 o
grestore
gsave
/o {
gsave
newpath
translate
0.6 setlinewidth
1 setlinejoin
0 setlinecap
0 0 m
-2 0 l

gsave
0.000 setgray
fill
grestore
stroke
grestore
} bind def
100.286 457.396 o
grestore
gsave
/o {
gsave
newpath
translate
0.6 setlinewidth
1 setlinejoin
0 setlinecap
0 0 m
-2 0 l

gsave
0.000 setgray
fill
grestore
stroke
grestore
} bind def
100.286 479.097 o
grestore
gsave
/o {
gsave
newpath
translate
0.6 setlinewidth
1 setlinejoin
0 setlinecap
0 0 m
-2 0 l

gsave
0.000 setgray
fill
grestore
stroke
grestore
} bind def
100.286 497.896 o
grestore
gsave
/o {
gsave
newpath
translate
0.6 setlinewidth
1 setlinejoin
0 setlinecap
0 0 m
-2 0 l

gsave
0.000 setgray
fill
grestore
stroke
grestore
} bind def
100.286 514.477 o
grestore
gsave
27.285714 292.369375 translate
90.000000 rotate
0.000000 0.000000 m /P glyphshow
14.472656 0.000000 m /i glyphshow
21.140625 0.000000 m /x glyphshow
35.343750 0.000000 m /e glyphshow
50.109375 0.000000 m /l glyphshow
grestore
4.000 setlinewidth
2 setlinecap
gsave
499.1 499 100.3 71.28 clipbox
100.285714 413.447604 m
112.763571 451.94277 l
125.241429 471.306802 l
137.719286 482.269266 l
150.197143 488.963915 l
162.675 492.308832 l
175.152857 496.03513 l
187.630714 500.37671 l
200.108571 504.339703 l
212.586429 507.251384 l
225.064286 511.893178 l
237.542143 514.707981 l
250.02 516.390582 l
262.497857 520.251954 l
274.975714 521.387654 l
287.453571 522.880006 l
299.931429 524.63383 l
312.409286 525.28427 l
324.887143 527.524952 l
337.365 527.042269 l
349.842857 529.208027 l
362.320714 529.608146 l
374.798571 532.431964 l
387.276429 530.976391 l
399.754286 531.749999 l
412.232143 532.479201 l
424.71 534.135791 l
437.187857 535.542435 l
449.665714 537.365513 l
462.143571 538.511376 l
474.621429 538.338683 l
487.099286 540.789223 l
499.577143 542.971996 l
512.055 541.837614 l
524.532857 544.130758 l
537.010714 544.58195 l
549.488571 546.195128 l
561.966429 545.56033 l
574.444286 547.56 l
586.922143 546.284068 l
599.4 547.339427 l
stroke
grestore
1.000 0.000 0.000 setrgbcolor
gsave
499.1 499 100.3 71.28 clipbox
100.285714 384.082733 m
112.763571 417.086512 l
125.241429 433.451438 l
137.719286 442.385273 l
150.197143 448.500468 l
162.675 451.444558 l
175.152857 455.5122 l
187.630714 458.986469 l
200.108571 460.280721 l
212.586429 465.524706 l
225.064286 469.518657 l
237.542143 470.817507 l
250.02 471.33161 l
262.497857 472.199987 l
274.975714 475.950726 l
287.453571 475.710569 l
299.931429 478.275406 l
312.409286 478.555728 l
324.887143 482.202242 l
337.365 483.141382 l
349.842857 485.285207 l
362.320714 486.811386 l
374.798571 487.721748 l
387.276429 486.869455 l
399.754286 487.169642 l
412.232143 487.902034 l
424.71 490.736754 l
437.187857 491.619858 l
449.665714 493.882761 l
462.143571 495.856173 l
474.621429 495.334168 l
487.099286 497.028251 l
499.577143 498.940208 l
512.055 500.152993 l
524.532857 499.131878 l
537.010714 501.389534 l
549.488571 503.561667 l
561.966429 502.912472 l
574.444286 503.302667 l
586.922143 503.240703 l
599.4 505.35193 l
stroke
grestore
0.750 0.000 0.750 setrgbcolor
gsave
499.1 499 100.3 71.28 clipbox
100.285714 348.235737 m
112.763571 378.82221 l
125.241429 391.099253 l
137.719286 400.849594 l
150.197143 406.575536 l
162.675 408.355655 l
175.152857 410.343083 l
187.630714 413.637948 l
200.108571 417.856155 l
212.586429 419.991569 l
225.064286 422.508363 l
237.542143 424.355522 l
250.02 424.153697 l
262.497857 427.434975 l
274.975714 428.516094 l
287.453571 430.317712 l
299.931429 430.131272 l
312.409286 432.751446 l
324.887143 434.513689 l
337.365 435.225173 l
349.842857 436.231877 l
362.320714 437.191819 l
374.798571 440.783909 l
387.276429 440.546262 l
399.754286 439.844188 l
412.232143 442.218437 l
424.71 442.692219 l
437.187857 445.384251 l
449.665714 446.076664 l
462.143571 449.577558 l
474.621429 447.351574 l
487.099286 449.018659 l
499.577143 452.52326 l
512.055 450.07735 l
524.532857 452.949346 l
537.010714 453.500748 l
549.488571 459.129322 l
561.966429 455.229405 l
574.444286 456.037618 l
586.922143 456.275452 l
599.4 456.286197 l
stroke
grestore
0.000 0.000 1.000 setrgbcolor
gsave
499.1 499 100.3 71.28 clipbox
100.285714 306.815185 m
112.763571 331.026515 l
125.241429 340.913905 l
137.719286 348.82345 l
150.197143 353.696434 l
162.675 357.818146 l
175.152857 359.357465 l
187.630714 362.735578 l
200.108571 364.52597 l
212.586429 366.410115 l
225.064286 369.405286 l
237.542143 370.166829 l
250.02 371.019099 l
262.497857 370.809923 l
274.975714 375.669316 l
287.453571 375.513951 l
299.931429 376.833738 l
312.409286 378.577546 l
324.887143 379.828514 l
337.365 383.573349 l
349.842857 384.010728 l
362.320714 384.117057 l
374.798571 386.020526 l
387.276429 388.29686 l
399.754286 387.037348 l
412.232143 386.488871 l
424.71 390.763177 l
437.187857 389.463449 l
449.665714 392.336889 l
462.143571 394.1917 l
474.621429 395.483675 l
487.099286 395.980197 l
499.577143 394.753983 l
512.055 399.085795 l
524.532857 399.066106 l
537.010714 402.587986 l
549.488571 404.655276 l
561.966429 405.206525 l
574.444286 405.720233 l
586.922143 403.18448 l
599.4 408.153537 l
stroke
grestore
0.000 0.500 0.000 setrgbcolor
gsave
499.1 499 100.3 71.28 clipbox
100.285714 252.802963 m
112.763571 270.554022 l
125.241429 277.237694 l
137.719286 284.300591 l
150.197143 287.138229 l
162.675 289.152401 l
175.152857 292.097331 l
187.630714 294.152677 l
200.108571 293.81814 l
212.586429 297.27003 l
225.064286 297.415962 l
237.542143 298.677086 l
250.02 300.356605 l
262.497857 301.357187 l
274.975714 302.114971 l
287.453571 300.144381 l
299.931429 302.01544 l
312.409286 304.453166 l
324.887143 306.127659 l
337.365 307.886165 l
349.842857 308.192065 l
362.320714 309.598352 l
374.798571 312.360832 l
387.276429 315.957804 l
399.754286 313.82787 l
412.232143 317.31465 l
424.71 319.845467 l
437.187857 321.279371 l
449.665714 328.639743 l
462.143571 328.185093 l
474.621429 328.29467 l
487.099286 331.266418 l
499.577143 331.258297 l
512.055 330.941166 l
524.532857 330.577391 l
537.010714 329.784698 l
549.488571 331.662649 l
561.966429 326.453142 l
574.444286 324.769508 l
586.922143 327.547849 l
599.4 328.633442 l
stroke
grestore
0.000 0.750 0.750 setrgbcolor
gsave
499.1 499 100.3 71.28 clipbox
100.285714 217.704162 m
112.763571 229.566975 l
125.241429 235.774038 l
137.719286 235.75199 l
150.197143 240.476495 l
162.675 241.822739 l
175.152857 242.299557 l
187.630714 246.021558 l
200.108571 242.9209 l
212.586429 243.535448 l
225.064286 241.298316 l
237.542143 243.533377 l
250.02 241.763899 l
262.497857 243.01741 l
274.975714 245.595952 l
287.453571 241.911448 l
299.931429 243.937451 l
312.409286 244.37658 l
324.887143 243.43387 l
337.365 247.059317 l
349.842857 248.025207 l
362.320714 250.026447 l
374.798571 249.992312 l
387.276429 246.770426 l
399.754286 250.786099 l
412.232143 250.90734 l
424.71 248.622204 l
437.187857 253.881638 l
449.665714 254.951923 l
462.143571 254.494587 l
474.621429 252.216909 l
487.099286 249.405378 l
499.577143 253.888996 l
512.055 256.335251 l
524.532857 254.063378 l
537.010714 252.342085 l
549.488571 253.364343 l
561.966429 259.154103 l
574.444286 259.955265 l
586.922143 253.482967 l
599.4 261.275599 l
stroke
grestore
0 setlinecap
[14.8 6.4] 0 setdash
0.000 setgray
gsave
499.1 499 100.3 71.28 clipbox
100.285714 177.972713 m
112.763571 210.769537 l
125.241429 232.855137 l
137.719286 251.810381 l
150.197143 266.101315 l
162.675 273.608872 l
175.152857 282.71468 l
187.630714 289.771123 l
200.108571 294.384925 l
212.586429 299.303518 l
225.064286 304.095507 l
237.542143 308.231777 l
250.02 312.711364 l
262.497857 316.873701 l
274.975714 319.895134 l
287.453571 325.542969 l
299.931429 328.330162 l
312.409286 330.450585 l
324.887143 332.841356 l
337.365 334.463283 l
349.842857 336.795478 l
362.320714 338.504023 l
374.798571 340.606753 l
387.276429 341.923384 l
399.754286 343.235331 l
412.232143 347.2625 l
424.71 348.981772 l
437.187857 351.110831 l
449.665714 353.262138 l
462.143571 354.991542 l
474.621429 355.36563 l
487.099286 357.803463 l
499.577143 359.597708 l
512.055 361.851624 l
524.532857 363.318621 l
537.010714 364.348258 l
549.488571 367.416188 l
561.966429 365.507141 l
574.444286 368.345887 l
586.922143 369.513983 l
599.4 370.923718 l
stroke
grestore
1.000 0.000 0.000 setrgbcolor
gsave
499.1 499 100.3 71.28 clipbox
100.285714 156.912697 m
112.763571 188.481011 l
125.241429 208.880765 l
137.719286 224.587645 l
150.197143 239.505584 l
162.675 245.9125 l
175.152857 254.079502 l
187.630714 260.923336 l
200.108571 266.512361 l
212.586429 271.05743 l
225.064286 274.669286 l
237.542143 279.180818 l
250.02 282.037791 l
262.497857 287.483087 l
274.975714 289.214446 l
287.453571 293.114118 l
299.931429 295.057562 l
312.409286 297.907223 l
324.887143 301.414388 l
337.365 304.15491 l
349.842857 305.844336 l
362.320714 307.389474 l
374.798571 310.638642 l
387.276429 313.414682 l
399.754286 314.938719 l
412.232143 316.508007 l
424.71 317.996815 l
437.187857 321.266781 l
449.665714 322.737668 l
462.143571 326.614478 l
474.621429 327.72153 l
487.099286 330.445896 l
499.577143 332.265906 l
512.055 334.000691 l
524.532857 335.753113 l
537.010714 336.533366 l
549.488571 337.47607 l
561.966429 338.928976 l
574.444286 340.281042 l
586.922143 342.192884 l
599.4 342.324182 l
stroke
grestore
0.750 0.000 0.750 setrgbcolor
gsave
499.1 499 100.3 71.28 clipbox
100.285714 138.108447 m
112.763571 168.364789 l
125.241429 187.229972 l
137.719286 202.265703 l
150.197143 215.250653 l
162.675 219.709365 l
175.152857 226.248529 l
187.630714 233.577707 l
200.108571 238.959876 l
212.586429 243.771481 l
225.064286 247.449778 l
237.542143 251.030557 l
250.02 255.013662 l
262.497857 257.774926 l
274.975714 261.399259 l
287.453571 265.011027 l
299.931429 266.67175 l
312.409286 269.461025 l
324.887143 271.9894 l
337.365 274.398793 l
349.842857 276.91008 l
362.320714 279.522691 l
374.798571 281.155926 l
387.276429 282.085499 l
399.754286 284.389503 l
412.232143 287.392569 l
424.71 288.99288 l
437.187857 291.407114 l
449.665714 293.086734 l
462.143571 295.887899 l
474.621429 298.004959 l
487.099286 299.737484 l
499.577143 301.147525 l
512.055 301.995468 l
524.532857 304.570039 l
537.010714 305.338073 l
549.488571 308.897415 l
561.966429 311.531427 l
574.444286 310.868535 l
586.922143 314.17091 l
599.4 313.489424 l
stroke
grestore
0.000 0.000 1.000 setrgbcolor
gsave
499.1 499 100.3 71.28 clipbox
100.285714 120.992848 m
112.763571 147.199111 l
125.241429 164.95632 l
137.719286 178.68844 l
150.197143 189.112479 l
162.675 196.698786 l
175.152857 201.871443 l
187.630714 210.055328 l
200.108571 214.022649 l
212.586429 218.895645 l
225.064286 222.358807 l
237.542143 226.184251 l
250.02 230.162354 l
262.497857 232.762593 l
274.975714 235.072841 l
287.453571 237.443723 l
299.931429 240.704223 l
312.409286 242.911363 l
324.887143 245.873249 l
337.365 249.08946 l
349.842857 250.535125 l
362.320714 254.359896 l
374.798571 256.384798 l
387.276429 259.355946 l
399.754286 259.999461 l
412.232143 264.059142 l
424.71 265.69824 l
437.187857 266.97951 l
449.665714 270.088583 l
462.143571 272.994508 l
474.621429 275.013277 l
487.099286 276.585299 l
499.577143 278.794647 l
512.055 280.029544 l
524.532857 281.882596 l
537.010714 283.988491 l
549.488571 286.464861 l
561.966429 287.610291 l
574.444286 287.83351 l
586.922143 290.363374 l
599.4 291.179218 l
stroke
grestore
0.000 0.500 0.000 setrgbcolor
gsave
499.1 499 100.3 71.28 clipbox
100.285714 102.542034 m
112.763571 125.762627 l
125.241429 139.978749 l
137.719286 152.151217 l
150.197143 161.289523 l
162.675 166.620056 l
175.152857 173.293762 l
187.630714 180.543565 l
200.108571 184.950783 l
212.586429 188.361792 l
225.064286 190.554827 l
237.542143 198.036561 l
250.02 199.135015 l
262.497857 203.927167 l
274.975714 206.013368 l
287.453571 209.302188 l
299.931429 213.148823 l
312.409286 216.266554 l
324.887143 219.67463 l
337.365 221.689854 l
349.842857 224.000657 l
362.320714 227.734717 l
374.798571 230.738681 l
387.276429 231.649524 l
399.754286 237.429116 l
412.232143 238.520145 l
424.71 240.216864 l
437.187857 244.280569 l
449.665714 247.224637 l
462.143571 249.785302 l
474.621429 250.902426 l
487.099286 250.442523 l
499.577143 252.253902 l
512.055 255.215107 l
524.532857 256.251189 l
537.010714 256.993853 l
549.488571 259.079464 l
561.966429 260.327046 l
574.444286 261.870369 l
586.922143 266.037208 l
599.4 267.062816 l
stroke
grestore
0.000 0.750 0.750 setrgbcolor
gsave
499.1 499 100.3 71.28 clipbox
100.285714 93.96 m
112.763571 116.46341 l
125.241429 127.120977 l
137.719286 141.710421 l
150.197143 142.329265 l
162.675 151.945216 l
175.152857 157.325273 l
187.630714 162.880714 l
200.108571 166.936266 l
212.586429 171.128444 l
225.064286 177.473337 l
237.542143 181.691499 l
250.02 185.190677 l
262.497857 190.340298 l
274.975714 193.903134 l
287.453571 197.144326 l
299.931429 198.888333 l
312.409286 201.877379 l
324.887143 206.236017 l
337.365 208.818453 l
349.842857 212.827888 l
362.320714 212.957054 l
374.798571 219.460946 l
387.276429 218.002945 l
399.754286 222.660945 l
412.232143 224.644944 l
424.71 228.359646 l
437.187857 230.933688 l
449.665714 232.163661 l
462.143571 237.283017 l
474.621429 237.390236 l
487.099286 239.692981 l
499.577143 240.86982 l
512.055 241.091227 l
524.532857 243.202049 l
537.010714 243.947646 l
549.488571 246.843372 l
561.966429 248.770517 l
574.444286 249.08002 l
586.922143 251.860462 l
599.4 252.444181 l
stroke
grestore
0.800 setlinewidth
0 setlinejoin
2 setlinecap
[] 0 setdash
0.000 setgray
gsave
100.285714 71.28 m
100.285714 570.24 l
stroke
grestore
gsave
599.4 71.28 m
599.4 570.24 l
stroke
grestore
gsave
100.285714 71.28 m
599.4 71.28 l
stroke
grestore
gsave
100.285714 570.24 m
599.4 570.24 l
stroke
grestore
gsave
142.842857 576.240000 translate
0.000000 rotate
/DejaVuSans findfont
24.0 scalefont
setfont
0.000000 0.765625 moveto
/M glyphshow

20.707031 0.765625 moveto
/e glyphshow

35.472656 0.765625 moveto
/a glyphshow

50.179688 0.765625 moveto
/n glyphshow

65.390625 0.765625 moveto
/space glyphshow

73.019531 0.765625 moveto
/P glyphshow

87.492188 0.765625 moveto
/o glyphshow

102.175781 0.765625 moveto
/s glyphshow

114.679688 0.765625 moveto
/i glyphshow

121.347656 0.765625 moveto
/t glyphshow

130.757812 0.765625 moveto
/i glyphshow

137.425781 0.765625 moveto
/o glyphshow

152.109375 0.765625 moveto
/n glyphshow

167.320312 0.765625 moveto
/a glyphshow

182.027344 0.765625 moveto
/l glyphshow

188.695312 0.765625 moveto
/space glyphshow

196.324219 0.765625 moveto
/E glyphshow

211.488281 0.765625 moveto
/r glyphshow

221.355469 0.765625 moveto
/r glyphshow

231.222656 0.765625 moveto
/o glyphshow

245.906250 0.765625 moveto
/r glyphshow

255.773438 0.765625 moveto
/space glyphshow

263.402344 0.765625 moveto
/o glyphshow

278.085938 0.765625 moveto
/f glyphshow

286.535156 0.765625 moveto
/space glyphshow

294.164062 0.765625 moveto
/uni0394 glyphshow

/DejaVuSans-Oblique findfont
24.0 scalefont
setfont
310.582031 0.765625 moveto
/T glyphshow

/DejaVuSans-Oblique findfont
16.8 scalefont
setfont
325.242188 -3.171875 moveto
/o glyphshow

335.520703 -3.171875 moveto
/b glyphshow

346.184766 -3.171875 moveto
/s glyphshow

/DejaVuSans findfont
24.0 scalefont
setfont
355.593750 0.765625 moveto
/equal glyphshow

375.703125 0.765625 moveto
/zero glyphshow

390.972656 0.765625 moveto
/period glyphshow

398.601562 0.765625 moveto
/one glyphshow


grestore

end
showpage
