%!PS-Adobe-3.0 EPSF-3.0
%%Title: /Users/yin.yang/Desktop/err_ss_0.5.eps
%%Creator: matplotlib version 2.0.2, http://matplotlib.org/
%%CreationDate: Sun Jul  1 22:13:03 2018
%%Orientation: portrait
%%BoundingBox: -126 72 738 720
%%EndComments
%%BeginProlog
/mpldict 9 dict def
mpldict begin
/m { moveto } bind def
/l { lineto } bind def
/r { rlineto } bind def
/c { curveto } bind def
/cl { closepath } bind def
/box {
m
1 index 0 r
0 exch r
neg 0 r
cl
} bind def
/clipbox {
box
clip
newpath
} bind def
%!PS-Adobe-3.0 Resource-Font
%%Title: DejaVu Sans
%%Copyright: Copyright (c) 2003 by Bitstream, Inc. All Rights Reserved. Copyright (c) 2006 by Tavmjong Bah. All Rights Reserved. DejaVu changes are in public domain 
%%Creator: Converted from TrueType to type 3 by PPR
25 dict begin
/_d{bind def}bind def
/_m{moveto}_d
/_l{lineto}_d
/_cl{closepath eofill}_d
/_c{curveto}_d
/_sc{7 -1 roll{setcachedevice}{pop pop pop pop pop pop}ifelse}_d
/_e{exec}_d
/FontName /DejaVuSans def
/PaintType 0 def
/FontMatrix[.001 0 0 .001 0 0]def
/FontBBox[-1021 -463 1793 1232]def
/FontType 3 def
/Encoding [ /space /comma /period /zero /one /two /three /four /five /seven /equal /E /M /P /S /a /b /e /f /h /i /l /n /o /p /r /s /t /x /uni0394 /minus ] def
/FontInfo 10 dict dup begin
/FamilyName (DejaVu Sans) def
/FullName (DejaVu Sans) def
/Notice (Copyright (c) 2003 by Bitstream, Inc. All Rights Reserved. Copyright (c) 2006 by Tavmjong Bah. All Rights Reserved. DejaVu changes are in public domain ) def
/Weight (Book) def
/Version (Version 2.35) def
/ItalicAngle 0.0 def
/isFixedPitch false def
/UnderlinePosition -130 def
/UnderlineThickness 90 def
end readonly def
/CharStrings 31 dict dup begin
/space{318 0 0 0 0 0 _sc
}_d
/comma{318 0 77 -115 220 124 _sc
117 124 _m
220 124 _l
220 40 _l
140 -115 _l
77 -115 _l
117 40 _l
117 124 _l
_cl}_d
/period{318 0 107 0 210 124 _sc
107 124 _m
210 124 _l
210 0 _l
107 0 _l
107 124 _l
_cl}_d
/zero{636 0 66 -13 570 742 _sc
318 664 _m
267 664 229 639 203 589 _c
177 539 165 464 165 364 _c
165 264 177 189 203 139 _c
229 89 267 64 318 64 _c
369 64 407 89 433 139 _c
458 189 471 264 471 364 _c
471 464 458 539 433 589 _c
407 639 369 664 318 664 _c
318 742 _m
399 742 461 709 505 645 _c
548 580 570 486 570 364 _c
570 241 548 147 505 83 _c
461 19 399 -13 318 -13 _c
236 -13 173 19 130 83 _c
87 147 66 241 66 364 _c
66 486 87 580 130 645 _c
173 709 236 742 318 742 _c
_cl}_d
/one{636 0 110 0 544 729 _sc
124 83 _m
285 83 _l
285 639 _l
110 604 _l
110 694 _l
284 729 _l
383 729 _l
383 83 _l
544 83 _l
544 0 _l
124 0 _l
124 83 _l
_cl}_d
/two{{636 0 73 0 536 742 _sc
192 83 _m
536 83 _l
536 0 _l
73 0 _l
73 83 _l
110 121 161 173 226 239 _c
290 304 331 346 348 365 _c
380 400 402 430 414 455 _c
426 479 433 504 433 528 _c
433 566 419 598 392 622 _c
365 646 330 659 286 659 _c
255 659 222 653 188 643 _c
154 632 117 616 78 594 _c
78 694 _l
118 710 155 722 189 730 _c
223 738 255 742 284 742 _c
}_e{359 742 419 723 464 685 _c
509 647 532 597 532 534 _c
532 504 526 475 515 449 _c
504 422 484 390 454 354 _c
446 344 420 317 376 272 _c
332 227 271 164 192 83 _c
_cl}_e}_d
/three{{636 0 76 -13 556 742 _sc
406 393 _m
453 383 490 362 516 330 _c
542 298 556 258 556 212 _c
556 140 531 84 482 45 _c
432 6 362 -13 271 -13 _c
240 -13 208 -10 176 -4 _c
144 1 110 10 76 22 _c
76 117 _l
103 101 133 89 166 81 _c
198 73 232 69 268 69 _c
330 69 377 81 409 105 _c
441 129 458 165 458 212 _c
458 254 443 288 413 312 _c
383 336 341 349 287 349 _c
}_e{202 349 _l
202 430 _l
291 430 _l
339 430 376 439 402 459 _c
428 478 441 506 441 543 _c
441 580 427 609 401 629 _c
374 649 336 659 287 659 _c
260 659 231 656 200 650 _c
169 644 135 635 98 623 _c
98 711 _l
135 721 170 729 203 734 _c
235 739 266 742 296 742 _c
370 742 429 725 473 691 _c
517 657 539 611 539 553 _c
539 513 527 479 504 451 _c
481 423 448 403 406 393 _c
_cl}_e}_d
/four{636 0 49 0 580 729 _sc
378 643 _m
129 254 _l
378 254 _l
378 643 _l
352 729 _m
476 729 _l
476 254 _l
580 254 _l
580 172 _l
476 172 _l
476 0 _l
378 0 _l
378 172 _l
49 172 _l
49 267 _l
352 729 _l
_cl}_d
/five{{636 0 77 -13 549 729 _sc
108 729 _m
495 729 _l
495 646 _l
198 646 _l
198 467 _l
212 472 227 476 241 478 _c
255 480 270 482 284 482 _c
365 482 429 459 477 415 _c
525 370 549 310 549 234 _c
549 155 524 94 475 51 _c
426 8 357 -13 269 -13 _c
238 -13 207 -10 175 -6 _c
143 -1 111 6 77 17 _c
77 116 _l
106 100 136 88 168 80 _c
199 72 232 69 267 69 _c
}_e{323 69 368 83 401 113 _c
433 143 450 183 450 234 _c
450 284 433 324 401 354 _c
368 384 323 399 267 399 _c
241 399 214 396 188 390 _c
162 384 135 375 108 363 _c
108 729 _l
_cl}_e}_d
/seven{636 0 82 0 551 729 _sc
82 729 _m
551 729 _l
551 687 _l
286 0 _l
183 0 _l
432 646 _l
82 646 _l
82 729 _l
_cl}_d
/equal{838 0 106 172 732 454 _sc
106 454 _m
732 454 _l
732 372 _l
106 372 _l
106 454 _l
106 255 _m
732 255 _l
732 172 _l
106 172 _l
106 255 _l
_cl}_d
/E{632 0 98 0 568 729 _sc
98 729 _m
559 729 _l
559 646 _l
197 646 _l
197 430 _l
544 430 _l
544 347 _l
197 347 _l
197 83 _l
568 83 _l
568 0 _l
98 0 _l
98 729 _l
_cl}_d
/M{863 0 98 0 765 729 _sc
98 729 _m
245 729 _l
431 233 _l
618 729 _l
765 729 _l
765 0 _l
669 0 _l
669 640 _l
481 140 _l
382 140 _l
194 640 _l
194 0 _l
98 0 _l
98 729 _l
_cl}_d
/P{603 0 98 0 569 729 _sc
197 648 _m
197 374 _l
321 374 _l
367 374 402 385 427 409 _c
452 433 465 467 465 511 _c
465 555 452 588 427 612 _c
402 636 367 648 321 648 _c
197 648 _l
98 729 _m
321 729 _l
402 729 464 710 506 673 _c
548 636 569 582 569 511 _c
569 439 548 384 506 348 _c
464 311 402 293 321 293 _c
197 293 _l
197 0 _l
98 0 _l
98 729 _l
_cl}_d
/S{{635 0 66 -13 579 742 _sc
535 705 _m
535 609 _l
497 627 462 640 429 649 _c
395 657 363 662 333 662 _c
279 662 237 651 208 631 _c
179 610 165 580 165 542 _c
165 510 174 485 194 469 _c
213 452 250 439 304 429 _c
364 417 _l
437 403 491 378 526 343 _c
561 307 579 260 579 201 _c
579 130 555 77 508 41 _c
460 5 391 -13 300 -13 _c
265 -13 228 -9 189 -2 _c
}_e{150 5 110 16 69 32 _c
69 134 _l
109 111 148 94 186 83 _c
224 71 262 66 300 66 _c
356 66 399 77 430 99 _c
460 121 476 152 476 194 _c
476 230 465 258 443 278 _c
421 298 385 313 335 323 _c
275 335 _l
201 349 148 372 115 404 _c
82 435 66 478 66 534 _c
66 598 88 649 134 686 _c
179 723 242 742 322 742 _c
356 742 390 739 426 733 _c
461 727 497 717 535 705 _c
}_e{_cl}_e}_d
/a{{613 0 60 -13 522 560 _sc
343 275 _m
270 275 220 266 192 250 _c
164 233 150 205 150 165 _c
150 133 160 107 181 89 _c
202 70 231 61 267 61 _c
317 61 357 78 387 114 _c
417 149 432 196 432 255 _c
432 275 _l
343 275 _l
522 312 _m
522 0 _l
432 0 _l
432 83 _l
411 49 385 25 355 10 _c
325 -5 287 -13 243 -13 _c
187 -13 142 2 109 33 _c
76 64 60 106 60 159 _c
}_e{60 220 80 266 122 298 _c
163 329 224 345 306 345 _c
432 345 _l
432 354 _l
432 395 418 427 391 450 _c
364 472 326 484 277 484 _c
245 484 215 480 185 472 _c
155 464 127 453 100 439 _c
100 522 _l
132 534 164 544 195 550 _c
226 556 256 560 286 560 _c
365 560 424 539 463 498 _c
502 457 522 395 522 312 _c
_cl}_e}_d
/b{{635 0 91 -13 580 760 _sc
487 273 _m
487 339 473 390 446 428 _c
418 466 381 485 334 485 _c
286 485 249 466 222 428 _c
194 390 181 339 181 273 _c
181 207 194 155 222 117 _c
249 79 286 61 334 61 _c
381 61 418 79 446 117 _c
473 155 487 207 487 273 _c
181 464 _m
199 496 223 520 252 536 _c
281 552 316 560 356 560 _c
422 560 476 533 518 481 _c
559 428 580 359 580 273 _c
}_e{580 187 559 117 518 65 _c
476 13 422 -13 356 -13 _c
316 -13 281 -5 252 10 _c
223 25 199 49 181 82 _c
181 0 _l
91 0 _l
91 760 _l
181 760 _l
181 464 _l
_cl}_e}_d
/e{{615 0 55 -13 562 560 _sc
562 296 _m
562 252 _l
149 252 _l
153 190 171 142 205 110 _c
238 78 284 62 344 62 _c
378 62 412 66 444 74 _c
476 82 509 95 541 113 _c
541 28 _l
509 14 476 3 442 -3 _c
408 -9 373 -13 339 -13 _c
251 -13 182 12 131 62 _c
80 112 55 181 55 268 _c
55 357 79 428 127 481 _c
175 533 241 560 323 560 _c
397 560 455 536 498 489 _c
}_e{540 441 562 377 562 296 _c
472 322 _m
471 371 457 410 431 440 _c
404 469 368 484 324 484 _c
274 484 234 469 204 441 _c
174 413 156 373 152 322 _c
472 322 _l
_cl}_e}_d
/f{352 0 23 0 371 760 _sc
371 760 _m
371 685 _l
285 685 _l
253 685 230 678 218 665 _c
205 652 199 629 199 595 _c
199 547 _l
347 547 _l
347 477 _l
199 477 _l
199 0 _l
109 0 _l
109 477 _l
23 477 _l
23 547 _l
109 547 _l
109 585 _l
109 645 123 690 151 718 _c
179 746 224 760 286 760 _c
371 760 _l
_cl}_d
/h{634 0 91 0 549 760 _sc
549 330 _m
549 0 _l
459 0 _l
459 327 _l
459 379 448 417 428 443 _c
408 469 378 482 338 482 _c
289 482 251 466 223 435 _c
195 404 181 362 181 309 _c
181 0 _l
91 0 _l
91 760 _l
181 760 _l
181 462 _l
202 494 227 519 257 535 _c
286 551 320 560 358 560 _c
420 560 468 540 500 501 _c
532 462 549 405 549 330 _c
_cl}_d
/i{278 0 94 0 184 760 _sc
94 547 _m
184 547 _l
184 0 _l
94 0 _l
94 547 _l
94 760 _m
184 760 _l
184 646 _l
94 646 _l
94 760 _l
_cl}_d
/l{278 0 94 0 184 760 _sc
94 760 _m
184 760 _l
184 0 _l
94 0 _l
94 760 _l
_cl}_d
/n{634 0 91 0 549 560 _sc
549 330 _m
549 0 _l
459 0 _l
459 327 _l
459 379 448 417 428 443 _c
408 469 378 482 338 482 _c
289 482 251 466 223 435 _c
195 404 181 362 181 309 _c
181 0 _l
91 0 _l
91 547 _l
181 547 _l
181 462 _l
202 494 227 519 257 535 _c
286 551 320 560 358 560 _c
420 560 468 540 500 501 _c
532 462 549 405 549 330 _c
_cl}_d
/o{612 0 55 -13 557 560 _sc
306 484 _m
258 484 220 465 192 427 _c
164 389 150 338 150 273 _c
150 207 163 156 191 118 _c
219 80 257 62 306 62 _c
354 62 392 80 420 118 _c
448 156 462 207 462 273 _c
462 337 448 389 420 427 _c
392 465 354 484 306 484 _c
306 560 _m
384 560 445 534 490 484 _c
534 433 557 363 557 273 _c
557 183 534 113 490 63 _c
445 12 384 -13 306 -13 _c
227 -13 165 12 121 63 _c
77 113 55 183 55 273 _c
55 363 77 433 121 484 _c
165 534 227 560 306 560 _c
_cl}_d
/p{{635 0 91 -207 580 560 _sc
181 82 _m
181 -207 _l
91 -207 _l
91 547 _l
181 547 _l
181 464 _l
199 496 223 520 252 536 _c
281 552 316 560 356 560 _c
422 560 476 533 518 481 _c
559 428 580 359 580 273 _c
580 187 559 117 518 65 _c
476 13 422 -13 356 -13 _c
316 -13 281 -5 252 10 _c
223 25 199 49 181 82 _c
487 273 _m
487 339 473 390 446 428 _c
418 466 381 485 334 485 _c
}_e{286 485 249 466 222 428 _c
194 390 181 339 181 273 _c
181 207 194 155 222 117 _c
249 79 286 61 334 61 _c
381 61 418 79 446 117 _c
473 155 487 207 487 273 _c
_cl}_e}_d
/r{411 0 91 0 411 560 _sc
411 463 _m
401 469 390 473 378 476 _c
366 478 353 480 339 480 _c
288 480 249 463 222 430 _c
194 397 181 350 181 288 _c
181 0 _l
91 0 _l
91 547 _l
181 547 _l
181 462 _l
199 495 224 520 254 536 _c
284 552 321 560 365 560 _c
371 560 378 559 386 559 _c
393 558 401 557 411 555 _c
411 463 _l
_cl}_d
/s{{521 0 54 -13 472 560 _sc
443 531 _m
443 446 _l
417 458 391 468 364 475 _c
336 481 308 485 279 485 _c
234 485 200 478 178 464 _c
156 450 145 430 145 403 _c
145 382 153 366 169 354 _c
185 342 217 330 265 320 _c
296 313 _l
360 299 405 279 432 255 _c
458 230 472 195 472 151 _c
472 100 452 60 412 31 _c
372 1 316 -13 246 -13 _c
216 -13 186 -10 154 -5 _c
}_e{122 0 89 8 54 20 _c
54 113 _l
87 95 120 82 152 74 _c
184 65 216 61 248 61 _c
290 61 323 68 346 82 _c
368 96 380 117 380 144 _c
380 168 371 187 355 200 _c
339 213 303 226 247 238 _c
216 245 _l
160 257 119 275 95 299 _c
70 323 58 356 58 399 _c
58 450 76 490 112 518 _c
148 546 200 560 268 560 _c
301 560 332 557 362 552 _c
391 547 418 540 443 531 _c
}_e{_cl}_e}_d
/t{392 0 27 0 368 702 _sc
183 702 _m
183 547 _l
368 547 _l
368 477 _l
183 477 _l
183 180 _l
183 135 189 106 201 94 _c
213 81 238 75 276 75 _c
368 75 _l
368 0 _l
276 0 _l
206 0 158 13 132 39 _c
106 65 93 112 93 180 _c
93 477 _l
27 477 _l
27 547 _l
93 547 _l
93 702 _l
183 702 _l
_cl}_d
/x{592 0 29 0 559 547 _sc
549 547 _m
351 281 _l
559 0 _l
453 0 _l
294 215 _l
135 0 _l
29 0 _l
241 286 _l
47 547 _l
153 547 _l
298 352 _l
443 547 _l
549 547 _l
_cl}_d
/uni0394{684 0 8 0 676 729 _sc
342 632 _m
142 82 _l
542 82 _l
342 632 _l
8 0 _m
286 729 _l
398 729 _l
676 0 _l
8 0 _l
_cl}_d
/minus{838 0 106 272 732 355 _sc
106 355 _m
732 355 _l
732 272 _l
106 272 _l
106 355 _l
_cl}_d
end readonly def

/BuildGlyph
 {exch begin
 CharStrings exch
 2 copy known not{pop /.notdef}if
 true 3 1 roll get exec
 end}_d

/BuildChar {
 1 index /Encoding get exch get
 1 index /BuildGlyph get exec
}_d

FontName currentdict end definefont pop
%!PS-Adobe-3.0 Resource-Font
%%Title: DejaVu Sans Oblique
%%Copyright: Copyright (c) 2003 by Bitstream, Inc. All Rights Reserved. Copyright (c) 2006 by Tavmjong Bah. All Rights Reserved. DejaVu changes are in public domain 
%%Creator: Converted from TrueType to type 3 by PPR
25 dict begin
/_d{bind def}bind def
/_m{moveto}_d
/_l{lineto}_d
/_cl{closepath eofill}_d
/_c{curveto}_d
/_sc{7 -1 roll{setcachedevice}{pop pop pop pop pop pop}ifelse}_d
/_e{exec}_d
/FontName /DejaVuSans-Oblique def
/PaintType 0 def
/FontMatrix[.001 0 0 .001 0 0]def
/FontBBox[-1016 -350 1659 1068]def
/FontType 3 def
/Encoding [ /T /b /o /s ] def
/FontInfo 10 dict dup begin
/FamilyName (DejaVu Sans) def
/FullName (DejaVu Sans Oblique) def
/Notice (Copyright (c) 2003 by Bitstream, Inc. All Rights Reserved. Copyright (c) 2006 by Tavmjong Bah. All Rights Reserved. DejaVu changes are in public domain ) def
/Weight (Oblique) def
/Version (Version 2.35) def
/ItalicAngle -11.0 def
/isFixedPitch false def
/UnderlinePosition -130 def
/UnderlineThickness 90 def
end readonly def
/CharStrings 4 dict dup begin
/T{611 0 43 0 676 729 _sc
59 729 _m
676 729 _l
660 646 _l
400 646 _l
275 0 _l
176 0 _l
301 646 _l
43 646 _l
59 729 _l
_cl}_d
/b{{635 0 36 -13 587 760 _sc
495 334 _m
495 381 484 418 462 445 _c
440 471 411 485 373 485 _c
345 485 319 478 295 464 _c
271 450 250 431 232 406 _c
213 378 198 347 187 311 _c
176 275 171 240 171 205 _c
171 160 181 125 203 99 _c
224 73 253 61 291 61 _c
319 61 345 67 369 81 _c
393 94 415 113 433 139 _c
451 165 466 196 478 232 _c
489 268 495 302 495 334 _c
216 464 _m
}_e{238 494 265 517 299 534 _c
332 551 367 560 404 560 _c
460 560 504 541 537 503 _c
570 465 587 414 587 350 _c
587 297 577 246 558 197 _c
538 147 511 103 475 65 _c
451 39 424 20 394 7 _c
363 -6 331 -13 298 -13 _c
262 -13 232 -5 206 11 _c
180 27 158 51 142 83 _c
126 0 _l
36 0 _l
184 760 _l
274 760 _l
216 464 _l
_cl}_e}_d
/o{{612 0 46 -13 566 560 _sc
254 -13 _m
190 -13 139 6 102 45 _c
64 84 46 138 46 207 _c
46 247 52 287 65 328 _c
77 369 94 404 115 432 _c
147 476 183 508 223 529 _c
263 549 308 560 358 560 _c
420 560 470 540 508 502 _c
546 463 566 412 566 350 _c
566 306 559 263 547 220 _c
534 177 517 142 497 114 _c
465 70 429 37 389 17 _c
349 -3 304 -13 254 -13 _c
139 210 _m
}_e{139 160 149 123 170 99 _c
190 74 222 62 264 62 _c
324 62 373 88 413 141 _c
453 193 473 260 473 341 _c
473 388 462 424 441 448 _c
420 472 389 484 348 484 _c
314 484 283 476 257 460 _c
231 444 207 420 187 388 _c
171 364 159 336 151 305 _c
143 274 139 242 139 210 _c
_cl}_e}_d
/s{{521 0 11 -13 500 560 _sc
500 531 _m
483 446 _l
459 458 433 468 407 475 _c
381 481 354 485 326 485 _c
278 485 241 477 214 461 _c
187 445 174 423 174 395 _c
174 363 205 338 269 321 _c
273 319 277 318 279 318 _c
308 309 _l
368 292 408 274 428 256 _c
448 238 458 213 458 182 _c
458 124 435 77 389 41 _c
343 5 282 -13 208 -13 _c
179 -13 149 -10 117 -5 _c
}_e{85 0 49 8 11 20 _c
29 113 _l
61 95 94 82 126 74 _c
158 65 188 61 218 61 _c
262 61 297 70 325 89 _c
352 108 366 132 366 161 _c
366 192 330 217 258 237 _c
249 239 _l
218 247 _l
172 259 138 274 117 294 _c
96 314 86 339 86 370 _c
86 428 107 475 151 509 _c
195 543 254 560 330 560 _c
360 560 389 557 417 552 _c
445 547 472 540 500 531 _c
_cl}_e}_d
end readonly def

/BuildGlyph
 {exch begin
 CharStrings exch
 2 copy known not{pop /.notdef}if
 true 3 1 roll get exec
 end}_d

/BuildChar {
 1 index /Encoding get exch get
 1 index /BuildGlyph get exec
}_d

FontName currentdict end definefont pop
end
%%EndProlog
mpldict begin
-126 72 translate
864 648 0 0 clipbox
gsave
0 0 m
864 0 l
864 648 l
0 648 l
cl
1.000 setgray
fill
grestore
gsave
108 71.28 m
610.2 71.28 l
610.2 570.24 l
108 570.24 l
cl
1.000 setgray
fill
grestore
0.800 setlinewidth
1 setlinejoin
0 setlinecap
[] 0 setdash
0.000 setgray
gsave
/o {
gsave
newpath
translate
0.8 setlinewidth
1 setlinejoin
0 setlinecap
0 0 m
0 -3.5 l

gsave
0.000 setgray
fill
grestore
stroke
grestore
} bind def
108 71.28 o
grestore
/DejaVuSans findfont
24.000 scalefont
setfont
gsave
92.734375 46.045625 translate
0.000000 rotate
0.000000 0.000000 m /one glyphshow
15.269531 0.000000 m /zero glyphshow
grestore
gsave
/o {
gsave
newpath
translate
0.8 setlinewidth
1 setlinejoin
0 setlinecap
0 0 m
0 -3.5 l

gsave
0.000 setgray
fill
grestore
stroke
grestore
} bind def
233.55 71.28 o
grestore
gsave
218.284375 46.045625 translate
0.000000 rotate
0.000000 0.000000 m /two glyphshow
15.269531 0.000000 m /zero glyphshow
grestore
gsave
/o {
gsave
newpath
translate
0.8 setlinewidth
1 setlinejoin
0 setlinecap
0 0 m
0 -3.5 l

gsave
0.000 setgray
fill
grestore
stroke
grestore
} bind def
359.1 71.28 o
grestore
gsave
343.834375 46.045625 translate
0.000000 rotate
0.000000 0.000000 m /three glyphshow
15.269531 0.000000 m /zero glyphshow
grestore
gsave
/o {
gsave
newpath
translate
0.8 setlinewidth
1 setlinejoin
0 setlinecap
0 0 m
0 -3.5 l

gsave
0.000 setgray
fill
grestore
stroke
grestore
} bind def
484.65 71.28 o
grestore
gsave
469.384375 46.045625 translate
0.000000 rotate
0.000000 0.000000 m /four glyphshow
15.269531 0.000000 m /zero glyphshow
grestore
gsave
/o {
gsave
newpath
translate
0.8 setlinewidth
1 setlinejoin
0 setlinecap
0 0 m
0 -3.5 l

gsave
0.000 setgray
fill
grestore
stroke
grestore
} bind def
610.2 71.28 o
grestore
gsave
594.934375 46.045625 translate
0.000000 rotate
0.000000 0.000000 m /five glyphshow
15.269531 0.000000 m /zero glyphshow
grestore
gsave
296.748438 18.811250 translate
0.000000 rotate
0.000000 0.000000 m /S glyphshow
15.234375 0.000000 m /n glyphshow
30.445312 0.000000 m /a glyphshow
45.152344 0.000000 m /p glyphshow
60.386719 0.000000 m /s glyphshow
72.890625 0.000000 m /h glyphshow
88.101562 0.000000 m /o glyphshow
102.785156 0.000000 m /t glyphshow
112.195312 0.000000 m /s glyphshow
grestore
gsave
/o {
gsave
newpath
translate
0.8 setlinewidth
1 setlinejoin
0 setlinecap
0 0 m
-3.5 0 l

gsave
0.000 setgray
fill
grestore
stroke
grestore
} bind def
108 94.0907 o
grestore
gsave
44.000000 84.973552 translate
0.000000 rotate
/DejaVuSans findfont
24.0 scalefont
setfont
0.000000 0.343750 moveto
/one glyphshow

15.269531 0.343750 moveto
/zero glyphshow

/DejaVuSans findfont
16.8 scalefont
setfont
30.768750 9.531250 moveto
/minus glyphshow

44.845312 9.531250 moveto
/three glyphshow


grestore
gsave
/o {
gsave
newpath
translate
0.8 setlinewidth
1 setlinejoin
0 setlinecap
0 0 m
-3.5 0 l

gsave
0.000 setgray
fill
grestore
stroke
grestore
} bind def
108 317.882 o
grestore
gsave
44.000000 308.764733 translate
0.000000 rotate
/DejaVuSans findfont
24.0 scalefont
setfont
0.000000 0.343750 moveto
/one glyphshow

15.269531 0.343750 moveto
/zero glyphshow

/DejaVuSans findfont
16.8 scalefont
setfont
30.768750 9.531250 moveto
/minus glyphshow

44.845312 9.531250 moveto
/two glyphshow


grestore
gsave
/o {
gsave
newpath
translate
0.8 setlinewidth
1 setlinejoin
0 setlinecap
0 0 m
-3.5 0 l

gsave
0.000 setgray
fill
grestore
stroke
grestore
} bind def
108 541.673 o
grestore
gsave
44.000000 532.555915 translate
0.000000 rotate
/DejaVuSans findfont
24.0 scalefont
setfont
0.000000 0.562500 moveto
/one glyphshow

15.269531 0.562500 moveto
/zero glyphshow

/DejaVuSans findfont
16.8 scalefont
setfont
30.768750 9.750000 moveto
/minus glyphshow

44.845312 9.750000 moveto
/one glyphshow


grestore
0.600 setlinewidth
gsave
/o {
gsave
newpath
translate
0.6 setlinewidth
1 setlinejoin
0 setlinecap
0 0 m
-2 0 l

gsave
0.000 setgray
fill
grestore
stroke
grestore
} bind def
108 72.4031 o
grestore
gsave
/o {
gsave
newpath
translate
0.6 setlinewidth
1 setlinejoin
0 setlinecap
0 0 m
-2 0 l

gsave
0.000 setgray
fill
grestore
stroke
grestore
} bind def
108 83.8506 o
grestore
gsave
/o {
gsave
newpath
translate
0.6 setlinewidth
1 setlinejoin
0 setlinecap
0 0 m
-2 0 l

gsave
0.000 setgray
fill
grestore
stroke
grestore
} bind def
108 161.459 o
grestore
gsave
/o {
gsave
newpath
translate
0.6 setlinewidth
1 setlinejoin
0 setlinecap
0 0 m
-2 0 l

gsave
0.000 setgray
fill
grestore
stroke
grestore
} bind def
108 200.866 o
grestore
gsave
/o {
gsave
newpath
translate
0.6 setlinewidth
1 setlinejoin
0 setlinecap
0 0 m
-2 0 l

gsave
0.000 setgray
fill
grestore
stroke
grestore
} bind def
108 228.826 o
grestore
gsave
/o {
gsave
newpath
translate
0.6 setlinewidth
1 setlinejoin
0 setlinecap
0 0 m
-2 0 l

gsave
0.000 setgray
fill
grestore
stroke
grestore
} bind def
108 250.514 o
grestore
gsave
/o {
gsave
newpath
translate
0.6 setlinewidth
1 setlinejoin
0 setlinecap
0 0 m
-2 0 l

gsave
0.000 setgray
fill
grestore
stroke
grestore
} bind def
108 268.234 o
grestore
gsave
/o {
gsave
newpath
translate
0.6 setlinewidth
1 setlinejoin
0 setlinecap
0 0 m
-2 0 l

gsave
0.000 setgray
fill
grestore
stroke
grestore
} bind def
108 283.216 o
grestore
gsave
/o {
gsave
newpath
translate
0.6 setlinewidth
1 setlinejoin
0 setlinecap
0 0 m
-2 0 l

gsave
0.000 setgray
fill
grestore
stroke
grestore
} bind def
108 296.194 o
grestore
gsave
/o {
gsave
newpath
translate
0.6 setlinewidth
1 setlinejoin
0 setlinecap
0 0 m
-2 0 l

gsave
0.000 setgray
fill
grestore
stroke
grestore
} bind def
108 307.642 o
grestore
gsave
/o {
gsave
newpath
translate
0.6 setlinewidth
1 setlinejoin
0 setlinecap
0 0 m
-2 0 l

gsave
0.000 setgray
fill
grestore
stroke
grestore
} bind def
108 385.25 o
grestore
gsave
/o {
gsave
newpath
translate
0.6 setlinewidth
1 setlinejoin
0 setlinecap
0 0 m
-2 0 l

gsave
0.000 setgray
fill
grestore
stroke
grestore
} bind def
108 424.657 o
grestore
gsave
/o {
gsave
newpath
translate
0.6 setlinewidth
1 setlinejoin
0 setlinecap
0 0 m
-2 0 l

gsave
0.000 setgray
fill
grestore
stroke
grestore
} bind def
108 452.618 o
grestore
gsave
/o {
gsave
newpath
translate
0.6 setlinewidth
1 setlinejoin
0 setlinecap
0 0 m
-2 0 l

gsave
0.000 setgray
fill
grestore
stroke
grestore
} bind def
108 474.305 o
grestore
gsave
/o {
gsave
newpath
translate
0.6 setlinewidth
1 setlinejoin
0 setlinecap
0 0 m
-2 0 l

gsave
0.000 setgray
fill
grestore
stroke
grestore
} bind def
108 492.025 o
grestore
gsave
/o {
gsave
newpath
translate
0.6 setlinewidth
1 setlinejoin
0 setlinecap
0 0 m
-2 0 l

gsave
0.000 setgray
fill
grestore
stroke
grestore
} bind def
108 507.007 o
grestore
gsave
/o {
gsave
newpath
translate
0.6 setlinewidth
1 setlinejoin
0 setlinecap
0 0 m
-2 0 l

gsave
0.000 setgray
fill
grestore
stroke
grestore
} bind def
108 519.985 o
grestore
gsave
/o {
gsave
newpath
translate
0.6 setlinewidth
1 setlinejoin
0 setlinecap
0 0 m
-2 0 l

gsave
0.000 setgray
fill
grestore
stroke
grestore
} bind def
108 531.433 o
grestore
gsave
35.000000 292.369375 translate
90.000000 rotate
0.000000 0.000000 m /P glyphshow
14.472656 0.000000 m /i glyphshow
21.140625 0.000000 m /x glyphshow
35.343750 0.000000 m /e glyphshow
50.109375 0.000000 m /l glyphshow
grestore
4.000 setlinewidth
2 setlinecap
gsave
502.2 499 108 71.28 clipbox
108 352.696847 m
120.555 361.875586 l
133.11 368.078713 l
145.665 371.583545 l
158.22 376.440886 l
170.775 377.632388 l
183.33 381.291928 l
195.885 386.727125 l
208.44 391.742943 l
220.995 395.010498 l
233.55 374.890746 l
246.105 392.896024 l
258.66 408.866691 l
271.215 419.460695 l
283.77 428.73433 l
296.325 438.023689 l
308.88 447.401128 l
321.435 451.867601 l
333.99 459.790301 l
346.545 467.208953 l
359.1 472.513905 l
371.655 477.375523 l
384.21 483.597106 l
396.765 489.714661 l
409.32 494.525692 l
421.875 500.232633 l
434.43 503.596172 l
446.985 507.325692 l
459.54 512.448633 l
472.095 516.739367 l
484.65 520.317293 l
497.205 524.422598 l
509.76 527.822335 l
522.315 530.64148 l
534.87 533.691499 l
547.425 536.415133 l
559.98 538.514455 l
572.535 540.299513 l
585.09 542.797636 l
597.645 544.666881 l
610.2 547.56 l
stroke
grestore
1.000 0.000 0.000 setrgbcolor
gsave
502.2 499 108 71.28 clipbox
108 327.171647 m
120.555 335.151804 l
133.11 339.491348 l
145.665 344.169534 l
158.22 346.95651 l
170.775 350.173637 l
183.33 351.068773 l
195.885 358.674192 l
208.44 361.585101 l
220.995 365.4361 l
233.55 370.174179 l
246.105 373.85737 l
258.66 369.700299 l
271.215 387.936107 l
283.77 404.156245 l
296.325 416.226798 l
308.88 429.332324 l
321.435 435.201219 l
333.99 447.324088 l
346.545 451.908751 l
359.1 460.97282 l
371.655 464.780864 l
384.21 471.360246 l
396.765 476.928535 l
409.32 482.080773 l
421.875 489.092798 l
434.43 492.413147 l
446.985 497.013464 l
459.54 502.394101 l
472.095 506.949062 l
484.65 510.98862 l
497.205 515.291136 l
509.76 519.225079 l
522.315 521.586946 l
534.87 524.684707 l
547.425 527.065206 l
559.98 529.501795 l
572.535 532.508129 l
585.09 534.155559 l
597.645 537.580157 l
610.2 540.177733 l
stroke
grestore
0.750 0.000 0.750 setrgbcolor
gsave
502.2 499 108 71.28 clipbox
108 299.201373 m
120.555 303.207347 l
133.11 305.888219 l
145.665 311.207136 l
158.22 315.728864 l
170.775 315.950326 l
183.33 318.150262 l
195.885 324.392389 l
208.44 329.993684 l
220.995 332.413421 l
233.55 337.202662 l
246.105 341.445515 l
258.66 345.498389 l
271.215 346.739813 l
283.77 350.333573 l
296.325 353.212196 l
308.88 379.314876 l
321.435 399.826342 l
333.99 417.863981 l
346.545 429.004528 l
359.1 441.655566 l
371.655 449.7602 l
384.21 457.001705 l
396.765 463.876782 l
409.32 469.867167 l
421.875 478.005512 l
434.43 480.512177 l
446.985 486.043464 l
459.54 492.300594 l
472.095 495.51044 l
484.65 500.773273 l
497.205 504.925767 l
509.76 507.619162 l
522.315 513.217786 l
534.87 515.131064 l
547.425 517.681688 l
559.98 519.670026 l
572.535 523.733194 l
585.09 526.432498 l
597.645 529.046191 l
610.2 531.065723 l
stroke
grestore
0.000 0.000 1.000 setrgbcolor
gsave
502.2 499 108 71.28 clipbox
108 263.541199 m
120.555 267.070801 l
133.11 270.130179 l
145.665 273.007891 l
158.22 277.9209 l
170.775 278.765888 l
183.33 282.169643 l
195.885 288.495565 l
208.44 293.648651 l
220.995 295.345325 l
233.55 298.155163 l
246.105 302.854115 l
258.66 307.624948 l
271.215 309.323036 l
283.77 313.988043 l
296.325 315.374562 l
308.88 321.320519 l
321.435 322.37653 l
333.99 326.655802 l
346.545 327.827838 l
359.1 329.20259 l
371.655 333.779663 l
384.21 408.988907 l
396.765 426.653208 l
409.32 439.586486 l
421.875 451.805054 l
434.43 461.688702 l
446.985 470.022472 l
459.54 477.513724 l
472.095 483.946788 l
484.65 489.631141 l
497.205 493.992705 l
509.76 498.485042 l
522.315 503.183735 l
534.87 505.58012 l
547.425 506.569858 l
559.98 509.830597 l
572.535 513.272094 l
585.09 516.380538 l
597.645 519.969425 l
610.2 521.977563 l
stroke
grestore
0.000 0.500 0.000 setrgbcolor
gsave
502.2 499 108 71.28 clipbox
108 200.173347 m
120.555 196.249628 l
133.11 204.628729 l
145.665 204.480415 l
158.22 205.865464 l
170.775 210.859094 l
183.33 214.65321 l
195.885 219.295778 l
208.44 221.555593 l
220.995 226.806481 l
233.55 234.929529 l
246.105 236.023769 l
258.66 238.100727 l
271.215 240.716346 l
283.77 240.835792 l
296.325 248.223454 l
308.88 249.628719 l
321.435 255.233466 l
333.99 260.651335 l
346.545 260.348738 l
359.1 265.414862 l
371.655 268.281606 l
384.21 274.451127 l
396.765 277.04214 l
409.32 274.998941 l
421.875 282.393694 l
434.43 286.524212 l
446.985 283.121224 l
459.54 290.948762 l
472.095 294.994217 l
484.65 295.233158 l
497.205 297.085801 l
509.76 300.559731 l
522.315 305.701504 l
534.87 306.182966 l
547.425 307.953637 l
559.98 311.445044 l
572.535 311.471588 l
585.09 312.726252 l
597.645 315.559753 l
610.2 289.328879 l
stroke
grestore
0.000 0.750 0.750 setrgbcolor
gsave
502.2 499 108 71.28 clipbox
108 156.449369 m
120.555 159.88169 l
133.11 157.266302 l
145.665 165.725167 l
158.22 158.93655 l
170.775 168.320622 l
183.33 166.291251 l
195.885 174.943971 l
208.44 178.105241 l
220.995 179.699875 l
233.55 184.069334 l
246.105 184.405523 l
258.66 191.43586 l
271.215 194.724841 l
283.77 190.448157 l
296.325 193.945276 l
308.88 197.664677 l
321.435 197.110412 l
333.99 208.900391 l
346.545 200.376242 l
359.1 203.164978 l
371.655 213.403633 l
384.21 211.861335 l
396.765 217.979588 l
409.32 218.607071 l
421.875 229.131991 l
434.43 228.633086 l
446.985 231.373769 l
459.54 237.763544 l
472.095 245.466393 l
484.65 241.269101 l
497.205 241.149961 l
509.76 245.042806 l
522.315 244.782267 l
534.87 247.195898 l
547.425 253.882277 l
559.98 257.710595 l
572.535 254.296512 l
585.09 256.337176 l
597.645 268.749399 l
610.2 264.476336 l
stroke
grestore
0 setlinecap
[14.8 6.4] 0 setdash
0.000 setgray
gsave
502.2 499 108 71.28 clipbox
108 195.596486 m
120.555 214.847514 l
133.11 223.80542 l
145.665 229.588905 l
158.22 233.824175 l
170.775 236.156239 l
183.33 239.582628 l
195.885 242.488597 l
208.44 245.714059 l
220.995 249.530957 l
233.55 227.304887 l
246.105 230.462517 l
258.66 232.13727 l
271.215 235.289191 l
283.77 238.82039 l
296.325 243.593787 l
308.88 246.272497 l
321.435 246.48775 l
333.99 249.194715 l
346.545 249.332686 l
359.1 254.764593 l
371.655 256.479406 l
384.21 260.188487 l
396.765 262.438114 l
409.32 264.072469 l
421.875 266.415008 l
434.43 269.379282 l
446.985 271.484204 l
459.54 271.174694 l
472.095 276.878966 l
484.65 277.700188 l
497.205 280.862512 l
509.76 283.919984 l
522.315 285.739386 l
534.87 286.472836 l
547.425 286.652239 l
559.98 287.528795 l
572.535 290.9405 l
585.09 292.711285 l
597.645 295.418829 l
610.2 296.8418 l
stroke
grestore
1.000 0.000 0.000 setrgbcolor
gsave
502.2 499 108 71.28 clipbox
108 175.970199 m
120.555 195.818483 l
133.11 201.451741 l
145.665 207.428316 l
158.22 210.226278 l
170.775 212.467654 l
183.33 215.867194 l
195.885 219.429158 l
208.44 222.993157 l
220.995 224.702062 l
233.55 227.726975 l
246.105 229.199632 l
258.66 231.744823 l
271.215 211.092283 l
283.77 212.969872 l
296.325 217.755302 l
308.88 222.082872 l
321.435 219.724377 l
333.99 224.218027 l
346.545 224.303079 l
359.1 227.325523 l
371.655 228.698821 l
384.21 233.035831 l
396.765 235.926954 l
409.32 237.634961 l
421.875 236.720273 l
434.43 239.694567 l
446.985 241.136321 l
459.54 245.127958 l
472.095 248.147859 l
484.65 246.094053 l
497.205 251.900538 l
509.76 253.038695 l
522.315 255.945298 l
534.87 255.182209 l
547.425 256.022571 l
559.98 257.157025 l
572.535 257.823408 l
585.09 259.579588 l
597.645 261.89151 l
610.2 264.246277 l
stroke
grestore
0.750 0.000 0.750 setrgbcolor
gsave
502.2 499 108 71.28 clipbox
108 154.273329 m
120.555 169.659217 l
133.11 176.181916 l
145.665 180.003608 l
158.22 181.086283 l
170.775 183.215253 l
183.33 186.822202 l
195.885 189.318978 l
208.44 191.525948 l
220.995 193.431295 l
233.55 193.254119 l
246.105 196.988538 l
258.66 198.829866 l
271.215 201.603109 l
283.77 203.448369 l
296.325 205.547483 l
308.88 181.343301 l
321.435 181.61108 l
333.99 184.393823 l
346.545 187.741 l
359.1 187.551921 l
371.655 187.621301 l
384.21 188.892081 l
396.765 191.129005 l
409.32 193.008093 l
421.875 195.033008 l
434.43 195.72658 l
446.985 198.297631 l
459.54 198.589846 l
472.095 200.525047 l
484.65 203.587248 l
497.205 202.285906 l
509.76 205.939531 l
522.315 206.3165 l
534.87 208.357226 l
547.425 208.065105 l
559.98 210.925636 l
572.535 211.556037 l
585.09 213.252365 l
597.645 215.615891 l
610.2 218.317593 l
stroke
grestore
0.000 0.000 1.000 setrgbcolor
gsave
502.2 499 108 71.28 clipbox
108 134.613367 m
120.555 148.918034 l
133.11 155.772652 l
145.665 160.965238 l
158.22 161.160602 l
170.775 161.85892 l
183.33 165.633485 l
195.885 168.667906 l
208.44 171.50633 l
220.995 173.220774 l
233.55 174.769937 l
246.105 176.775419 l
258.66 182.038584 l
271.215 181.433725 l
283.77 183.565712 l
296.325 186.422032 l
308.88 191.10173 l
321.435 190.156872 l
333.99 194.18234 l
346.545 194.442609 l
359.1 195.87541 l
371.655 196.154321 l
384.21 178.372129 l
396.765 183.022814 l
409.32 182.41235 l
421.875 184.085685 l
434.43 191.295402 l
446.985 189.627953 l
459.54 190.399492 l
472.095 191.797627 l
484.65 193.83301 l
497.205 195.498831 l
509.76 194.949304 l
522.315 195.824054 l
534.87 194.471086 l
547.425 198.374849 l
559.98 198.135755 l
572.535 206.329183 l
585.09 200.784868 l
597.645 202.449734 l
610.2 208.104169 l
stroke
grestore
0.000 0.500 0.000 setrgbcolor
gsave
502.2 499 108 71.28 clipbox
108 110.729103 m
120.555 127.78229 l
133.11 133.576101 l
145.665 136.70646 l
158.22 142.615682 l
170.775 138.915203 l
183.33 141.774248 l
195.885 139.482831 l
208.44 140.671415 l
220.995 144.907561 l
233.55 147.407201 l
246.105 147.373527 l
258.66 153.000373 l
271.215 151.329904 l
283.77 149.546121 l
296.325 153.370711 l
308.88 156.533805 l
321.435 159.121621 l
333.99 161.621737 l
346.545 162.718839 l
359.1 166.585302 l
371.655 170.71069 l
384.21 173.524145 l
396.765 175.347928 l
409.32 173.842946 l
421.875 180.012913 l
434.43 182.206735 l
446.985 175.397777 l
459.54 184.184081 l
472.095 181.79251 l
484.65 184.281756 l
497.205 190.361688 l
509.76 188.620789 l
522.315 187.727272 l
534.87 181.796682 l
547.425 186.869794 l
559.98 192.644812 l
572.535 195.987399 l
585.09 200.122434 l
597.645 195.850691 l
610.2 181.784669 l
stroke
grestore
0.000 0.750 0.750 setrgbcolor
gsave
502.2 499 108 71.28 clipbox
108 93.96 m
120.555 101.182364 l
133.11 109.68406 l
145.665 112.06454 l
158.22 115.865829 l
170.775 117.029392 l
183.33 115.487246 l
195.885 115.885245 l
208.44 119.937701 l
220.995 118.902286 l
233.55 118.246975 l
246.105 123.096228 l
258.66 129.506665 l
271.215 123.651404 l
283.77 125.370692 l
296.325 126.90137 l
308.88 131.312464 l
321.435 130.980531 l
333.99 133.348255 l
346.545 130.531992 l
359.1 132.422345 l
371.655 135.973362 l
384.21 135.593271 l
396.765 141.005632 l
409.32 142.304822 l
421.875 141.901265 l
434.43 145.299775 l
446.985 145.346331 l
459.54 144.282388 l
472.095 147.632453 l
484.65 151.996392 l
497.205 158.762007 l
509.76 153.100975 l
522.315 153.270677 l
534.87 160.678876 l
547.425 157.360381 l
559.98 163.184218 l
572.535 166.898218 l
585.09 171.021029 l
597.645 166.769553 l
610.2 173.67031 l
stroke
grestore
0.800 setlinewidth
0 setlinejoin
2 setlinecap
[] 0 setdash
0.000 setgray
gsave
108 71.28 m
108 570.24 l
stroke
grestore
gsave
610.2 71.28 m
610.2 570.24 l
stroke
grestore
gsave
108 71.28 m
610.2 71.28 l
stroke
grestore
gsave
108 570.24 m
610.2 570.24 l
stroke
grestore
gsave
152.100000 576.240000 translate
0.000000 rotate
/DejaVuSans findfont
24.0 scalefont
setfont
0.000000 0.765625 moveto
/M glyphshow

20.707031 0.765625 moveto
/e glyphshow

35.472656 0.765625 moveto
/a glyphshow

50.179688 0.765625 moveto
/n glyphshow

65.390625 0.765625 moveto
/space glyphshow

73.019531 0.765625 moveto
/P glyphshow

87.492188 0.765625 moveto
/o glyphshow

102.175781 0.765625 moveto
/s glyphshow

114.679688 0.765625 moveto
/i glyphshow

121.347656 0.765625 moveto
/t glyphshow

130.757812 0.765625 moveto
/i glyphshow

137.425781 0.765625 moveto
/o glyphshow

152.109375 0.765625 moveto
/n glyphshow

167.320312 0.765625 moveto
/a glyphshow

182.027344 0.765625 moveto
/l glyphshow

188.695312 0.765625 moveto
/space glyphshow

196.324219 0.765625 moveto
/E glyphshow

211.488281 0.765625 moveto
/r glyphshow

221.355469 0.765625 moveto
/r glyphshow

231.222656 0.765625 moveto
/o glyphshow

245.906250 0.765625 moveto
/r glyphshow

255.773438 0.765625 moveto
/space glyphshow

263.402344 0.765625 moveto
/o glyphshow

278.085938 0.765625 moveto
/f glyphshow

286.535156 0.765625 moveto
/space glyphshow

294.164062 0.765625 moveto
/uni0394 glyphshow

/DejaVuSans-Oblique findfont
24.0 scalefont
setfont
310.582031 0.765625 moveto
/T glyphshow

/DejaVuSans-Oblique findfont
16.8 scalefont
setfont
325.242188 -3.171875 moveto
/o glyphshow

335.520703 -3.171875 moveto
/b glyphshow

346.184766 -3.171875 moveto
/s glyphshow

/DejaVuSans findfont
24.0 scalefont
setfont
355.593750 0.765625 moveto
/equal glyphshow

375.703125 0.765625 moveto
/zero glyphshow

390.972656 0.765625 moveto
/period glyphshow

398.601562 0.765625 moveto
/five glyphshow


grestore
1.000 setlinewidth
0 setlinecap
0.800 setgray
gsave
627 128.2275 m
830.221875 128.2275 l
833.421875 128.2275 835.021875 129.8275 835.021875 133.0275 c
835.021875 553.44 l
835.021875 556.64 833.421875 558.24 830.221875 558.24 c
627 558.24 l
623.8 558.24 622.2 556.64 622.2 553.44 c
622.2 133.0275 l
622.2 129.8275 623.8 128.2275 627 128.2275 c
cl
gsave
1.000 setgray
fill
grestore
stroke
grestore
4.000 setlinewidth
1 setlinejoin
2 setlinecap
[] 0 setdash
0.000 setgray
gsave
631.8 538.805625 m
679.8 538.805625 l
stroke
grestore
gsave
699.000000 530.405625 translate
0.000000 rotate
0.000000 0.000000 m /s glyphshow
12.503906 0.000000 m /t glyphshow
21.914062 0.000000 m /b glyphshow
37.148438 0.000000 m /comma glyphshow
44.777344 0.000000 m /space glyphshow
52.406250 0.000000 m /zero glyphshow
67.675781 0.000000 m /period glyphshow
75.304688 0.000000 m /one glyphshow
90.574219 0.000000 m /two glyphshow
105.843750 0.000000 m /five glyphshow
grestore
1.000 0.000 0.000 setrgbcolor
gsave
631.8 503.57125 m
679.8 503.57125 l
stroke
grestore
0.000 setgray
gsave
699.000000 495.171250 translate
0.000000 rotate
0.000000 0.000000 m /s glyphshow
12.503906 0.000000 m /t glyphshow
21.914062 0.000000 m /b glyphshow
37.148438 0.000000 m /comma glyphshow
44.777344 0.000000 m /space glyphshow
52.406250 0.000000 m /zero glyphshow
67.675781 0.000000 m /period glyphshow
75.304688 0.000000 m /one glyphshow
grestore
0.750 0.000 0.750 setrgbcolor
gsave
631.8 468.336875 m
679.8 468.336875 l
stroke
grestore
0.000 setgray
gsave
699.000000 459.936875 translate
0.000000 rotate
0.000000 0.000000 m /s glyphshow
12.503906 0.000000 m /t glyphshow
21.914062 0.000000 m /b glyphshow
37.148438 0.000000 m /comma glyphshow
44.777344 0.000000 m /space glyphshow
52.406250 0.000000 m /zero glyphshow
67.675781 0.000000 m /period glyphshow
75.304688 0.000000 m /zero glyphshow
90.574219 0.000000 m /seven glyphshow
105.843750 0.000000 m /five glyphshow
grestore
0.000 0.000 1.000 setrgbcolor
gsave
631.8 433.1025 m
679.8 433.1025 l
stroke
grestore
0.000 setgray
gsave
699.000000 424.702500 translate
0.000000 rotate
0.000000 0.000000 m /s glyphshow
12.503906 0.000000 m /t glyphshow
21.914062 0.000000 m /b glyphshow
37.148438 0.000000 m /comma glyphshow
44.777344 0.000000 m /space glyphshow
52.406250 0.000000 m /zero glyphshow
67.675781 0.000000 m /period glyphshow
75.304688 0.000000 m /zero glyphshow
90.574219 0.000000 m /five glyphshow
grestore
0.000 0.500 0.000 setrgbcolor
gsave
631.8 397.868125 m
679.8 397.868125 l
stroke
grestore
0.000 setgray
gsave
699.000000 389.468125 translate
0.000000 rotate
0.000000 0.000000 m /s glyphshow
12.503906 0.000000 m /t glyphshow
21.914062 0.000000 m /b glyphshow
37.148438 0.000000 m /comma glyphshow
44.777344 0.000000 m /space glyphshow
52.406250 0.000000 m /zero glyphshow
67.675781 0.000000 m /period glyphshow
75.304688 0.000000 m /zero glyphshow
90.574219 0.000000 m /two glyphshow
105.843750 0.000000 m /five glyphshow
grestore
0.000 0.750 0.750 setrgbcolor
gsave
631.8 362.63375 m
679.8 362.63375 l
stroke
grestore
0.000 setgray
gsave
699.000000 354.233750 translate
0.000000 rotate
0.000000 0.000000 m /s glyphshow
12.503906 0.000000 m /t glyphshow
21.914062 0.000000 m /b glyphshow
37.148438 0.000000 m /comma glyphshow
44.777344 0.000000 m /space glyphshow
52.406250 0.000000 m /zero glyphshow
67.675781 0.000000 m /period glyphshow
75.304688 0.000000 m /zero glyphshow
90.574219 0.000000 m /one glyphshow
grestore
0 setlinecap
[14.8 6.4] 0 setdash
gsave
631.8 327.399375 m
679.8 327.399375 l
stroke
grestore
gsave
699.000000 318.999375 translate
0.000000 rotate
0.000000 0.000000 m /e glyphshow
14.765625 0.000000 m /n glyphshow
29.976562 0.000000 m /s glyphshow
42.480469 0.000000 m /comma glyphshow
50.109375 0.000000 m /space glyphshow
57.738281 0.000000 m /zero glyphshow
73.007812 0.000000 m /period glyphshow
80.636719 0.000000 m /one glyphshow
95.906250 0.000000 m /two glyphshow
111.175781 0.000000 m /five glyphshow
grestore
1.000 0.000 0.000 setrgbcolor
gsave
631.8 292.165 m
679.8 292.165 l
stroke
grestore
0.000 setgray
gsave
699.000000 283.765000 translate
0.000000 rotate
0.000000 0.000000 m /e glyphshow
14.765625 0.000000 m /n glyphshow
29.976562 0.000000 m /s glyphshow
42.480469 0.000000 m /comma glyphshow
50.109375 0.000000 m /space glyphshow
57.738281 0.000000 m /zero glyphshow
73.007812 0.000000 m /period glyphshow
80.636719 0.000000 m /one glyphshow
grestore
0.750 0.000 0.750 setrgbcolor
gsave
631.8 256.930625 m
679.8 256.930625 l
stroke
grestore
0.000 setgray
gsave
699.000000 248.530625 translate
0.000000 rotate
0.000000 0.000000 m /e glyphshow
14.765625 0.000000 m /n glyphshow
29.976562 0.000000 m /s glyphshow
42.480469 0.000000 m /comma glyphshow
50.109375 0.000000 m /space glyphshow
57.738281 0.000000 m /zero glyphshow
73.007812 0.000000 m /period glyphshow
80.636719 0.000000 m /zero glyphshow
95.906250 0.000000 m /seven glyphshow
111.175781 0.000000 m /five glyphshow
grestore
0.000 0.000 1.000 setrgbcolor
gsave
631.8 221.69625 m
679.8 221.69625 l
stroke
grestore
0.000 setgray
gsave
699.000000 213.296250 translate
0.000000 rotate
0.000000 0.000000 m /e glyphshow
14.765625 0.000000 m /n glyphshow
29.976562 0.000000 m /s glyphshow
42.480469 0.000000 m /comma glyphshow
50.109375 0.000000 m /space glyphshow
57.738281 0.000000 m /zero glyphshow
73.007812 0.000000 m /period glyphshow
80.636719 0.000000 m /zero glyphshow
95.906250 0.000000 m /five glyphshow
grestore
0.000 0.500 0.000 setrgbcolor
gsave
631.8 186.461875 m
679.8 186.461875 l
stroke
grestore
0.000 setgray
gsave
699.000000 178.061875 translate
0.000000 rotate
0.000000 0.000000 m /e glyphshow
14.765625 0.000000 m /n glyphshow
29.976562 0.000000 m /s glyphshow
42.480469 0.000000 m /comma glyphshow
50.109375 0.000000 m /space glyphshow
57.738281 0.000000 m /zero glyphshow
73.007812 0.000000 m /period glyphshow
80.636719 0.000000 m /zero glyphshow
95.906250 0.000000 m /two glyphshow
111.175781 0.000000 m /five glyphshow
grestore
0.000 0.750 0.750 setrgbcolor
gsave
631.8 151.2275 m
679.8 151.2275 l
stroke
grestore
0.000 setgray
gsave
699.000000 142.827500 translate
0.000000 rotate
0.000000 0.000000 m /e glyphshow
14.765625 0.000000 m /n glyphshow
29.976562 0.000000 m /s glyphshow
42.480469 0.000000 m /comma glyphshow
50.109375 0.000000 m /space glyphshow
57.738281 0.000000 m /zero glyphshow
73.007812 0.000000 m /period glyphshow
80.636719 0.000000 m /zero glyphshow
95.906250 0.000000 m /one glyphshow
grestore

end
showpage
