%!PS-Adobe-3.0 EPSF-3.0
%%Title: /Users/yin.yang/Documents/err_res_snap.eps
%%Creator: matplotlib version 3.0.2, http://matplotlib.org/
%%CreationDate: Sun May  5 19:44:34 2019
%%Orientation: portrait
%%BoundingBox: -126 72 738 720
%%EndComments
%%BeginProlog
/mpldict 9 dict def
mpldict begin
/m { moveto } bind def
/l { lineto } bind def
/r { rlineto } bind def
/c { curveto } bind def
/cl { closepath } bind def
/box {
m
1 index 0 r
0 exch r
neg 0 r
cl
} bind def
/clipbox {
box
clip
newpath
} bind def
%!PS-Adobe-3.0 Resource-Font
%%Title: DejaVu Sans
%%Copyright: Copyright (c) 2003 by Bitstream, Inc. All Rights Reserved. Copyright (c) 2006 by Tavmjong Bah. All Rights Reserved. DejaVu changes are in public domain 
%%Creator: Converted from TrueType to type 3 by PPR
25 dict begin
/_d{bind def}bind def
/_m{moveto}_d
/_l{lineto}_d
/_cl{closepath eofill}_d
/_c{curveto}_d
/_sc{7 -1 roll{setcachedevice}{pop pop pop pop pop pop}ifelse}_d
/_e{exec}_d
/FontName /DejaVuSans def
/PaintType 0 def
/FontMatrix[.001 0 0 .001 0 0]def
/FontBBox[-1021 -463 1793 1232]def
/FontType 3 def
/Encoding [ /space /comma /period /zero /one /two /three /four /five /seven /equal /B /E /M /O /P /S /T /a /e /f /h /i /l /n /o /p /r /s /t /u /x /uni0394 /minus ] def
/FontInfo 10 dict dup begin
/FamilyName (DejaVu Sans) def
/FullName (DejaVu Sans) def
/Notice (Copyright (c) 2003 by Bitstream, Inc. All Rights Reserved. Copyright (c) 2006 by Tavmjong Bah. All Rights Reserved. DejaVu changes are in public domain ) def
/Weight (Book) def
/Version (Version 2.35) def
/ItalicAngle 0.0 def
/isFixedPitch false def
/UnderlinePosition -130 def
/UnderlineThickness 90 def
end readonly def
/CharStrings 35 dict dup begin
/.notdef 0 def
/space{318 0 0 0 0 0 _sc
}_d
/comma{318 0 77 -115 220 124 _sc
117 124 _m
220 124 _l
220 40 _l
140 -115 _l
77 -115 _l
117 40 _l
117 124 _l
_cl}_d
/period{318 0 107 0 210 124 _sc
107 124 _m
210 124 _l
210 0 _l
107 0 _l
107 124 _l
_cl}_d
/zero{636 0 66 -13 570 742 _sc
318 664 _m
267 664 229 639 203 589 _c
177 539 165 464 165 364 _c
165 264 177 189 203 139 _c
229 89 267 64 318 64 _c
369 64 407 89 433 139 _c
458 189 471 264 471 364 _c
471 464 458 539 433 589 _c
407 639 369 664 318 664 _c
318 742 _m
399 742 461 709 505 645 _c
548 580 570 486 570 364 _c
570 241 548 147 505 83 _c
461 19 399 -13 318 -13 _c
236 -13 173 19 130 83 _c
87 147 66 241 66 364 _c
66 486 87 580 130 645 _c
173 709 236 742 318 742 _c
_cl}_d
/one{636 0 110 0 544 729 _sc
124 83 _m
285 83 _l
285 639 _l
110 604 _l
110 694 _l
284 729 _l
383 729 _l
383 83 _l
544 83 _l
544 0 _l
124 0 _l
124 83 _l
_cl}_d
/two{{636 0 73 0 536 742 _sc
192 83 _m
536 83 _l
536 0 _l
73 0 _l
73 83 _l
110 121 161 173 226 239 _c
290 304 331 346 348 365 _c
380 400 402 430 414 455 _c
426 479 433 504 433 528 _c
433 566 419 598 392 622 _c
365 646 330 659 286 659 _c
255 659 222 653 188 643 _c
154 632 117 616 78 594 _c
78 694 _l
118 710 155 722 189 730 _c
223 738 255 742 284 742 _c
}_e{359 742 419 723 464 685 _c
509 647 532 597 532 534 _c
532 504 526 475 515 449 _c
504 422 484 390 454 354 _c
446 344 420 317 376 272 _c
332 227 271 164 192 83 _c
_cl}_e}_d
/three{{636 0 76 -13 556 742 _sc
406 393 _m
453 383 490 362 516 330 _c
542 298 556 258 556 212 _c
556 140 531 84 482 45 _c
432 6 362 -13 271 -13 _c
240 -13 208 -10 176 -4 _c
144 1 110 10 76 22 _c
76 117 _l
103 101 133 89 166 81 _c
198 73 232 69 268 69 _c
330 69 377 81 409 105 _c
441 129 458 165 458 212 _c
458 254 443 288 413 312 _c
383 336 341 349 287 349 _c
}_e{202 349 _l
202 430 _l
291 430 _l
339 430 376 439 402 459 _c
428 478 441 506 441 543 _c
441 580 427 609 401 629 _c
374 649 336 659 287 659 _c
260 659 231 656 200 650 _c
169 644 135 635 98 623 _c
98 711 _l
135 721 170 729 203 734 _c
235 739 266 742 296 742 _c
370 742 429 725 473 691 _c
517 657 539 611 539 553 _c
539 513 527 479 504 451 _c
481 423 448 403 406 393 _c
_cl}_e}_d
/four{636 0 49 0 580 729 _sc
378 643 _m
129 254 _l
378 254 _l
378 643 _l
352 729 _m
476 729 _l
476 254 _l
580 254 _l
580 172 _l
476 172 _l
476 0 _l
378 0 _l
378 172 _l
49 172 _l
49 267 _l
352 729 _l
_cl}_d
/five{{636 0 77 -13 549 729 _sc
108 729 _m
495 729 _l
495 646 _l
198 646 _l
198 467 _l
212 472 227 476 241 478 _c
255 480 270 482 284 482 _c
365 482 429 459 477 415 _c
525 370 549 310 549 234 _c
549 155 524 94 475 51 _c
426 8 357 -13 269 -13 _c
238 -13 207 -10 175 -6 _c
143 -1 111 6 77 17 _c
77 116 _l
106 100 136 88 168 80 _c
199 72 232 69 267 69 _c
}_e{323 69 368 83 401 113 _c
433 143 450 183 450 234 _c
450 284 433 324 401 354 _c
368 384 323 399 267 399 _c
241 399 214 396 188 390 _c
162 384 135 375 108 363 _c
108 729 _l
_cl}_e}_d
/seven{636 0 82 0 551 729 _sc
82 729 _m
551 729 _l
551 687 _l
286 0 _l
183 0 _l
432 646 _l
82 646 _l
82 729 _l
_cl}_d
/equal{838 0 106 172 732 454 _sc
106 454 _m
732 454 _l
732 372 _l
106 372 _l
106 454 _l
106 255 _m
732 255 _l
732 172 _l
106 172 _l
106 255 _l
_cl}_d
/B{{686 0 98 0 615 729 _sc
197 348 _m
197 81 _l
355 81 _l
408 81 447 92 473 114 _c
498 136 511 169 511 215 _c
511 260 498 293 473 315 _c
447 337 408 348 355 348 _c
197 348 _l
197 648 _m
197 428 _l
343 428 _l
391 428 426 437 450 455 _c
474 473 486 500 486 538 _c
486 574 474 602 450 620 _c
426 638 391 648 343 648 _c
197 648 _l
98 729 _m
350 729 _l
}_e{425 729 483 713 524 682 _c
564 650 585 606 585 549 _c
585 504 574 468 553 442 _c
532 416 502 399 462 393 _c
510 382 548 360 575 327 _c
601 294 615 253 615 204 _c
615 138 592 88 548 53 _c
504 17 441 0 360 0 _c
98 0 _l
98 729 _l
_cl}_e}_d
/E{632 0 98 0 568 729 _sc
98 729 _m
559 729 _l
559 646 _l
197 646 _l
197 430 _l
544 430 _l
544 347 _l
197 347 _l
197 83 _l
568 83 _l
568 0 _l
98 0 _l
98 729 _l
_cl}_d
/M{863 0 98 0 765 729 _sc
98 729 _m
245 729 _l
431 233 _l
618 729 _l
765 729 _l
765 0 _l
669 0 _l
669 640 _l
481 140 _l
382 140 _l
194 640 _l
194 0 _l
98 0 _l
98 729 _l
_cl}_d
/O{787 0 56 -13 731 742 _sc
394 662 _m
322 662 265 635 223 582 _c
181 528 160 456 160 364 _c
160 272 181 199 223 146 _c
265 92 322 66 394 66 _c
465 66 522 92 564 146 _c
606 199 627 272 627 364 _c
627 456 606 528 564 582 _c
522 635 465 662 394 662 _c
394 742 _m
496 742 577 707 639 639 _c
700 571 731 479 731 364 _c
731 248 700 157 639 89 _c
577 21 496 -13 394 -13 _c
291 -13 209 21 148 89 _c
86 157 56 248 56 364 _c
56 479 86 571 148 639 _c
209 707 291 742 394 742 _c
_cl}_d
/P{603 0 98 0 569 729 _sc
197 648 _m
197 374 _l
321 374 _l
367 374 402 385 427 409 _c
452 433 465 467 465 511 _c
465 555 452 588 427 612 _c
402 636 367 648 321 648 _c
197 648 _l
98 729 _m
321 729 _l
402 729 464 710 506 673 _c
548 636 569 582 569 511 _c
569 439 548 384 506 348 _c
464 311 402 293 321 293 _c
197 293 _l
197 0 _l
98 0 _l
98 729 _l
_cl}_d
/S{{635 0 66 -13 579 742 _sc
535 705 _m
535 609 _l
497 627 462 640 429 649 _c
395 657 363 662 333 662 _c
279 662 237 651 208 631 _c
179 610 165 580 165 542 _c
165 510 174 485 194 469 _c
213 452 250 439 304 429 _c
364 417 _l
437 403 491 378 526 343 _c
561 307 579 260 579 201 _c
579 130 555 77 508 41 _c
460 5 391 -13 300 -13 _c
265 -13 228 -9 189 -2 _c
}_e{150 5 110 16 69 32 _c
69 134 _l
109 111 148 94 186 83 _c
224 71 262 66 300 66 _c
356 66 399 77 430 99 _c
460 121 476 152 476 194 _c
476 230 465 258 443 278 _c
421 298 385 313 335 323 _c
275 335 _l
201 349 148 372 115 404 _c
82 435 66 478 66 534 _c
66 598 88 649 134 686 _c
179 723 242 742 322 742 _c
356 742 390 739 426 733 _c
461 727 497 717 535 705 _c
}_e{_cl}_e}_d
/T{611 0 -2 0 614 729 _sc
-2 729 _m
614 729 _l
614 646 _l
355 646 _l
355 0 _l
256 0 _l
256 646 _l
-2 646 _l
-2 729 _l
_cl}_d
/a{{613 0 60 -13 522 560 _sc
343 275 _m
270 275 220 266 192 250 _c
164 233 150 205 150 165 _c
150 133 160 107 181 89 _c
202 70 231 61 267 61 _c
317 61 357 78 387 114 _c
417 149 432 196 432 255 _c
432 275 _l
343 275 _l
522 312 _m
522 0 _l
432 0 _l
432 83 _l
411 49 385 25 355 10 _c
325 -5 287 -13 243 -13 _c
187 -13 142 2 109 33 _c
76 64 60 106 60 159 _c
}_e{60 220 80 266 122 298 _c
163 329 224 345 306 345 _c
432 345 _l
432 354 _l
432 395 418 427 391 450 _c
364 472 326 484 277 484 _c
245 484 215 480 185 472 _c
155 464 127 453 100 439 _c
100 522 _l
132 534 164 544 195 550 _c
226 556 256 560 286 560 _c
365 560 424 539 463 498 _c
502 457 522 395 522 312 _c
_cl}_e}_d
/e{{615 0 55 -13 562 560 _sc
562 296 _m
562 252 _l
149 252 _l
153 190 171 142 205 110 _c
238 78 284 62 344 62 _c
378 62 412 66 444 74 _c
476 82 509 95 541 113 _c
541 28 _l
509 14 476 3 442 -3 _c
408 -9 373 -13 339 -13 _c
251 -13 182 12 131 62 _c
80 112 55 181 55 268 _c
55 357 79 428 127 481 _c
175 533 241 560 323 560 _c
397 560 455 536 498 489 _c
}_e{540 441 562 377 562 296 _c
472 322 _m
471 371 457 410 431 440 _c
404 469 368 484 324 484 _c
274 484 234 469 204 441 _c
174 413 156 373 152 322 _c
472 322 _l
_cl}_e}_d
/f{352 0 23 0 371 760 _sc
371 760 _m
371 685 _l
285 685 _l
253 685 230 678 218 665 _c
205 652 199 629 199 595 _c
199 547 _l
347 547 _l
347 477 _l
199 477 _l
199 0 _l
109 0 _l
109 477 _l
23 477 _l
23 547 _l
109 547 _l
109 585 _l
109 645 123 690 151 718 _c
179 746 224 760 286 760 _c
371 760 _l
_cl}_d
/h{634 0 91 0 549 760 _sc
549 330 _m
549 0 _l
459 0 _l
459 327 _l
459 379 448 417 428 443 _c
408 469 378 482 338 482 _c
289 482 251 466 223 435 _c
195 404 181 362 181 309 _c
181 0 _l
91 0 _l
91 760 _l
181 760 _l
181 462 _l
202 494 227 519 257 535 _c
286 551 320 560 358 560 _c
420 560 468 540 500 501 _c
532 462 549 405 549 330 _c
_cl}_d
/i{278 0 94 0 184 760 _sc
94 547 _m
184 547 _l
184 0 _l
94 0 _l
94 547 _l
94 760 _m
184 760 _l
184 646 _l
94 646 _l
94 760 _l
_cl}_d
/l{278 0 94 0 184 760 _sc
94 760 _m
184 760 _l
184 0 _l
94 0 _l
94 760 _l
_cl}_d
/n{634 0 91 0 549 560 _sc
549 330 _m
549 0 _l
459 0 _l
459 327 _l
459 379 448 417 428 443 _c
408 469 378 482 338 482 _c
289 482 251 466 223 435 _c
195 404 181 362 181 309 _c
181 0 _l
91 0 _l
91 547 _l
181 547 _l
181 462 _l
202 494 227 519 257 535 _c
286 551 320 560 358 560 _c
420 560 468 540 500 501 _c
532 462 549 405 549 330 _c
_cl}_d
/o{612 0 55 -13 557 560 _sc
306 484 _m
258 484 220 465 192 427 _c
164 389 150 338 150 273 _c
150 207 163 156 191 118 _c
219 80 257 62 306 62 _c
354 62 392 80 420 118 _c
448 156 462 207 462 273 _c
462 337 448 389 420 427 _c
392 465 354 484 306 484 _c
306 560 _m
384 560 445 534 490 484 _c
534 433 557 363 557 273 _c
557 183 534 113 490 63 _c
445 12 384 -13 306 -13 _c
227 -13 165 12 121 63 _c
77 113 55 183 55 273 _c
55 363 77 433 121 484 _c
165 534 227 560 306 560 _c
_cl}_d
/p{{635 0 91 -207 580 560 _sc
181 82 _m
181 -207 _l
91 -207 _l
91 547 _l
181 547 _l
181 464 _l
199 496 223 520 252 536 _c
281 552 316 560 356 560 _c
422 560 476 533 518 481 _c
559 428 580 359 580 273 _c
580 187 559 117 518 65 _c
476 13 422 -13 356 -13 _c
316 -13 281 -5 252 10 _c
223 25 199 49 181 82 _c
487 273 _m
487 339 473 390 446 428 _c
418 466 381 485 334 485 _c
}_e{286 485 249 466 222 428 _c
194 390 181 339 181 273 _c
181 207 194 155 222 117 _c
249 79 286 61 334 61 _c
381 61 418 79 446 117 _c
473 155 487 207 487 273 _c
_cl}_e}_d
/r{411 0 91 0 411 560 _sc
411 463 _m
401 469 390 473 378 476 _c
366 478 353 480 339 480 _c
288 480 249 463 222 430 _c
194 397 181 350 181 288 _c
181 0 _l
91 0 _l
91 547 _l
181 547 _l
181 462 _l
199 495 224 520 254 536 _c
284 552 321 560 365 560 _c
371 560 378 559 386 559 _c
393 558 401 557 411 555 _c
411 463 _l
_cl}_d
/s{{521 0 54 -13 472 560 _sc
443 531 _m
443 446 _l
417 458 391 468 364 475 _c
336 481 308 485 279 485 _c
234 485 200 478 178 464 _c
156 450 145 430 145 403 _c
145 382 153 366 169 354 _c
185 342 217 330 265 320 _c
296 313 _l
360 299 405 279 432 255 _c
458 230 472 195 472 151 _c
472 100 452 60 412 31 _c
372 1 316 -13 246 -13 _c
216 -13 186 -10 154 -5 _c
}_e{122 0 89 8 54 20 _c
54 113 _l
87 95 120 82 152 74 _c
184 65 216 61 248 61 _c
290 61 323 68 346 82 _c
368 96 380 117 380 144 _c
380 168 371 187 355 200 _c
339 213 303 226 247 238 _c
216 245 _l
160 257 119 275 95 299 _c
70 323 58 356 58 399 _c
58 450 76 490 112 518 _c
148 546 200 560 268 560 _c
301 560 332 557 362 552 _c
391 547 418 540 443 531 _c
}_e{_cl}_e}_d
/t{392 0 27 0 368 702 _sc
183 702 _m
183 547 _l
368 547 _l
368 477 _l
183 477 _l
183 180 _l
183 135 189 106 201 94 _c
213 81 238 75 276 75 _c
368 75 _l
368 0 _l
276 0 _l
206 0 158 13 132 39 _c
106 65 93 112 93 180 _c
93 477 _l
27 477 _l
27 547 _l
93 547 _l
93 702 _l
183 702 _l
_cl}_d
/u{634 0 85 -13 543 560 _sc
85 216 _m
85 547 _l
175 547 _l
175 219 _l
175 167 185 129 205 103 _c
225 77 255 64 296 64 _c
344 64 383 79 411 110 _c
439 141 453 183 453 237 _c
453 547 _l
543 547 _l
543 0 _l
453 0 _l
453 84 _l
431 50 405 26 377 10 _c
348 -5 315 -13 277 -13 _c
214 -13 166 6 134 45 _c
101 83 85 140 85 216 _c
311 560 _m
311 560 _l
_cl}_d
/x{592 0 29 0 559 547 _sc
549 547 _m
351 281 _l
559 0 _l
453 0 _l
294 215 _l
135 0 _l
29 0 _l
241 286 _l
47 547 _l
153 547 _l
298 352 _l
443 547 _l
549 547 _l
_cl}_d
/uni0394{684 0 8 0 676 729 _sc
342 632 _m
142 82 _l
542 82 _l
342 632 _l
8 0 _m
286 729 _l
398 729 _l
676 0 _l
8 0 _l
_cl}_d
/minus{838 0 106 272 732 355 _sc
106 355 _m
732 355 _l
732 272 _l
106 272 _l
106 355 _l
_cl}_d
end readonly def

/BuildGlyph
 {exch begin
 CharStrings exch
 2 copy known not{pop /.notdef}if
 true 3 1 roll get exec
 end}_d

/BuildChar {
 1 index /Encoding get exch get
 1 index /BuildGlyph get exec
}_d

FontName currentdict end definefont pop
%!PS-Adobe-3.0 Resource-Font
%%Title: DejaVu Sans Oblique
%%Copyright: Copyright (c) 2003 by Bitstream, Inc. All Rights Reserved. Copyright (c) 2006 by Tavmjong Bah. All Rights Reserved. DejaVu changes are in public domain 
%%Creator: Converted from TrueType to type 3 by PPR
25 dict begin
/_d{bind def}bind def
/_m{moveto}_d
/_l{lineto}_d
/_cl{closepath eofill}_d
/_c{curveto}_d
/_sc{7 -1 roll{setcachedevice}{pop pop pop pop pop pop}ifelse}_d
/_e{exec}_d
/FontName /DejaVuSans-Oblique def
/PaintType 0 def
/FontMatrix[.001 0 0 .001 0 0]def
/FontBBox[-1016 -350 1659 1068]def
/FontType 3 def
/Encoding [ /T /b /o /s ] def
/FontInfo 10 dict dup begin
/FamilyName (DejaVu Sans) def
/FullName (DejaVu Sans Oblique) def
/Notice (Copyright (c) 2003 by Bitstream, Inc. All Rights Reserved. Copyright (c) 2006 by Tavmjong Bah. All Rights Reserved. DejaVu changes are in public domain ) def
/Weight (Oblique) def
/Version (Version 2.35) def
/ItalicAngle -11.0 def
/isFixedPitch false def
/UnderlinePosition -130 def
/UnderlineThickness 90 def
end readonly def
/CharStrings 5 dict dup begin
/.notdef 0 def
/T{611 0 43 0 676 729 _sc
59 729 _m
676 729 _l
660 646 _l
400 646 _l
275 0 _l
176 0 _l
301 646 _l
43 646 _l
59 729 _l
_cl}_d
/b{{635 0 36 -13 587 760 _sc
495 334 _m
495 381 484 418 462 445 _c
440 471 411 485 373 485 _c
345 485 319 478 295 464 _c
271 450 250 431 232 406 _c
213 378 198 347 187 311 _c
176 275 171 240 171 205 _c
171 160 181 125 203 99 _c
224 73 253 61 291 61 _c
319 61 345 67 369 81 _c
393 94 415 113 433 139 _c
451 165 466 196 478 232 _c
489 268 495 302 495 334 _c
216 464 _m
}_e{238 494 265 517 299 534 _c
332 551 367 560 404 560 _c
460 560 504 541 537 503 _c
570 465 587 414 587 350 _c
587 297 577 246 558 197 _c
538 147 511 103 475 65 _c
451 39 424 20 394 7 _c
363 -6 331 -13 298 -13 _c
262 -13 232 -5 206 11 _c
180 27 158 51 142 83 _c
126 0 _l
36 0 _l
184 760 _l
274 760 _l
216 464 _l
_cl}_e}_d
/o{{612 0 46 -13 566 560 _sc
254 -13 _m
190 -13 139 6 102 45 _c
64 84 46 138 46 207 _c
46 247 52 287 65 328 _c
77 369 94 404 115 432 _c
147 476 183 508 223 529 _c
263 549 308 560 358 560 _c
420 560 470 540 508 502 _c
546 463 566 412 566 350 _c
566 306 559 263 547 220 _c
534 177 517 142 497 114 _c
465 70 429 37 389 17 _c
349 -3 304 -13 254 -13 _c
139 210 _m
}_e{139 160 149 123 170 99 _c
190 74 222 62 264 62 _c
324 62 373 88 413 141 _c
453 193 473 260 473 341 _c
473 388 462 424 441 448 _c
420 472 389 484 348 484 _c
314 484 283 476 257 460 _c
231 444 207 420 187 388 _c
171 364 159 336 151 305 _c
143 274 139 242 139 210 _c
_cl}_e}_d
/s{{521 0 11 -13 500 560 _sc
500 531 _m
483 446 _l
459 458 433 468 407 475 _c
381 481 354 485 326 485 _c
278 485 241 477 214 461 _c
187 445 174 423 174 395 _c
174 363 205 338 269 321 _c
273 319 277 318 279 318 _c
308 309 _l
368 292 408 274 428 256 _c
448 238 458 213 458 182 _c
458 124 435 77 389 41 _c
343 5 282 -13 208 -13 _c
179 -13 149 -10 117 -5 _c
}_e{85 0 49 8 11 20 _c
29 113 _l
61 95 94 82 126 74 _c
158 65 188 61 218 61 _c
262 61 297 70 325 89 _c
352 108 366 132 366 161 _c
366 192 330 217 258 237 _c
249 239 _l
218 247 _l
172 259 138 274 117 294 _c
96 314 86 339 86 370 _c
86 428 107 475 151 509 _c
195 543 254 560 330 560 _c
360 560 389 557 417 552 _c
445 547 472 540 500 531 _c
_cl}_e}_d
end readonly def

/BuildGlyph
 {exch begin
 CharStrings exch
 2 copy known not{pop /.notdef}if
 true 3 1 roll get exec
 end}_d

/BuildChar {
 1 index /Encoding get exch get
 1 index /BuildGlyph get exec
}_d

FontName currentdict end definefont pop
end
%%EndProlog
mpldict begin
-126 72 translate
864 648 0 0 clipbox
gsave
0 0 m
864 0 l
864 648 l
0 648 l
cl
1.000 setgray
fill
grestore
gsave
108 71.28 m
610.2 71.28 l
610.2 570.24 l
108 570.24 l
cl
1.000 setgray
fill
grestore
0.800 setlinewidth
1 setlinejoin
0 setlinecap
[] 0 setdash
0.000 setgray
gsave
/o {
gsave
newpath
translate
0.8 setlinewidth
1 setlinejoin
0 setlinecap
0 0 m
0 -3.5 l

gsave
0.000 setgray
fill
grestore
stroke
grestore
} bind def
108 71.28 o
grestore
/DejaVuSans findfont
24.000 scalefont
setfont
gsave
92.734375 46.045625 translate
0.000000 rotate
0.000000 0.000000 m /one glyphshow
15.269531 0.000000 m /zero glyphshow
grestore
gsave
/o {
gsave
newpath
translate
0.8 setlinewidth
1 setlinejoin
0 setlinecap
0 0 m
0 -3.5 l

gsave
0.000 setgray
fill
grestore
stroke
grestore
} bind def
233.55 71.28 o
grestore
gsave
218.284375 46.045625 translate
0.000000 rotate
0.000000 0.000000 m /two glyphshow
15.269531 0.000000 m /zero glyphshow
grestore
gsave
/o {
gsave
newpath
translate
0.8 setlinewidth
1 setlinejoin
0 setlinecap
0 0 m
0 -3.5 l

gsave
0.000 setgray
fill
grestore
stroke
grestore
} bind def
359.1 71.28 o
grestore
gsave
343.834375 46.045625 translate
0.000000 rotate
0.000000 0.000000 m /three glyphshow
15.269531 0.000000 m /zero glyphshow
grestore
gsave
/o {
gsave
newpath
translate
0.8 setlinewidth
1 setlinejoin
0 setlinecap
0 0 m
0 -3.5 l

gsave
0.000 setgray
fill
grestore
stroke
grestore
} bind def
484.65 71.28 o
grestore
gsave
469.384375 46.045625 translate
0.000000 rotate
0.000000 0.000000 m /four glyphshow
15.269531 0.000000 m /zero glyphshow
grestore
gsave
/o {
gsave
newpath
translate
0.8 setlinewidth
1 setlinejoin
0 setlinecap
0 0 m
0 -3.5 l

gsave
0.000 setgray
fill
grestore
stroke
grestore
} bind def
610.2 71.28 o
grestore
gsave
594.934375 46.045625 translate
0.000000 rotate
0.000000 0.000000 m /five glyphshow
15.269531 0.000000 m /zero glyphshow
grestore
gsave
296.748438 18.811250 translate
0.000000 rotate
0.000000 0.000000 m /S glyphshow
15.234375 0.000000 m /n glyphshow
30.445312 0.000000 m /a glyphshow
45.152344 0.000000 m /p glyphshow
60.386719 0.000000 m /s glyphshow
72.890625 0.000000 m /h glyphshow
88.101562 0.000000 m /o glyphshow
102.785156 0.000000 m /t glyphshow
112.195312 0.000000 m /s glyphshow
grestore
gsave
/o {
gsave
newpath
translate
0.8 setlinewidth
1 setlinejoin
0 setlinecap
0 0 m
-3.5 0 l

gsave
0.000 setgray
fill
grestore
stroke
grestore
} bind def
108 213.799 o
grestore
gsave
44.000000 204.681452 translate
0.000000 rotate
/DejaVuSans findfont
24.0 scalefont
setfont
0.000000 0.562500 moveto
/one glyphshow

15.269531 0.562500 moveto
/zero glyphshow

/DejaVuSans findfont
16.799999999999997 scalefont
setfont
30.768750 9.750000 moveto
/minus glyphshow

44.845312 9.750000 moveto
/four glyphshow


grestore
gsave
/o {
gsave
newpath
translate
0.8 setlinewidth
1 setlinejoin
0 setlinecap
0 0 m
-3.5 0 l

gsave
0.000 setgray
fill
grestore
stroke
grestore
} bind def
108 366.063 o
grestore
gsave
44.000000 356.945942 translate
0.000000 rotate
/DejaVuSans findfont
24.0 scalefont
setfont
0.000000 0.343750 moveto
/one glyphshow

15.269531 0.343750 moveto
/zero glyphshow

/DejaVuSans findfont
16.799999999999997 scalefont
setfont
30.768750 9.531250 moveto
/minus glyphshow

44.845312 9.531250 moveto
/three glyphshow


grestore
gsave
/o {
gsave
newpath
translate
0.8 setlinewidth
1 setlinejoin
0 setlinecap
0 0 m
-3.5 0 l

gsave
0.000 setgray
fill
grestore
stroke
grestore
} bind def
108 518.328 o
grestore
gsave
44.000000 509.210432 translate
0.000000 rotate
/DejaVuSans findfont
24.0 scalefont
setfont
0.000000 0.343750 moveto
/one glyphshow

15.269531 0.343750 moveto
/zero glyphshow

/DejaVuSans findfont
16.799999999999997 scalefont
setfont
30.768750 9.531250 moveto
/minus glyphshow

44.845312 9.531250 moveto
/two glyphshow


grestore
0.600 setlinewidth
gsave
/o {
gsave
newpath
translate
0.6 setlinewidth
1 setlinejoin
0 setlinecap
0 0 m
-2 0 l

gsave
0.000 setgray
fill
grestore
stroke
grestore
} bind def
108 107.37 o
grestore
gsave
/o {
gsave
newpath
translate
0.6 setlinewidth
1 setlinejoin
0 setlinecap
0 0 m
-2 0 l

gsave
0.000 setgray
fill
grestore
stroke
grestore
} bind def
108 134.183 o
grestore
gsave
/o {
gsave
newpath
translate
0.6 setlinewidth
1 setlinejoin
0 setlinecap
0 0 m
-2 0 l

gsave
0.000 setgray
fill
grestore
stroke
grestore
} bind def
108 153.207 o
grestore
gsave
/o {
gsave
newpath
translate
0.6 setlinewidth
1 setlinejoin
0 setlinecap
0 0 m
-2 0 l

gsave
0.000 setgray
fill
grestore
stroke
grestore
} bind def
108 167.962 o
grestore
gsave
/o {
gsave
newpath
translate
0.6 setlinewidth
1 setlinejoin
0 setlinecap
0 0 m
-2 0 l

gsave
0.000 setgray
fill
grestore
stroke
grestore
} bind def
108 180.019 o
grestore
gsave
/o {
gsave
newpath
translate
0.6 setlinewidth
1 setlinejoin
0 setlinecap
0 0 m
-2 0 l

gsave
0.000 setgray
fill
grestore
stroke
grestore
} bind def
108 190.213 o
grestore
gsave
/o {
gsave
newpath
translate
0.6 setlinewidth
1 setlinejoin
0 setlinecap
0 0 m
-2 0 l

gsave
0.000 setgray
fill
grestore
stroke
grestore
} bind def
108 199.043 o
grestore
gsave
/o {
gsave
newpath
translate
0.6 setlinewidth
1 setlinejoin
0 setlinecap
0 0 m
-2 0 l

gsave
0.000 setgray
fill
grestore
stroke
grestore
} bind def
108 206.831 o
grestore
gsave
/o {
gsave
newpath
translate
0.6 setlinewidth
1 setlinejoin
0 setlinecap
0 0 m
-2 0 l

gsave
0.000 setgray
fill
grestore
stroke
grestore
} bind def
108 259.635 o
grestore
gsave
/o {
gsave
newpath
translate
0.6 setlinewidth
1 setlinejoin
0 setlinecap
0 0 m
-2 0 l

gsave
0.000 setgray
fill
grestore
stroke
grestore
} bind def
108 286.447 o
grestore
gsave
/o {
gsave
newpath
translate
0.6 setlinewidth
1 setlinejoin
0 setlinecap
0 0 m
-2 0 l

gsave
0.000 setgray
fill
grestore
stroke
grestore
} bind def
108 305.471 o
grestore
gsave
/o {
gsave
newpath
translate
0.6 setlinewidth
1 setlinejoin
0 setlinecap
0 0 m
-2 0 l

gsave
0.000 setgray
fill
grestore
stroke
grestore
} bind def
108 320.227 o
grestore
gsave
/o {
gsave
newpath
translate
0.6 setlinewidth
1 setlinejoin
0 setlinecap
0 0 m
-2 0 l

gsave
0.000 setgray
fill
grestore
stroke
grestore
} bind def
108 332.283 o
grestore
gsave
/o {
gsave
newpath
translate
0.6 setlinewidth
1 setlinejoin
0 setlinecap
0 0 m
-2 0 l

gsave
0.000 setgray
fill
grestore
stroke
grestore
} bind def
108 342.477 o
grestore
gsave
/o {
gsave
newpath
translate
0.6 setlinewidth
1 setlinejoin
0 setlinecap
0 0 m
-2 0 l

gsave
0.000 setgray
fill
grestore
stroke
grestore
} bind def
108 351.307 o
grestore
gsave
/o {
gsave
newpath
translate
0.6 setlinewidth
1 setlinejoin
0 setlinecap
0 0 m
-2 0 l

gsave
0.000 setgray
fill
grestore
stroke
grestore
} bind def
108 359.096 o
grestore
gsave
/o {
gsave
newpath
translate
0.6 setlinewidth
1 setlinejoin
0 setlinecap
0 0 m
-2 0 l

gsave
0.000 setgray
fill
grestore
stroke
grestore
} bind def
108 411.899 o
grestore
gsave
/o {
gsave
newpath
translate
0.6 setlinewidth
1 setlinejoin
0 setlinecap
0 0 m
-2 0 l

gsave
0.000 setgray
fill
grestore
stroke
grestore
} bind def
108 438.712 o
grestore
gsave
/o {
gsave
newpath
translate
0.6 setlinewidth
1 setlinejoin
0 setlinecap
0 0 m
-2 0 l

gsave
0.000 setgray
fill
grestore
stroke
grestore
} bind def
108 457.735 o
grestore
gsave
/o {
gsave
newpath
translate
0.6 setlinewidth
1 setlinejoin
0 setlinecap
0 0 m
-2 0 l

gsave
0.000 setgray
fill
grestore
stroke
grestore
} bind def
108 472.491 o
grestore
gsave
/o {
gsave
newpath
translate
0.6 setlinewidth
1 setlinejoin
0 setlinecap
0 0 m
-2 0 l

gsave
0.000 setgray
fill
grestore
stroke
grestore
} bind def
108 484.548 o
grestore
gsave
/o {
gsave
newpath
translate
0.6 setlinewidth
1 setlinejoin
0 setlinecap
0 0 m
-2 0 l

gsave
0.000 setgray
fill
grestore
stroke
grestore
} bind def
108 494.742 o
grestore
gsave
/o {
gsave
newpath
translate
0.6 setlinewidth
1 setlinejoin
0 setlinecap
0 0 m
-2 0 l

gsave
0.000 setgray
fill
grestore
stroke
grestore
} bind def
108 503.572 o
grestore
gsave
/o {
gsave
newpath
translate
0.6 setlinewidth
1 setlinejoin
0 setlinecap
0 0 m
-2 0 l

gsave
0.000 setgray
fill
grestore
stroke
grestore
} bind def
108 511.36 o
grestore
gsave
/o {
gsave
newpath
translate
0.6 setlinewidth
1 setlinejoin
0 setlinecap
0 0 m
-2 0 l

gsave
0.000 setgray
fill
grestore
stroke
grestore
} bind def
108 564.164 o
grestore
gsave
35.000000 292.369375 translate
90.000000 rotate
0.000000 0.000000 m /P glyphshow
14.472656 0.000000 m /i glyphshow
21.140625 0.000000 m /x glyphshow
35.343750 0.000000 m /e glyphshow
50.109375 0.000000 m /l glyphshow
grestore
4.000 setlinewidth
2 setlinecap
gsave
502.2 499 108 71.28 clipbox
108 433.741433 m
120.555 453.195353 l
133.11 461.233889 l
145.665 466.65085 l
158.22 471.257597 l
170.775 475.579124 l
183.33 479.223494 l
195.885 481.577943 l
208.44 485.024846 l
220.995 487.126347 l
233.55 489.925511 l
246.105 492.420682 l
258.66 495.075797 l
271.215 498.46304 l
283.77 500.050895 l
296.325 502.335897 l
308.88 504.409477 l
321.435 507.680156 l
333.99 510.280225 l
346.545 511.813972 l
359.1 513.918497 l
371.655 516.472767 l
384.21 518.759108 l
396.765 520.57277 l
409.32 522.589818 l
421.875 524.454762 l
434.43 525.959875 l
446.985 528.641823 l
459.54 530.136272 l
472.095 532.204517 l
484.65 533.625941 l
497.205 535.945608 l
509.76 537.101085 l
522.315 538.691617 l
534.87 539.687128 l
547.425 541.133542 l
559.98 541.877552 l
572.535 543.828812 l
585.09 545.044877 l
597.645 546.523697 l
610.2 547.56 l
stroke
grestore
1.000 0.000 0.000 setrgbcolor
gsave
502.2 499 108 71.28 clipbox
108 415.794733 m
120.555 434.656791 l
133.11 442.195854 l
145.665 447.608472 l
158.22 454.429295 l
170.775 460.017479 l
183.33 462.479616 l
195.885 464.746509 l
208.44 467.172381 l
220.995 469.681705 l
233.55 472.911113 l
246.105 476.157579 l
258.66 479.947826 l
271.215 483.558206 l
283.77 484.792681 l
296.325 487.958247 l
308.88 489.656364 l
321.435 493.034924 l
333.99 495.222155 l
346.545 496.975341 l
359.1 499.265483 l
371.655 501.887845 l
384.21 503.61233 l
396.765 506.468264 l
409.32 508.171719 l
421.875 509.968165 l
434.43 511.532372 l
446.985 513.540301 l
459.54 515.18465 l
472.095 517.383993 l
484.65 518.882275 l
497.205 520.252324 l
509.76 521.668757 l
522.315 523.397638 l
534.87 524.002519 l
547.425 525.889547 l
559.98 526.569389 l
572.535 527.438495 l
585.09 528.353318 l
597.645 530.456426 l
610.2 531.381083 l
stroke
grestore
0.750 0.000 0.750 setrgbcolor
gsave
502.2 499 108 71.28 clipbox
108 406.017322 m
120.555 424.793912 l
133.11 433.840678 l
145.665 436.913674 l
158.22 442.606489 l
170.775 451.016155 l
183.33 453.413282 l
195.885 456.01196 l
208.44 457.757809 l
220.995 460.387003 l
233.55 463.82992 l
246.105 466.617915 l
258.66 470.920508 l
271.215 474.448842 l
283.77 476.326261 l
296.325 478.263664 l
308.88 480.07018 l
321.435 484.149058 l
333.99 486.669879 l
346.545 490.010803 l
359.1 491.901336 l
371.655 493.872684 l
384.21 495.888127 l
396.765 498.569823 l
409.32 499.80425 l
421.875 501.944841 l
434.43 503.017098 l
446.985 504.621673 l
459.54 506.751555 l
472.095 508.484063 l
484.65 509.995674 l
497.205 511.773335 l
509.76 513.75194 l
522.315 515.076615 l
534.87 515.779428 l
547.425 516.81835 l
559.98 517.618231 l
572.535 519.294622 l
585.09 519.985851 l
597.645 521.146124 l
610.2 522.305365 l
stroke
grestore
0.000 0.000 1.000 setrgbcolor
gsave
502.2 499 108 71.28 clipbox
108 397.41401 m
120.555 417.180637 l
133.11 425.778438 l
145.665 429.752606 l
158.22 434.241622 l
170.775 440.284195 l
183.33 443.346057 l
195.885 445.451722 l
208.44 448.809039 l
220.995 450.690839 l
233.55 455.214891 l
246.105 457.240773 l
258.66 461.811671 l
271.215 464.931626 l
283.77 467.930143 l
296.325 469.467031 l
308.88 472.719923 l
321.435 476.145987 l
333.99 477.683774 l
346.545 480.598227 l
359.1 483.130576 l
371.655 485.390374 l
384.21 486.50881 l
396.765 488.227875 l
409.32 490.279661 l
421.875 491.839969 l
434.43 493.815191 l
446.985 494.751403 l
459.54 496.950864 l
472.095 498.981966 l
484.65 501.235714 l
497.205 502.16654 l
509.76 503.375731 l
522.315 504.291529 l
534.87 505.2139 l
547.425 506.247035 l
559.98 507.908871 l
572.535 509.568582 l
585.09 510.695044 l
597.645 512.282967 l
610.2 512.181427 l
stroke
grestore
0.000 0.500 0.000 setrgbcolor
gsave
502.2 499 108 71.28 clipbox
108 381.19881 m
120.555 403.405436 l
133.11 412.503497 l
145.665 419.66895 l
158.22 424.3003 l
170.775 431.342193 l
183.33 434.61979 l
195.885 436.789314 l
208.44 439.089504 l
220.995 441.380339 l
233.55 445.416195 l
246.105 449.328794 l
258.66 452.852358 l
271.215 456.543837 l
283.77 458.175464 l
296.325 460.337748 l
308.88 463.176248 l
321.435 466.418906 l
333.99 468.103335 l
346.545 470.597155 l
359.1 474.058994 l
371.655 475.022935 l
384.21 476.258445 l
396.765 479.091983 l
409.32 480.835977 l
421.875 482.627687 l
434.43 484.479102 l
446.985 486.256866 l
459.54 488.166875 l
472.095 489.068094 l
484.65 491.26332 l
497.205 493.408868 l
509.76 493.025575 l
522.315 493.962306 l
534.87 494.262517 l
547.425 496.423326 l
559.98 497.664662 l
572.535 498.505207 l
585.09 499.951199 l
597.645 501.900182 l
610.2 502.718108 l
stroke
grestore
0.000 0.750 0.750 setrgbcolor
gsave
502.2 499 108 71.28 clipbox
108 363.596484 m
120.555 390.813447 l
133.11 401.777743 l
145.665 410.508264 l
158.22 415.321493 l
170.775 422.501386 l
183.33 422.022981 l
195.885 425.491632 l
208.44 425.572654 l
220.995 430.244559 l
233.55 433.521979 l
246.105 439.068284 l
258.66 441.237813 l
271.215 445.667729 l
283.77 446.985513 l
296.325 450.354611 l
308.88 453.506774 l
321.435 455.26444 l
333.99 457.165707 l
346.545 459.81733 l
359.1 461.213552 l
371.655 461.990978 l
384.21 464.239267 l
396.765 467.441801 l
409.32 468.604984 l
421.875 469.572043 l
434.43 471.279699 l
446.985 474.399661 l
459.54 475.637149 l
472.095 477.218239 l
484.65 479.194458 l
497.205 479.854006 l
509.76 479.385388 l
522.315 481.750937 l
534.87 482.298513 l
547.425 483.792604 l
559.98 484.983973 l
572.535 485.460646 l
585.09 488.553194 l
597.645 488.784103 l
610.2 489.413525 l
stroke
grestore
0.750 0.750 0.000 setrgbcolor
gsave
502.2 499 108 71.28 clipbox
108 343.058962 m
120.555 375.652627 l
133.11 389.185639 l
145.665 396.966101 l
158.22 402.404691 l
170.775 406.974671 l
183.33 411.92139 l
195.885 411.933666 l
208.44 412.814972 l
220.995 417.953895 l
233.55 420.906029 l
246.105 422.873159 l
258.66 425.527614 l
271.215 428.833641 l
283.77 433.345076 l
296.325 436.08657 l
308.88 440.387237 l
321.435 441.618224 l
333.99 442.56201 l
346.545 444.678599 l
359.1 445.301382 l
371.655 448.42665 l
384.21 452.73767 l
396.765 453.91664 l
409.32 454.428734 l
421.875 455.912636 l
434.43 456.507157 l
446.985 459.502247 l
459.54 461.199711 l
472.095 460.785054 l
484.65 462.501078 l
497.205 463.596068 l
509.76 464.121607 l
522.315 465.791525 l
534.87 465.898745 l
547.425 467.218308 l
559.98 468.018142 l
572.535 467.664111 l
585.09 470.083615 l
597.645 470.318732 l
610.2 471.6205 l
stroke
grestore
0 setlinecap
[14.8 6.4] 0 setdash
0.000 setgray
gsave
502.2 499 108 71.28 clipbox
108 387.459733 m
120.555 390.797876 l
133.11 387.605813 l
145.665 387.786075 l
158.22 390.290674 l
170.775 394.823407 l
183.33 398.688761 l
195.885 399.394454 l
208.44 402.624423 l
220.995 402.63514 l
233.55 406.628639 l
246.105 407.528855 l
258.66 410.748725 l
271.215 415.359539 l
283.77 416.85 l
296.325 419.371331 l
308.88 420.221709 l
321.435 423.375347 l
333.99 427.328248 l
346.545 429.384892 l
359.1 430.849629 l
371.655 433.637421 l
384.21 436.690799 l
396.765 438.846081 l
409.32 440.285224 l
421.875 442.545073 l
434.43 444.236646 l
446.985 446.673508 l
459.54 449.402669 l
472.095 451.869707 l
484.65 453.744892 l
497.205 456.585782 l
509.76 459.047619 l
522.315 461.121308 l
534.87 461.392962 l
547.425 462.701258 l
559.98 465.124606 l
572.535 466.863963 l
585.09 468.449027 l
597.645 470.011423 l
610.2 471.369518 l
stroke
grestore
1.000 0.000 0.000 setrgbcolor
gsave
502.2 499 108 71.28 clipbox
108 346.894536 m
120.555 349.378539 l
133.11 343.409145 l
145.665 345.649251 l
158.22 353.605957 l
170.775 360.228141 l
183.33 361.669633 l
195.885 362.781826 l
208.44 366.016611 l
220.995 367.345329 l
233.55 372.803688 l
246.105 373.618693 l
258.66 376.134622 l
271.215 380.167925 l
283.77 381.143796 l
296.325 387.544346 l
308.88 385.590181 l
321.435 389.832118 l
333.99 394.002436 l
346.545 396.239345 l
359.1 398.210711 l
371.655 401.161689 l
384.21 401.452505 l
396.765 404.480829 l
409.32 406.649745 l
421.875 410.486688 l
434.43 412.222697 l
446.985 414.251099 l
459.54 416.46154 l
472.095 418.931273 l
484.65 420.205124 l
497.205 421.459533 l
509.76 423.873786 l
522.315 425.915351 l
534.87 426.299226 l
547.425 428.503155 l
559.98 431.356322 l
572.535 431.084874 l
585.09 431.961572 l
597.645 434.348388 l
610.2 436.689915 l
stroke
grestore
0.750 0.000 0.750 setrgbcolor
gsave
502.2 499 108 71.28 clipbox
108 328.172775 m
120.555 327.22815 l
133.11 323.471533 l
145.665 319.79015 l
158.22 325.966766 l
170.775 339.302131 l
183.33 339.168013 l
195.885 341.671518 l
208.44 339.536831 l
220.995 341.163503 l
233.55 345.787227 l
246.105 348.524523 l
258.66 351.592608 l
271.215 357.830248 l
283.77 359.302047 l
296.325 362.216005 l
308.88 361.721582 l
321.435 369.191351 l
333.99 373.05226 l
346.545 376.872095 l
359.1 379.333777 l
371.655 379.552138 l
384.21 381.217912 l
396.765 384.019856 l
409.32 387.129937 l
421.875 389.9219 l
434.43 390.20144 l
446.985 391.421816 l
459.54 396.558215 l
472.095 396.315371 l
484.65 397.489004 l
497.205 401.162333 l
509.76 402.785558 l
522.315 405.158137 l
534.87 406.911478 l
547.425 407.227861 l
559.98 409.94785 l
572.535 411.047024 l
585.09 412.22427 l
597.645 414.434125 l
610.2 415.935505 l
stroke
grestore
0.000 0.000 1.000 setrgbcolor
gsave
502.2 499 108 71.28 clipbox
108 298.987679 m
120.555 296.479447 l
133.11 290.080098 l
145.665 291.22321 l
158.22 296.160711 l
170.775 305.047075 l
183.33 311.665198 l
195.885 310.868888 l
208.44 314.362438 l
220.995 313.627111 l
233.55 319.904257 l
246.105 318.68045 l
258.66 325.576692 l
271.215 330.390736 l
283.77 334.208011 l
296.325 337.437925 l
308.88 337.661881 l
321.435 343.407895 l
333.99 344.583828 l
346.545 351.046466 l
359.1 353.638687 l
371.655 356.826767 l
384.21 354.4673 l
396.765 357.49973 l
409.32 361.362281 l
421.875 364.372496 l
434.43 365.57952 l
446.985 366.380463 l
459.54 371.165966 l
472.095 371.419568 l
484.65 374.187908 l
497.205 376.505323 l
509.76 375.894948 l
522.315 376.572571 l
534.87 379.462618 l
547.425 382.515464 l
559.98 384.292249 l
572.535 383.735633 l
585.09 386.005702 l
597.645 387.407354 l
610.2 390.789081 l
stroke
grestore
0.000 0.500 0.000 setrgbcolor
gsave
502.2 499 108 71.28 clipbox
108 259.268792 m
120.555 251.901164 l
133.11 252.82872 l
145.665 253.766171 l
158.22 253.516751 l
170.775 264.80666 l
183.33 280.515031 l
195.885 277.858039 l
208.44 279.420359 l
220.995 280.707543 l
233.55 283.257119 l
246.105 290.509379 l
258.66 292.532699 l
271.215 302.50481 l
283.77 304.219641 l
296.325 310.160719 l
308.88 313.785664 l
321.435 315.9145 l
333.99 314.152342 l
346.545 321.317708 l
359.1 323.671996 l
371.655 325.674547 l
384.21 326.298599 l
396.765 329.753113 l
409.32 332.259671 l
421.875 331.962348 l
434.43 339.481457 l
446.985 340.307931 l
459.54 341.794882 l
472.095 344.988722 l
484.65 345.585579 l
497.205 348.820807 l
509.76 347.581966 l
522.315 349.840045 l
534.87 351.067141 l
547.425 350.456204 l
559.98 357.148749 l
572.535 354.416752 l
585.09 357.342779 l
597.645 359.671539 l
610.2 362.481571 l
stroke
grestore
0.000 0.750 0.750 setrgbcolor
gsave
502.2 499 108 71.28 clipbox
108 201.149235 m
120.555 208.768532 l
133.11 203.163375 l
145.665 210.455766 l
158.22 209.349211 l
170.775 218.37337 l
183.33 218.545674 l
195.885 236.840959 l
208.44 230.768796 l
220.995 231.539131 l
233.55 240.121579 l
246.105 250.814647 l
258.66 252.279813 l
271.215 261.264677 l
283.77 259.418533 l
296.325 271.560874 l
308.88 274.639092 l
321.435 274.836881 l
333.99 272.978507 l
346.545 275.427792 l
359.1 275.966684 l
371.655 278.037937 l
384.21 279.071892 l
396.765 288.169517 l
409.32 288.938101 l
421.875 290.765419 l
434.43 289.600754 l
446.985 298.03996 l
459.54 301.279861 l
472.095 304.550505 l
484.65 304.527582 l
497.205 306.325979 l
509.76 302.945135 l
522.315 309.880413 l
534.87 311.396743 l
547.425 312.119161 l
559.98 312.751534 l
572.535 314.589529 l
585.09 315.945908 l
597.645 319.228514 l
610.2 322.332126 l
stroke
grestore
0.750 0.750 0.000 setrgbcolor
gsave
502.2 499 108 71.28 clipbox
108 93.96 m
120.555 145.51596 l
133.11 120.029417 l
145.665 140.326312 l
158.22 144.18848 l
170.775 142.45789 l
183.33 172.327731 l
195.885 158.213184 l
208.44 171.466566 l
220.995 173.404638 l
233.55 170.629843 l
246.105 185.251107 l
258.66 191.779763 l
271.215 194.455631 l
283.77 195.920618 l
296.325 200.567364 l
308.88 204.667067 l
321.435 208.493455 l
333.99 210.732999 l
346.545 211.57662 l
359.1 214.224039 l
371.655 225.243314 l
384.21 228.60713 l
396.765 233.001344 l
409.32 227.332852 l
421.875 236.184023 l
434.43 239.67549 l
446.985 239.785551 l
459.54 249.921924 l
472.095 237.271854 l
484.65 243.735098 l
497.205 246.522497 l
509.76 249.602271 l
522.315 251.37375 l
534.87 253.588588 l
547.425 251.767747 l
559.98 255.487592 l
572.535 256.506005 l
585.09 261.537086 l
597.645 258.140871 l
610.2 262.455283 l
stroke
grestore
0.800 setlinewidth
0 setlinejoin
2 setlinecap
[] 0 setdash
0.000 setgray
gsave
108 71.28 m
108 570.24 l
stroke
grestore
gsave
610.2 71.28 m
610.2 570.24 l
stroke
grestore
gsave
108 71.28 m
610.2 71.28 l
stroke
grestore
gsave
108 570.24 m
610.2 570.24 l
stroke
grestore
gsave
144.100000 576.240000 translate
0.000000 rotate
/DejaVuSans findfont
24.0 scalefont
setfont
0.000000 0.765625 moveto
/M glyphshow

20.707031 0.765625 moveto
/e glyphshow

35.472656 0.765625 moveto
/a glyphshow

50.179688 0.765625 moveto
/n glyphshow

65.390625 0.765625 moveto
/space glyphshow

73.019531 0.765625 moveto
/P glyphshow

87.492188 0.765625 moveto
/o glyphshow

102.175781 0.765625 moveto
/s glyphshow

114.679688 0.765625 moveto
/i glyphshow

121.347656 0.765625 moveto
/t glyphshow

130.757812 0.765625 moveto
/i glyphshow

137.425781 0.765625 moveto
/o glyphshow

152.109375 0.765625 moveto
/n glyphshow

167.320312 0.765625 moveto
/a glyphshow

182.027344 0.765625 moveto
/l glyphshow

188.695312 0.765625 moveto
/space glyphshow

196.324219 0.765625 moveto
/E glyphshow

211.488281 0.765625 moveto
/r glyphshow

221.355469 0.765625 moveto
/r glyphshow

231.222656 0.765625 moveto
/o glyphshow

245.906250 0.765625 moveto
/r glyphshow

255.773438 0.765625 moveto
/space glyphshow

263.402344 0.765625 moveto
/o glyphshow

278.085938 0.765625 moveto
/f glyphshow

286.535156 0.765625 moveto
/space glyphshow

294.164062 0.765625 moveto
/uni0394 glyphshow

/DejaVuSans-Oblique findfont
24.0 scalefont
setfont
310.582031 0.765625 moveto
/T glyphshow

/DejaVuSans-Oblique findfont
16.799999999999997 scalefont
setfont
325.242188 -3.171875 moveto
/o glyphshow

335.520703 -3.171875 moveto
/b glyphshow

346.184766 -3.171875 moveto
/s glyphshow

/DejaVuSans findfont
24.0 scalefont
setfont
355.593750 0.765625 moveto
/equal glyphshow

375.703125 0.765625 moveto
/zero glyphshow

390.972656 0.765625 moveto
/period glyphshow

398.601562 0.765625 moveto
/zero glyphshow

413.871094 0.765625 moveto
/five glyphshow


grestore
1.000 setlinewidth
0 setlinecap
0.800 setgray
gsave
627 57.75875 m
844.221875 57.75875 l
847.421875 57.75875 849.021875 59.35875 849.021875 62.55875 c
849.021875 553.44 l
849.021875 556.64 847.421875 558.24 844.221875 558.24 c
627 558.24 l
623.8 558.24 622.2 556.64 622.2 553.44 c
622.2 62.55875 l
622.2 59.35875 623.8 57.75875 627 57.75875 c
cl
gsave
1.000 setgray
fill
grestore
stroke
grestore
4.000 setlinewidth
1 setlinejoin
2 setlinecap
[] 0 setdash
0.000 setgray
gsave
631.8 538.805625 m
679.8 538.805625 l
stroke
grestore
gsave
699.000000 530.405625 translate
0.000000 rotate
0.000000 0.000000 m /S glyphshow
15.234375 0.000000 m /T glyphshow
29.894531 0.000000 m /B glyphshow
46.359375 0.000000 m /comma glyphshow
53.988281 0.000000 m /space glyphshow
61.617188 0.000000 m /zero glyphshow
76.886719 0.000000 m /period glyphshow
84.515625 0.000000 m /two glyphshow
grestore
1.000 0.000 0.000 setrgbcolor
gsave
631.8 503.57125 m
679.8 503.57125 l
stroke
grestore
0.000 setgray
gsave
699.000000 495.171250 translate
0.000000 rotate
0.000000 0.000000 m /S glyphshow
15.234375 0.000000 m /T glyphshow
29.894531 0.000000 m /B glyphshow
46.359375 0.000000 m /comma glyphshow
53.988281 0.000000 m /space glyphshow
61.617188 0.000000 m /zero glyphshow
76.886719 0.000000 m /period glyphshow
84.515625 0.000000 m /one glyphshow
99.785156 0.000000 m /five glyphshow
grestore
0.750 0.000 0.750 setrgbcolor
gsave
631.8 468.336875 m
679.8 468.336875 l
stroke
grestore
0.000 setgray
gsave
699.000000 459.936875 translate
0.000000 rotate
0.000000 0.000000 m /S glyphshow
15.234375 0.000000 m /T glyphshow
29.894531 0.000000 m /B glyphshow
46.359375 0.000000 m /comma glyphshow
53.988281 0.000000 m /space glyphshow
61.617188 0.000000 m /zero glyphshow
76.886719 0.000000 m /period glyphshow
84.515625 0.000000 m /one glyphshow
99.785156 0.000000 m /two glyphshow
115.054688 0.000000 m /five glyphshow
grestore
0.000 0.000 1.000 setrgbcolor
gsave
631.8 433.1025 m
679.8 433.1025 l
stroke
grestore
0.000 setgray
gsave
699.000000 424.702500 translate
0.000000 rotate
0.000000 0.000000 m /S glyphshow
15.234375 0.000000 m /T glyphshow
29.894531 0.000000 m /B glyphshow
46.359375 0.000000 m /comma glyphshow
53.988281 0.000000 m /space glyphshow
61.617188 0.000000 m /zero glyphshow
76.886719 0.000000 m /period glyphshow
84.515625 0.000000 m /one glyphshow
grestore
0.000 0.500 0.000 setrgbcolor
gsave
631.8 397.868125 m
679.8 397.868125 l
stroke
grestore
0.000 setgray
gsave
699.000000 389.468125 translate
0.000000 rotate
0.000000 0.000000 m /S glyphshow
15.234375 0.000000 m /T glyphshow
29.894531 0.000000 m /B glyphshow
46.359375 0.000000 m /comma glyphshow
53.988281 0.000000 m /space glyphshow
61.617188 0.000000 m /zero glyphshow
76.886719 0.000000 m /period glyphshow
84.515625 0.000000 m /zero glyphshow
99.785156 0.000000 m /seven glyphshow
115.054688 0.000000 m /five glyphshow
grestore
0.000 0.750 0.750 setrgbcolor
gsave
631.8 362.63375 m
679.8 362.63375 l
stroke
grestore
0.000 setgray
gsave
699.000000 354.233750 translate
0.000000 rotate
0.000000 0.000000 m /S glyphshow
15.234375 0.000000 m /T glyphshow
29.894531 0.000000 m /B glyphshow
46.359375 0.000000 m /comma glyphshow
53.988281 0.000000 m /space glyphshow
61.617188 0.000000 m /zero glyphshow
76.886719 0.000000 m /period glyphshow
84.515625 0.000000 m /zero glyphshow
99.785156 0.000000 m /five glyphshow
grestore
0.750 0.750 0.000 setrgbcolor
gsave
631.8 327.399375 m
679.8 327.399375 l
stroke
grestore
0.000 setgray
gsave
699.000000 318.999375 translate
0.000000 rotate
0.000000 0.000000 m /S glyphshow
15.234375 0.000000 m /T glyphshow
29.894531 0.000000 m /B glyphshow
46.359375 0.000000 m /comma glyphshow
53.988281 0.000000 m /space glyphshow
61.617188 0.000000 m /zero glyphshow
76.886719 0.000000 m /period glyphshow
84.515625 0.000000 m /zero glyphshow
99.785156 0.000000 m /two glyphshow
115.054688 0.000000 m /five glyphshow
grestore
0 setlinecap
[14.8 6.4] 0 setdash
gsave
631.8 292.165 m
679.8 292.165 l
stroke
grestore
gsave
699.000000 283.765000 translate
0.000000 rotate
0.000000 0.000000 m /O glyphshow
18.890625 0.000000 m /u glyphshow
34.101562 0.000000 m /r glyphshow
43.968750 0.000000 m /s glyphshow
56.472656 0.000000 m /comma glyphshow
64.101562 0.000000 m /space glyphshow
71.730469 0.000000 m /zero glyphshow
87.000000 0.000000 m /period glyphshow
94.628906 0.000000 m /two glyphshow
grestore
1.000 0.000 0.000 setrgbcolor
gsave
631.8 256.930625 m
679.8 256.930625 l
stroke
grestore
0.000 setgray
gsave
699.000000 248.530625 translate
0.000000 rotate
0.000000 0.000000 m /O glyphshow
18.890625 0.000000 m /u glyphshow
34.101562 0.000000 m /r glyphshow
43.968750 0.000000 m /s glyphshow
56.472656 0.000000 m /comma glyphshow
64.101562 0.000000 m /space glyphshow
71.730469 0.000000 m /zero glyphshow
87.000000 0.000000 m /period glyphshow
94.628906 0.000000 m /one glyphshow
109.898438 0.000000 m /five glyphshow
grestore
0.750 0.000 0.750 setrgbcolor
gsave
631.8 221.69625 m
679.8 221.69625 l
stroke
grestore
0.000 setgray
gsave
699.000000 213.296250 translate
0.000000 rotate
0.000000 0.000000 m /O glyphshow
18.890625 0.000000 m /u glyphshow
34.101562 0.000000 m /r glyphshow
43.968750 0.000000 m /s glyphshow
56.472656 0.000000 m /comma glyphshow
64.101562 0.000000 m /space glyphshow
71.730469 0.000000 m /zero glyphshow
87.000000 0.000000 m /period glyphshow
94.628906 0.000000 m /one glyphshow
109.898438 0.000000 m /two glyphshow
125.167969 0.000000 m /five glyphshow
grestore
0.000 0.000 1.000 setrgbcolor
gsave
631.8 186.461875 m
679.8 186.461875 l
stroke
grestore
0.000 setgray
gsave
699.000000 178.061875 translate
0.000000 rotate
0.000000 0.000000 m /O glyphshow
18.890625 0.000000 m /u glyphshow
34.101562 0.000000 m /r glyphshow
43.968750 0.000000 m /s glyphshow
56.472656 0.000000 m /comma glyphshow
64.101562 0.000000 m /space glyphshow
71.730469 0.000000 m /zero glyphshow
87.000000 0.000000 m /period glyphshow
94.628906 0.000000 m /one glyphshow
grestore
0.000 0.500 0.000 setrgbcolor
gsave
631.8 151.2275 m
679.8 151.2275 l
stroke
grestore
0.000 setgray
gsave
699.000000 142.827500 translate
0.000000 rotate
0.000000 0.000000 m /O glyphshow
18.890625 0.000000 m /u glyphshow
34.101562 0.000000 m /r glyphshow
43.968750 0.000000 m /s glyphshow
56.472656 0.000000 m /comma glyphshow
64.101562 0.000000 m /space glyphshow
71.730469 0.000000 m /zero glyphshow
87.000000 0.000000 m /period glyphshow
94.628906 0.000000 m /zero glyphshow
109.898438 0.000000 m /seven glyphshow
125.167969 0.000000 m /five glyphshow
grestore
0.000 0.750 0.750 setrgbcolor
gsave
631.8 115.993125 m
679.8 115.993125 l
stroke
grestore
0.000 setgray
gsave
699.000000 107.593125 translate
0.000000 rotate
0.000000 0.000000 m /O glyphshow
18.890625 0.000000 m /u glyphshow
34.101562 0.000000 m /r glyphshow
43.968750 0.000000 m /s glyphshow
56.472656 0.000000 m /comma glyphshow
64.101562 0.000000 m /space glyphshow
71.730469 0.000000 m /zero glyphshow
87.000000 0.000000 m /period glyphshow
94.628906 0.000000 m /zero glyphshow
109.898438 0.000000 m /five glyphshow
grestore
0.750 0.750 0.000 setrgbcolor
gsave
631.8 80.75875 m
679.8 80.75875 l
stroke
grestore
0.000 setgray
gsave
699.000000 72.358750 translate
0.000000 rotate
0.000000 0.000000 m /O glyphshow
18.890625 0.000000 m /u glyphshow
34.101562 0.000000 m /r glyphshow
43.968750 0.000000 m /s glyphshow
56.472656 0.000000 m /comma glyphshow
64.101562 0.000000 m /space glyphshow
71.730469 0.000000 m /zero glyphshow
87.000000 0.000000 m /period glyphshow
94.628906 0.000000 m /zero glyphshow
109.898438 0.000000 m /two glyphshow
125.167969 0.000000 m /five glyphshow
grestore

end
showpage
