%!PS-Adobe-3.0 EPSF-3.0
%%Title: /Users/yin.yang/Desktop/final_err_ppp.eps
%%Creator: matplotlib version 2.0.2, http://matplotlib.org/
%%CreationDate: Sun Jul  1 22:31:01 2018
%%Orientation: portrait
%%BoundingBox: -90 72 702 720
%%EndComments
%%BeginProlog
/mpldict 8 dict def
mpldict begin
/m { moveto } bind def
/l { lineto } bind def
/r { rlineto } bind def
/c { curveto } bind def
/cl { closepath } bind def
/box {
m
1 index 0 r
0 exch r
neg 0 r
cl
} bind def
/clipbox {
box
clip
newpath
} bind def
%!PS-Adobe-3.0 Resource-Font
%%Title: DejaVu Sans
%%Copyright: Copyright (c) 2003 by Bitstream, Inc. All Rights Reserved. Copyright (c) 2006 by Tavmjong Bah. All Rights Reserved. DejaVu changes are in public domain 
%%Creator: Converted from TrueType to type 3 by PPR
25 dict begin
/_d{bind def}bind def
/_m{moveto}_d
/_l{lineto}_d
/_cl{closepath eofill}_d
/_c{curveto}_d
/_sc{7 -1 roll{setcachedevice}{pop pop pop pop pop pop}ifelse}_d
/_e{exec}_d
/FontName /DejaVuSans def
/PaintType 0 def
/FontMatrix[.001 0 0 .001 0 0]def
/FontBBox[-1021 -463 1793 1232]def
/FontType 3 def
/Encoding [ /space /comma /period /zero /one /two /five /seven /equal /E /M /P /a /b /d /e /i /l /n /o /p /r /s /t /x /minus ] def
/FontInfo 10 dict dup begin
/FamilyName (DejaVu Sans) def
/FullName (DejaVu Sans) def
/Notice (Copyright (c) 2003 by Bitstream, Inc. All Rights Reserved. Copyright (c) 2006 by Tavmjong Bah. All Rights Reserved. DejaVu changes are in public domain ) def
/Weight (Book) def
/Version (Version 2.35) def
/ItalicAngle 0.0 def
/isFixedPitch false def
/UnderlinePosition -130 def
/UnderlineThickness 90 def
end readonly def
/CharStrings 26 dict dup begin
/space{318 0 0 0 0 0 _sc
}_d
/comma{318 0 77 -115 220 124 _sc
117 124 _m
220 124 _l
220 40 _l
140 -115 _l
77 -115 _l
117 40 _l
117 124 _l
_cl}_d
/period{318 0 107 0 210 124 _sc
107 124 _m
210 124 _l
210 0 _l
107 0 _l
107 124 _l
_cl}_d
/zero{636 0 66 -13 570 742 _sc
318 664 _m
267 664 229 639 203 589 _c
177 539 165 464 165 364 _c
165 264 177 189 203 139 _c
229 89 267 64 318 64 _c
369 64 407 89 433 139 _c
458 189 471 264 471 364 _c
471 464 458 539 433 589 _c
407 639 369 664 318 664 _c
318 742 _m
399 742 461 709 505 645 _c
548 580 570 486 570 364 _c
570 241 548 147 505 83 _c
461 19 399 -13 318 -13 _c
236 -13 173 19 130 83 _c
87 147 66 241 66 364 _c
66 486 87 580 130 645 _c
173 709 236 742 318 742 _c
_cl}_d
/one{636 0 110 0 544 729 _sc
124 83 _m
285 83 _l
285 639 _l
110 604 _l
110 694 _l
284 729 _l
383 729 _l
383 83 _l
544 83 _l
544 0 _l
124 0 _l
124 83 _l
_cl}_d
/two{{636 0 73 0 536 742 _sc
192 83 _m
536 83 _l
536 0 _l
73 0 _l
73 83 _l
110 121 161 173 226 239 _c
290 304 331 346 348 365 _c
380 400 402 430 414 455 _c
426 479 433 504 433 528 _c
433 566 419 598 392 622 _c
365 646 330 659 286 659 _c
255 659 222 653 188 643 _c
154 632 117 616 78 594 _c
78 694 _l
118 710 155 722 189 730 _c
223 738 255 742 284 742 _c
}_e{359 742 419 723 464 685 _c
509 647 532 597 532 534 _c
532 504 526 475 515 449 _c
504 422 484 390 454 354 _c
446 344 420 317 376 272 _c
332 227 271 164 192 83 _c
_cl}_e}_d
/five{{636 0 77 -13 549 729 _sc
108 729 _m
495 729 _l
495 646 _l
198 646 _l
198 467 _l
212 472 227 476 241 478 _c
255 480 270 482 284 482 _c
365 482 429 459 477 415 _c
525 370 549 310 549 234 _c
549 155 524 94 475 51 _c
426 8 357 -13 269 -13 _c
238 -13 207 -10 175 -6 _c
143 -1 111 6 77 17 _c
77 116 _l
106 100 136 88 168 80 _c
199 72 232 69 267 69 _c
}_e{323 69 368 83 401 113 _c
433 143 450 183 450 234 _c
450 284 433 324 401 354 _c
368 384 323 399 267 399 _c
241 399 214 396 188 390 _c
162 384 135 375 108 363 _c
108 729 _l
_cl}_e}_d
/seven{636 0 82 0 551 729 _sc
82 729 _m
551 729 _l
551 687 _l
286 0 _l
183 0 _l
432 646 _l
82 646 _l
82 729 _l
_cl}_d
/equal{838 0 106 172 732 454 _sc
106 454 _m
732 454 _l
732 372 _l
106 372 _l
106 454 _l
106 255 _m
732 255 _l
732 172 _l
106 172 _l
106 255 _l
_cl}_d
/E{632 0 98 0 568 729 _sc
98 729 _m
559 729 _l
559 646 _l
197 646 _l
197 430 _l
544 430 _l
544 347 _l
197 347 _l
197 83 _l
568 83 _l
568 0 _l
98 0 _l
98 729 _l
_cl}_d
/M{863 0 98 0 765 729 _sc
98 729 _m
245 729 _l
431 233 _l
618 729 _l
765 729 _l
765 0 _l
669 0 _l
669 640 _l
481 140 _l
382 140 _l
194 640 _l
194 0 _l
98 0 _l
98 729 _l
_cl}_d
/P{603 0 98 0 569 729 _sc
197 648 _m
197 374 _l
321 374 _l
367 374 402 385 427 409 _c
452 433 465 467 465 511 _c
465 555 452 588 427 612 _c
402 636 367 648 321 648 _c
197 648 _l
98 729 _m
321 729 _l
402 729 464 710 506 673 _c
548 636 569 582 569 511 _c
569 439 548 384 506 348 _c
464 311 402 293 321 293 _c
197 293 _l
197 0 _l
98 0 _l
98 729 _l
_cl}_d
/a{{613 0 60 -13 522 560 _sc
343 275 _m
270 275 220 266 192 250 _c
164 233 150 205 150 165 _c
150 133 160 107 181 89 _c
202 70 231 61 267 61 _c
317 61 357 78 387 114 _c
417 149 432 196 432 255 _c
432 275 _l
343 275 _l
522 312 _m
522 0 _l
432 0 _l
432 83 _l
411 49 385 25 355 10 _c
325 -5 287 -13 243 -13 _c
187 -13 142 2 109 33 _c
76 64 60 106 60 159 _c
}_e{60 220 80 266 122 298 _c
163 329 224 345 306 345 _c
432 345 _l
432 354 _l
432 395 418 427 391 450 _c
364 472 326 484 277 484 _c
245 484 215 480 185 472 _c
155 464 127 453 100 439 _c
100 522 _l
132 534 164 544 195 550 _c
226 556 256 560 286 560 _c
365 560 424 539 463 498 _c
502 457 522 395 522 312 _c
_cl}_e}_d
/b{{635 0 91 -13 580 760 _sc
487 273 _m
487 339 473 390 446 428 _c
418 466 381 485 334 485 _c
286 485 249 466 222 428 _c
194 390 181 339 181 273 _c
181 207 194 155 222 117 _c
249 79 286 61 334 61 _c
381 61 418 79 446 117 _c
473 155 487 207 487 273 _c
181 464 _m
199 496 223 520 252 536 _c
281 552 316 560 356 560 _c
422 560 476 533 518 481 _c
559 428 580 359 580 273 _c
}_e{580 187 559 117 518 65 _c
476 13 422 -13 356 -13 _c
316 -13 281 -5 252 10 _c
223 25 199 49 181 82 _c
181 0 _l
91 0 _l
91 760 _l
181 760 _l
181 464 _l
_cl}_e}_d
/d{{635 0 55 -13 544 760 _sc
454 464 _m
454 760 _l
544 760 _l
544 0 _l
454 0 _l
454 82 _l
435 49 411 25 382 10 _c
353 -5 319 -13 279 -13 _c
213 -13 159 13 117 65 _c
75 117 55 187 55 273 _c
55 359 75 428 117 481 _c
159 533 213 560 279 560 _c
319 560 353 552 382 536 _c
411 520 435 496 454 464 _c
148 273 _m
148 207 161 155 188 117 _c
215 79 253 61 301 61 _c
}_e{348 61 385 79 413 117 _c
440 155 454 207 454 273 _c
454 339 440 390 413 428 _c
385 466 348 485 301 485 _c
253 485 215 466 188 428 _c
161 390 148 339 148 273 _c
_cl}_e}_d
/e{{615 0 55 -13 562 560 _sc
562 296 _m
562 252 _l
149 252 _l
153 190 171 142 205 110 _c
238 78 284 62 344 62 _c
378 62 412 66 444 74 _c
476 82 509 95 541 113 _c
541 28 _l
509 14 476 3 442 -3 _c
408 -9 373 -13 339 -13 _c
251 -13 182 12 131 62 _c
80 112 55 181 55 268 _c
55 357 79 428 127 481 _c
175 533 241 560 323 560 _c
397 560 455 536 498 489 _c
}_e{540 441 562 377 562 296 _c
472 322 _m
471 371 457 410 431 440 _c
404 469 368 484 324 484 _c
274 484 234 469 204 441 _c
174 413 156 373 152 322 _c
472 322 _l
_cl}_e}_d
/i{278 0 94 0 184 760 _sc
94 547 _m
184 547 _l
184 0 _l
94 0 _l
94 547 _l
94 760 _m
184 760 _l
184 646 _l
94 646 _l
94 760 _l
_cl}_d
/l{278 0 94 0 184 760 _sc
94 760 _m
184 760 _l
184 0 _l
94 0 _l
94 760 _l
_cl}_d
/n{634 0 91 0 549 560 _sc
549 330 _m
549 0 _l
459 0 _l
459 327 _l
459 379 448 417 428 443 _c
408 469 378 482 338 482 _c
289 482 251 466 223 435 _c
195 404 181 362 181 309 _c
181 0 _l
91 0 _l
91 547 _l
181 547 _l
181 462 _l
202 494 227 519 257 535 _c
286 551 320 560 358 560 _c
420 560 468 540 500 501 _c
532 462 549 405 549 330 _c
_cl}_d
/o{612 0 55 -13 557 560 _sc
306 484 _m
258 484 220 465 192 427 _c
164 389 150 338 150 273 _c
150 207 163 156 191 118 _c
219 80 257 62 306 62 _c
354 62 392 80 420 118 _c
448 156 462 207 462 273 _c
462 337 448 389 420 427 _c
392 465 354 484 306 484 _c
306 560 _m
384 560 445 534 490 484 _c
534 433 557 363 557 273 _c
557 183 534 113 490 63 _c
445 12 384 -13 306 -13 _c
227 -13 165 12 121 63 _c
77 113 55 183 55 273 _c
55 363 77 433 121 484 _c
165 534 227 560 306 560 _c
_cl}_d
/p{{635 0 91 -207 580 560 _sc
181 82 _m
181 -207 _l
91 -207 _l
91 547 _l
181 547 _l
181 464 _l
199 496 223 520 252 536 _c
281 552 316 560 356 560 _c
422 560 476 533 518 481 _c
559 428 580 359 580 273 _c
580 187 559 117 518 65 _c
476 13 422 -13 356 -13 _c
316 -13 281 -5 252 10 _c
223 25 199 49 181 82 _c
487 273 _m
487 339 473 390 446 428 _c
418 466 381 485 334 485 _c
}_e{286 485 249 466 222 428 _c
194 390 181 339 181 273 _c
181 207 194 155 222 117 _c
249 79 286 61 334 61 _c
381 61 418 79 446 117 _c
473 155 487 207 487 273 _c
_cl}_e}_d
/r{411 0 91 0 411 560 _sc
411 463 _m
401 469 390 473 378 476 _c
366 478 353 480 339 480 _c
288 480 249 463 222 430 _c
194 397 181 350 181 288 _c
181 0 _l
91 0 _l
91 547 _l
181 547 _l
181 462 _l
199 495 224 520 254 536 _c
284 552 321 560 365 560 _c
371 560 378 559 386 559 _c
393 558 401 557 411 555 _c
411 463 _l
_cl}_d
/s{{521 0 54 -13 472 560 _sc
443 531 _m
443 446 _l
417 458 391 468 364 475 _c
336 481 308 485 279 485 _c
234 485 200 478 178 464 _c
156 450 145 430 145 403 _c
145 382 153 366 169 354 _c
185 342 217 330 265 320 _c
296 313 _l
360 299 405 279 432 255 _c
458 230 472 195 472 151 _c
472 100 452 60 412 31 _c
372 1 316 -13 246 -13 _c
216 -13 186 -10 154 -5 _c
}_e{122 0 89 8 54 20 _c
54 113 _l
87 95 120 82 152 74 _c
184 65 216 61 248 61 _c
290 61 323 68 346 82 _c
368 96 380 117 380 144 _c
380 168 371 187 355 200 _c
339 213 303 226 247 238 _c
216 245 _l
160 257 119 275 95 299 _c
70 323 58 356 58 399 _c
58 450 76 490 112 518 _c
148 546 200 560 268 560 _c
301 560 332 557 362 552 _c
391 547 418 540 443 531 _c
}_e{_cl}_e}_d
/t{392 0 27 0 368 702 _sc
183 702 _m
183 547 _l
368 547 _l
368 477 _l
183 477 _l
183 180 _l
183 135 189 106 201 94 _c
213 81 238 75 276 75 _c
368 75 _l
368 0 _l
276 0 _l
206 0 158 13 132 39 _c
106 65 93 112 93 180 _c
93 477 _l
27 477 _l
27 547 _l
93 547 _l
93 702 _l
183 702 _l
_cl}_d
/x{592 0 29 0 559 547 _sc
549 547 _m
351 281 _l
559 0 _l
453 0 _l
294 215 _l
135 0 _l
29 0 _l
241 286 _l
47 547 _l
153 547 _l
298 352 _l
443 547 _l
549 547 _l
_cl}_d
/minus{838 0 106 272 732 355 _sc
106 355 _m
732 355 _l
732 272 _l
106 272 _l
106 355 _l
_cl}_d
end readonly def

/BuildGlyph
 {exch begin
 CharStrings exch
 2 copy known not{pop /.notdef}if
 true 3 1 roll get exec
 end}_d

/BuildChar {
 1 index /Encoding get exch get
 1 index /BuildGlyph get exec
}_d

FontName currentdict end definefont pop
end
%%EndProlog
mpldict begin
-90 72 translate
792 648 0 0 clipbox
gsave
0 0 m
792 0 l
792 648 l
0 648 l
cl
1.000 setgray
fill
grestore
gsave
99 71.28 m
712.8 71.28 l
712.8 570.24 l
99 570.24 l
cl
1.000 setgray
fill
grestore
0.800 setlinewidth
1 setlinejoin
0 setlinecap
[] 0 setdash
0.000 setgray
gsave
/o {
gsave
newpath
translate
0.8 setlinewidth
1 setlinejoin
0 setlinecap
0 0 m
0 -3.5 l

gsave
0.000 setgray
fill
grestore
stroke
grestore
} bind def
126.9 71.28 o
grestore
/DejaVuSans findfont
24.000 scalefont
setfont
gsave
92.556250 46.045625 translate
0.000000 rotate
0.000000 0.000000 m /zero glyphshow
15.269531 0.000000 m /period glyphshow
22.898438 0.000000 m /zero glyphshow
38.167969 0.000000 m /one glyphshow
53.437500 0.000000 m /zero glyphshow
grestore
gsave
/o {
gsave
newpath
translate
0.8 setlinewidth
1 setlinejoin
0 setlinecap
0 0 m
0 -3.5 l

gsave
0.000 setgray
fill
grestore
stroke
grestore
} bind def
199.683 71.28 o
grestore
gsave
165.338859 46.045625 translate
0.000000 rotate
0.000000 0.000000 m /zero glyphshow
15.269531 0.000000 m /period glyphshow
22.898438 0.000000 m /zero glyphshow
38.167969 0.000000 m /two glyphshow
53.437500 0.000000 m /five glyphshow
grestore
gsave
/o {
gsave
newpath
translate
0.8 setlinewidth
1 setlinejoin
0 setlinecap
0 0 m
0 -3.5 l

gsave
0.000 setgray
fill
grestore
stroke
grestore
} bind def
320.987 71.28 o
grestore
gsave
286.643207 46.045625 translate
0.000000 rotate
0.000000 0.000000 m /zero glyphshow
15.269531 0.000000 m /period glyphshow
22.898438 0.000000 m /zero glyphshow
38.167969 0.000000 m /five glyphshow
53.437500 0.000000 m /zero glyphshow
grestore
gsave
/o {
gsave
newpath
translate
0.8 setlinewidth
1 setlinejoin
0 setlinecap
0 0 m
0 -3.5 l

gsave
0.000 setgray
fill
grestore
stroke
grestore
} bind def
442.291 71.28 o
grestore
gsave
407.947554 46.045625 translate
0.000000 rotate
0.000000 0.000000 m /zero glyphshow
15.269531 0.000000 m /period glyphshow
22.898438 0.000000 m /zero glyphshow
38.167969 0.000000 m /seven glyphshow
53.437500 0.000000 m /five glyphshow
grestore
gsave
/o {
gsave
newpath
translate
0.8 setlinewidth
1 setlinejoin
0 setlinecap
0 0 m
0 -3.5 l

gsave
0.000 setgray
fill
grestore
stroke
grestore
} bind def
563.596 71.28 o
grestore
gsave
529.251902 46.045625 translate
0.000000 rotate
0.000000 0.000000 m /zero glyphshow
15.269531 0.000000 m /period glyphshow
22.898438 0.000000 m /one glyphshow
38.167969 0.000000 m /zero glyphshow
53.437500 0.000000 m /zero glyphshow
grestore
gsave
/o {
gsave
newpath
translate
0.8 setlinewidth
1 setlinejoin
0 setlinecap
0 0 m
0 -3.5 l

gsave
0.000 setgray
fill
grestore
stroke
grestore
} bind def
684.9 71.28 o
grestore
gsave
650.556250 46.045625 translate
0.000000 rotate
0.000000 0.000000 m /zero glyphshow
15.269531 0.000000 m /period glyphshow
22.898438 0.000000 m /one glyphshow
38.167969 0.000000 m /two glyphshow
53.437500 0.000000 m /five glyphshow
grestore
gsave
383.048438 18.811250 translate
0.000000 rotate
0.000000 0.000000 m /p glyphshow
15.234375 0.000000 m /p glyphshow
30.468750 0.000000 m /p glyphshow
grestore
gsave
/o {
gsave
newpath
translate
0.8 setlinewidth
1 setlinejoin
0 setlinecap
0 0 m
-3.5 0 l

gsave
0.000 setgray
fill
grestore
stroke
grestore
} bind def
99 299.991 o
grestore
gsave
35.000000 290.873934 translate
0.000000 rotate
/DejaVuSans findfont
24.0 scalefont
setfont
0.000000 0.343750 moveto
/one glyphshow

15.269531 0.343750 moveto
/zero glyphshow

/DejaVuSans findfont
16.8 scalefont
setfont
30.768750 9.531250 moveto
/minus glyphshow

44.845312 9.531250 moveto
/two glyphshow


grestore
gsave
/o {
gsave
newpath
translate
0.8 setlinewidth
1 setlinejoin
0 setlinecap
0 0 m
-3.5 0 l

gsave
0.000 setgray
fill
grestore
stroke
grestore
} bind def
99 541.215 o
grestore
gsave
35.000000 532.097355 translate
0.000000 rotate
/DejaVuSans findfont
24.0 scalefont
setfont
0.000000 0.562500 moveto
/one glyphshow

15.269531 0.562500 moveto
/zero glyphshow

/DejaVuSans findfont
16.8 scalefont
setfont
30.768750 9.750000 moveto
/minus glyphshow

44.845312 9.750000 moveto
/one glyphshow


grestore
0.600 setlinewidth
gsave
/o {
gsave
newpath
translate
0.6 setlinewidth
1 setlinejoin
0 setlinecap
0 0 m
-2 0 l

gsave
0.000 setgray
fill
grestore
stroke
grestore
} bind def
99 131.383 o
grestore
gsave
/o {
gsave
newpath
translate
0.6 setlinewidth
1 setlinejoin
0 setlinecap
0 0 m
-2 0 l

gsave
0.000 setgray
fill
grestore
stroke
grestore
} bind def
99 173.861 o
grestore
gsave
/o {
gsave
newpath
translate
0.6 setlinewidth
1 setlinejoin
0 setlinecap
0 0 m
-2 0 l

gsave
0.000 setgray
fill
grestore
stroke
grestore
} bind def
99 203.999 o
grestore
gsave
/o {
gsave
newpath
translate
0.6 setlinewidth
1 setlinejoin
0 setlinecap
0 0 m
-2 0 l

gsave
0.000 setgray
fill
grestore
stroke
grestore
} bind def
99 227.376 o
grestore
gsave
/o {
gsave
newpath
translate
0.6 setlinewidth
1 setlinejoin
0 setlinecap
0 0 m
-2 0 l

gsave
0.000 setgray
fill
grestore
stroke
grestore
} bind def
99 246.476 o
grestore
gsave
/o {
gsave
newpath
translate
0.6 setlinewidth
1 setlinejoin
0 setlinecap
0 0 m
-2 0 l

gsave
0.000 setgray
fill
grestore
stroke
grestore
} bind def
99 262.625 o
grestore
gsave
/o {
gsave
newpath
translate
0.6 setlinewidth
1 setlinejoin
0 setlinecap
0 0 m
-2 0 l

gsave
0.000 setgray
fill
grestore
stroke
grestore
} bind def
99 276.614 o
grestore
gsave
/o {
gsave
newpath
translate
0.6 setlinewidth
1 setlinejoin
0 setlinecap
0 0 m
-2 0 l

gsave
0.000 setgray
fill
grestore
stroke
grestore
} bind def
99 288.953 o
grestore
gsave
/o {
gsave
newpath
translate
0.6 setlinewidth
1 setlinejoin
0 setlinecap
0 0 m
-2 0 l

gsave
0.000 setgray
fill
grestore
stroke
grestore
} bind def
99 372.607 o
grestore
gsave
/o {
gsave
newpath
translate
0.6 setlinewidth
1 setlinejoin
0 setlinecap
0 0 m
-2 0 l

gsave
0.000 setgray
fill
grestore
stroke
grestore
} bind def
99 415.084 o
grestore
gsave
/o {
gsave
newpath
translate
0.6 setlinewidth
1 setlinejoin
0 setlinecap
0 0 m
-2 0 l

gsave
0.000 setgray
fill
grestore
stroke
grestore
} bind def
99 445.222 o
grestore
gsave
/o {
gsave
newpath
translate
0.6 setlinewidth
1 setlinejoin
0 setlinecap
0 0 m
-2 0 l

gsave
0.000 setgray
fill
grestore
stroke
grestore
} bind def
99 468.599 o
grestore
gsave
/o {
gsave
newpath
translate
0.6 setlinewidth
1 setlinejoin
0 setlinecap
0 0 m
-2 0 l

gsave
0.000 setgray
fill
grestore
stroke
grestore
} bind def
99 487.699 o
grestore
gsave
/o {
gsave
newpath
translate
0.6 setlinewidth
1 setlinejoin
0 setlinecap
0 0 m
-2 0 l

gsave
0.000 setgray
fill
grestore
stroke
grestore
} bind def
99 503.849 o
grestore
gsave
/o {
gsave
newpath
translate
0.6 setlinewidth
1 setlinejoin
0 setlinecap
0 0 m
-2 0 l

gsave
0.000 setgray
fill
grestore
stroke
grestore
} bind def
99 517.838 o
grestore
gsave
/o {
gsave
newpath
translate
0.6 setlinewidth
1 setlinejoin
0 setlinecap
0 0 m
-2 0 l

gsave
0.000 setgray
fill
grestore
stroke
grestore
} bind def
99 530.177 o
grestore
gsave
26.000000 292.369375 translate
90.000000 rotate
0.000000 0.000000 m /P glyphshow
14.472656 0.000000 m /i glyphshow
21.140625 0.000000 m /x glyphshow
35.343750 0.000000 m /e glyphshow
50.109375 0.000000 m /l glyphshow
grestore
4.000 setlinewidth
2 setlinecap
gsave
613.8 499 99 71.28 clipbox
126.9 100.531943 m
199.682609 150.656608 l
320.986957 209.831872 l
442.291304 245.650024 l
563.595652 282.162527 l
684.9 313.407727 l
stroke
grestore
1.000 setlinewidth
0 setlinecap
gsave
613.8 499 99 71.28 clipbox
/o {
gsave
newpath
translate
1.0 setlinewidth
1 setlinejoin
0 setlinecap
0 -5 m
1.326016 -5 2.597899 -4.473168 3.535534 -3.535534 c
4.473168 -2.597899 5 -1.326016 5 0 c
5 1.326016 4.473168 2.597899 3.535534 3.535534 c
2.597899 4.473168 1.326016 5 0 5 c
-1.326016 5 -2.597899 4.473168 -3.535534 3.535534 c
-4.473168 2.597899 -5 1.326016 -5 0 c
-5 -1.326016 -4.473168 -2.597899 -3.535534 -3.535534 c
-2.597899 -4.473168 -1.326016 -5 0 -5 c
cl

gsave
0.000 setgray
fill
grestore
stroke
grestore
} bind def
126.9 100.532 o
199.683 150.657 o
320.987 209.832 o
442.291 245.65 o
563.596 282.163 o
684.9 313.408 o
grestore
4.000 setlinewidth
[14.8 6.4] 0 setdash
gsave
613.8 499 99 71.28 clipbox
126.9 93.96 m
199.682609 104.838528 l
320.986957 122.784865 l
442.291304 139.387113 l
563.595652 160.844638 l
684.9 182.127122 l
stroke
grestore
1.000 setlinewidth
0 setlinejoin
[] 0 setdash
gsave
613.8 499 99 71.28 clipbox
/o {
gsave
newpath
translate
1.0 setlinewidth
0 setlinejoin
0 setlinecap
-5 -5 m
5 -5 l
5 5 l
-5 5 l
cl

gsave
0.000 setgray
fill
grestore
stroke
grestore
} bind def
126.9 93.96 o
199.683 104.839 o
320.987 122.785 o
442.291 139.387 o
563.596 160.845 o
684.9 182.127 o
grestore
4.000 setlinewidth
1 setlinejoin
2 setlinecap
1.000 0.000 0.000 setrgbcolor
gsave
613.8 499 99 71.28 clipbox
126.9 242.425502 m
199.682609 269.213937 l
320.986957 519.984817 l
442.291304 529.7809 l
563.595652 539.602691 l
684.9 547.56 l
stroke
grestore
1.000 setlinewidth
0 setlinecap
gsave
613.8 499 99 71.28 clipbox
/o {
gsave
newpath
translate
1.0 setlinewidth
1 setlinejoin
0 setlinecap
0 -5 m
1.326016 -5 2.597899 -4.473168 3.535534 -3.535534 c
4.473168 -2.597899 5 -1.326016 5 0 c
5 1.326016 4.473168 2.597899 3.535534 3.535534 c
2.597899 4.473168 1.326016 5 0 5 c
-1.326016 5 -2.597899 4.473168 -3.535534 3.535534 c
-4.473168 2.597899 -5 1.326016 -5 0 c
-5 -1.326016 -4.473168 -2.597899 -3.535534 -3.535534 c
-2.597899 -4.473168 -1.326016 -5 0 -5 c
cl

gsave
1.000 0.000 0.000 setrgbcolor
fill
grestore
stroke
grestore
} bind def
126.9 242.426 o
199.683 269.214 o
320.987 519.985 o
442.291 529.781 o
563.596 539.603 o
684.9 547.56 o
grestore
4.000 setlinewidth
[14.8 6.4] 0 setdash
gsave
613.8 499 99 71.28 clipbox
126.9 144.546131 m
199.682609 153.292558 l
320.986957 181.662219 l
442.291304 192.671219 l
563.595652 242.177522 l
684.9 277.312078 l
stroke
grestore
1.000 setlinewidth
0 setlinejoin
[] 0 setdash
gsave
613.8 499 99 71.28 clipbox
/o {
gsave
newpath
translate
1.0 setlinewidth
0 setlinejoin
0 setlinecap
-5 -5 m
5 -5 l
5 5 l
-5 5 l
cl

gsave
1.000 0.000 0.000 setrgbcolor
fill
grestore
stroke
grestore
} bind def
126.9 144.546 o
199.683 153.293 o
320.987 181.662 o
442.291 192.671 o
563.596 242.178 o
684.9 277.312 o
grestore
0.800 setlinewidth
2 setlinecap
[] 0 setdash
0.000 setgray
gsave
99 71.28 m
99 570.24 l
stroke
grestore
gsave
712.8 71.28 m
712.8 570.24 l
stroke
grestore
gsave
99 71.28 m
712.8 71.28 l
stroke
grestore
gsave
99 570.24 m
712.8 570.24 l
stroke
grestore
gsave
277.993750 576.240000 translate
0.000000 rotate
0.000000 0.000000 m /M glyphshow
20.707031 0.000000 m /e glyphshow
35.472656 0.000000 m /a glyphshow
50.179688 0.000000 m /n glyphshow
65.390625 0.000000 m /space glyphshow
73.019531 0.000000 m /P glyphshow
87.492188 0.000000 m /o glyphshow
102.175781 0.000000 m /s glyphshow
114.679688 0.000000 m /i glyphshow
121.347656 0.000000 m /t glyphshow
130.757812 0.000000 m /i glyphshow
137.425781 0.000000 m /o glyphshow
152.109375 0.000000 m /n glyphshow
167.320312 0.000000 m /a glyphshow
182.027344 0.000000 m /l glyphshow
188.695312 0.000000 m /space glyphshow
196.324219 0.000000 m /E glyphshow
211.488281 0.000000 m /r glyphshow
221.355469 0.000000 m /r glyphshow
231.222656 0.000000 m /o glyphshow
245.906250 0.000000 m /r glyphshow
grestore
1.000 setlinewidth
0 setlinecap
0.800 setgray
gsave
436.1375 346.48325 m
696 346.48325 l
699.2 346.48325 700.8 348.08325 700.8 351.28325 c
700.8 489.82075 l
700.8 493.02075 699.2 494.62075 696 494.62075 c
436.1375 494.62075 l
432.9375 494.62075 431.3375 493.02075 431.3375 489.82075 c
431.3375 351.28325 l
431.3375 348.08325 432.9375 346.48325 436.1375 346.48325 c
cl
gsave
1.000 setgray
fill
grestore
stroke
grestore
4.000 setlinewidth
1 setlinejoin
2 setlinecap
[] 0 setdash
0.000 setgray
gsave
440.9375 475.186375 m
488.9375 475.186375 l
stroke
grestore
1.000 setlinewidth
0 setlinecap
gsave
/o {
gsave
newpath
translate
1.0 setlinewidth
1 setlinejoin
0 setlinecap
0 -5 m
1.326016 -5 2.597899 -4.473168 3.535534 -3.535534 c
4.473168 -2.597899 5 -1.326016 5 0 c
5 1.326016 4.473168 2.597899 3.535534 3.535534 c
2.597899 4.473168 1.326016 5 0 5 c
-1.326016 5 -2.597899 4.473168 -3.535534 3.535534 c
-4.473168 2.597899 -5 1.326016 -5 0 c
-5 -1.326016 -4.473168 -2.597899 -3.535534 -3.535534 c
-2.597899 -4.473168 -1.326016 -5 0 -5 c
cl

gsave
0.000 setgray
fill
grestore
stroke
grestore
} bind def
464.938 475.186 o
grestore
gsave
508.137500 466.786375 translate
0.000000 rotate
0.000000 0.000000 m /s glyphshow
12.503906 0.000000 m /t glyphshow
21.914062 0.000000 m /b glyphshow
37.148438 0.000000 m /comma glyphshow
44.777344 0.000000 m /space glyphshow
52.406250 0.000000 m /d glyphshow
67.640625 0.000000 m /t glyphshow
77.050781 0.000000 m /o glyphshow
91.734375 0.000000 m /b glyphshow
106.968750 0.000000 m /s glyphshow
119.472656 0.000000 m /equal glyphshow
139.582031 0.000000 m /zero glyphshow
154.851562 0.000000 m /period glyphshow
162.480469 0.000000 m /one glyphshow
grestore
4.000 setlinewidth
[14.8 6.4] 0 setdash
gsave
440.9375 439.952 m
488.9375 439.952 l
stroke
grestore
1.000 setlinewidth
0 setlinejoin
[] 0 setdash
gsave
/o {
gsave
newpath
translate
1.0 setlinewidth
0 setlinejoin
0 setlinecap
-5 -5 m
5 -5 l
5 5 l
-5 5 l
cl

gsave
0.000 setgray
fill
grestore
stroke
grestore
} bind def
464.938 439.952 o
grestore
gsave
508.137500 431.552000 translate
0.000000 rotate
0.000000 0.000000 m /e glyphshow
14.765625 0.000000 m /n glyphshow
29.976562 0.000000 m /s glyphshow
42.480469 0.000000 m /comma glyphshow
50.109375 0.000000 m /space glyphshow
57.738281 0.000000 m /d glyphshow
72.972656 0.000000 m /t glyphshow
82.382812 0.000000 m /o glyphshow
97.066406 0.000000 m /b glyphshow
112.300781 0.000000 m /s glyphshow
124.804688 0.000000 m /equal glyphshow
144.914062 0.000000 m /zero glyphshow
160.183594 0.000000 m /period glyphshow
167.812500 0.000000 m /one glyphshow
grestore
4.000 setlinewidth
1 setlinejoin
2 setlinecap
1.000 0.000 0.000 setrgbcolor
gsave
440.9375 404.717625 m
488.9375 404.717625 l
stroke
grestore
1.000 setlinewidth
0 setlinecap
gsave
/o {
gsave
newpath
translate
1.0 setlinewidth
1 setlinejoin
0 setlinecap
0 -5 m
1.326016 -5 2.597899 -4.473168 3.535534 -3.535534 c
4.473168 -2.597899 5 -1.326016 5 0 c
5 1.326016 4.473168 2.597899 3.535534 3.535534 c
2.597899 4.473168 1.326016 5 0 5 c
-1.326016 5 -2.597899 4.473168 -3.535534 3.535534 c
-4.473168 2.597899 -5 1.326016 -5 0 c
-5 -1.326016 -4.473168 -2.597899 -3.535534 -3.535534 c
-2.597899 -4.473168 -1.326016 -5 0 -5 c
cl

gsave
1.000 0.000 0.000 setrgbcolor
fill
grestore
stroke
grestore
} bind def
464.938 404.718 o
grestore
0.000 setgray
gsave
508.137500 396.317625 translate
0.000000 rotate
0.000000 0.000000 m /s glyphshow
12.503906 0.000000 m /t glyphshow
21.914062 0.000000 m /b glyphshow
37.148438 0.000000 m /comma glyphshow
44.777344 0.000000 m /space glyphshow
52.406250 0.000000 m /d glyphshow
67.640625 0.000000 m /t glyphshow
77.050781 0.000000 m /o glyphshow
91.734375 0.000000 m /b glyphshow
106.968750 0.000000 m /s glyphshow
119.472656 0.000000 m /equal glyphshow
139.582031 0.000000 m /zero glyphshow
154.851562 0.000000 m /period glyphshow
162.480469 0.000000 m /five glyphshow
grestore
4.000 setlinewidth
[14.8 6.4] 0 setdash
1.000 0.000 0.000 setrgbcolor
gsave
440.9375 369.48325 m
488.9375 369.48325 l
stroke
grestore
1.000 setlinewidth
0 setlinejoin
[] 0 setdash
gsave
/o {
gsave
newpath
translate
1.0 setlinewidth
0 setlinejoin
0 setlinecap
-5 -5 m
5 -5 l
5 5 l
-5 5 l
cl

gsave
1.000 0.000 0.000 setrgbcolor
fill
grestore
stroke
grestore
} bind def
464.938 369.483 o
grestore
0.000 setgray
gsave
508.137500 361.083250 translate
0.000000 rotate
0.000000 0.000000 m /e glyphshow
14.765625 0.000000 m /n glyphshow
29.976562 0.000000 m /s glyphshow
42.480469 0.000000 m /comma glyphshow
50.109375 0.000000 m /space glyphshow
57.738281 0.000000 m /d glyphshow
72.972656 0.000000 m /t glyphshow
82.382812 0.000000 m /o glyphshow
97.066406 0.000000 m /b glyphshow
112.300781 0.000000 m /s glyphshow
124.804688 0.000000 m /equal glyphshow
144.914062 0.000000 m /zero glyphshow
160.183594 0.000000 m /period glyphshow
167.812500 0.000000 m /five glyphshow
grestore

end
showpage
