%!PS-Adobe-3.0 EPSF-3.0
%%Title: /Users/yin.yang/Documents/Davis_VS_LAPIV.eps
%%Creator: matplotlib version 2.2.3, http://matplotlib.org/
%%CreationDate: Mon Jun 17 00:19:30 2019
%%Orientation: portrait
%%BoundingBox: -126 -36 738 828
%%EndComments
%%BeginProlog
/mpldict 8 dict def
mpldict begin
/m { moveto } bind def
/l { lineto } bind def
/r { rlineto } bind def
/c { curveto } bind def
/cl { closepath } bind def
/box {
m
1 index 0 r
0 exch r
neg 0 r
cl
} bind def
/clipbox {
box
clip
newpath
} bind def
%!PS-Adobe-3.0 Resource-Font
%%Title: DejaVu Sans
%%Copyright: Copyright (c) 2003 by Bitstream, Inc. All Rights Reserved. Copyright (c) 2006 by Tavmjong Bah. All Rights Reserved. DejaVu changes are in public domain 
%%Creator: Converted from TrueType to type 3 by PPR
25 dict begin
/_d{bind def}bind def
/_m{moveto}_d
/_l{lineto}_d
/_cl{closepath eofill}_d
/_c{curveto}_d
/_sc{7 -1 roll{setcachedevice}{pop pop pop pop pop pop}ifelse}_d
/_e{exec}_d
/FontName /DejaVuSans def
/PaintType 0 def
/FontMatrix[.001 0 0 .001 0 0]def
/FontBBox[-1021 -463 1793 1232]def
/FontType 3 def
/Encoding [ /space /parenleft /parenright /comma /hyphen /period /zero /one /two /three /four /five /six /seven /eight /nine /E /F /I /J /O /P /S /T /a /c /e /f /h /i /l /m /n /o /p /r /s /t /u /x /y ] def
/FontInfo 10 dict dup begin
/FamilyName (DejaVu Sans) def
/FullName (DejaVu Sans) def
/Notice (Copyright (c) 2003 by Bitstream, Inc. All Rights Reserved. Copyright (c) 2006 by Tavmjong Bah. All Rights Reserved. DejaVu changes are in public domain ) def
/Weight (Book) def
/Version (Version 2.35) def
/ItalicAngle 0.0 def
/isFixedPitch false def
/UnderlinePosition -130 def
/UnderlineThickness 90 def
end readonly def
/CharStrings 42 dict dup begin
/.notdef 0 def
/space{318 0 0 0 0 0 _sc
}_d
/parenleft{390 0 86 -131 310 759 _sc
310 759 _m
266 683 234 609 213 536 _c
191 463 181 389 181 314 _c
181 238 191 164 213 91 _c
234 17 266 -56 310 -131 _c
232 -131 _l
183 -54 146 20 122 94 _c
98 168 86 241 86 314 _c
86 386 98 459 122 533 _c
146 607 182 682 232 759 _c
310 759 _l
_cl}_d
/parenright{390 0 80 -131 304 759 _sc
80 759 _m
158 759 _l
206 682 243 607 267 533 _c
291 459 304 386 304 314 _c
304 241 291 168 267 94 _c
243 20 206 -54 158 -131 _c
80 -131 _l
123 -56 155 17 177 91 _c
198 164 209 238 209 314 _c
209 389 198 463 177 536 _c
155 609 123 683 80 759 _c
_cl}_d
/comma{318 0 77 -115 220 124 _sc
117 124 _m
220 124 _l
220 40 _l
140 -115 _l
77 -115 _l
117 40 _l
117 124 _l
_cl}_d
/hyphen{361 0 49 234 312 314 _sc
49 314 _m
312 314 _l
312 234 _l
49 234 _l
49 314 _l
_cl}_d
/period{318 0 107 0 210 124 _sc
107 124 _m
210 124 _l
210 0 _l
107 0 _l
107 124 _l
_cl}_d
/zero{636 0 66 -13 570 742 _sc
318 664 _m
267 664 229 639 203 589 _c
177 539 165 464 165 364 _c
165 264 177 189 203 139 _c
229 89 267 64 318 64 _c
369 64 407 89 433 139 _c
458 189 471 264 471 364 _c
471 464 458 539 433 589 _c
407 639 369 664 318 664 _c
318 742 _m
399 742 461 709 505 645 _c
548 580 570 486 570 364 _c
570 241 548 147 505 83 _c
461 19 399 -13 318 -13 _c
236 -13 173 19 130 83 _c
87 147 66 241 66 364 _c
66 486 87 580 130 645 _c
173 709 236 742 318 742 _c
_cl}_d
/one{636 0 110 0 544 729 _sc
124 83 _m
285 83 _l
285 639 _l
110 604 _l
110 694 _l
284 729 _l
383 729 _l
383 83 _l
544 83 _l
544 0 _l
124 0 _l
124 83 _l
_cl}_d
/two{{636 0 73 0 536 742 _sc
192 83 _m
536 83 _l
536 0 _l
73 0 _l
73 83 _l
110 121 161 173 226 239 _c
290 304 331 346 348 365 _c
380 400 402 430 414 455 _c
426 479 433 504 433 528 _c
433 566 419 598 392 622 _c
365 646 330 659 286 659 _c
255 659 222 653 188 643 _c
154 632 117 616 78 594 _c
78 694 _l
118 710 155 722 189 730 _c
223 738 255 742 284 742 _c
}_e{359 742 419 723 464 685 _c
509 647 532 597 532 534 _c
532 504 526 475 515 449 _c
504 422 484 390 454 354 _c
446 344 420 317 376 272 _c
332 227 271 164 192 83 _c
_cl}_e}_d
/three{{636 0 76 -13 556 742 _sc
406 393 _m
453 383 490 362 516 330 _c
542 298 556 258 556 212 _c
556 140 531 84 482 45 _c
432 6 362 -13 271 -13 _c
240 -13 208 -10 176 -4 _c
144 1 110 10 76 22 _c
76 117 _l
103 101 133 89 166 81 _c
198 73 232 69 268 69 _c
330 69 377 81 409 105 _c
441 129 458 165 458 212 _c
458 254 443 288 413 312 _c
383 336 341 349 287 349 _c
}_e{202 349 _l
202 430 _l
291 430 _l
339 430 376 439 402 459 _c
428 478 441 506 441 543 _c
441 580 427 609 401 629 _c
374 649 336 659 287 659 _c
260 659 231 656 200 650 _c
169 644 135 635 98 623 _c
98 711 _l
135 721 170 729 203 734 _c
235 739 266 742 296 742 _c
370 742 429 725 473 691 _c
517 657 539 611 539 553 _c
539 513 527 479 504 451 _c
481 423 448 403 406 393 _c
_cl}_e}_d
/four{636 0 49 0 580 729 _sc
378 643 _m
129 254 _l
378 254 _l
378 643 _l
352 729 _m
476 729 _l
476 254 _l
580 254 _l
580 172 _l
476 172 _l
476 0 _l
378 0 _l
378 172 _l
49 172 _l
49 267 _l
352 729 _l
_cl}_d
/five{{636 0 77 -13 549 729 _sc
108 729 _m
495 729 _l
495 646 _l
198 646 _l
198 467 _l
212 472 227 476 241 478 _c
255 480 270 482 284 482 _c
365 482 429 459 477 415 _c
525 370 549 310 549 234 _c
549 155 524 94 475 51 _c
426 8 357 -13 269 -13 _c
238 -13 207 -10 175 -6 _c
143 -1 111 6 77 17 _c
77 116 _l
106 100 136 88 168 80 _c
199 72 232 69 267 69 _c
}_e{323 69 368 83 401 113 _c
433 143 450 183 450 234 _c
450 284 433 324 401 354 _c
368 384 323 399 267 399 _c
241 399 214 396 188 390 _c
162 384 135 375 108 363 _c
108 729 _l
_cl}_e}_d
/six{{636 0 70 -13 573 742 _sc
330 404 _m
286 404 251 388 225 358 _c
199 328 186 286 186 234 _c
186 181 199 139 225 109 _c
251 79 286 64 330 64 _c
374 64 409 79 435 109 _c
461 139 474 181 474 234 _c
474 286 461 328 435 358 _c
409 388 374 404 330 404 _c
526 713 _m
526 623 _l
501 635 476 644 451 650 _c
425 656 400 659 376 659 _c
310 659 260 637 226 593 _c
}_e{192 549 172 482 168 394 _c
187 422 211 444 240 459 _c
269 474 301 482 336 482 _c
409 482 467 459 509 415 _c
551 371 573 310 573 234 _c
573 159 550 99 506 54 _c
462 9 403 -13 330 -13 _c
246 -13 181 19 137 83 _c
92 147 70 241 70 364 _c
70 479 97 571 152 639 _c
206 707 280 742 372 742 _c
396 742 421 739 447 735 _c
472 730 498 723 526 713 _c
_cl}_e}_d
/seven{636 0 82 0 551 729 _sc
82 729 _m
551 729 _l
551 687 _l
286 0 _l
183 0 _l
432 646 _l
82 646 _l
82 729 _l
_cl}_d
/eight{{636 0 68 -13 568 742 _sc
318 346 _m
271 346 234 333 207 308 _c
180 283 167 249 167 205 _c
167 161 180 126 207 101 _c
234 76 271 64 318 64 _c
364 64 401 76 428 102 _c
455 127 469 161 469 205 _c
469 249 455 283 429 308 _c
402 333 365 346 318 346 _c
219 388 _m
177 398 144 418 120 447 _c
96 476 85 511 85 553 _c
85 611 105 657 147 691 _c
188 725 245 742 318 742 _c
}_e{390 742 447 725 489 691 _c
530 657 551 611 551 553 _c
551 511 539 476 515 447 _c
491 418 459 398 417 388 _c
464 377 501 355 528 323 _c
554 291 568 251 568 205 _c
568 134 546 80 503 43 _c
459 5 398 -13 318 -13 _c
237 -13 175 5 132 43 _c
89 80 68 134 68 205 _c
68 251 81 291 108 323 _c
134 355 171 377 219 388 _c
183 544 _m
183 506 194 476 218 455 _c
}_e{242 434 275 424 318 424 _c
360 424 393 434 417 455 _c
441 476 453 506 453 544 _c
453 582 441 611 417 632 _c
393 653 360 664 318 664 _c
275 664 242 653 218 632 _c
194 611 183 582 183 544 _c
_cl}_e}_d
/nine{{636 0 63 -13 566 742 _sc
110 15 _m
110 105 _l
134 93 159 84 185 78 _c
210 72 235 69 260 69 _c
324 69 374 90 408 134 _c
442 178 462 244 468 334 _c
448 306 424 284 396 269 _c
367 254 335 247 300 247 _c
226 247 168 269 126 313 _c
84 357 63 417 63 494 _c
63 568 85 628 129 674 _c
173 719 232 742 306 742 _c
390 742 455 709 499 645 _c
543 580 566 486 566 364 _c
}_e{566 248 538 157 484 89 _c
429 21 356 -13 264 -13 _c
239 -13 214 -10 189 -6 _c
163 -2 137 5 110 15 _c
306 324 _m
350 324 385 339 411 369 _c
437 399 450 441 450 494 _c
450 546 437 588 411 618 _c
385 648 350 664 306 664 _c
262 664 227 648 201 618 _c
175 588 162 546 162 494 _c
162 441 175 399 201 369 _c
227 339 262 324 306 324 _c
_cl}_e}_d
/E{632 0 98 0 568 729 _sc
98 729 _m
559 729 _l
559 646 _l
197 646 _l
197 430 _l
544 430 _l
544 347 _l
197 347 _l
197 83 _l
568 83 _l
568 0 _l
98 0 _l
98 729 _l
_cl}_d
/F{575 0 98 0 517 729 _sc
98 729 _m
517 729 _l
517 646 _l
197 646 _l
197 431 _l
486 431 _l
486 348 _l
197 348 _l
197 0 _l
98 0 _l
98 729 _l
_cl}_d
/I{295 0 98 0 197 729 _sc
98 729 _m
197 729 _l
197 0 _l
98 0 _l
98 729 _l
_cl}_d
/J{295 0 -51 -199 197 729 _sc
98 729 _m
197 729 _l
197 51 _l
197 -36 180 -99 147 -139 _c
113 -179 60 -199 -13 -199 _c
-51 -199 _l
-51 -116 _l
-20 -116 _l
22 -116 53 -103 71 -79 _c
89 -55 98 -11 98 51 _c
98 729 _l
_cl}_d
/O{787 0 56 -13 731 742 _sc
394 662 _m
322 662 265 635 223 582 _c
181 528 160 456 160 364 _c
160 272 181 199 223 146 _c
265 92 322 66 394 66 _c
465 66 522 92 564 146 _c
606 199 627 272 627 364 _c
627 456 606 528 564 582 _c
522 635 465 662 394 662 _c
394 742 _m
496 742 577 707 639 639 _c
700 571 731 479 731 364 _c
731 248 700 157 639 89 _c
577 21 496 -13 394 -13 _c
291 -13 209 21 148 89 _c
86 157 56 248 56 364 _c
56 479 86 571 148 639 _c
209 707 291 742 394 742 _c
_cl}_d
/P{603 0 98 0 569 729 _sc
197 648 _m
197 374 _l
321 374 _l
367 374 402 385 427 409 _c
452 433 465 467 465 511 _c
465 555 452 588 427 612 _c
402 636 367 648 321 648 _c
197 648 _l
98 729 _m
321 729 _l
402 729 464 710 506 673 _c
548 636 569 582 569 511 _c
569 439 548 384 506 348 _c
464 311 402 293 321 293 _c
197 293 _l
197 0 _l
98 0 _l
98 729 _l
_cl}_d
/S{{635 0 66 -13 579 742 _sc
535 705 _m
535 609 _l
497 627 462 640 429 649 _c
395 657 363 662 333 662 _c
279 662 237 651 208 631 _c
179 610 165 580 165 542 _c
165 510 174 485 194 469 _c
213 452 250 439 304 429 _c
364 417 _l
437 403 491 378 526 343 _c
561 307 579 260 579 201 _c
579 130 555 77 508 41 _c
460 5 391 -13 300 -13 _c
265 -13 228 -9 189 -2 _c
}_e{150 5 110 16 69 32 _c
69 134 _l
109 111 148 94 186 83 _c
224 71 262 66 300 66 _c
356 66 399 77 430 99 _c
460 121 476 152 476 194 _c
476 230 465 258 443 278 _c
421 298 385 313 335 323 _c
275 335 _l
201 349 148 372 115 404 _c
82 435 66 478 66 534 _c
66 598 88 649 134 686 _c
179 723 242 742 322 742 _c
356 742 390 739 426 733 _c
461 727 497 717 535 705 _c
}_e{_cl}_e}_d
/T{611 0 -2 0 614 729 _sc
-2 729 _m
614 729 _l
614 646 _l
355 646 _l
355 0 _l
256 0 _l
256 646 _l
-2 646 _l
-2 729 _l
_cl}_d
/a{{613 0 60 -13 522 560 _sc
343 275 _m
270 275 220 266 192 250 _c
164 233 150 205 150 165 _c
150 133 160 107 181 89 _c
202 70 231 61 267 61 _c
317 61 357 78 387 114 _c
417 149 432 196 432 255 _c
432 275 _l
343 275 _l
522 312 _m
522 0 _l
432 0 _l
432 83 _l
411 49 385 25 355 10 _c
325 -5 287 -13 243 -13 _c
187 -13 142 2 109 33 _c
76 64 60 106 60 159 _c
}_e{60 220 80 266 122 298 _c
163 329 224 345 306 345 _c
432 345 _l
432 354 _l
432 395 418 427 391 450 _c
364 472 326 484 277 484 _c
245 484 215 480 185 472 _c
155 464 127 453 100 439 _c
100 522 _l
132 534 164 544 195 550 _c
226 556 256 560 286 560 _c
365 560 424 539 463 498 _c
502 457 522 395 522 312 _c
_cl}_e}_d
/c{{550 0 55 -13 488 560 _sc
488 526 _m
488 442 _l
462 456 437 466 411 473 _c
385 480 360 484 334 484 _c
276 484 230 465 198 428 _c
166 391 150 339 150 273 _c
150 206 166 154 198 117 _c
230 80 276 62 334 62 _c
360 62 385 65 411 72 _c
437 79 462 90 488 104 _c
488 21 _l
462 9 436 0 410 -5 _c
383 -10 354 -13 324 -13 _c
242 -13 176 12 128 64 _c
}_e{79 115 55 185 55 273 _c
55 362 79 432 128 483 _c
177 534 244 560 330 560 _c
358 560 385 557 411 551 _c
437 545 463 537 488 526 _c
_cl}_e}_d
/e{{615 0 55 -13 562 560 _sc
562 296 _m
562 252 _l
149 252 _l
153 190 171 142 205 110 _c
238 78 284 62 344 62 _c
378 62 412 66 444 74 _c
476 82 509 95 541 113 _c
541 28 _l
509 14 476 3 442 -3 _c
408 -9 373 -13 339 -13 _c
251 -13 182 12 131 62 _c
80 112 55 181 55 268 _c
55 357 79 428 127 481 _c
175 533 241 560 323 560 _c
397 560 455 536 498 489 _c
}_e{540 441 562 377 562 296 _c
472 322 _m
471 371 457 410 431 440 _c
404 469 368 484 324 484 _c
274 484 234 469 204 441 _c
174 413 156 373 152 322 _c
472 322 _l
_cl}_e}_d
/f{352 0 23 0 371 760 _sc
371 760 _m
371 685 _l
285 685 _l
253 685 230 678 218 665 _c
205 652 199 629 199 595 _c
199 547 _l
347 547 _l
347 477 _l
199 477 _l
199 0 _l
109 0 _l
109 477 _l
23 477 _l
23 547 _l
109 547 _l
109 585 _l
109 645 123 690 151 718 _c
179 746 224 760 286 760 _c
371 760 _l
_cl}_d
/h{634 0 91 0 549 760 _sc
549 330 _m
549 0 _l
459 0 _l
459 327 _l
459 379 448 417 428 443 _c
408 469 378 482 338 482 _c
289 482 251 466 223 435 _c
195 404 181 362 181 309 _c
181 0 _l
91 0 _l
91 760 _l
181 760 _l
181 462 _l
202 494 227 519 257 535 _c
286 551 320 560 358 560 _c
420 560 468 540 500 501 _c
532 462 549 405 549 330 _c
_cl}_d
/i{278 0 94 0 184 760 _sc
94 547 _m
184 547 _l
184 0 _l
94 0 _l
94 547 _l
94 760 _m
184 760 _l
184 646 _l
94 646 _l
94 760 _l
_cl}_d
/l{278 0 94 0 184 760 _sc
94 760 _m
184 760 _l
184 0 _l
94 0 _l
94 760 _l
_cl}_d
/m{{974 0 91 0 889 560 _sc
520 442 _m
542 482 569 511 600 531 _c
631 550 668 560 711 560 _c
767 560 811 540 842 500 _c
873 460 889 403 889 330 _c
889 0 _l
799 0 _l
799 327 _l
799 379 789 418 771 444 _c
752 469 724 482 686 482 _c
639 482 602 466 575 435 _c
548 404 535 362 535 309 _c
535 0 _l
445 0 _l
445 327 _l
445 379 435 418 417 444 _c
398 469 369 482 331 482 _c
}_e{285 482 248 466 221 435 _c
194 404 181 362 181 309 _c
181 0 _l
91 0 _l
91 547 _l
181 547 _l
181 462 _l
201 495 226 520 255 536 _c
283 552 317 560 357 560 _c
397 560 430 550 458 530 _c
486 510 506 480 520 442 _c
_cl}_e}_d
/n{634 0 91 0 549 560 _sc
549 330 _m
549 0 _l
459 0 _l
459 327 _l
459 379 448 417 428 443 _c
408 469 378 482 338 482 _c
289 482 251 466 223 435 _c
195 404 181 362 181 309 _c
181 0 _l
91 0 _l
91 547 _l
181 547 _l
181 462 _l
202 494 227 519 257 535 _c
286 551 320 560 358 560 _c
420 560 468 540 500 501 _c
532 462 549 405 549 330 _c
_cl}_d
/o{612 0 55 -13 557 560 _sc
306 484 _m
258 484 220 465 192 427 _c
164 389 150 338 150 273 _c
150 207 163 156 191 118 _c
219 80 257 62 306 62 _c
354 62 392 80 420 118 _c
448 156 462 207 462 273 _c
462 337 448 389 420 427 _c
392 465 354 484 306 484 _c
306 560 _m
384 560 445 534 490 484 _c
534 433 557 363 557 273 _c
557 183 534 113 490 63 _c
445 12 384 -13 306 -13 _c
227 -13 165 12 121 63 _c
77 113 55 183 55 273 _c
55 363 77 433 121 484 _c
165 534 227 560 306 560 _c
_cl}_d
/p{{635 0 91 -207 580 560 _sc
181 82 _m
181 -207 _l
91 -207 _l
91 547 _l
181 547 _l
181 464 _l
199 496 223 520 252 536 _c
281 552 316 560 356 560 _c
422 560 476 533 518 481 _c
559 428 580 359 580 273 _c
580 187 559 117 518 65 _c
476 13 422 -13 356 -13 _c
316 -13 281 -5 252 10 _c
223 25 199 49 181 82 _c
487 273 _m
487 339 473 390 446 428 _c
418 466 381 485 334 485 _c
}_e{286 485 249 466 222 428 _c
194 390 181 339 181 273 _c
181 207 194 155 222 117 _c
249 79 286 61 334 61 _c
381 61 418 79 446 117 _c
473 155 487 207 487 273 _c
_cl}_e}_d
/r{411 0 91 0 411 560 _sc
411 463 _m
401 469 390 473 378 476 _c
366 478 353 480 339 480 _c
288 480 249 463 222 430 _c
194 397 181 350 181 288 _c
181 0 _l
91 0 _l
91 547 _l
181 547 _l
181 462 _l
199 495 224 520 254 536 _c
284 552 321 560 365 560 _c
371 560 378 559 386 559 _c
393 558 401 557 411 555 _c
411 463 _l
_cl}_d
/s{{521 0 54 -13 472 560 _sc
443 531 _m
443 446 _l
417 458 391 468 364 475 _c
336 481 308 485 279 485 _c
234 485 200 478 178 464 _c
156 450 145 430 145 403 _c
145 382 153 366 169 354 _c
185 342 217 330 265 320 _c
296 313 _l
360 299 405 279 432 255 _c
458 230 472 195 472 151 _c
472 100 452 60 412 31 _c
372 1 316 -13 246 -13 _c
216 -13 186 -10 154 -5 _c
}_e{122 0 89 8 54 20 _c
54 113 _l
87 95 120 82 152 74 _c
184 65 216 61 248 61 _c
290 61 323 68 346 82 _c
368 96 380 117 380 144 _c
380 168 371 187 355 200 _c
339 213 303 226 247 238 _c
216 245 _l
160 257 119 275 95 299 _c
70 323 58 356 58 399 _c
58 450 76 490 112 518 _c
148 546 200 560 268 560 _c
301 560 332 557 362 552 _c
391 547 418 540 443 531 _c
}_e{_cl}_e}_d
/t{392 0 27 0 368 702 _sc
183 702 _m
183 547 _l
368 547 _l
368 477 _l
183 477 _l
183 180 _l
183 135 189 106 201 94 _c
213 81 238 75 276 75 _c
368 75 _l
368 0 _l
276 0 _l
206 0 158 13 132 39 _c
106 65 93 112 93 180 _c
93 477 _l
27 477 _l
27 547 _l
93 547 _l
93 702 _l
183 702 _l
_cl}_d
/u{634 0 85 -13 543 560 _sc
85 216 _m
85 547 _l
175 547 _l
175 219 _l
175 167 185 129 205 103 _c
225 77 255 64 296 64 _c
344 64 383 79 411 110 _c
439 141 453 183 453 237 _c
453 547 _l
543 547 _l
543 0 _l
453 0 _l
453 84 _l
431 50 405 26 377 10 _c
348 -5 315 -13 277 -13 _c
214 -13 166 6 134 45 _c
101 83 85 140 85 216 _c
311 560 _m
311 560 _l
_cl}_d
/x{592 0 29 0 559 547 _sc
549 547 _m
351 281 _l
559 0 _l
453 0 _l
294 215 _l
135 0 _l
29 0 _l
241 286 _l
47 547 _l
153 547 _l
298 352 _l
443 547 _l
549 547 _l
_cl}_d
/y{592 0 30 -207 562 547 _sc
322 -50 _m
296 -114 271 -157 247 -177 _c
223 -197 191 -207 151 -207 _c
79 -207 _l
79 -132 _l
132 -132 _l
156 -132 175 -126 189 -114 _c
203 -102 218 -75 235 -31 _c
251 9 _l
30 547 _l
125 547 _l
296 119 _l
467 547 _l
562 547 _l
322 -50 _l
_cl}_d
end readonly def

/BuildGlyph
 {exch begin
 CharStrings exch
 2 copy known not{pop /.notdef}if
 true 3 1 roll get exec
 end}_d

/BuildChar {
 1 index /Encoding get exch get
 1 index /BuildGlyph get exec
}_d

FontName currentdict end definefont pop
end
%%EndProlog
mpldict begin
-126 -36 translate
864 864 0 0 clipbox
gsave
0 0 m
864 0 l
864 864 l
0 864 l
cl
1.000 setgray
fill
grestore
gsave
103.68 60.48 m
820.8 60.48 l
820.8 820.8 l
103.68 820.8 l
cl
1.000 setgray
fill
grestore
0.800 setlinewidth
1 setlinejoin
0 setlinecap
[] 0 setdash
0.000 setgray
gsave
/o {
gsave
newpath
translate
0.8 setlinewidth
1 setlinejoin
0 setlinecap
0 0 m
0 -3.5 l

gsave
0.000 setgray
fill
grestore
stroke
grestore
} bind def
103.68 60.48 o
grestore
/DejaVuSans findfont
20.000 scalefont
setfont
gsave
90.961250 38.276875 translate
0.000000 rotate
0.000000 0.000000 m /one glyphshow
12.724609 0.000000 m /zero glyphshow
grestore
gsave
/o {
gsave
newpath
translate
0.8 setlinewidth
1 setlinejoin
0 setlinecap
0 0 m
0 -3.5 l

gsave
0.000 setgray
fill
grestore
stroke
grestore
} bind def
193.32 60.48 o
grestore
gsave
180.601250 38.276875 translate
0.000000 rotate
0.000000 0.000000 m /one glyphshow
12.724609 0.000000 m /five glyphshow
grestore
gsave
/o {
gsave
newpath
translate
0.8 setlinewidth
1 setlinejoin
0 setlinecap
0 0 m
0 -3.5 l

gsave
0.000 setgray
fill
grestore
stroke
grestore
} bind def
282.96 60.48 o
grestore
gsave
270.241250 38.276875 translate
0.000000 rotate
0.000000 0.000000 m /two glyphshow
12.724609 0.000000 m /zero glyphshow
grestore
gsave
/o {
gsave
newpath
translate
0.8 setlinewidth
1 setlinejoin
0 setlinecap
0 0 m
0 -3.5 l

gsave
0.000 setgray
fill
grestore
stroke
grestore
} bind def
372.6 60.48 o
grestore
gsave
359.881250 38.276875 translate
0.000000 rotate
0.000000 0.000000 m /two glyphshow
12.724609 0.000000 m /five glyphshow
grestore
gsave
/o {
gsave
newpath
translate
0.8 setlinewidth
1 setlinejoin
0 setlinecap
0 0 m
0 -3.5 l

gsave
0.000 setgray
fill
grestore
stroke
grestore
} bind def
462.24 60.48 o
grestore
gsave
449.521250 38.276875 translate
0.000000 rotate
0.000000 0.000000 m /three glyphshow
12.724609 0.000000 m /zero glyphshow
grestore
gsave
/o {
gsave
newpath
translate
0.8 setlinewidth
1 setlinejoin
0 setlinecap
0 0 m
0 -3.5 l

gsave
0.000 setgray
fill
grestore
stroke
grestore
} bind def
551.88 60.48 o
grestore
gsave
539.161250 38.276875 translate
0.000000 rotate
0.000000 0.000000 m /three glyphshow
12.724609 0.000000 m /five glyphshow
grestore
gsave
/o {
gsave
newpath
translate
0.8 setlinewidth
1 setlinejoin
0 setlinecap
0 0 m
0 -3.5 l

gsave
0.000 setgray
fill
grestore
stroke
grestore
} bind def
641.52 60.48 o
grestore
gsave
628.801250 38.276875 translate
0.000000 rotate
0.000000 0.000000 m /four glyphshow
12.724609 0.000000 m /zero glyphshow
grestore
gsave
/o {
gsave
newpath
translate
0.8 setlinewidth
1 setlinejoin
0 setlinecap
0 0 m
0 -3.5 l

gsave
0.000 setgray
fill
grestore
stroke
grestore
} bind def
731.16 60.48 o
grestore
gsave
718.441250 38.276875 translate
0.000000 rotate
0.000000 0.000000 m /four glyphshow
12.724609 0.000000 m /five glyphshow
grestore
gsave
/o {
gsave
newpath
translate
0.8 setlinewidth
1 setlinejoin
0 setlinecap
0 0 m
0 -3.5 l

gsave
0.000 setgray
fill
grestore
stroke
grestore
} bind def
820.8 60.48 o
grestore
gsave
808.081250 38.276875 translate
0.000000 rotate
0.000000 0.000000 m /five glyphshow
12.724609 0.000000 m /zero glyphshow
grestore
gsave
410.279063 14.917500 translate
0.000000 rotate
0.000000 0.000000 m /S glyphshow
12.695312 0.000000 m /n glyphshow
25.371094 0.000000 m /a glyphshow
37.626953 0.000000 m /p glyphshow
50.322266 0.000000 m /s glyphshow
60.742188 0.000000 m /h glyphshow
73.417969 0.000000 m /o glyphshow
85.654297 0.000000 m /t glyphshow
93.496094 0.000000 m /s glyphshow
grestore
gsave
/o {
gsave
newpath
translate
0.8 setlinewidth
1 setlinejoin
0 setlinecap
0 0 m
-3.5 0 l

gsave
0.000 setgray
fill
grestore
stroke
grestore
} bind def
103.68 170.412 o
grestore
gsave
38.992500 162.810515 translate
0.000000 rotate
0.000000 0.000000 m /one glyphshow
12.724609 0.000000 m /e glyphshow
25.029297 0.000000 m /hyphen glyphshow
32.246094 0.000000 m /zero glyphshow
44.970703 0.000000 m /three glyphshow
grestore
gsave
/o {
gsave
newpath
translate
0.8 setlinewidth
1 setlinejoin
0 setlinecap
0 0 m
-3.5 0 l

gsave
0.000 setgray
fill
grestore
stroke
grestore
} bind def
103.68 517.408 o
grestore
gsave
38.992500 509.806326 translate
0.000000 rotate
0.000000 0.000000 m /one glyphshow
12.724609 0.000000 m /e glyphshow
25.029297 0.000000 m /hyphen glyphshow
32.246094 0.000000 m /zero glyphshow
44.970703 0.000000 m /two glyphshow
grestore
0.600 setlinewidth
gsave
/o {
gsave
newpath
translate
0.6 setlinewidth
1 setlinejoin
0 setlinecap
0 0 m
-2 0 l

gsave
0.000 setgray
fill
grestore
stroke
grestore
} bind def
103.68 65.9559 o
grestore
gsave
40.592500 58.354367 translate
0.000000 rotate
0.000000 0.000000 m /five glyphshow
12.724609 0.000000 m /e glyphshow
25.029297 0.000000 m /hyphen glyphshow
32.246094 0.000000 m /zero glyphshow
44.970703 0.000000 m /four glyphshow
grestore
gsave
/o {
gsave
newpath
translate
0.6 setlinewidth
1 setlinejoin
0 setlinecap
0 0 m
-2 0 l

gsave
0.000 setgray
fill
grestore
stroke
grestore
} bind def
103.68 93.4315 o
grestore
gsave
40.592500 85.829928 translate
0.000000 rotate
0.000000 0.000000 m /six glyphshow
12.724609 0.000000 m /e glyphshow
25.029297 0.000000 m /hyphen glyphshow
32.246094 0.000000 m /zero glyphshow
44.970703 0.000000 m /four glyphshow
grestore
gsave
/o {
gsave
newpath
translate
0.6 setlinewidth
1 setlinejoin
0 setlinecap
0 0 m
-2 0 l

gsave
0.000 setgray
fill
grestore
stroke
grestore
} bind def
103.68 116.662 o
grestore
gsave
40.592500 109.060184 translate
0.000000 rotate
0.000000 0.000000 m /seven glyphshow
12.724609 0.000000 m /e glyphshow
25.029297 0.000000 m /hyphen glyphshow
32.246094 0.000000 m /zero glyphshow
44.970703 0.000000 m /four glyphshow
grestore
gsave
/o {
gsave
newpath
translate
0.6 setlinewidth
1 setlinejoin
0 setlinecap
0 0 m
-2 0 l

gsave
0.000 setgray
fill
grestore
stroke
grestore
} bind def
103.68 136.785 o
grestore
gsave
40.592500 129.183146 translate
0.000000 rotate
0.000000 0.000000 m /eight glyphshow
12.724609 0.000000 m /e glyphshow
25.029297 0.000000 m /hyphen glyphshow
32.246094 0.000000 m /zero glyphshow
44.970703 0.000000 m /four glyphshow
grestore
gsave
/o {
gsave
newpath
translate
0.6 setlinewidth
1 setlinejoin
0 setlinecap
0 0 m
-2 0 l

gsave
0.000 setgray
fill
grestore
stroke
grestore
} bind def
103.68 154.534 o
grestore
gsave
40.592500 146.932857 translate
0.000000 rotate
0.000000 0.000000 m /nine glyphshow
12.724609 0.000000 m /e glyphshow
25.029297 0.000000 m /hyphen glyphshow
32.246094 0.000000 m /zero glyphshow
44.970703 0.000000 m /four glyphshow
grestore
gsave
/o {
gsave
newpath
translate
0.6 setlinewidth
1 setlinejoin
0 setlinecap
0 0 m
-2 0 l

gsave
0.000 setgray
fill
grestore
stroke
grestore
} bind def
103.68 274.868 o
grestore
gsave
40.592500 267.266662 translate
0.000000 rotate
0.000000 0.000000 m /two glyphshow
12.724609 0.000000 m /e glyphshow
25.029297 0.000000 m /hyphen glyphshow
32.246094 0.000000 m /zero glyphshow
44.970703 0.000000 m /three glyphshow
grestore
gsave
/o {
gsave
newpath
translate
0.6 setlinewidth
1 setlinejoin
0 setlinecap
0 0 m
-2 0 l

gsave
0.000 setgray
fill
grestore
stroke
grestore
} bind def
103.68 335.971 o
grestore
gsave
40.592500 328.369592 translate
0.000000 rotate
0.000000 0.000000 m /three glyphshow
12.724609 0.000000 m /e glyphshow
25.029297 0.000000 m /hyphen glyphshow
32.246094 0.000000 m /zero glyphshow
44.970703 0.000000 m /three glyphshow
grestore
gsave
/o {
gsave
newpath
translate
0.6 setlinewidth
1 setlinejoin
0 setlinecap
0 0 m
-2 0 l

gsave
0.000 setgray
fill
grestore
stroke
grestore
} bind def
103.68 379.324 o
grestore
gsave
40.592500 371.722810 translate
0.000000 rotate
0.000000 0.000000 m /four glyphshow
12.724609 0.000000 m /e glyphshow
25.029297 0.000000 m /hyphen glyphshow
32.246094 0.000000 m /zero glyphshow
44.970703 0.000000 m /three glyphshow
grestore
gsave
/o {
gsave
newpath
translate
0.6 setlinewidth
1 setlinejoin
0 setlinecap
0 0 m
-2 0 l

gsave
0.000 setgray
fill
grestore
stroke
grestore
} bind def
103.68 412.952 o
grestore
gsave
40.592500 405.350179 translate
0.000000 rotate
0.000000 0.000000 m /five glyphshow
12.724609 0.000000 m /e glyphshow
25.029297 0.000000 m /hyphen glyphshow
32.246094 0.000000 m /zero glyphshow
44.970703 0.000000 m /three glyphshow
grestore
gsave
/o {
gsave
newpath
translate
0.6 setlinewidth
1 setlinejoin
0 setlinecap
0 0 m
-2 0 l

gsave
0.000 setgray
fill
grestore
stroke
grestore
} bind def
103.68 440.427 o
grestore
gsave
40.592500 432.825739 translate
0.000000 rotate
0.000000 0.000000 m /six glyphshow
12.724609 0.000000 m /e glyphshow
25.029297 0.000000 m /hyphen glyphshow
32.246094 0.000000 m /zero glyphshow
44.970703 0.000000 m /three glyphshow
grestore
gsave
/o {
gsave
newpath
translate
0.6 setlinewidth
1 setlinejoin
0 setlinecap
0 0 m
-2 0 l

gsave
0.000 setgray
fill
grestore
stroke
grestore
} bind def
103.68 463.658 o
grestore
gsave
40.592500 456.055995 translate
0.000000 rotate
0.000000 0.000000 m /seven glyphshow
12.724609 0.000000 m /e glyphshow
25.029297 0.000000 m /hyphen glyphshow
32.246094 0.000000 m /zero glyphshow
44.970703 0.000000 m /three glyphshow
grestore
gsave
/o {
gsave
newpath
translate
0.6 setlinewidth
1 setlinejoin
0 setlinecap
0 0 m
-2 0 l

gsave
0.000 setgray
fill
grestore
stroke
grestore
} bind def
103.68 483.781 o
grestore
gsave
40.592500 476.178957 translate
0.000000 rotate
0.000000 0.000000 m /eight glyphshow
12.724609 0.000000 m /e glyphshow
25.029297 0.000000 m /hyphen glyphshow
32.246094 0.000000 m /zero glyphshow
44.970703 0.000000 m /three glyphshow
grestore
gsave
/o {
gsave
newpath
translate
0.6 setlinewidth
1 setlinejoin
0 setlinecap
0 0 m
-2 0 l

gsave
0.000 setgray
fill
grestore
stroke
grestore
} bind def
103.68 501.53 o
grestore
gsave
40.592500 493.928669 translate
0.000000 rotate
0.000000 0.000000 m /nine glyphshow
12.724609 0.000000 m /e glyphshow
25.029297 0.000000 m /hyphen glyphshow
32.246094 0.000000 m /zero glyphshow
44.970703 0.000000 m /three glyphshow
grestore
gsave
/o {
gsave
newpath
translate
0.6 setlinewidth
1 setlinejoin
0 setlinecap
0 0 m
-2 0 l

gsave
0.000 setgray
fill
grestore
stroke
grestore
} bind def
103.68 621.864 o
grestore
gsave
40.592500 614.262474 translate
0.000000 rotate
0.000000 0.000000 m /two glyphshow
12.724609 0.000000 m /e glyphshow
25.029297 0.000000 m /hyphen glyphshow
32.246094 0.000000 m /zero glyphshow
44.970703 0.000000 m /two glyphshow
grestore
gsave
/o {
gsave
newpath
translate
0.6 setlinewidth
1 setlinejoin
0 setlinecap
0 0 m
-2 0 l

gsave
0.000 setgray
fill
grestore
stroke
grestore
} bind def
103.68 682.967 o
grestore
gsave
40.592500 675.365403 translate
0.000000 rotate
0.000000 0.000000 m /three glyphshow
12.724609 0.000000 m /e glyphshow
25.029297 0.000000 m /hyphen glyphshow
32.246094 0.000000 m /zero glyphshow
44.970703 0.000000 m /two glyphshow
grestore
gsave
/o {
gsave
newpath
translate
0.6 setlinewidth
1 setlinejoin
0 setlinecap
0 0 m
-2 0 l

gsave
0.000 setgray
fill
grestore
stroke
grestore
} bind def
103.68 726.32 o
grestore
gsave
40.592500 718.718621 translate
0.000000 rotate
0.000000 0.000000 m /four glyphshow
12.724609 0.000000 m /e glyphshow
25.029297 0.000000 m /hyphen glyphshow
32.246094 0.000000 m /zero glyphshow
44.970703 0.000000 m /two glyphshow
grestore
gsave
/o {
gsave
newpath
translate
0.6 setlinewidth
1 setlinejoin
0 setlinecap
0 0 m
-2 0 l

gsave
0.000 setgray
fill
grestore
stroke
grestore
} bind def
103.68 759.948 o
grestore
gsave
40.592500 752.345990 translate
0.000000 rotate
0.000000 0.000000 m /five glyphshow
12.724609 0.000000 m /e glyphshow
25.029297 0.000000 m /hyphen glyphshow
32.246094 0.000000 m /zero glyphshow
44.970703 0.000000 m /two glyphshow
grestore
gsave
/o {
gsave
newpath
translate
0.6 setlinewidth
1 setlinejoin
0 setlinecap
0 0 m
-2 0 l

gsave
0.000 setgray
fill
grestore
stroke
grestore
} bind def
103.68 787.423 o
grestore
gsave
40.592500 779.821550 translate
0.000000 rotate
0.000000 0.000000 m /six glyphshow
12.724609 0.000000 m /e glyphshow
25.029297 0.000000 m /hyphen glyphshow
32.246094 0.000000 m /zero glyphshow
44.970703 0.000000 m /two glyphshow
grestore
gsave
/o {
gsave
newpath
translate
0.6 setlinewidth
1 setlinejoin
0 setlinecap
0 0 m
-2 0 l

gsave
0.000 setgray
fill
grestore
stroke
grestore
} bind def
103.68 810.653 o
grestore
gsave
40.592500 803.051806 translate
0.000000 rotate
0.000000 0.000000 m /seven glyphshow
12.724609 0.000000 m /e glyphshow
25.029297 0.000000 m /hyphen glyphshow
32.246094 0.000000 m /zero glyphshow
44.970703 0.000000 m /two glyphshow
grestore
gsave
30.836250 345.100938 translate
90.000000 rotate
0.000000 0.000000 m /P glyphshow
12.060547 0.000000 m /o glyphshow
24.296875 0.000000 m /s glyphshow
34.716797 0.000000 m /i glyphshow
40.273438 0.000000 m /t glyphshow
48.115234 0.000000 m /i glyphshow
53.671875 0.000000 m /o glyphshow
65.908203 0.000000 m /n glyphshow
78.583984 0.000000 m /space glyphshow
84.941406 0.000000 m /e glyphshow
97.246094 0.000000 m /r glyphshow
105.468750 0.000000 m /r glyphshow
113.691406 0.000000 m /o glyphshow
125.927734 0.000000 m /r glyphshow
134.150391 0.000000 m /s glyphshow
144.570312 0.000000 m /space glyphshow
150.927734 0.000000 m /parenleft glyphshow
158.730469 0.000000 m /p glyphshow
171.425781 0.000000 m /x glyphshow
183.261719 0.000000 m /parenright glyphshow
grestore
4.000 setlinewidth
2 setlinecap
0.000 0.000 1.000 setrgbcolor
gsave
717.1 760.3 103.7 60.48 clipbox
103.68 290.908716 m
121.608 291.991637 l
139.536 314.797567 l
157.464 329.06592 l
175.392 315.457549 l
193.32 308.570697 l
211.248 282.681449 l
229.176 248.044761 l
247.104 252.705127 l
265.032 250.307703 l
282.96 279.274716 l
300.888 280.372509 l
318.816 304.395955 l
336.744 304.463252 l
354.672 279.800241 l
372.6 307.291704 l
390.528 296.429756 l
408.456 279.114454 l
426.384 295.858202 l
444.312 275.71454 l
462.24 275.386347 l
480.168 284.126994 l
498.096 294.591307 l
516.024 295.764705 l
533.952 295.413103 l
551.88 286.878988 l
569.808 277.821835 l
587.736 277.10199 l
605.664 279.363363 l
623.592 310.446248 l
641.52 314.353771 l
659.448 333.99342 l
677.376 311.393134 l
695.304 299.045751 l
713.232 320.464209 l
731.16 308.189681 l
749.088 266.314297 l
767.016 287.968786 l
784.944 286.701324 l
802.872 322.978201 l
820.8 335.716254 l
stroke
grestore
0 setlinecap
[14.8 6.4] 0 setdash
gsave
717.1 760.3 103.7 60.48 clipbox
103.68 772.548401 m
121.608 774.260235 l
139.536 774.113965 l
157.464 775.534404 l
175.392 776.211456 l
193.32 776.410546 l
211.248 776.776452 l
229.176 776.038006 l
247.104 776.832136 l
265.032 777.308392 l
282.96 777.451995 l
300.888 778.856851 l
318.816 779.046449 l
336.744 779.207743 l
354.672 778.987667 l
372.6 779.308543 l
390.528 779.229184 l
408.456 779.160286 l
426.384 779.327503 l
444.312 779.275817 l
462.24 779.558904 l
480.168 779.607278 l
498.096 781.702725 l
516.024 780.588622 l
533.952 782.030364 l
551.88 782.016359 l
569.808 781.996532 l
587.736 782.98158 l
605.664 783.823232 l
623.592 785.081255 l
641.52 785.104317 l
659.448 784.991406 l
677.376 785.18648 l
695.304 785.324067 l
713.232 785.239023 l
731.16 785.470292 l
749.088 785.740852 l
767.016 785.74498 l
784.944 786.01274 l
802.872 786.24 l
820.8 785.485742 l
stroke
grestore
[4 6.6] 0 setdash
gsave
717.1 760.3 103.7 60.48 clipbox
103.68 480.136195 m
121.608 453.198589 l
139.536 449.379043 l
157.464 447.424539 l
175.392 444.280345 l
193.32 446.603889 l
211.248 446.938248 l
229.176 445.597066 l
247.104 442.500945 l
265.032 443.285903 l
282.96 443.408995 l
300.888 445.770368 l
318.816 447.551812 l
336.744 448.983143 l
354.672 445.54902 l
372.6 449.463226 l
390.528 448.641627 l
408.456 448.12933 l
426.384 449.206434 l
444.312 450.754806 l
462.24 449.902078 l
480.168 449.521788 l
498.096 445.789987 l
516.024 450.345769 l
533.952 449.53572 l
551.88 448.631787 l
569.808 448.622641 l
587.736 451.057655 l
605.664 450.765878 l
623.592 450.391192 l
641.52 453.820146 l
659.448 452.006645 l
677.376 450.596177 l
695.304 453.98068 l
713.232 451.222209 l
731.16 451.05311 l
749.088 453.903255 l
767.016 454.875441 l
784.944 462.713529 l
802.872 467.864863 l
820.8 471.321075 l
stroke
grestore
2 setlinecap
[] 0 setdash
0.000 0.500 0.000 setrgbcolor
gsave
717.1 760.3 103.7 60.48 clipbox
103.68 224.88962 m
121.608 159.05035 l
139.536 141.907069 l
157.464 95.04 l
175.392 193.388389 l
193.32 211.954458 l
211.248 181.383358 l
229.176 156.073992 l
247.104 213.564919 l
265.032 203.708254 l
282.96 139.788867 l
300.888 173.859552 l
318.816 202.385919 l
336.744 107.726397 l
354.672 184.600493 l
372.6 213.961212 l
390.528 206.515248 l
408.456 225.429686 l
426.384 219.24078 l
444.312 182.862242 l
462.24 177.388398 l
480.168 137.385484 l
498.096 131.97949 l
516.024 138.774658 l
533.952 153.300133 l
551.88 188.12762 l
569.808 218.228481 l
587.736 235.846783 l
605.664 222.874787 l
623.592 265.451191 l
641.52 273.014617 l
659.448 209.881537 l
677.376 246.521622 l
695.304 232.77551 l
713.232 244.372801 l
731.16 265.352292 l
749.088 226.147306 l
767.016 240.187681 l
784.944 232.706387 l
802.872 225.874032 l
820.8 220.424253 l
stroke
grestore
0 setlinecap
[14.8 6.4] 0 setdash
gsave
717.1 760.3 103.7 60.48 clipbox
103.68 754.383591 m
121.608 746.725507 l
139.536 750.081332 l
157.464 746.573979 l
175.392 751.692706 l
193.32 752.32067 l
211.248 752.399644 l
229.176 752.155681 l
247.104 752.258879 l
265.032 755.794071 l
282.96 755.630756 l
300.888 755.936002 l
318.816 755.986459 l
336.744 755.611614 l
354.672 755.832259 l
372.6 755.876244 l
390.528 755.274694 l
408.456 755.794023 l
426.384 756.012263 l
444.312 756.48213 l
462.24 755.838923 l
480.168 756.18008 l
498.096 756.817663 l
516.024 757.055688 l
533.952 756.915019 l
551.88 757.162374 l
569.808 756.933871 l
587.736 757.163477 l
605.664 757.000584 l
623.592 757.221174 l
641.52 757.226934 l
659.448 757.470328 l
677.376 757.457767 l
695.304 757.41121 l
713.232 757.547936 l
731.16 757.651003 l
749.088 758.23117 l
767.016 758.608553 l
784.944 758.675132 l
802.872 758.80143 l
820.8 758.851417 l
stroke
grestore
[4 6.6] 0 setdash
gsave
717.1 760.3 103.7 60.48 clipbox
103.68 437.742913 m
121.608 421.576871 l
139.536 423.586696 l
157.464 420.491643 l
175.392 423.175755 l
193.32 424.067792 l
211.248 426.290651 l
229.176 427.085428 l
247.104 424.281464 l
265.032 420.662314 l
282.96 419.764118 l
300.888 420.659189 l
318.816 423.000722 l
336.744 422.189283 l
354.672 427.827539 l
372.6 423.751914 l
390.528 424.497986 l
408.456 425.836151 l
426.384 425.303035 l
444.312 426.384043 l
462.24 425.352189 l
480.168 425.366829 l
498.096 425.667156 l
516.024 429.055346 l
533.952 425.835174 l
551.88 429.862823 l
569.808 426.95049 l
587.736 430.775051 l
605.664 434.000747 l
623.592 436.868299 l
641.52 432.705641 l
659.448 430.865241 l
677.376 429.324974 l
695.304 425.781509 l
713.232 430.238379 l
731.16 427.518115 l
749.088 429.109313 l
767.016 431.202593 l
784.944 432.046784 l
802.872 431.923168 l
820.8 434.745517 l
stroke
grestore
0.800 setlinewidth
0 setlinejoin
2 setlinecap
[] 0 setdash
0.000 setgray
gsave
103.68 60.48 m
103.68 820.8 l
stroke
grestore
gsave
820.8 60.48 m
820.8 820.8 l
stroke
grestore
gsave
103.68 60.48 m
820.8 60.48 l
stroke
grestore
gsave
103.68 820.8 m
820.8 820.8 l
stroke
grestore
gsave
350.482188 826.800000 translate
0.000000 rotate
0.000000 0.000000 m /P glyphshow
12.060547 0.000000 m /o glyphshow
24.296875 0.000000 m /s glyphshow
34.716797 0.000000 m /i glyphshow
40.273438 0.000000 m /t glyphshow
48.115234 0.000000 m /i glyphshow
53.671875 0.000000 m /o glyphshow
65.908203 0.000000 m /n glyphshow
78.583984 0.000000 m /space glyphshow
84.941406 0.000000 m /e glyphshow
97.246094 0.000000 m /r glyphshow
105.468750 0.000000 m /r glyphshow
113.691406 0.000000 m /o glyphshow
125.927734 0.000000 m /r glyphshow
134.150391 0.000000 m /s glyphshow
144.570312 0.000000 m /space glyphshow
150.927734 0.000000 m /i glyphshow
156.484375 0.000000 m /n glyphshow
169.160156 0.000000 m /space glyphshow
175.517578 0.000000 m /p glyphshow
188.212891 0.000000 m /i glyphshow
193.769531 0.000000 m /x glyphshow
205.605469 0.000000 m /e glyphshow
217.910156 0.000000 m /l glyphshow
grestore
1.000 setlinewidth
0 setlinecap
0.800 setgray
gsave
192.51875 552.61175 m
806.8 552.61175 l
809.466667 552.61175 810.8 553.945083 810.8 556.61175 c
810.8 730.768 l
810.8 733.434667 809.466667 734.768 806.8 734.768 c
192.51875 734.768 l
189.852083 734.768 188.51875 733.434667 188.51875 730.768 c
188.51875 556.61175 l
188.51875 553.945083 189.852083 552.61175 192.51875 552.61175 c
cl
gsave
1.000 setgray
fill
grestore
stroke
grestore
4.000 setlinewidth
1 setlinejoin
2 setlinecap
[] 0 setdash
0.000 0.000 1.000 setrgbcolor
gsave
196.51875 718.564875 m
236.51875 718.564875 l
stroke
grestore
0.000 setgray
gsave
252.518750 711.564875 translate
0.000000 rotate
0.000000 0.000000 m /O glyphshow
15.742188 0.000000 m /u glyphshow
28.417969 0.000000 m /r glyphshow
36.640625 0.000000 m /s glyphshow
47.060547 0.000000 m /comma glyphshow
53.417969 0.000000 m /space glyphshow
59.775391 0.000000 m /P glyphshow
71.835938 0.000000 m /e glyphshow
84.140625 0.000000 m /r glyphshow
92.363281 0.000000 m /f glyphshow
99.404297 0.000000 m /e glyphshow
111.708984 0.000000 m /c glyphshow
122.705078 0.000000 m /t glyphshow
130.546875 0.000000 m /space glyphshow
136.904297 0.000000 m /O glyphshow
152.646484 0.000000 m /T glyphshow
164.863281 0.000000 m /F glyphshow
176.367188 0.000000 m /comma glyphshow
182.724609 0.000000 m /space glyphshow
189.082031 0.000000 m /P glyphshow
201.142578 0.000000 m /P glyphshow
213.203125 0.000000 m /P glyphshow
225.263672 0.000000 m /space glyphshow
231.621094 0.000000 m /zero glyphshow
244.345703 0.000000 m /period glyphshow
250.703125 0.000000 m /zero glyphshow
263.427734 0.000000 m /five glyphshow
grestore
0 setlinecap
[14.8 6.4] 0 setdash
0.000 0.000 1.000 setrgbcolor
gsave
196.51875 689.2055 m
236.51875 689.2055 l
stroke
grestore
0.000 setgray
gsave
252.518750 682.205500 translate
0.000000 rotate
0.000000 0.000000 m /O glyphshow
15.742188 0.000000 m /u glyphshow
28.417969 0.000000 m /r glyphshow
36.640625 0.000000 m /s glyphshow
47.060547 0.000000 m /comma glyphshow
53.417969 0.000000 m /space glyphshow
59.775391 0.000000 m /I glyphshow
65.673828 0.000000 m /m glyphshow
85.156250 0.000000 m /p glyphshow
97.851562 0.000000 m /e glyphshow
110.156250 0.000000 m /r glyphshow
118.378906 0.000000 m /f glyphshow
125.419922 0.000000 m /e glyphshow
137.724609 0.000000 m /c glyphshow
148.720703 0.000000 m /t glyphshow
156.562500 0.000000 m /space glyphshow
162.919922 0.000000 m /O glyphshow
178.662109 0.000000 m /T glyphshow
190.878906 0.000000 m /F glyphshow
202.382812 0.000000 m /comma glyphshow
208.740234 0.000000 m /space glyphshow
215.097656 0.000000 m /E glyphshow
227.734375 0.000000 m /s glyphshow
238.154297 0.000000 m /t glyphshow
245.996094 0.000000 m /i glyphshow
251.552734 0.000000 m /m glyphshow
271.035156 0.000000 m /a glyphshow
283.291016 0.000000 m /t glyphshow
291.132812 0.000000 m /e glyphshow
303.437500 0.000000 m /space glyphshow
309.794922 0.000000 m /p glyphshow
322.490234 0.000000 m /o glyphshow
334.726562 0.000000 m /s glyphshow
345.146484 0.000000 m /i glyphshow
350.703125 0.000000 m /t glyphshow
358.544922 0.000000 m /i glyphshow
364.101562 0.000000 m /o glyphshow
376.337891 0.000000 m /n glyphshow
389.013672 0.000000 m /space glyphshow
395.371094 0.000000 m /o glyphshow
407.607422 0.000000 m /n glyphshow
420.283203 0.000000 m /l glyphshow
425.839844 0.000000 m /y glyphshow
437.675781 0.000000 m /comma glyphshow
444.033203 0.000000 m /space glyphshow
450.390625 0.000000 m /P glyphshow
462.451172 0.000000 m /P glyphshow
474.511719 0.000000 m /P glyphshow
486.572266 0.000000 m /space glyphshow
492.929688 0.000000 m /zero glyphshow
505.654297 0.000000 m /period glyphshow
512.011719 0.000000 m /zero glyphshow
524.736328 0.000000 m /five glyphshow
grestore
[4 6.6] 0 setdash
0.000 0.000 1.000 setrgbcolor
gsave
196.51875 659.846125 m
236.51875 659.846125 l
stroke
grestore
0.000 setgray
gsave
252.518750 652.846125 translate
0.000000 rotate
0.000000 0.000000 m /O glyphshow
15.742188 0.000000 m /u glyphshow
28.417969 0.000000 m /r glyphshow
36.640625 0.000000 m /s glyphshow
47.060547 0.000000 m /comma glyphshow
53.417969 0.000000 m /space glyphshow
59.775391 0.000000 m /I glyphshow
65.673828 0.000000 m /m glyphshow
85.156250 0.000000 m /p glyphshow
97.851562 0.000000 m /e glyphshow
110.156250 0.000000 m /r glyphshow
118.378906 0.000000 m /f glyphshow
125.419922 0.000000 m /e glyphshow
137.724609 0.000000 m /c glyphshow
148.720703 0.000000 m /t glyphshow
156.562500 0.000000 m /space glyphshow
162.919922 0.000000 m /O glyphshow
178.662109 0.000000 m /T glyphshow
190.878906 0.000000 m /F glyphshow
202.382812 0.000000 m /comma glyphshow
208.740234 0.000000 m /space glyphshow
215.097656 0.000000 m /J glyphshow
220.996094 0.000000 m /o glyphshow
233.232422 0.000000 m /i glyphshow
238.789062 0.000000 m /n glyphshow
251.464844 0.000000 m /t glyphshow
259.306641 0.000000 m /space glyphshow
265.664062 0.000000 m /e glyphshow
277.968750 0.000000 m /s glyphshow
288.388672 0.000000 m /t glyphshow
296.230469 0.000000 m /i glyphshow
301.787109 0.000000 m /m glyphshow
321.269531 0.000000 m /a glyphshow
333.525391 0.000000 m /t glyphshow
341.367188 0.000000 m /i glyphshow
346.923828 0.000000 m /o glyphshow
359.160156 0.000000 m /n glyphshow
371.835938 0.000000 m /comma glyphshow
378.193359 0.000000 m /space glyphshow
384.550781 0.000000 m /P glyphshow
396.611328 0.000000 m /P glyphshow
408.671875 0.000000 m /P glyphshow
420.732422 0.000000 m /space glyphshow
427.089844 0.000000 m /zero glyphshow
439.814453 0.000000 m /period glyphshow
446.171875 0.000000 m /zero glyphshow
458.896484 0.000000 m /five glyphshow
grestore
2 setlinecap
[] 0 setdash
0.000 0.500 0.000 setrgbcolor
gsave
196.51875 630.48675 m
236.51875 630.48675 l
stroke
grestore
0.000 setgray
gsave
252.518750 623.486750 translate
0.000000 rotate
0.000000 0.000000 m /O glyphshow
15.742188 0.000000 m /u glyphshow
28.417969 0.000000 m /r glyphshow
36.640625 0.000000 m /s glyphshow
47.060547 0.000000 m /comma glyphshow
53.417969 0.000000 m /space glyphshow
59.775391 0.000000 m /P glyphshow
71.835938 0.000000 m /e glyphshow
84.140625 0.000000 m /r glyphshow
92.363281 0.000000 m /f glyphshow
99.404297 0.000000 m /e glyphshow
111.708984 0.000000 m /c glyphshow
122.705078 0.000000 m /t glyphshow
130.546875 0.000000 m /space glyphshow
136.904297 0.000000 m /O glyphshow
152.646484 0.000000 m /T glyphshow
164.863281 0.000000 m /F glyphshow
176.367188 0.000000 m /comma glyphshow
182.724609 0.000000 m /space glyphshow
189.082031 0.000000 m /P glyphshow
201.142578 0.000000 m /P glyphshow
213.203125 0.000000 m /P glyphshow
225.263672 0.000000 m /space glyphshow
231.621094 0.000000 m /zero glyphshow
244.345703 0.000000 m /period glyphshow
250.703125 0.000000 m /zero glyphshow
263.427734 0.000000 m /two glyphshow
276.152344 0.000000 m /five glyphshow
grestore
0 setlinecap
[14.8 6.4] 0 setdash
0.000 0.500 0.000 setrgbcolor
gsave
196.51875 601.127375 m
236.51875 601.127375 l
stroke
grestore
0.000 setgray
gsave
252.518750 594.127375 translate
0.000000 rotate
0.000000 0.000000 m /O glyphshow
15.742188 0.000000 m /u glyphshow
28.417969 0.000000 m /r glyphshow
36.640625 0.000000 m /s glyphshow
47.060547 0.000000 m /comma glyphshow
53.417969 0.000000 m /space glyphshow
59.775391 0.000000 m /I glyphshow
65.673828 0.000000 m /m glyphshow
85.156250 0.000000 m /p glyphshow
97.851562 0.000000 m /e glyphshow
110.156250 0.000000 m /r glyphshow
118.378906 0.000000 m /f glyphshow
125.419922 0.000000 m /e glyphshow
137.724609 0.000000 m /c glyphshow
148.720703 0.000000 m /t glyphshow
156.562500 0.000000 m /space glyphshow
162.919922 0.000000 m /O glyphshow
178.662109 0.000000 m /T glyphshow
190.878906 0.000000 m /F glyphshow
202.382812 0.000000 m /comma glyphshow
208.740234 0.000000 m /space glyphshow
215.097656 0.000000 m /E glyphshow
227.734375 0.000000 m /s glyphshow
238.154297 0.000000 m /t glyphshow
245.996094 0.000000 m /i glyphshow
251.552734 0.000000 m /m glyphshow
271.035156 0.000000 m /a glyphshow
283.291016 0.000000 m /t glyphshow
291.132812 0.000000 m /e glyphshow
303.437500 0.000000 m /space glyphshow
309.794922 0.000000 m /p glyphshow
322.490234 0.000000 m /o glyphshow
334.726562 0.000000 m /s glyphshow
345.146484 0.000000 m /i glyphshow
350.703125 0.000000 m /t glyphshow
358.544922 0.000000 m /i glyphshow
364.101562 0.000000 m /o glyphshow
376.337891 0.000000 m /n glyphshow
389.013672 0.000000 m /space glyphshow
395.371094 0.000000 m /o glyphshow
407.607422 0.000000 m /n glyphshow
420.283203 0.000000 m /l glyphshow
425.839844 0.000000 m /y glyphshow
437.675781 0.000000 m /comma glyphshow
444.033203 0.000000 m /space glyphshow
450.390625 0.000000 m /P glyphshow
462.451172 0.000000 m /P glyphshow
474.511719 0.000000 m /P glyphshow
486.572266 0.000000 m /space glyphshow
492.929688 0.000000 m /zero glyphshow
505.654297 0.000000 m /period glyphshow
512.011719 0.000000 m /zero glyphshow
524.736328 0.000000 m /two glyphshow
537.460938 0.000000 m /five glyphshow
grestore
[4 6.6] 0 setdash
0.000 0.500 0.000 setrgbcolor
gsave
196.51875 571.768 m
236.51875 571.768 l
stroke
grestore
0.000 setgray
gsave
252.518750 564.768000 translate
0.000000 rotate
0.000000 0.000000 m /O glyphshow
15.742188 0.000000 m /u glyphshow
28.417969 0.000000 m /r glyphshow
36.640625 0.000000 m /s glyphshow
47.060547 0.000000 m /comma glyphshow
53.417969 0.000000 m /space glyphshow
59.775391 0.000000 m /I glyphshow
65.673828 0.000000 m /m glyphshow
85.156250 0.000000 m /p glyphshow
97.851562 0.000000 m /e glyphshow
110.156250 0.000000 m /r glyphshow
118.378906 0.000000 m /f glyphshow
125.419922 0.000000 m /e glyphshow
137.724609 0.000000 m /c glyphshow
148.720703 0.000000 m /t glyphshow
156.562500 0.000000 m /space glyphshow
162.919922 0.000000 m /O glyphshow
178.662109 0.000000 m /T glyphshow
190.878906 0.000000 m /F glyphshow
202.382812 0.000000 m /comma glyphshow
208.740234 0.000000 m /space glyphshow
215.097656 0.000000 m /J glyphshow
220.996094 0.000000 m /o glyphshow
233.232422 0.000000 m /i glyphshow
238.789062 0.000000 m /n glyphshow
251.464844 0.000000 m /t glyphshow
259.306641 0.000000 m /space glyphshow
265.664062 0.000000 m /e glyphshow
277.968750 0.000000 m /s glyphshow
288.388672 0.000000 m /t glyphshow
296.230469 0.000000 m /i glyphshow
301.787109 0.000000 m /m glyphshow
321.269531 0.000000 m /a glyphshow
333.525391 0.000000 m /t glyphshow
341.367188 0.000000 m /i glyphshow
346.923828 0.000000 m /o glyphshow
359.160156 0.000000 m /n glyphshow
371.835938 0.000000 m /comma glyphshow
378.193359 0.000000 m /space glyphshow
384.550781 0.000000 m /P glyphshow
396.611328 0.000000 m /P glyphshow
408.671875 0.000000 m /P glyphshow
420.732422 0.000000 m /space glyphshow
427.089844 0.000000 m /zero glyphshow
439.814453 0.000000 m /period glyphshow
446.171875 0.000000 m /zero glyphshow
458.896484 0.000000 m /two glyphshow
471.621094 0.000000 m /five glyphshow
grestore

end
showpage
