%!PS-Adobe-3.0 EPSF-3.0
%%Title: /Users/yin.yang/Desktop/lost_part_0.5.eps
%%Creator: matplotlib version 2.0.2, http://matplotlib.org/
%%CreationDate: Sun Jul  1 22:19:35 2018
%%Orientation: portrait
%%BoundingBox: -126 72 738 720
%%EndComments
%%BeginProlog
/mpldict 9 dict def
mpldict begin
/m { moveto } bind def
/l { lineto } bind def
/r { rlineto } bind def
/c { curveto } bind def
/cl { closepath } bind def
/box {
m
1 index 0 r
0 exch r
neg 0 r
cl
} bind def
/clipbox {
box
clip
newpath
} bind def
%!PS-Adobe-3.0 Resource-Font
%%Title: DejaVu Sans
%%Copyright: Copyright (c) 2003 by Bitstream, Inc. All Rights Reserved. Copyright (c) 2006 by Tavmjong Bah. All Rights Reserved. DejaVu changes are in public domain 
%%Creator: Converted from TrueType to type 3 by PPR
25 dict begin
/_d{bind def}bind def
/_m{moveto}_d
/_l{lineto}_d
/_cl{closepath eofill}_d
/_c{curveto}_d
/_sc{7 -1 roll{setcachedevice}{pop pop pop pop pop pop}ifelse}_d
/_e{exec}_d
/FontName /DejaVuSans def
/PaintType 0 def
/FontMatrix[.001 0 0 .001 0 0]def
/FontBBox[-1021 -463 1793 1232]def
/FontType 3 def
/Encoding [ /space /comma /period /slash /zero /one /two /three /four /five /six /seven /eight /equal /F /L /P /S /T /a /b /c /e /f /h /i /k /l /n /o /p /r /s /t /uni0394 ] def
/FontInfo 10 dict dup begin
/FamilyName (DejaVu Sans) def
/FullName (DejaVu Sans) def
/Notice (Copyright (c) 2003 by Bitstream, Inc. All Rights Reserved. Copyright (c) 2006 by Tavmjong Bah. All Rights Reserved. DejaVu changes are in public domain ) def
/Weight (Book) def
/Version (Version 2.35) def
/ItalicAngle 0.0 def
/isFixedPitch false def
/UnderlinePosition -130 def
/UnderlineThickness 90 def
end readonly def
/CharStrings 35 dict dup begin
/space{318 0 0 0 0 0 _sc
}_d
/comma{318 0 77 -115 220 124 _sc
117 124 _m
220 124 _l
220 40 _l
140 -115 _l
77 -115 _l
117 40 _l
117 124 _l
_cl}_d
/period{318 0 107 0 210 124 _sc
107 124 _m
210 124 _l
210 0 _l
107 0 _l
107 124 _l
_cl}_d
/slash{337 0 0 -92 337 729 _sc
254 729 _m
337 729 _l
83 -92 _l
0 -92 _l
254 729 _l
_cl}_d
/zero{636 0 66 -13 570 742 _sc
318 664 _m
267 664 229 639 203 589 _c
177 539 165 464 165 364 _c
165 264 177 189 203 139 _c
229 89 267 64 318 64 _c
369 64 407 89 433 139 _c
458 189 471 264 471 364 _c
471 464 458 539 433 589 _c
407 639 369 664 318 664 _c
318 742 _m
399 742 461 709 505 645 _c
548 580 570 486 570 364 _c
570 241 548 147 505 83 _c
461 19 399 -13 318 -13 _c
236 -13 173 19 130 83 _c
87 147 66 241 66 364 _c
66 486 87 580 130 645 _c
173 709 236 742 318 742 _c
_cl}_d
/one{636 0 110 0 544 729 _sc
124 83 _m
285 83 _l
285 639 _l
110 604 _l
110 694 _l
284 729 _l
383 729 _l
383 83 _l
544 83 _l
544 0 _l
124 0 _l
124 83 _l
_cl}_d
/two{{636 0 73 0 536 742 _sc
192 83 _m
536 83 _l
536 0 _l
73 0 _l
73 83 _l
110 121 161 173 226 239 _c
290 304 331 346 348 365 _c
380 400 402 430 414 455 _c
426 479 433 504 433 528 _c
433 566 419 598 392 622 _c
365 646 330 659 286 659 _c
255 659 222 653 188 643 _c
154 632 117 616 78 594 _c
78 694 _l
118 710 155 722 189 730 _c
223 738 255 742 284 742 _c
}_e{359 742 419 723 464 685 _c
509 647 532 597 532 534 _c
532 504 526 475 515 449 _c
504 422 484 390 454 354 _c
446 344 420 317 376 272 _c
332 227 271 164 192 83 _c
_cl}_e}_d
/three{{636 0 76 -13 556 742 _sc
406 393 _m
453 383 490 362 516 330 _c
542 298 556 258 556 212 _c
556 140 531 84 482 45 _c
432 6 362 -13 271 -13 _c
240 -13 208 -10 176 -4 _c
144 1 110 10 76 22 _c
76 117 _l
103 101 133 89 166 81 _c
198 73 232 69 268 69 _c
330 69 377 81 409 105 _c
441 129 458 165 458 212 _c
458 254 443 288 413 312 _c
383 336 341 349 287 349 _c
}_e{202 349 _l
202 430 _l
291 430 _l
339 430 376 439 402 459 _c
428 478 441 506 441 543 _c
441 580 427 609 401 629 _c
374 649 336 659 287 659 _c
260 659 231 656 200 650 _c
169 644 135 635 98 623 _c
98 711 _l
135 721 170 729 203 734 _c
235 739 266 742 296 742 _c
370 742 429 725 473 691 _c
517 657 539 611 539 553 _c
539 513 527 479 504 451 _c
481 423 448 403 406 393 _c
_cl}_e}_d
/four{636 0 49 0 580 729 _sc
378 643 _m
129 254 _l
378 254 _l
378 643 _l
352 729 _m
476 729 _l
476 254 _l
580 254 _l
580 172 _l
476 172 _l
476 0 _l
378 0 _l
378 172 _l
49 172 _l
49 267 _l
352 729 _l
_cl}_d
/five{{636 0 77 -13 549 729 _sc
108 729 _m
495 729 _l
495 646 _l
198 646 _l
198 467 _l
212 472 227 476 241 478 _c
255 480 270 482 284 482 _c
365 482 429 459 477 415 _c
525 370 549 310 549 234 _c
549 155 524 94 475 51 _c
426 8 357 -13 269 -13 _c
238 -13 207 -10 175 -6 _c
143 -1 111 6 77 17 _c
77 116 _l
106 100 136 88 168 80 _c
199 72 232 69 267 69 _c
}_e{323 69 368 83 401 113 _c
433 143 450 183 450 234 _c
450 284 433 324 401 354 _c
368 384 323 399 267 399 _c
241 399 214 396 188 390 _c
162 384 135 375 108 363 _c
108 729 _l
_cl}_e}_d
/six{{636 0 70 -13 573 742 _sc
330 404 _m
286 404 251 388 225 358 _c
199 328 186 286 186 234 _c
186 181 199 139 225 109 _c
251 79 286 64 330 64 _c
374 64 409 79 435 109 _c
461 139 474 181 474 234 _c
474 286 461 328 435 358 _c
409 388 374 404 330 404 _c
526 713 _m
526 623 _l
501 635 476 644 451 650 _c
425 656 400 659 376 659 _c
310 659 260 637 226 593 _c
}_e{192 549 172 482 168 394 _c
187 422 211 444 240 459 _c
269 474 301 482 336 482 _c
409 482 467 459 509 415 _c
551 371 573 310 573 234 _c
573 159 550 99 506 54 _c
462 9 403 -13 330 -13 _c
246 -13 181 19 137 83 _c
92 147 70 241 70 364 _c
70 479 97 571 152 639 _c
206 707 280 742 372 742 _c
396 742 421 739 447 735 _c
472 730 498 723 526 713 _c
_cl}_e}_d
/seven{636 0 82 0 551 729 _sc
82 729 _m
551 729 _l
551 687 _l
286 0 _l
183 0 _l
432 646 _l
82 646 _l
82 729 _l
_cl}_d
/eight{{636 0 68 -13 568 742 _sc
318 346 _m
271 346 234 333 207 308 _c
180 283 167 249 167 205 _c
167 161 180 126 207 101 _c
234 76 271 64 318 64 _c
364 64 401 76 428 102 _c
455 127 469 161 469 205 _c
469 249 455 283 429 308 _c
402 333 365 346 318 346 _c
219 388 _m
177 398 144 418 120 447 _c
96 476 85 511 85 553 _c
85 611 105 657 147 691 _c
188 725 245 742 318 742 _c
}_e{390 742 447 725 489 691 _c
530 657 551 611 551 553 _c
551 511 539 476 515 447 _c
491 418 459 398 417 388 _c
464 377 501 355 528 323 _c
554 291 568 251 568 205 _c
568 134 546 80 503 43 _c
459 5 398 -13 318 -13 _c
237 -13 175 5 132 43 _c
89 80 68 134 68 205 _c
68 251 81 291 108 323 _c
134 355 171 377 219 388 _c
183 544 _m
183 506 194 476 218 455 _c
}_e{242 434 275 424 318 424 _c
360 424 393 434 417 455 _c
441 476 453 506 453 544 _c
453 582 441 611 417 632 _c
393 653 360 664 318 664 _c
275 664 242 653 218 632 _c
194 611 183 582 183 544 _c
_cl}_e}_d
/equal{838 0 106 172 732 454 _sc
106 454 _m
732 454 _l
732 372 _l
106 372 _l
106 454 _l
106 255 _m
732 255 _l
732 172 _l
106 172 _l
106 255 _l
_cl}_d
/F{575 0 98 0 517 729 _sc
98 729 _m
517 729 _l
517 646 _l
197 646 _l
197 431 _l
486 431 _l
486 348 _l
197 348 _l
197 0 _l
98 0 _l
98 729 _l
_cl}_d
/L{557 0 98 0 552 729 _sc
98 729 _m
197 729 _l
197 83 _l
552 83 _l
552 0 _l
98 0 _l
98 729 _l
_cl}_d
/P{603 0 98 0 569 729 _sc
197 648 _m
197 374 _l
321 374 _l
367 374 402 385 427 409 _c
452 433 465 467 465 511 _c
465 555 452 588 427 612 _c
402 636 367 648 321 648 _c
197 648 _l
98 729 _m
321 729 _l
402 729 464 710 506 673 _c
548 636 569 582 569 511 _c
569 439 548 384 506 348 _c
464 311 402 293 321 293 _c
197 293 _l
197 0 _l
98 0 _l
98 729 _l
_cl}_d
/S{{635 0 66 -13 579 742 _sc
535 705 _m
535 609 _l
497 627 462 640 429 649 _c
395 657 363 662 333 662 _c
279 662 237 651 208 631 _c
179 610 165 580 165 542 _c
165 510 174 485 194 469 _c
213 452 250 439 304 429 _c
364 417 _l
437 403 491 378 526 343 _c
561 307 579 260 579 201 _c
579 130 555 77 508 41 _c
460 5 391 -13 300 -13 _c
265 -13 228 -9 189 -2 _c
}_e{150 5 110 16 69 32 _c
69 134 _l
109 111 148 94 186 83 _c
224 71 262 66 300 66 _c
356 66 399 77 430 99 _c
460 121 476 152 476 194 _c
476 230 465 258 443 278 _c
421 298 385 313 335 323 _c
275 335 _l
201 349 148 372 115 404 _c
82 435 66 478 66 534 _c
66 598 88 649 134 686 _c
179 723 242 742 322 742 _c
356 742 390 739 426 733 _c
461 727 497 717 535 705 _c
}_e{_cl}_e}_d
/T{611 0 -2 0 614 729 _sc
-2 729 _m
614 729 _l
614 646 _l
355 646 _l
355 0 _l
256 0 _l
256 646 _l
-2 646 _l
-2 729 _l
_cl}_d
/a{{613 0 60 -13 522 560 _sc
343 275 _m
270 275 220 266 192 250 _c
164 233 150 205 150 165 _c
150 133 160 107 181 89 _c
202 70 231 61 267 61 _c
317 61 357 78 387 114 _c
417 149 432 196 432 255 _c
432 275 _l
343 275 _l
522 312 _m
522 0 _l
432 0 _l
432 83 _l
411 49 385 25 355 10 _c
325 -5 287 -13 243 -13 _c
187 -13 142 2 109 33 _c
76 64 60 106 60 159 _c
}_e{60 220 80 266 122 298 _c
163 329 224 345 306 345 _c
432 345 _l
432 354 _l
432 395 418 427 391 450 _c
364 472 326 484 277 484 _c
245 484 215 480 185 472 _c
155 464 127 453 100 439 _c
100 522 _l
132 534 164 544 195 550 _c
226 556 256 560 286 560 _c
365 560 424 539 463 498 _c
502 457 522 395 522 312 _c
_cl}_e}_d
/b{{635 0 91 -13 580 760 _sc
487 273 _m
487 339 473 390 446 428 _c
418 466 381 485 334 485 _c
286 485 249 466 222 428 _c
194 390 181 339 181 273 _c
181 207 194 155 222 117 _c
249 79 286 61 334 61 _c
381 61 418 79 446 117 _c
473 155 487 207 487 273 _c
181 464 _m
199 496 223 520 252 536 _c
281 552 316 560 356 560 _c
422 560 476 533 518 481 _c
559 428 580 359 580 273 _c
}_e{580 187 559 117 518 65 _c
476 13 422 -13 356 -13 _c
316 -13 281 -5 252 10 _c
223 25 199 49 181 82 _c
181 0 _l
91 0 _l
91 760 _l
181 760 _l
181 464 _l
_cl}_e}_d
/c{{550 0 55 -13 488 560 _sc
488 526 _m
488 442 _l
462 456 437 466 411 473 _c
385 480 360 484 334 484 _c
276 484 230 465 198 428 _c
166 391 150 339 150 273 _c
150 206 166 154 198 117 _c
230 80 276 62 334 62 _c
360 62 385 65 411 72 _c
437 79 462 90 488 104 _c
488 21 _l
462 9 436 0 410 -5 _c
383 -10 354 -13 324 -13 _c
242 -13 176 12 128 64 _c
}_e{79 115 55 185 55 273 _c
55 362 79 432 128 483 _c
177 534 244 560 330 560 _c
358 560 385 557 411 551 _c
437 545 463 537 488 526 _c
_cl}_e}_d
/e{{615 0 55 -13 562 560 _sc
562 296 _m
562 252 _l
149 252 _l
153 190 171 142 205 110 _c
238 78 284 62 344 62 _c
378 62 412 66 444 74 _c
476 82 509 95 541 113 _c
541 28 _l
509 14 476 3 442 -3 _c
408 -9 373 -13 339 -13 _c
251 -13 182 12 131 62 _c
80 112 55 181 55 268 _c
55 357 79 428 127 481 _c
175 533 241 560 323 560 _c
397 560 455 536 498 489 _c
}_e{540 441 562 377 562 296 _c
472 322 _m
471 371 457 410 431 440 _c
404 469 368 484 324 484 _c
274 484 234 469 204 441 _c
174 413 156 373 152 322 _c
472 322 _l
_cl}_e}_d
/f{352 0 23 0 371 760 _sc
371 760 _m
371 685 _l
285 685 _l
253 685 230 678 218 665 _c
205 652 199 629 199 595 _c
199 547 _l
347 547 _l
347 477 _l
199 477 _l
199 0 _l
109 0 _l
109 477 _l
23 477 _l
23 547 _l
109 547 _l
109 585 _l
109 645 123 690 151 718 _c
179 746 224 760 286 760 _c
371 760 _l
_cl}_d
/h{634 0 91 0 549 760 _sc
549 330 _m
549 0 _l
459 0 _l
459 327 _l
459 379 448 417 428 443 _c
408 469 378 482 338 482 _c
289 482 251 466 223 435 _c
195 404 181 362 181 309 _c
181 0 _l
91 0 _l
91 760 _l
181 760 _l
181 462 _l
202 494 227 519 257 535 _c
286 551 320 560 358 560 _c
420 560 468 540 500 501 _c
532 462 549 405 549 330 _c
_cl}_d
/i{278 0 94 0 184 760 _sc
94 547 _m
184 547 _l
184 0 _l
94 0 _l
94 547 _l
94 760 _m
184 760 _l
184 646 _l
94 646 _l
94 760 _l
_cl}_d
/k{579 0 91 0 576 760 _sc
91 760 _m
181 760 _l
181 311 _l
449 547 _l
564 547 _l
274 291 _l
576 0 _l
459 0 _l
181 267 _l
181 0 _l
91 0 _l
91 760 _l
_cl}_d
/l{278 0 94 0 184 760 _sc
94 760 _m
184 760 _l
184 0 _l
94 0 _l
94 760 _l
_cl}_d
/n{634 0 91 0 549 560 _sc
549 330 _m
549 0 _l
459 0 _l
459 327 _l
459 379 448 417 428 443 _c
408 469 378 482 338 482 _c
289 482 251 466 223 435 _c
195 404 181 362 181 309 _c
181 0 _l
91 0 _l
91 547 _l
181 547 _l
181 462 _l
202 494 227 519 257 535 _c
286 551 320 560 358 560 _c
420 560 468 540 500 501 _c
532 462 549 405 549 330 _c
_cl}_d
/o{612 0 55 -13 557 560 _sc
306 484 _m
258 484 220 465 192 427 _c
164 389 150 338 150 273 _c
150 207 163 156 191 118 _c
219 80 257 62 306 62 _c
354 62 392 80 420 118 _c
448 156 462 207 462 273 _c
462 337 448 389 420 427 _c
392 465 354 484 306 484 _c
306 560 _m
384 560 445 534 490 484 _c
534 433 557 363 557 273 _c
557 183 534 113 490 63 _c
445 12 384 -13 306 -13 _c
227 -13 165 12 121 63 _c
77 113 55 183 55 273 _c
55 363 77 433 121 484 _c
165 534 227 560 306 560 _c
_cl}_d
/p{{635 0 91 -207 580 560 _sc
181 82 _m
181 -207 _l
91 -207 _l
91 547 _l
181 547 _l
181 464 _l
199 496 223 520 252 536 _c
281 552 316 560 356 560 _c
422 560 476 533 518 481 _c
559 428 580 359 580 273 _c
580 187 559 117 518 65 _c
476 13 422 -13 356 -13 _c
316 -13 281 -5 252 10 _c
223 25 199 49 181 82 _c
487 273 _m
487 339 473 390 446 428 _c
418 466 381 485 334 485 _c
}_e{286 485 249 466 222 428 _c
194 390 181 339 181 273 _c
181 207 194 155 222 117 _c
249 79 286 61 334 61 _c
381 61 418 79 446 117 _c
473 155 487 207 487 273 _c
_cl}_e}_d
/r{411 0 91 0 411 560 _sc
411 463 _m
401 469 390 473 378 476 _c
366 478 353 480 339 480 _c
288 480 249 463 222 430 _c
194 397 181 350 181 288 _c
181 0 _l
91 0 _l
91 547 _l
181 547 _l
181 462 _l
199 495 224 520 254 536 _c
284 552 321 560 365 560 _c
371 560 378 559 386 559 _c
393 558 401 557 411 555 _c
411 463 _l
_cl}_d
/s{{521 0 54 -13 472 560 _sc
443 531 _m
443 446 _l
417 458 391 468 364 475 _c
336 481 308 485 279 485 _c
234 485 200 478 178 464 _c
156 450 145 430 145 403 _c
145 382 153 366 169 354 _c
185 342 217 330 265 320 _c
296 313 _l
360 299 405 279 432 255 _c
458 230 472 195 472 151 _c
472 100 452 60 412 31 _c
372 1 316 -13 246 -13 _c
216 -13 186 -10 154 -5 _c
}_e{122 0 89 8 54 20 _c
54 113 _l
87 95 120 82 152 74 _c
184 65 216 61 248 61 _c
290 61 323 68 346 82 _c
368 96 380 117 380 144 _c
380 168 371 187 355 200 _c
339 213 303 226 247 238 _c
216 245 _l
160 257 119 275 95 299 _c
70 323 58 356 58 399 _c
58 450 76 490 112 518 _c
148 546 200 560 268 560 _c
301 560 332 557 362 552 _c
391 547 418 540 443 531 _c
}_e{_cl}_e}_d
/t{392 0 27 0 368 702 _sc
183 702 _m
183 547 _l
368 547 _l
368 477 _l
183 477 _l
183 180 _l
183 135 189 106 201 94 _c
213 81 238 75 276 75 _c
368 75 _l
368 0 _l
276 0 _l
206 0 158 13 132 39 _c
106 65 93 112 93 180 _c
93 477 _l
27 477 _l
27 547 _l
93 547 _l
93 702 _l
183 702 _l
_cl}_d
/uni0394{684 0 8 0 676 729 _sc
342 632 _m
142 82 _l
542 82 _l
342 632 _l
8 0 _m
286 729 _l
398 729 _l
676 0 _l
8 0 _l
_cl}_d
end readonly def

/BuildGlyph
 {exch begin
 CharStrings exch
 2 copy known not{pop /.notdef}if
 true 3 1 roll get exec
 end}_d

/BuildChar {
 1 index /Encoding get exch get
 1 index /BuildGlyph get exec
}_d

FontName currentdict end definefont pop
%!PS-Adobe-3.0 Resource-Font
%%Title: DejaVu Sans Oblique
%%Copyright: Copyright (c) 2003 by Bitstream, Inc. All Rights Reserved. Copyright (c) 2006 by Tavmjong Bah. All Rights Reserved. DejaVu changes are in public domain 
%%Creator: Converted from TrueType to type 3 by PPR
25 dict begin
/_d{bind def}bind def
/_m{moveto}_d
/_l{lineto}_d
/_cl{closepath eofill}_d
/_c{curveto}_d
/_sc{7 -1 roll{setcachedevice}{pop pop pop pop pop pop}ifelse}_d
/_e{exec}_d
/FontName /DejaVuSans-Oblique def
/PaintType 0 def
/FontMatrix[.001 0 0 .001 0 0]def
/FontBBox[-1016 -350 1659 1068]def
/FontType 3 def
/Encoding [ /N /T /a /b /l /o /s /t ] def
/FontInfo 10 dict dup begin
/FamilyName (DejaVu Sans) def
/FullName (DejaVu Sans Oblique) def
/Notice (Copyright (c) 2003 by Bitstream, Inc. All Rights Reserved. Copyright (c) 2006 by Tavmjong Bah. All Rights Reserved. DejaVu changes are in public domain ) def
/Weight (Oblique) def
/Version (Version 2.35) def
/ItalicAngle -11.0 def
/isFixedPitch false def
/UnderlinePosition -130 def
/UnderlineThickness 90 def
end readonly def
/CharStrings 8 dict dup begin
/N{748 0 27 0 721 729 _sc
169 729 _m
302 729 _l
503 104 _l
625 729 _l
721 729 _l
579 0 _l
446 0 _l
245 629 _l
123 0 _l
27 0 _l
169 729 _l
_cl}_d
/T{611 0 43 0 676 729 _sc
59 729 _m
676 729 _l
660 646 _l
400 646 _l
275 0 _l
176 0 _l
301 646 _l
43 646 _l
59 729 _l
_cl}_d
/a{{613 0 41 -13 547 560 _sc
537 312 _m
476 0 _l
386 0 _l
403 83 _l
376 50 346 26 312 10 _c
278 -5 241 -13 200 -13 _c
153 -13 115 1 85 29 _c
55 57 41 93 41 138 _c
41 202 66 252 117 289 _c
168 326 238 345 328 345 _c
453 345 _l
458 369 _l
458 371 459 374 459 377 _c
459 380 460 385 460 392 _c
460 421 448 444 424 460 _c
400 476 367 484 325 484 _c
}_e{295 484 265 480 235 472 _c
204 464 172 453 140 439 _c
156 522 _l
190 534 223 544 255 550 _c
287 556 319 560 349 560 _c
413 560 462 546 496 518 _c
530 490 547 449 547 396 _c
547 385 546 372 544 358 _c
542 343 540 328 537 312 _c
440 275 _m
350 275 _l
276 275 222 265 187 245 _c
151 225 134 195 134 154 _c
134 125 143 102 161 86 _c
179 70 204 62 236 62 _c
}_e{284 62 327 79 363 114 _c
399 149 424 196 436 255 _c
440 275 _l
_cl}_e}_d
/b{{635 0 36 -13 587 760 _sc
495 334 _m
495 381 484 418 462 445 _c
440 471 411 485 373 485 _c
345 485 319 478 295 464 _c
271 450 250 431 232 406 _c
213 378 198 347 187 311 _c
176 275 171 240 171 205 _c
171 160 181 125 203 99 _c
224 73 253 61 291 61 _c
319 61 345 67 369 81 _c
393 94 415 113 433 139 _c
451 165 466 196 478 232 _c
489 268 495 302 495 334 _c
216 464 _m
}_e{238 494 265 517 299 534 _c
332 551 367 560 404 560 _c
460 560 504 541 537 503 _c
570 465 587 414 587 350 _c
587 297 577 246 558 197 _c
538 147 511 103 475 65 _c
451 39 424 20 394 7 _c
363 -6 331 -13 298 -13 _c
262 -13 232 -5 206 11 _c
180 27 158 51 142 83 _c
126 0 _l
36 0 _l
184 760 _l
274 760 _l
216 464 _l
_cl}_e}_d
/l{278 0 35 0 273 760 _sc
183 760 _m
273 760 _l
125 0 _l
35 0 _l
183 760 _l
_cl}_d
/o{{612 0 46 -13 566 560 _sc
254 -13 _m
190 -13 139 6 102 45 _c
64 84 46 138 46 207 _c
46 247 52 287 65 328 _c
77 369 94 404 115 432 _c
147 476 183 508 223 529 _c
263 549 308 560 358 560 _c
420 560 470 540 508 502 _c
546 463 566 412 566 350 _c
566 306 559 263 547 220 _c
534 177 517 142 497 114 _c
465 70 429 37 389 17 _c
349 -3 304 -13 254 -13 _c
139 210 _m
}_e{139 160 149 123 170 99 _c
190 74 222 62 264 62 _c
324 62 373 88 413 141 _c
453 193 473 260 473 341 _c
473 388 462 424 441 448 _c
420 472 389 484 348 484 _c
314 484 283 476 257 460 _c
231 444 207 420 187 388 _c
171 364 159 336 151 305 _c
143 274 139 242 139 210 _c
_cl}_e}_d
/s{{521 0 11 -13 500 560 _sc
500 531 _m
483 446 _l
459 458 433 468 407 475 _c
381 481 354 485 326 485 _c
278 485 241 477 214 461 _c
187 445 174 423 174 395 _c
174 363 205 338 269 321 _c
273 319 277 318 279 318 _c
308 309 _l
368 292 408 274 428 256 _c
448 238 458 213 458 182 _c
458 124 435 77 389 41 _c
343 5 282 -13 208 -13 _c
179 -13 149 -10 117 -5 _c
}_e{85 0 49 8 11 20 _c
29 113 _l
61 95 94 82 126 74 _c
158 65 188 61 218 61 _c
262 61 297 70 325 89 _c
352 108 366 132 366 161 _c
366 192 330 217 258 237 _c
249 239 _l
218 247 _l
172 259 138 274 117 294 _c
96 314 86 339 86 370 _c
86 428 107 475 151 509 _c
195 543 254 560 330 560 _c
360 560 389 557 417 552 _c
445 547 472 540 500 531 _c
_cl}_e}_d
/t{{392 0 64 0 423 702 _sc
423 547 _m
409 477 _l
230 477 _l
172 180 _l
170 169 168 160 167 152 _c
166 144 166 139 166 135 _c
166 114 172 99 185 89 _c
197 79 217 75 245 75 _c
336 75 _l
321 0 _l
235 0 _l
181 0 141 10 115 31 _c
89 52 76 84 76 126 _c
76 133 76 141 77 150 _c
78 159 80 169 82 180 _c
140 477 _l
64 477 _l
78 547 _l
153 547 _l
183 702 _l
}_e{273 702 _l
243 547 _l
423 547 _l
_cl}_e}_d
end readonly def

/BuildGlyph
 {exch begin
 CharStrings exch
 2 copy known not{pop /.notdef}if
 true 3 1 roll get exec
 end}_d

/BuildChar {
 1 index /Encoding get exch get
 1 index /BuildGlyph get exec
}_d

FontName currentdict end definefont pop
end
%%EndProlog
mpldict begin
-126 72 translate
864 648 0 0 clipbox
gsave
0 0 m
864 0 l
864 648 l
0 648 l
cl
1.000 setgray
fill
grestore
gsave
108 71.28 m
610.2 71.28 l
610.2 570.24 l
108 570.24 l
cl
1.000 setgray
fill
grestore
0.800 setlinewidth
1 setlinejoin
0 setlinecap
[] 0 setdash
0.000 setgray
gsave
/o {
gsave
newpath
translate
0.8 setlinewidth
1 setlinejoin
0 setlinecap
0 0 m
0 -3.5 l

gsave
0.000 setgray
fill
grestore
stroke
grestore
} bind def
108 71.28 o
grestore
/DejaVuSans findfont
24.000 scalefont
setfont
gsave
92.734375 46.045625 translate
0.000000 rotate
0.000000 0.000000 m /one glyphshow
15.269531 0.000000 m /zero glyphshow
grestore
gsave
/o {
gsave
newpath
translate
0.8 setlinewidth
1 setlinejoin
0 setlinecap
0 0 m
0 -3.5 l

gsave
0.000 setgray
fill
grestore
stroke
grestore
} bind def
233.55 71.28 o
grestore
gsave
218.284375 46.045625 translate
0.000000 rotate
0.000000 0.000000 m /two glyphshow
15.269531 0.000000 m /zero glyphshow
grestore
gsave
/o {
gsave
newpath
translate
0.8 setlinewidth
1 setlinejoin
0 setlinecap
0 0 m
0 -3.5 l

gsave
0.000 setgray
fill
grestore
stroke
grestore
} bind def
359.1 71.28 o
grestore
gsave
343.834375 46.045625 translate
0.000000 rotate
0.000000 0.000000 m /three glyphshow
15.269531 0.000000 m /zero glyphshow
grestore
gsave
/o {
gsave
newpath
translate
0.8 setlinewidth
1 setlinejoin
0 setlinecap
0 0 m
0 -3.5 l

gsave
0.000 setgray
fill
grestore
stroke
grestore
} bind def
484.65 71.28 o
grestore
gsave
469.384375 46.045625 translate
0.000000 rotate
0.000000 0.000000 m /four glyphshow
15.269531 0.000000 m /zero glyphshow
grestore
gsave
/o {
gsave
newpath
translate
0.8 setlinewidth
1 setlinejoin
0 setlinecap
0 0 m
0 -3.5 l

gsave
0.000 setgray
fill
grestore
stroke
grestore
} bind def
610.2 71.28 o
grestore
gsave
594.934375 46.045625 translate
0.000000 rotate
0.000000 0.000000 m /five glyphshow
15.269531 0.000000 m /zero glyphshow
grestore
gsave
296.748438 18.811250 translate
0.000000 rotate
0.000000 0.000000 m /S glyphshow
15.234375 0.000000 m /n glyphshow
30.445312 0.000000 m /a glyphshow
45.152344 0.000000 m /p glyphshow
60.386719 0.000000 m /s glyphshow
72.890625 0.000000 m /h glyphshow
88.101562 0.000000 m /o glyphshow
102.785156 0.000000 m /t glyphshow
112.195312 0.000000 m /s glyphshow
grestore
gsave
/o {
gsave
newpath
translate
0.8 setlinewidth
1 setlinejoin
0 setlinecap
0 0 m
-3.5 0 l

gsave
0.000 setgray
fill
grestore
stroke
grestore
} bind def
108 93.96 o
grestore
gsave
47.578125 84.842812 translate
0.000000 rotate
0.000000 0.000000 m /zero glyphshow
15.269531 0.000000 m /period glyphshow
22.898438 0.000000 m /zero glyphshow
38.167969 0.000000 m /zero glyphshow
grestore
gsave
/o {
gsave
newpath
translate
0.8 setlinewidth
1 setlinejoin
0 setlinecap
0 0 m
-3.5 0 l

gsave
0.000 setgray
fill
grestore
stroke
grestore
} bind def
108 152.907 o
grestore
gsave
47.578125 143.790181 translate
0.000000 rotate
0.000000 0.000000 m /zero glyphshow
15.269531 0.000000 m /period glyphshow
22.898438 0.000000 m /zero glyphshow
38.167969 0.000000 m /one glyphshow
grestore
gsave
/o {
gsave
newpath
translate
0.8 setlinewidth
1 setlinejoin
0 setlinecap
0 0 m
-3.5 0 l

gsave
0.000 setgray
fill
grestore
stroke
grestore
} bind def
108 211.855 o
grestore
gsave
47.578125 202.737549 translate
0.000000 rotate
0.000000 0.000000 m /zero glyphshow
15.269531 0.000000 m /period glyphshow
22.898438 0.000000 m /zero glyphshow
38.167969 0.000000 m /two glyphshow
grestore
gsave
/o {
gsave
newpath
translate
0.8 setlinewidth
1 setlinejoin
0 setlinecap
0 0 m
-3.5 0 l

gsave
0.000 setgray
fill
grestore
stroke
grestore
} bind def
108 270.802 o
grestore
gsave
47.578125 261.684918 translate
0.000000 rotate
0.000000 0.000000 m /zero glyphshow
15.269531 0.000000 m /period glyphshow
22.898438 0.000000 m /zero glyphshow
38.167969 0.000000 m /three glyphshow
grestore
gsave
/o {
gsave
newpath
translate
0.8 setlinewidth
1 setlinejoin
0 setlinecap
0 0 m
-3.5 0 l

gsave
0.000 setgray
fill
grestore
stroke
grestore
} bind def
108 329.749 o
grestore
gsave
47.578125 320.632286 translate
0.000000 rotate
0.000000 0.000000 m /zero glyphshow
15.269531 0.000000 m /period glyphshow
22.898438 0.000000 m /zero glyphshow
38.167969 0.000000 m /four glyphshow
grestore
gsave
/o {
gsave
newpath
translate
0.8 setlinewidth
1 setlinejoin
0 setlinecap
0 0 m
-3.5 0 l

gsave
0.000 setgray
fill
grestore
stroke
grestore
} bind def
108 388.697 o
grestore
gsave
47.578125 379.579655 translate
0.000000 rotate
0.000000 0.000000 m /zero glyphshow
15.269531 0.000000 m /period glyphshow
22.898438 0.000000 m /zero glyphshow
38.167969 0.000000 m /five glyphshow
grestore
gsave
/o {
gsave
newpath
translate
0.8 setlinewidth
1 setlinejoin
0 setlinecap
0 0 m
-3.5 0 l

gsave
0.000 setgray
fill
grestore
stroke
grestore
} bind def
108 447.644 o
grestore
gsave
47.578125 438.527023 translate
0.000000 rotate
0.000000 0.000000 m /zero glyphshow
15.269531 0.000000 m /period glyphshow
22.898438 0.000000 m /zero glyphshow
38.167969 0.000000 m /six glyphshow
grestore
gsave
/o {
gsave
newpath
translate
0.8 setlinewidth
1 setlinejoin
0 setlinecap
0 0 m
-3.5 0 l

gsave
0.000 setgray
fill
grestore
stroke
grestore
} bind def
108 506.592 o
grestore
gsave
47.578125 497.474391 translate
0.000000 rotate
0.000000 0.000000 m /zero glyphshow
15.269531 0.000000 m /period glyphshow
22.898438 0.000000 m /zero glyphshow
38.167969 0.000000 m /seven glyphshow
grestore
gsave
/o {
gsave
newpath
translate
0.8 setlinewidth
1 setlinejoin
0 setlinecap
0 0 m
-3.5 0 l

gsave
0.000 setgray
fill
grestore
stroke
grestore
} bind def
108 565.539 o
grestore
gsave
47.578125 556.421760 translate
0.000000 rotate
0.000000 0.000000 m /zero glyphshow
15.269531 0.000000 m /period glyphshow
22.898438 0.000000 m /zero glyphshow
38.167969 0.000000 m /eight glyphshow
grestore
gsave
38.578125 263.260000 translate
90.000000 rotate
/DejaVuSans-Oblique findfont
24.0 scalefont
setfont
0.000000 0.500000 moveto
/N glyphshow

/DejaVuSans-Oblique findfont
16.8 scalefont
setfont
17.953125 -3.437500 moveto
/l glyphshow

22.620703 -3.437500 moveto
/o glyphshow

32.899219 -3.437500 moveto
/s glyphshow

41.651953 -3.437500 moveto
/t glyphshow

/DejaVuSans findfont
24.0 scalefont
setfont
48.895313 0.500000 moveto
/slash glyphshow

/DejaVuSans-Oblique findfont
24.0 scalefont
setfont
56.981250 0.500000 moveto
/N glyphshow

/DejaVuSans-Oblique findfont
16.8 scalefont
setfont
74.934375 -3.437500 moveto
/t glyphshow

81.521484 -3.437500 moveto
/o glyphshow

91.800000 -3.437500 moveto
/t glyphshow

98.387109 -3.437500 moveto
/a glyphshow

108.682031 -3.437500 moveto
/l glyphshow


grestore
4.000 setlinewidth
2 setlinecap
gsave
502.2 499 108 71.28 clipbox
108 94.107368 m
120.555 94.475789 l
133.11 94.402105 l
145.665 94.770526 l
158.22 94.844211 l
170.775 95.36 l
183.33 95.433684 l
195.885 95.802105 l
208.44 96.686316 l
220.995 97.202105 l
233.55 100.812632 l
246.105 113.265263 l
258.66 121.075789 l
271.215 127.412632 l
283.77 131.981053 l
296.325 138.244211 l
308.88 140.675789 l
321.435 152.981053 l
333.99 158.654737 l
346.545 165.581053 l
359.1 177.665263 l
371.655 185.402105 l
384.21 198.96 l
396.765 212.886316 l
409.32 226.665263 l
421.875 238.675789 l
434.43 255.770526 l
446.985 273.896842 l
459.54 287.307368 l
472.095 303.296842 l
484.65 327.686316 l
497.205 347.286316 l
509.76 369.170526 l
522.315 388.991579 l
534.87 411.686316 l
547.425 430.770526 l
559.98 452.36 l
572.535 477.486316 l
585.09 499.002105 l
597.645 530.023158 l
610.2 547.56 l
stroke
grestore
1.000 0.000 0.000 setrgbcolor
gsave
502.2 499 108 71.28 clipbox
108 94.144211 m
120.555 94.144211 l
133.11 94.420526 l
145.665 94.420526 l
158.22 94.696842 l
170.775 94.696842 l
183.33 95.249474 l
195.885 95.433684 l
208.44 96.078421 l
220.995 96.078421 l
233.55 96.538947 l
246.105 96.538947 l
258.66 101.696842 l
271.215 118.644211 l
283.77 124.723158 l
296.325 134.670526 l
308.88 137.341579 l
321.435 149.038947 l
333.99 150.236316 l
346.545 165.617895 l
359.1 169.394211 l
371.655 180.907368 l
384.21 191.407368 l
396.765 204.762632 l
409.32 218.578421 l
421.875 227.696842 l
434.43 246.394211 l
446.985 261.591579 l
459.54 277.433684 l
472.095 293.367895 l
484.65 313.354737 l
497.205 332.604737 l
509.76 352.499474 l
522.315 378.473158 l
534.87 399.657368 l
547.425 417.525789 l
559.98 437.881053 l
572.535 453.262632 l
585.09 485.131053 l
597.645 501.341579 l
610.2 528.696842 l
stroke
grestore
0.750 0.000 0.750 setrgbcolor
gsave
502.2 499 108 71.28 clipbox
108 93.96 m
120.555 94.082807 l
133.11 93.96 l
145.665 94.082807 l
158.22 93.96 l
170.775 94.328421 l
183.33 94.696842 l
195.885 94.942456 l
208.44 95.679298 l
220.995 95.924912 l
233.55 96.661754 l
246.105 96.538947 l
258.66 95.433684 l
271.215 95.679298 l
283.77 95.679298 l
296.325 96.293333 l
308.88 106.240702 l
321.435 127.240702 l
333.99 141.609123 l
346.545 159.784561 l
359.1 165.679298 l
371.655 172.924912 l
384.21 187.170526 l
396.765 198.100351 l
409.32 208.047719 l
421.875 214.433684 l
434.43 236.907368 l
446.985 249.802105 l
459.54 264.293333 l
472.095 284.310877 l
484.65 298.065263 l
497.205 315.749474 l
509.76 344.609123 l
522.315 355.538947 l
534.87 381.696842 l
547.425 399.872281 l
559.98 421.486316 l
572.535 440.275789 l
585.09 462.872281 l
597.645 487.433684 l
610.2 519.977544 l
stroke
grestore
0.000 0.000 1.000 setrgbcolor
gsave
502.2 499 108 71.28 clipbox
108 93.96 m
120.555 93.96 l
133.11 93.96 l
145.665 93.96 l
158.22 93.96 l
170.775 94.328421 l
183.33 93.96 l
195.885 94.696842 l
208.44 95.433684 l
220.995 94.696842 l
233.55 95.617895 l
246.105 95.617895 l
258.66 94.328421 l
271.215 95.249474 l
283.77 96.170526 l
296.325 94.512632 l
308.88 95.065263 l
321.435 95.802105 l
333.99 96.723158 l
346.545 95.802105 l
359.1 97.828421 l
371.655 98.565263 l
384.21 121.96 l
396.765 157.696842 l
409.32 185.512632 l
421.875 207.802105 l
434.43 226.96 l
446.985 245.565263 l
459.54 261.038947 l
472.095 272.644211 l
484.65 289.223158 l
497.205 312.986316 l
509.76 331.96 l
522.315 348.723158 l
534.87 364.749474 l
547.425 385.196842 l
559.98 401.038947 l
572.535 420.749474 l
585.09 436.96 l
597.645 457.407368 l
610.2 491.670526 l
stroke
grestore
0.000 0.500 0.000 setrgbcolor
gsave
502.2 499 108 71.28 clipbox
108 93.96 m
120.555 93.96 l
133.11 93.96 l
145.665 93.96 l
158.22 93.96 l
170.775 93.96 l
183.33 93.96 l
195.885 93.96 l
208.44 93.96 l
220.995 93.96 l
233.55 94.328421 l
246.105 94.696842 l
258.66 94.328421 l
271.215 94.328421 l
283.77 96.170526 l
296.325 94.696842 l
308.88 94.696842 l
321.435 93.96 l
333.99 95.802105 l
346.545 95.433684 l
359.1 95.433684 l
371.655 93.96 l
384.21 94.696842 l
396.765 96.170526 l
409.32 95.433684 l
421.875 95.065263 l
434.43 94.328421 l
446.985 97.275789 l
459.54 96.538947 l
472.095 97.644211 l
484.65 98.749474 l
497.205 97.644211 l
509.76 99.117895 l
522.315 101.696842 l
534.87 104.644211 l
547.425 106.854737 l
559.98 102.802105 l
572.535 107.223158 l
585.09 108.328421 l
597.645 109.433684 l
610.2 137.065263 l
stroke
grestore
0.000 0.750 0.750 setrgbcolor
gsave
502.2 499 108 71.28 clipbox
108 93.96 m
120.555 93.96 l
133.11 93.96 l
145.665 93.96 l
158.22 93.96 l
170.775 93.96 l
183.33 93.96 l
195.885 93.96 l
208.44 93.96 l
220.995 93.96 l
233.55 93.96 l
246.105 93.96 l
258.66 93.96 l
271.215 93.96 l
283.77 97.644211 l
296.325 95.802105 l
308.88 93.96 l
321.435 93.96 l
333.99 93.96 l
346.545 93.96 l
359.1 93.96 l
371.655 95.802105 l
384.21 97.644211 l
396.765 97.644211 l
409.32 95.802105 l
421.875 93.96 l
434.43 93.96 l
446.985 95.802105 l
459.54 93.96 l
472.095 93.96 l
484.65 94.881053 l
497.205 96.723158 l
509.76 95.802105 l
522.315 97.644211 l
534.87 98.565263 l
547.425 98.565263 l
559.98 96.723158 l
572.535 98.565263 l
585.09 100.407368 l
597.645 102.249474 l
610.2 105.012632 l
stroke
grestore
0 setlinecap
[14.8 6.4] 0 setdash
0.000 setgray
gsave
502.2 499 108 71.28 clipbox
108 94.917895 m
120.555 94.402105 l
133.11 94.623158 l
145.665 94.917895 l
158.22 94.696842 l
170.775 94.549474 l
183.33 95.212632 l
195.885 95.212632 l
208.44 95.065263 l
220.995 94.770526 l
233.55 95.286316 l
246.105 95.433684 l
258.66 95.065263 l
271.215 96.096842 l
283.77 96.612632 l
296.325 96.686316 l
308.88 97.423158 l
321.435 98.16 l
333.99 98.896842 l
346.545 100.591579 l
359.1 101.328421 l
371.655 102.581053 l
384.21 104.570526 l
396.765 106.633684 l
409.32 108.770526 l
421.875 111.570526 l
434.43 113.707368 l
446.985 118.423158 l
459.54 123.433684 l
472.095 128.738947 l
484.65 132.791579 l
497.205 139.496842 l
509.76 148.486316 l
522.315 153.128421 l
534.87 162.338947 l
547.425 167.717895 l
559.98 178.770526 l
572.535 183.781053 l
585.09 197.56 l
597.645 203.823158 l
610.2 215.76 l
stroke
grestore
1.000 0.000 0.000 setrgbcolor
gsave
502.2 499 108 71.28 clipbox
108 94.328421 m
120.555 94.512632 l
133.11 94.604737 l
145.665 94.512632 l
158.22 94.512632 l
170.775 94.604737 l
183.33 94.788947 l
195.885 94.881053 l
208.44 95.249474 l
220.995 94.788947 l
233.55 94.788947 l
246.105 95.249474 l
258.66 94.973158 l
271.215 94.973158 l
283.77 95.525789 l
296.325 96.078421 l
308.88 96.631053 l
321.435 97.828421 l
333.99 98.288947 l
346.545 98.749474 l
359.1 100.131053 l
371.655 101.512632 l
384.21 101.144211 l
396.765 104.736316 l
409.32 106.025789 l
421.875 107.775789 l
434.43 110.538947 l
446.985 113.486316 l
459.54 118.183684 l
472.095 121.315263 l
484.65 125.091579 l
497.205 130.433684 l
509.76 137.71 l
522.315 144.065263 l
534.87 149.867895 l
547.425 155.394211 l
559.98 163.499474 l
572.535 166.999474 l
585.09 176.854737 l
597.645 185.696842 l
610.2 193.986316 l
stroke
grestore
0.750 0.000 0.750 setrgbcolor
gsave
502.2 499 108 71.28 clipbox
108 94.205614 m
120.555 94.205614 l
133.11 94.574035 l
145.665 94.451228 l
158.22 94.205614 l
170.775 94.451228 l
183.33 94.574035 l
195.885 94.082807 l
208.44 94.819649 l
220.995 94.451228 l
233.55 95.065263 l
246.105 94.451228 l
258.66 94.328421 l
271.215 94.574035 l
283.77 94.942456 l
296.325 95.310877 l
308.88 95.433684 l
321.435 96.538947 l
333.99 97.644211 l
346.545 97.889825 l
359.1 97.889825 l
371.655 99.854737 l
384.21 101.451228 l
396.765 103.293333 l
409.32 103.170526 l
421.875 105.012632 l
434.43 106.240702 l
446.985 109.18807 l
459.54 112.872281 l
472.095 115.205614 l
484.65 115.451228 l
497.205 122.082807 l
509.76 126.872281 l
522.315 132.767018 l
534.87 137.556491 l
547.425 144.679298 l
559.98 148.117895 l
572.535 153.521404 l
585.09 161.50386 l
597.645 168.872281 l
610.2 179.679298 l
stroke
grestore
0.000 0.000 1.000 setrgbcolor
gsave
502.2 499 108 71.28 clipbox
108 94.512632 m
120.555 94.144211 l
133.11 94.512632 l
145.665 93.96 l
158.22 93.96 l
170.775 93.96 l
183.33 94.144211 l
195.885 94.144211 l
208.44 94.696842 l
220.995 94.696842 l
233.55 94.328421 l
246.105 94.328421 l
258.66 94.328421 l
271.215 94.512632 l
283.77 94.144211 l
296.325 94.881053 l
308.88 93.96 l
321.435 94.696842 l
333.99 95.617895 l
346.545 94.696842 l
359.1 95.249474 l
371.655 95.249474 l
384.21 97.091579 l
396.765 99.670526 l
409.32 100.223158 l
421.875 101.144211 l
434.43 104.644211 l
446.985 105.749474 l
459.54 107.775789 l
472.095 108.881053 l
484.65 112.933684 l
497.205 116.433684 l
509.76 123.065263 l
522.315 130.249474 l
534.87 133.565263 l
547.425 135.223158 l
559.98 139.828421 l
572.535 147.749474 l
585.09 153.275789 l
597.645 160.644211 l
610.2 164.328421 l
stroke
grestore
0.000 0.500 0.000 setrgbcolor
gsave
502.2 499 108 71.28 clipbox
108 93.96 m
120.555 93.96 l
133.11 94.328421 l
145.665 94.328421 l
158.22 93.96 l
170.775 93.96 l
183.33 94.328421 l
195.885 94.696842 l
208.44 93.96 l
220.995 93.96 l
233.55 93.96 l
246.105 94.328421 l
258.66 94.696842 l
271.215 94.328421 l
283.77 93.96 l
296.325 93.96 l
308.88 93.96 l
321.435 95.065263 l
333.99 94.696842 l
346.545 95.065263 l
359.1 95.065263 l
371.655 94.328421 l
384.21 95.065263 l
396.765 95.065263 l
409.32 95.065263 l
421.875 95.065263 l
434.43 95.065263 l
446.985 96.170526 l
459.54 96.907368 l
472.095 98.381053 l
484.65 98.381053 l
497.205 97.644211 l
509.76 98.012632 l
522.315 100.96 l
534.87 104.275789 l
547.425 105.749474 l
559.98 103.170526 l
572.535 104.644211 l
585.09 109.065263 l
597.645 112.749474 l
610.2 152.538947 l
stroke
grestore
0.000 0.750 0.750 setrgbcolor
gsave
502.2 499 108 71.28 clipbox
108 93.96 m
120.555 95.802105 l
133.11 93.96 l
145.665 93.96 l
158.22 94.881053 l
170.775 93.96 l
183.33 93.96 l
195.885 93.96 l
208.44 93.96 l
220.995 93.96 l
233.55 94.881053 l
246.105 93.96 l
258.66 93.96 l
271.215 93.96 l
283.77 93.96 l
296.325 94.881053 l
308.88 93.96 l
321.435 94.881053 l
333.99 93.96 l
346.545 93.96 l
359.1 93.96 l
371.655 95.802105 l
384.21 95.802105 l
396.765 93.96 l
409.32 94.881053 l
421.875 93.96 l
434.43 94.881053 l
446.985 96.723158 l
459.54 94.881053 l
472.095 93.96 l
484.65 94.881053 l
497.205 96.723158 l
509.76 97.644211 l
522.315 95.802105 l
534.87 97.644211 l
547.425 97.644211 l
559.98 98.565263 l
572.535 97.644211 l
585.09 100.407368 l
597.645 103.170526 l
610.2 104.091579 l
stroke
grestore
0.800 setlinewidth
0 setlinejoin
2 setlinecap
[] 0 setdash
0.000 setgray
gsave
108 71.28 m
108 570.24 l
stroke
grestore
gsave
610.2 71.28 m
610.2 570.24 l
stroke
grestore
gsave
108 71.28 m
610.2 71.28 l
stroke
grestore
gsave
108 570.24 m
610.2 570.24 l
stroke
grestore
gsave
95.100000 576.240000 translate
0.000000 rotate
/DejaVuSans findfont
24.0 scalefont
setfont
0.000000 0.765625 moveto
/F glyphshow

13.804688 0.765625 moveto
/r glyphshow

23.671875 0.765625 moveto
/a glyphshow

38.378906 0.765625 moveto
/c glyphshow

51.574219 0.765625 moveto
/t glyphshow

60.984375 0.765625 moveto
/i glyphshow

67.652344 0.765625 moveto
/o glyphshow

82.335938 0.765625 moveto
/n glyphshow

97.546875 0.765625 moveto
/space glyphshow

105.175781 0.765625 moveto
/o glyphshow

119.859375 0.765625 moveto
/f glyphshow

128.308594 0.765625 moveto
/space glyphshow

135.937500 0.765625 moveto
/T glyphshow

150.597656 0.765625 moveto
/r glyphshow

160.464844 0.765625 moveto
/a glyphshow

175.171875 0.765625 moveto
/c glyphshow

188.367188 0.765625 moveto
/k glyphshow

202.265625 0.765625 moveto
/space glyphshow

209.894531 0.765625 moveto
/L glyphshow

223.265625 0.765625 moveto
/o glyphshow

237.949219 0.765625 moveto
/s glyphshow

250.453125 0.765625 moveto
/t glyphshow

259.863281 0.765625 moveto
/space glyphshow

267.492188 0.765625 moveto
/P glyphshow

281.964844 0.765625 moveto
/a glyphshow

296.671875 0.765625 moveto
/r glyphshow

306.539062 0.765625 moveto
/t glyphshow

315.949219 0.765625 moveto
/i glyphshow

322.617188 0.765625 moveto
/c glyphshow

335.812500 0.765625 moveto
/l glyphshow

342.480469 0.765625 moveto
/e glyphshow

357.246094 0.765625 moveto
/s glyphshow

369.750000 0.765625 moveto
/space glyphshow

377.378906 0.765625 moveto
/o glyphshow

392.062500 0.765625 moveto
/f glyphshow

400.511719 0.765625 moveto
/space glyphshow

408.140625 0.765625 moveto
/uni0394 glyphshow

/DejaVuSans-Oblique findfont
24.0 scalefont
setfont
424.558594 0.765625 moveto
/T glyphshow

/DejaVuSans-Oblique findfont
16.8 scalefont
setfont
439.218750 -3.171875 moveto
/o glyphshow

449.497266 -3.171875 moveto
/b glyphshow

460.161328 -3.171875 moveto
/s glyphshow

/DejaVuSans findfont
24.0 scalefont
setfont
469.570312 0.765625 moveto
/equal glyphshow

489.679688 0.765625 moveto
/zero glyphshow

504.949219 0.765625 moveto
/period glyphshow

512.578125 0.765625 moveto
/five glyphshow


grestore
1.000 setlinewidth
0 setlinecap
0.800 setgray
gsave
627 128.2275 m
830.221875 128.2275 l
833.421875 128.2275 835.021875 129.8275 835.021875 133.0275 c
835.021875 553.44 l
835.021875 556.64 833.421875 558.24 830.221875 558.24 c
627 558.24 l
623.8 558.24 622.2 556.64 622.2 553.44 c
622.2 133.0275 l
622.2 129.8275 623.8 128.2275 627 128.2275 c
cl
gsave
1.000 setgray
fill
grestore
stroke
grestore
4.000 setlinewidth
1 setlinejoin
2 setlinecap
[] 0 setdash
0.000 setgray
gsave
631.8 538.805625 m
679.8 538.805625 l
stroke
grestore
gsave
699.000000 530.405625 translate
0.000000 rotate
0.000000 0.000000 m /s glyphshow
12.503906 0.000000 m /t glyphshow
21.914062 0.000000 m /b glyphshow
37.148438 0.000000 m /comma glyphshow
44.777344 0.000000 m /space glyphshow
52.406250 0.000000 m /zero glyphshow
67.675781 0.000000 m /period glyphshow
75.304688 0.000000 m /one glyphshow
90.574219 0.000000 m /two glyphshow
105.843750 0.000000 m /five glyphshow
grestore
1.000 0.000 0.000 setrgbcolor
gsave
631.8 503.57125 m
679.8 503.57125 l
stroke
grestore
0.000 setgray
gsave
699.000000 495.171250 translate
0.000000 rotate
0.000000 0.000000 m /s glyphshow
12.503906 0.000000 m /t glyphshow
21.914062 0.000000 m /b glyphshow
37.148438 0.000000 m /comma glyphshow
44.777344 0.000000 m /space glyphshow
52.406250 0.000000 m /zero glyphshow
67.675781 0.000000 m /period glyphshow
75.304688 0.000000 m /one glyphshow
grestore
0.750 0.000 0.750 setrgbcolor
gsave
631.8 468.336875 m
679.8 468.336875 l
stroke
grestore
0.000 setgray
gsave
699.000000 459.936875 translate
0.000000 rotate
0.000000 0.000000 m /s glyphshow
12.503906 0.000000 m /t glyphshow
21.914062 0.000000 m /b glyphshow
37.148438 0.000000 m /comma glyphshow
44.777344 0.000000 m /space glyphshow
52.406250 0.000000 m /zero glyphshow
67.675781 0.000000 m /period glyphshow
75.304688 0.000000 m /zero glyphshow
90.574219 0.000000 m /seven glyphshow
105.843750 0.000000 m /five glyphshow
grestore
0.000 0.000 1.000 setrgbcolor
gsave
631.8 433.1025 m
679.8 433.1025 l
stroke
grestore
0.000 setgray
gsave
699.000000 424.702500 translate
0.000000 rotate
0.000000 0.000000 m /s glyphshow
12.503906 0.000000 m /t glyphshow
21.914062 0.000000 m /b glyphshow
37.148438 0.000000 m /comma glyphshow
44.777344 0.000000 m /space glyphshow
52.406250 0.000000 m /zero glyphshow
67.675781 0.000000 m /period glyphshow
75.304688 0.000000 m /zero glyphshow
90.574219 0.000000 m /five glyphshow
grestore
0.000 0.500 0.000 setrgbcolor
gsave
631.8 397.868125 m
679.8 397.868125 l
stroke
grestore
0.000 setgray
gsave
699.000000 389.468125 translate
0.000000 rotate
0.000000 0.000000 m /s glyphshow
12.503906 0.000000 m /t glyphshow
21.914062 0.000000 m /b glyphshow
37.148438 0.000000 m /comma glyphshow
44.777344 0.000000 m /space glyphshow
52.406250 0.000000 m /zero glyphshow
67.675781 0.000000 m /period glyphshow
75.304688 0.000000 m /zero glyphshow
90.574219 0.000000 m /two glyphshow
105.843750 0.000000 m /five glyphshow
grestore
0.000 0.750 0.750 setrgbcolor
gsave
631.8 362.63375 m
679.8 362.63375 l
stroke
grestore
0.000 setgray
gsave
699.000000 354.233750 translate
0.000000 rotate
0.000000 0.000000 m /e glyphshow
14.765625 0.000000 m /n glyphshow
29.976562 0.000000 m /s glyphshow
42.480469 0.000000 m /comma glyphshow
50.109375 0.000000 m /space glyphshow
57.738281 0.000000 m /zero glyphshow
73.007812 0.000000 m /period glyphshow
80.636719 0.000000 m /zero glyphshow
95.906250 0.000000 m /one glyphshow
grestore
0 setlinecap
[14.8 6.4] 0 setdash
gsave
631.8 327.399375 m
679.8 327.399375 l
stroke
grestore
gsave
699.000000 318.999375 translate
0.000000 rotate
0.000000 0.000000 m /e glyphshow
14.765625 0.000000 m /n glyphshow
29.976562 0.000000 m /s glyphshow
42.480469 0.000000 m /comma glyphshow
50.109375 0.000000 m /space glyphshow
57.738281 0.000000 m /zero glyphshow
73.007812 0.000000 m /period glyphshow
80.636719 0.000000 m /one glyphshow
95.906250 0.000000 m /two glyphshow
111.175781 0.000000 m /five glyphshow
grestore
1.000 0.000 0.000 setrgbcolor
gsave
631.8 292.165 m
679.8 292.165 l
stroke
grestore
0.000 setgray
gsave
699.000000 283.765000 translate
0.000000 rotate
0.000000 0.000000 m /e glyphshow
14.765625 0.000000 m /n glyphshow
29.976562 0.000000 m /s glyphshow
42.480469 0.000000 m /comma glyphshow
50.109375 0.000000 m /space glyphshow
57.738281 0.000000 m /zero glyphshow
73.007812 0.000000 m /period glyphshow
80.636719 0.000000 m /one glyphshow
grestore
0.750 0.000 0.750 setrgbcolor
gsave
631.8 256.930625 m
679.8 256.930625 l
stroke
grestore
0.000 setgray
gsave
699.000000 248.530625 translate
0.000000 rotate
0.000000 0.000000 m /e glyphshow
14.765625 0.000000 m /n glyphshow
29.976562 0.000000 m /s glyphshow
42.480469 0.000000 m /comma glyphshow
50.109375 0.000000 m /space glyphshow
57.738281 0.000000 m /zero glyphshow
73.007812 0.000000 m /period glyphshow
80.636719 0.000000 m /zero glyphshow
95.906250 0.000000 m /seven glyphshow
111.175781 0.000000 m /five glyphshow
grestore
0.000 0.000 1.000 setrgbcolor
gsave
631.8 221.69625 m
679.8 221.69625 l
stroke
grestore
0.000 setgray
gsave
699.000000 213.296250 translate
0.000000 rotate
0.000000 0.000000 m /e glyphshow
14.765625 0.000000 m /n glyphshow
29.976562 0.000000 m /s glyphshow
42.480469 0.000000 m /comma glyphshow
50.109375 0.000000 m /space glyphshow
57.738281 0.000000 m /zero glyphshow
73.007812 0.000000 m /period glyphshow
80.636719 0.000000 m /zero glyphshow
95.906250 0.000000 m /five glyphshow
grestore
0.000 0.500 0.000 setrgbcolor
gsave
631.8 186.461875 m
679.8 186.461875 l
stroke
grestore
0.000 setgray
gsave
699.000000 178.061875 translate
0.000000 rotate
0.000000 0.000000 m /e glyphshow
14.765625 0.000000 m /n glyphshow
29.976562 0.000000 m /s glyphshow
42.480469 0.000000 m /comma glyphshow
50.109375 0.000000 m /space glyphshow
57.738281 0.000000 m /zero glyphshow
73.007812 0.000000 m /period glyphshow
80.636719 0.000000 m /zero glyphshow
95.906250 0.000000 m /two glyphshow
111.175781 0.000000 m /five glyphshow
grestore
0.000 0.750 0.750 setrgbcolor
gsave
631.8 151.2275 m
679.8 151.2275 l
stroke
grestore
0.000 setgray
gsave
699.000000 142.827500 translate
0.000000 rotate
0.000000 0.000000 m /e glyphshow
14.765625 0.000000 m /n glyphshow
29.976562 0.000000 m /s glyphshow
42.480469 0.000000 m /comma glyphshow
50.109375 0.000000 m /space glyphshow
57.738281 0.000000 m /zero glyphshow
73.007812 0.000000 m /period glyphshow
80.636719 0.000000 m /zero glyphshow
95.906250 0.000000 m /one glyphshow
grestore

end
showpage
