%!PS-Adobe-3.0 EPSF-3.0
%%Title: /home/yin/020000_undetected_thin_part.eps
%%Creator: matplotlib version 3.1.0, http://matplotlib.org/
%%CreationDate: Mon Jan 20 12:43:23 2020
%%Orientation: portrait
%%BoundingBox: -87.46093749999999 98.46843750000004 699.4609375 693.5315625
%%EndComments
%%BeginProlog
/mpldict 9 dict def
mpldict begin
/m { moveto } bind def
/l { lineto } bind def
/r { rlineto } bind def
/c { curveto } bind def
/cl { closepath } bind def
/box {
m
1 index 0 r
0 exch r
neg 0 r
cl
} bind def
/clipbox {
box
clip
newpath
} bind def
%!PS-Adobe-3.0 Resource-Font
%%Title: DejaVu Sans
%%Copyright: Copyright (c) 2003 by Bitstream, Inc. All Rights Reserved. Copyright (c) 2006 by Tavmjong Bah. All Rights Reserved. DejaVu changes are in public domain 
%%Creator: Converted from TrueType to type 3 by PPR
25 dict begin
/_d{bind def}bind def
/_m{moveto}_d
/_l{lineto}_d
/_cl{closepath eofill}_d
/_c{curveto}_d
/_sc{7 -1 roll{setcachedevice}{pop pop pop pop pop pop}ifelse}_d
/_e{exec}_d
/FontName /DejaVuSans def
/PaintType 0 def
/FontMatrix[.001 0 0 .001 0 0]def
/FontBBox[-1021 -463 1793 1232]def
/FontType 3 def
/Encoding [ /space /comma /period /slash /zero /one /two /three /four /five /six /eight /B /D /F /O /P /S /T /U /a /c /d /e /f /h /i /k /l /n /o /p /r /s /t /u /v ] def
/FontInfo 10 dict dup begin
/FamilyName (DejaVu Sans) def
/FullName (DejaVu Sans) def
/Notice (Copyright (c) 2003 by Bitstream, Inc. All Rights Reserved. Copyright (c) 2006 by Tavmjong Bah. All Rights Reserved. DejaVu changes are in public domain ) def
/Weight (Book) def
/Version (Version 2.35) def
/ItalicAngle 0.0 def
/isFixedPitch false def
/UnderlinePosition -130 def
/UnderlineThickness 90 def
end readonly def
/CharStrings 38 dict dup begin
/.notdef 0 def
/space{318 0 0 0 0 0 _sc
}_d
/comma{318 0 77 -115 220 124 _sc
117 124 _m
220 124 _l
220 40 _l
140 -115 _l
77 -115 _l
117 40 _l
117 124 _l
_cl}_d
/period{318 0 107 0 210 124 _sc
107 124 _m
210 124 _l
210 0 _l
107 0 _l
107 124 _l
_cl}_d
/slash{337 0 0 -92 337 729 _sc
254 729 _m
337 729 _l
83 -92 _l
0 -92 _l
254 729 _l
_cl}_d
/zero{636 0 66 -13 570 742 _sc
318 664 _m
267 664 229 639 203 589 _c
177 539 165 464 165 364 _c
165 264 177 189 203 139 _c
229 89 267 64 318 64 _c
369 64 407 89 433 139 _c
458 189 471 264 471 364 _c
471 464 458 539 433 589 _c
407 639 369 664 318 664 _c
318 742 _m
399 742 461 709 505 645 _c
548 580 570 486 570 364 _c
570 241 548 147 505 83 _c
461 19 399 -13 318 -13 _c
236 -13 173 19 130 83 _c
87 147 66 241 66 364 _c
66 486 87 580 130 645 _c
173 709 236 742 318 742 _c
_cl}_d
/one{636 0 110 0 544 729 _sc
124 83 _m
285 83 _l
285 639 _l
110 604 _l
110 694 _l
284 729 _l
383 729 _l
383 83 _l
544 83 _l
544 0 _l
124 0 _l
124 83 _l
_cl}_d
/two{{636 0 73 0 536 742 _sc
192 83 _m
536 83 _l
536 0 _l
73 0 _l
73 83 _l
110 121 161 173 226 239 _c
290 304 331 346 348 365 _c
380 400 402 430 414 455 _c
426 479 433 504 433 528 _c
433 566 419 598 392 622 _c
365 646 330 659 286 659 _c
255 659 222 653 188 643 _c
154 632 117 616 78 594 _c
78 694 _l
118 710 155 722 189 730 _c
223 738 255 742 284 742 _c
}_e{359 742 419 723 464 685 _c
509 647 532 597 532 534 _c
532 504 526 475 515 449 _c
504 422 484 390 454 354 _c
446 344 420 317 376 272 _c
332 227 271 164 192 83 _c
_cl}_e}_d
/three{{636 0 76 -13 556 742 _sc
406 393 _m
453 383 490 362 516 330 _c
542 298 556 258 556 212 _c
556 140 531 84 482 45 _c
432 6 362 -13 271 -13 _c
240 -13 208 -10 176 -4 _c
144 1 110 10 76 22 _c
76 117 _l
103 101 133 89 166 81 _c
198 73 232 69 268 69 _c
330 69 377 81 409 105 _c
441 129 458 165 458 212 _c
458 254 443 288 413 312 _c
383 336 341 349 287 349 _c
}_e{202 349 _l
202 430 _l
291 430 _l
339 430 376 439 402 459 _c
428 478 441 506 441 543 _c
441 580 427 609 401 629 _c
374 649 336 659 287 659 _c
260 659 231 656 200 650 _c
169 644 135 635 98 623 _c
98 711 _l
135 721 170 729 203 734 _c
235 739 266 742 296 742 _c
370 742 429 725 473 691 _c
517 657 539 611 539 553 _c
539 513 527 479 504 451 _c
481 423 448 403 406 393 _c
_cl}_e}_d
/four{636 0 49 0 580 729 _sc
378 643 _m
129 254 _l
378 254 _l
378 643 _l
352 729 _m
476 729 _l
476 254 _l
580 254 _l
580 172 _l
476 172 _l
476 0 _l
378 0 _l
378 172 _l
49 172 _l
49 267 _l
352 729 _l
_cl}_d
/five{{636 0 77 -13 549 729 _sc
108 729 _m
495 729 _l
495 646 _l
198 646 _l
198 467 _l
212 472 227 476 241 478 _c
255 480 270 482 284 482 _c
365 482 429 459 477 415 _c
525 370 549 310 549 234 _c
549 155 524 94 475 51 _c
426 8 357 -13 269 -13 _c
238 -13 207 -10 175 -6 _c
143 -1 111 6 77 17 _c
77 116 _l
106 100 136 88 168 80 _c
199 72 232 69 267 69 _c
}_e{323 69 368 83 401 113 _c
433 143 450 183 450 234 _c
450 284 433 324 401 354 _c
368 384 323 399 267 399 _c
241 399 214 396 188 390 _c
162 384 135 375 108 363 _c
108 729 _l
_cl}_e}_d
/six{{636 0 70 -13 573 742 _sc
330 404 _m
286 404 251 388 225 358 _c
199 328 186 286 186 234 _c
186 181 199 139 225 109 _c
251 79 286 64 330 64 _c
374 64 409 79 435 109 _c
461 139 474 181 474 234 _c
474 286 461 328 435 358 _c
409 388 374 404 330 404 _c
526 713 _m
526 623 _l
501 635 476 644 451 650 _c
425 656 400 659 376 659 _c
310 659 260 637 226 593 _c
}_e{192 549 172 482 168 394 _c
187 422 211 444 240 459 _c
269 474 301 482 336 482 _c
409 482 467 459 509 415 _c
551 371 573 310 573 234 _c
573 159 550 99 506 54 _c
462 9 403 -13 330 -13 _c
246 -13 181 19 137 83 _c
92 147 70 241 70 364 _c
70 479 97 571 152 639 _c
206 707 280 742 372 742 _c
396 742 421 739 447 735 _c
472 730 498 723 526 713 _c
_cl}_e}_d
/eight{{636 0 68 -13 568 742 _sc
318 346 _m
271 346 234 333 207 308 _c
180 283 167 249 167 205 _c
167 161 180 126 207 101 _c
234 76 271 64 318 64 _c
364 64 401 76 428 102 _c
455 127 469 161 469 205 _c
469 249 455 283 429 308 _c
402 333 365 346 318 346 _c
219 388 _m
177 398 144 418 120 447 _c
96 476 85 511 85 553 _c
85 611 105 657 147 691 _c
188 725 245 742 318 742 _c
}_e{390 742 447 725 489 691 _c
530 657 551 611 551 553 _c
551 511 539 476 515 447 _c
491 418 459 398 417 388 _c
464 377 501 355 528 323 _c
554 291 568 251 568 205 _c
568 134 546 80 503 43 _c
459 5 398 -13 318 -13 _c
237 -13 175 5 132 43 _c
89 80 68 134 68 205 _c
68 251 81 291 108 323 _c
134 355 171 377 219 388 _c
183 544 _m
183 506 194 476 218 455 _c
}_e{242 434 275 424 318 424 _c
360 424 393 434 417 455 _c
441 476 453 506 453 544 _c
453 582 441 611 417 632 _c
393 653 360 664 318 664 _c
275 664 242 653 218 632 _c
194 611 183 582 183 544 _c
_cl}_e}_d
/B{{686 0 98 0 615 729 _sc
197 348 _m
197 81 _l
355 81 _l
408 81 447 92 473 114 _c
498 136 511 169 511 215 _c
511 260 498 293 473 315 _c
447 337 408 348 355 348 _c
197 348 _l
197 648 _m
197 428 _l
343 428 _l
391 428 426 437 450 455 _c
474 473 486 500 486 538 _c
486 574 474 602 450 620 _c
426 638 391 648 343 648 _c
197 648 _l
98 729 _m
350 729 _l
}_e{425 729 483 713 524 682 _c
564 650 585 606 585 549 _c
585 504 574 468 553 442 _c
532 416 502 399 462 393 _c
510 382 548 360 575 327 _c
601 294 615 253 615 204 _c
615 138 592 88 548 53 _c
504 17 441 0 360 0 _c
98 0 _l
98 729 _l
_cl}_e}_d
/D{770 0 98 0 711 729 _sc
197 648 _m
197 81 _l
316 81 _l
416 81 490 103 537 149 _c
583 195 607 267 607 365 _c
607 463 583 534 537 580 _c
490 625 416 648 316 648 _c
197 648 _l
98 729 _m
301 729 _l
442 729 546 699 612 641 _c
678 582 711 490 711 365 _c
711 239 677 147 611 88 _c
545 29 441 0 301 0 _c
98 0 _l
98 729 _l
_cl}_d
/F{575 0 98 0 517 729 _sc
98 729 _m
517 729 _l
517 646 _l
197 646 _l
197 431 _l
486 431 _l
486 348 _l
197 348 _l
197 0 _l
98 0 _l
98 729 _l
_cl}_d
/O{787 0 56 -13 731 742 _sc
394 662 _m
322 662 265 635 223 582 _c
181 528 160 456 160 364 _c
160 272 181 199 223 146 _c
265 92 322 66 394 66 _c
465 66 522 92 564 146 _c
606 199 627 272 627 364 _c
627 456 606 528 564 582 _c
522 635 465 662 394 662 _c
394 742 _m
496 742 577 707 639 639 _c
700 571 731 479 731 364 _c
731 248 700 157 639 89 _c
577 21 496 -13 394 -13 _c
291 -13 209 21 148 89 _c
86 157 56 248 56 364 _c
56 479 86 571 148 639 _c
209 707 291 742 394 742 _c
_cl}_d
/P{603 0 98 0 569 729 _sc
197 648 _m
197 374 _l
321 374 _l
367 374 402 385 427 409 _c
452 433 465 467 465 511 _c
465 555 452 588 427 612 _c
402 636 367 648 321 648 _c
197 648 _l
98 729 _m
321 729 _l
402 729 464 710 506 673 _c
548 636 569 582 569 511 _c
569 439 548 384 506 348 _c
464 311 402 293 321 293 _c
197 293 _l
197 0 _l
98 0 _l
98 729 _l
_cl}_d
/S{{635 0 66 -13 579 742 _sc
535 705 _m
535 609 _l
497 627 462 640 429 649 _c
395 657 363 662 333 662 _c
279 662 237 651 208 631 _c
179 610 165 580 165 542 _c
165 510 174 485 194 469 _c
213 452 250 439 304 429 _c
364 417 _l
437 403 491 378 526 343 _c
561 307 579 260 579 201 _c
579 130 555 77 508 41 _c
460 5 391 -13 300 -13 _c
265 -13 228 -9 189 -2 _c
}_e{150 5 110 16 69 32 _c
69 134 _l
109 111 148 94 186 83 _c
224 71 262 66 300 66 _c
356 66 399 77 430 99 _c
460 121 476 152 476 194 _c
476 230 465 258 443 278 _c
421 298 385 313 335 323 _c
275 335 _l
201 349 148 372 115 404 _c
82 435 66 478 66 534 _c
66 598 88 649 134 686 _c
179 723 242 742 322 742 _c
356 742 390 739 426 733 _c
461 727 497 717 535 705 _c
}_e{_cl}_e}_d
/T{611 0 -2 0 614 729 _sc
-2 729 _m
614 729 _l
614 646 _l
355 646 _l
355 0 _l
256 0 _l
256 646 _l
-2 646 _l
-2 729 _l
_cl}_d
/U{732 0 87 -13 645 729 _sc
87 729 _m
186 729 _l
186 286 _l
186 208 200 151 228 117 _c
256 83 302 66 366 66 _c
429 66 475 83 503 117 _c
531 151 546 208 546 286 _c
546 729 _l
645 729 _l
645 274 _l
645 178 621 107 574 59 _c
527 11 458 -13 366 -13 _c
274 -13 204 11 157 59 _c
110 107 87 178 87 274 _c
87 729 _l
_cl}_d
/a{{613 0 60 -13 522 560 _sc
343 275 _m
270 275 220 266 192 250 _c
164 233 150 205 150 165 _c
150 133 160 107 181 89 _c
202 70 231 61 267 61 _c
317 61 357 78 387 114 _c
417 149 432 196 432 255 _c
432 275 _l
343 275 _l
522 312 _m
522 0 _l
432 0 _l
432 83 _l
411 49 385 25 355 10 _c
325 -5 287 -13 243 -13 _c
187 -13 142 2 109 33 _c
76 64 60 106 60 159 _c
}_e{60 220 80 266 122 298 _c
163 329 224 345 306 345 _c
432 345 _l
432 354 _l
432 395 418 427 391 450 _c
364 472 326 484 277 484 _c
245 484 215 480 185 472 _c
155 464 127 453 100 439 _c
100 522 _l
132 534 164 544 195 550 _c
226 556 256 560 286 560 _c
365 560 424 539 463 498 _c
502 457 522 395 522 312 _c
_cl}_e}_d
/c{{550 0 55 -13 488 560 _sc
488 526 _m
488 442 _l
462 456 437 466 411 473 _c
385 480 360 484 334 484 _c
276 484 230 465 198 428 _c
166 391 150 339 150 273 _c
150 206 166 154 198 117 _c
230 80 276 62 334 62 _c
360 62 385 65 411 72 _c
437 79 462 90 488 104 _c
488 21 _l
462 9 436 0 410 -5 _c
383 -10 354 -13 324 -13 _c
242 -13 176 12 128 64 _c
}_e{79 115 55 185 55 273 _c
55 362 79 432 128 483 _c
177 534 244 560 330 560 _c
358 560 385 557 411 551 _c
437 545 463 537 488 526 _c
_cl}_e}_d
/d{{635 0 55 -13 544 760 _sc
454 464 _m
454 760 _l
544 760 _l
544 0 _l
454 0 _l
454 82 _l
435 49 411 25 382 10 _c
353 -5 319 -13 279 -13 _c
213 -13 159 13 117 65 _c
75 117 55 187 55 273 _c
55 359 75 428 117 481 _c
159 533 213 560 279 560 _c
319 560 353 552 382 536 _c
411 520 435 496 454 464 _c
148 273 _m
148 207 161 155 188 117 _c
215 79 253 61 301 61 _c
}_e{348 61 385 79 413 117 _c
440 155 454 207 454 273 _c
454 339 440 390 413 428 _c
385 466 348 485 301 485 _c
253 485 215 466 188 428 _c
161 390 148 339 148 273 _c
_cl}_e}_d
/e{{615 0 55 -13 562 560 _sc
562 296 _m
562 252 _l
149 252 _l
153 190 171 142 205 110 _c
238 78 284 62 344 62 _c
378 62 412 66 444 74 _c
476 82 509 95 541 113 _c
541 28 _l
509 14 476 3 442 -3 _c
408 -9 373 -13 339 -13 _c
251 -13 182 12 131 62 _c
80 112 55 181 55 268 _c
55 357 79 428 127 481 _c
175 533 241 560 323 560 _c
397 560 455 536 498 489 _c
}_e{540 441 562 377 562 296 _c
472 322 _m
471 371 457 410 431 440 _c
404 469 368 484 324 484 _c
274 484 234 469 204 441 _c
174 413 156 373 152 322 _c
472 322 _l
_cl}_e}_d
/f{352 0 23 0 371 760 _sc
371 760 _m
371 685 _l
285 685 _l
253 685 230 678 218 665 _c
205 652 199 629 199 595 _c
199 547 _l
347 547 _l
347 477 _l
199 477 _l
199 0 _l
109 0 _l
109 477 _l
23 477 _l
23 547 _l
109 547 _l
109 585 _l
109 645 123 690 151 718 _c
179 746 224 760 286 760 _c
371 760 _l
_cl}_d
/h{634 0 91 0 549 760 _sc
549 330 _m
549 0 _l
459 0 _l
459 327 _l
459 379 448 417 428 443 _c
408 469 378 482 338 482 _c
289 482 251 466 223 435 _c
195 404 181 362 181 309 _c
181 0 _l
91 0 _l
91 760 _l
181 760 _l
181 462 _l
202 494 227 519 257 535 _c
286 551 320 560 358 560 _c
420 560 468 540 500 501 _c
532 462 549 405 549 330 _c
_cl}_d
/i{278 0 94 0 184 760 _sc
94 547 _m
184 547 _l
184 0 _l
94 0 _l
94 547 _l
94 760 _m
184 760 _l
184 646 _l
94 646 _l
94 760 _l
_cl}_d
/k{579 0 91 0 576 760 _sc
91 760 _m
181 760 _l
181 311 _l
449 547 _l
564 547 _l
274 291 _l
576 0 _l
459 0 _l
181 267 _l
181 0 _l
91 0 _l
91 760 _l
_cl}_d
/l{278 0 94 0 184 760 _sc
94 760 _m
184 760 _l
184 0 _l
94 0 _l
94 760 _l
_cl}_d
/n{634 0 91 0 549 560 _sc
549 330 _m
549 0 _l
459 0 _l
459 327 _l
459 379 448 417 428 443 _c
408 469 378 482 338 482 _c
289 482 251 466 223 435 _c
195 404 181 362 181 309 _c
181 0 _l
91 0 _l
91 547 _l
181 547 _l
181 462 _l
202 494 227 519 257 535 _c
286 551 320 560 358 560 _c
420 560 468 540 500 501 _c
532 462 549 405 549 330 _c
_cl}_d
/o{612 0 55 -13 557 560 _sc
306 484 _m
258 484 220 465 192 427 _c
164 389 150 338 150 273 _c
150 207 163 156 191 118 _c
219 80 257 62 306 62 _c
354 62 392 80 420 118 _c
448 156 462 207 462 273 _c
462 337 448 389 420 427 _c
392 465 354 484 306 484 _c
306 560 _m
384 560 445 534 490 484 _c
534 433 557 363 557 273 _c
557 183 534 113 490 63 _c
445 12 384 -13 306 -13 _c
227 -13 165 12 121 63 _c
77 113 55 183 55 273 _c
55 363 77 433 121 484 _c
165 534 227 560 306 560 _c
_cl}_d
/p{{635 0 91 -207 580 560 _sc
181 82 _m
181 -207 _l
91 -207 _l
91 547 _l
181 547 _l
181 464 _l
199 496 223 520 252 536 _c
281 552 316 560 356 560 _c
422 560 476 533 518 481 _c
559 428 580 359 580 273 _c
580 187 559 117 518 65 _c
476 13 422 -13 356 -13 _c
316 -13 281 -5 252 10 _c
223 25 199 49 181 82 _c
487 273 _m
487 339 473 390 446 428 _c
418 466 381 485 334 485 _c
}_e{286 485 249 466 222 428 _c
194 390 181 339 181 273 _c
181 207 194 155 222 117 _c
249 79 286 61 334 61 _c
381 61 418 79 446 117 _c
473 155 487 207 487 273 _c
_cl}_e}_d
/r{411 0 91 0 411 560 _sc
411 463 _m
401 469 390 473 378 476 _c
366 478 353 480 339 480 _c
288 480 249 463 222 430 _c
194 397 181 350 181 288 _c
181 0 _l
91 0 _l
91 547 _l
181 547 _l
181 462 _l
199 495 224 520 254 536 _c
284 552 321 560 365 560 _c
371 560 378 559 386 559 _c
393 558 401 557 411 555 _c
411 463 _l
_cl}_d
/s{{521 0 54 -13 472 560 _sc
443 531 _m
443 446 _l
417 458 391 468 364 475 _c
336 481 308 485 279 485 _c
234 485 200 478 178 464 _c
156 450 145 430 145 403 _c
145 382 153 366 169 354 _c
185 342 217 330 265 320 _c
296 313 _l
360 299 405 279 432 255 _c
458 230 472 195 472 151 _c
472 100 452 60 412 31 _c
372 1 316 -13 246 -13 _c
216 -13 186 -10 154 -5 _c
}_e{122 0 89 8 54 20 _c
54 113 _l
87 95 120 82 152 74 _c
184 65 216 61 248 61 _c
290 61 323 68 346 82 _c
368 96 380 117 380 144 _c
380 168 371 187 355 200 _c
339 213 303 226 247 238 _c
216 245 _l
160 257 119 275 95 299 _c
70 323 58 356 58 399 _c
58 450 76 490 112 518 _c
148 546 200 560 268 560 _c
301 560 332 557 362 552 _c
391 547 418 540 443 531 _c
}_e{_cl}_e}_d
/t{392 0 27 0 368 702 _sc
183 702 _m
183 547 _l
368 547 _l
368 477 _l
183 477 _l
183 180 _l
183 135 189 106 201 94 _c
213 81 238 75 276 75 _c
368 75 _l
368 0 _l
276 0 _l
206 0 158 13 132 39 _c
106 65 93 112 93 180 _c
93 477 _l
27 477 _l
27 547 _l
93 547 _l
93 702 _l
183 702 _l
_cl}_d
/u{634 0 85 -13 543 560 _sc
85 216 _m
85 547 _l
175 547 _l
175 219 _l
175 167 185 129 205 103 _c
225 77 255 64 296 64 _c
344 64 383 79 411 110 _c
439 141 453 183 453 237 _c
453 547 _l
543 547 _l
543 0 _l
453 0 _l
453 84 _l
431 50 405 26 377 10 _c
348 -5 315 -13 277 -13 _c
214 -13 166 6 134 45 _c
101 83 85 140 85 216 _c
311 560 _m
311 560 _l
_cl}_d
/v{592 0 30 0 562 547 _sc
30 547 _m
125 547 _l
296 88 _l
467 547 _l
562 547 _l
357 0 _l
235 0 _l
30 547 _l
_cl}_d
end readonly def

/BuildGlyph
 {exch begin
 CharStrings exch
 2 copy known not{pop /.notdef}if
 true 3 1 roll get exec
 end}_d

/BuildChar {
 1 index /Encoding get exch get
 1 index /BuildGlyph get exec
}_d

FontName currentdict end definefont pop
%!PS-Adobe-3.0 Resource-Font
%%Title: DejaVu Sans Oblique
%%Copyright: Copyright (c) 2003 by Bitstream, Inc. All Rights Reserved. Copyright (c) 2006 by Tavmjong Bah. All Rights Reserved. DejaVu changes are in public domain 
%%Creator: Converted from TrueType to type 3 by PPR
25 dict begin
/_d{bind def}bind def
/_m{moveto}_d
/_l{lineto}_d
/_cl{closepath eofill}_d
/_c{curveto}_d
/_sc{7 -1 roll{setcachedevice}{pop pop pop pop pop pop}ifelse}_d
/_e{exec}_d
/FontName /DejaVuSans-Oblique def
/PaintType 0 def
/FontMatrix[.001 0 0 .001 0 0]def
/FontBBox[-1016 -350 1659 1068]def
/FontType 3 def
/Encoding [ /t /delta ] def
/FontInfo 10 dict dup begin
/FamilyName (DejaVu Sans) def
/FullName (DejaVu Sans Oblique) def
/Notice (Copyright (c) 2003 by Bitstream, Inc. All Rights Reserved. Copyright (c) 2006 by Tavmjong Bah. All Rights Reserved. DejaVu changes are in public domain ) def
/Weight (Oblique) def
/Version (Version 2.35) def
/ItalicAngle -11.0 def
/isFixedPitch false def
/UnderlinePosition -130 def
/UnderlineThickness 90 def
end readonly def
/CharStrings 3 dict dup begin
/.notdef 0 def
/t{{392 0 64 0 423 702 _sc
423 547 _m
409 477 _l
230 477 _l
172 180 _l
170 169 168 160 167 152 _c
166 144 166 139 166 135 _c
166 114 172 99 185 89 _c
197 79 217 75 245 75 _c
336 75 _l
321 0 _l
235 0 _l
181 0 141 10 115 31 _c
89 52 76 84 76 126 _c
76 133 76 141 77 150 _c
78 159 80 169 82 180 _c
140 477 _l
64 477 _l
78 547 _l
153 547 _l
183 702 _l
}_e{273 702 _l
243 547 _l
423 547 _l
_cl}_e}_d
/delta{{612 0 38 -13 557 742 _sc
542 633 _m
514 655 461 667 383 667 _c
300 667 255 648 248 610 _c
242 580 280 557 364 542 _c
428 530 476 505 508 469 _c
546 425 556 358 539 268 _c
521 182 486 113 432 63 _c
377 12 310 -13 232 -13 _c
154 -13 98 12 63 63 _c
28 113 20 183 38 273 _c
50 339 84 399 139 453 _c
160 473 184 490 211 502 _c
165 528 147 563 156 609 _c
}_e{173 697 253 742 397 742 _c
469 742 522 730 557 708 _c
542 633 _l
274 478 _m
250 468 226 451 204 428 _c
168 391 144 339 132 273 _c
119 207 123 155 144 118 _c
164 80 199 62 248 62 _c
295 62 336 81 372 119 _c
407 156 431 206 443 268 _c
455 332 450 380 427 412 _c
401 445 369 464 329 468 _c
308 470 290 473 274 478 _c
_cl}_e}_d
end readonly def

/BuildGlyph
 {exch begin
 CharStrings exch
 2 copy known not{pop /.notdef}if
 true 3 1 roll get exec
 end}_d

/BuildChar {
 1 index /Encoding get exch get
 1 index /BuildGlyph get exec
}_d

FontName currentdict end definefont pop
end
%%EndProlog
mpldict begin
-87.461 98.468 translate
786.922 595.063 0 0 clipbox
gsave
0 0 m
786.921875 0 l
786.921875 595.063125 l
0 595.063125 l
cl
1.000 setgray
fill
grestore
gsave
94.85625 64.66875 m
764.45625 64.66875 l
764.45625 563.62875 l
94.85625 563.62875 l
cl
1.000 setgray
fill
grestore
0.800 setlinewidth
1 setlinejoin
0 setlinecap
[] 0 setdash
0.000 setgray
gsave
/o {
gsave
newpath
translate
0.8 setlinewidth
1 setlinejoin
0 setlinecap
0 0 m
0 -3.5 l

gsave
0.000 setgray
fill
grestore
stroke
grestore
} bind def
94.8563 64.6688 o
grestore
/DejaVuSans findfont
24.000 scalefont
setfont
gsave
87.223438 39.434375 translate
0.000000 rotate
0.000000 0.000000 m /five glyphshow
grestore
gsave
/o {
gsave
newpath
translate
0.8 setlinewidth
1 setlinejoin
0 setlinecap
0 0 m
0 -3.5 l

gsave
0.000 setgray
fill
grestore
stroke
grestore
} bind def
169.256 64.6688 o
grestore
gsave
153.990625 39.434375 translate
0.000000 rotate
0.000000 0.000000 m /one glyphshow
15.269531 0.000000 m /zero glyphshow
grestore
gsave
/o {
gsave
newpath
translate
0.8 setlinewidth
1 setlinejoin
0 setlinecap
0 0 m
0 -3.5 l

gsave
0.000 setgray
fill
grestore
stroke
grestore
} bind def
243.656 64.6688 o
grestore
gsave
228.390625 39.434375 translate
0.000000 rotate
0.000000 0.000000 m /one glyphshow
15.269531 0.000000 m /five glyphshow
grestore
gsave
/o {
gsave
newpath
translate
0.8 setlinewidth
1 setlinejoin
0 setlinecap
0 0 m
0 -3.5 l

gsave
0.000 setgray
fill
grestore
stroke
grestore
} bind def
318.056 64.6688 o
grestore
gsave
302.790625 39.434375 translate
0.000000 rotate
0.000000 0.000000 m /two glyphshow
15.269531 0.000000 m /zero glyphshow
grestore
gsave
/o {
gsave
newpath
translate
0.8 setlinewidth
1 setlinejoin
0 setlinecap
0 0 m
0 -3.5 l

gsave
0.000 setgray
fill
grestore
stroke
grestore
} bind def
392.456 64.6688 o
grestore
gsave
377.190625 39.434375 translate
0.000000 rotate
0.000000 0.000000 m /two glyphshow
15.269531 0.000000 m /five glyphshow
grestore
gsave
/o {
gsave
newpath
translate
0.8 setlinewidth
1 setlinejoin
0 setlinecap
0 0 m
0 -3.5 l

gsave
0.000 setgray
fill
grestore
stroke
grestore
} bind def
466.856 64.6688 o
grestore
gsave
451.590625 39.434375 translate
0.000000 rotate
0.000000 0.000000 m /three glyphshow
15.269531 0.000000 m /zero glyphshow
grestore
gsave
/o {
gsave
newpath
translate
0.8 setlinewidth
1 setlinejoin
0 setlinecap
0 0 m
0 -3.5 l

gsave
0.000 setgray
fill
grestore
stroke
grestore
} bind def
541.256 64.6688 o
grestore
gsave
525.990625 39.434375 translate
0.000000 rotate
0.000000 0.000000 m /three glyphshow
15.269531 0.000000 m /five glyphshow
grestore
gsave
/o {
gsave
newpath
translate
0.8 setlinewidth
1 setlinejoin
0 setlinecap
0 0 m
0 -3.5 l

gsave
0.000 setgray
fill
grestore
stroke
grestore
} bind def
615.656 64.6688 o
grestore
gsave
600.390625 39.434375 translate
0.000000 rotate
0.000000 0.000000 m /four glyphshow
15.269531 0.000000 m /zero glyphshow
grestore
gsave
/o {
gsave
newpath
translate
0.8 setlinewidth
1 setlinejoin
0 setlinecap
0 0 m
0 -3.5 l

gsave
0.000 setgray
fill
grestore
stroke
grestore
} bind def
690.056 64.6688 o
grestore
gsave
674.790625 39.434375 translate
0.000000 rotate
0.000000 0.000000 m /four glyphshow
15.269531 0.000000 m /five glyphshow
grestore
gsave
/o {
gsave
newpath
translate
0.8 setlinewidth
1 setlinejoin
0 setlinecap
0 0 m
0 -3.5 l

gsave
0.000 setgray
fill
grestore
stroke
grestore
} bind def
764.456 64.6688 o
grestore
gsave
749.190625 39.434375 translate
0.000000 rotate
0.000000 0.000000 m /five glyphshow
15.269531 0.000000 m /zero glyphshow
grestore
gsave
367.304688 12.200000 translate
0.000000 rotate
0.000000 0.000000 m /S glyphshow
15.234375 0.000000 m /n glyphshow
30.445312 0.000000 m /a glyphshow
45.152344 0.000000 m /p glyphshow
60.386719 0.000000 m /s glyphshow
72.890625 0.000000 m /h glyphshow
88.101562 0.000000 m /o glyphshow
102.785156 0.000000 m /t glyphshow
112.195312 0.000000 m /s glyphshow
grestore
gsave
/o {
gsave
newpath
translate
0.8 setlinewidth
1 setlinejoin
0 setlinecap
0 0 m
-3.5 0 l

gsave
0.000 setgray
fill
grestore
stroke
grestore
} bind def
94.8563 84.9116 o
grestore
gsave
34.434375 75.794394 translate
0.000000 rotate
0.000000 0.000000 m /zero glyphshow
15.269531 0.000000 m /period glyphshow
22.898438 0.000000 m /zero glyphshow
38.167969 0.000000 m /zero glyphshow
grestore
gsave
/o {
gsave
newpath
translate
0.8 setlinewidth
1 setlinejoin
0 setlinecap
0 0 m
-3.5 0 l

gsave
0.000 setgray
fill
grestore
stroke
grestore
} bind def
94.8563 142.257 o
grestore
gsave
34.434375 133.139527 translate
0.000000 rotate
0.000000 0.000000 m /zero glyphshow
15.269531 0.000000 m /period glyphshow
22.898438 0.000000 m /zero glyphshow
38.167969 0.000000 m /two glyphshow
grestore
gsave
/o {
gsave
newpath
translate
0.8 setlinewidth
1 setlinejoin
0 setlinecap
0 0 m
-3.5 0 l

gsave
0.000 setgray
fill
grestore
stroke
grestore
} bind def
94.8563 199.602 o
grestore
gsave
34.434375 190.484660 translate
0.000000 rotate
0.000000 0.000000 m /zero glyphshow
15.269531 0.000000 m /period glyphshow
22.898438 0.000000 m /zero glyphshow
38.167969 0.000000 m /four glyphshow
grestore
gsave
/o {
gsave
newpath
translate
0.8 setlinewidth
1 setlinejoin
0 setlinecap
0 0 m
-3.5 0 l

gsave
0.000 setgray
fill
grestore
stroke
grestore
} bind def
94.8563 256.947 o
grestore
gsave
34.434375 247.829793 translate
0.000000 rotate
0.000000 0.000000 m /zero glyphshow
15.269531 0.000000 m /period glyphshow
22.898438 0.000000 m /zero glyphshow
38.167969 0.000000 m /six glyphshow
grestore
gsave
/o {
gsave
newpath
translate
0.8 setlinewidth
1 setlinejoin
0 setlinecap
0 0 m
-3.5 0 l

gsave
0.000 setgray
fill
grestore
stroke
grestore
} bind def
94.8563 314.292 o
grestore
gsave
34.434375 305.174925 translate
0.000000 rotate
0.000000 0.000000 m /zero glyphshow
15.269531 0.000000 m /period glyphshow
22.898438 0.000000 m /zero glyphshow
38.167969 0.000000 m /eight glyphshow
grestore
gsave
/o {
gsave
newpath
translate
0.8 setlinewidth
1 setlinejoin
0 setlinecap
0 0 m
-3.5 0 l

gsave
0.000 setgray
fill
grestore
stroke
grestore
} bind def
94.8563 371.637 o
grestore
gsave
34.434375 362.520058 translate
0.000000 rotate
0.000000 0.000000 m /zero glyphshow
15.269531 0.000000 m /period glyphshow
22.898438 0.000000 m /one glyphshow
38.167969 0.000000 m /zero glyphshow
grestore
gsave
/o {
gsave
newpath
translate
0.8 setlinewidth
1 setlinejoin
0 setlinecap
0 0 m
-3.5 0 l

gsave
0.000 setgray
fill
grestore
stroke
grestore
} bind def
94.8563 428.982 o
grestore
gsave
34.434375 419.865191 translate
0.000000 rotate
0.000000 0.000000 m /zero glyphshow
15.269531 0.000000 m /period glyphshow
22.898438 0.000000 m /one glyphshow
38.167969 0.000000 m /two glyphshow
grestore
gsave
/o {
gsave
newpath
translate
0.8 setlinewidth
1 setlinejoin
0 setlinecap
0 0 m
-3.5 0 l

gsave
0.000 setgray
fill
grestore
stroke
grestore
} bind def
94.8563 486.328 o
grestore
gsave
34.434375 477.210324 translate
0.000000 rotate
0.000000 0.000000 m /zero glyphshow
15.269531 0.000000 m /period glyphshow
22.898438 0.000000 m /one glyphshow
38.167969 0.000000 m /four glyphshow
grestore
gsave
/o {
gsave
newpath
translate
0.8 setlinewidth
1 setlinejoin
0 setlinecap
0 0 m
-3.5 0 l

gsave
0.000 setgray
fill
grestore
stroke
grestore
} bind def
94.8563 543.673 o
grestore
gsave
34.434375 534.555456 translate
0.000000 rotate
0.000000 0.000000 m /zero glyphshow
15.269531 0.000000 m /period glyphshow
22.898438 0.000000 m /one glyphshow
38.167969 0.000000 m /six glyphshow
grestore
gsave
25.434375 265.367500 translate
90.000000 rotate
0.000000 0.000000 m /F glyphshow
13.789062 0.000000 m /r glyphshow
23.656250 0.000000 m /a glyphshow
38.363281 0.000000 m /c glyphshow
51.558594 0.000000 m /t glyphshow
60.968750 0.000000 m /i glyphshow
67.636719 0.000000 m /o glyphshow
82.320312 0.000000 m /n glyphshow
grestore
3.000 setlinewidth
2 setlinecap
1.000 0.000 0.000 setrgbcolor
gsave
669.6 499 94.86 64.67 clipbox
94.85625 110.860254 m
109.73625 105.55583 l
124.61625 101.111582 l
139.49625 96.380608 l
154.37625 93.656715 l
169.25625 91.936361 l
184.13625 91.792998 l
199.01625 91.936361 l
213.89625 91.076184 l
228.77625 91.649635 l
243.65625 91.362909 l
258.53625 91.792998 l
273.41625 92.366449 l
288.29625 92.079723 l
303.17625 92.366449 l
318.05625 92.223086 l
332.93625 90.932821 l
347.81625 91.506272 l
362.69625 91.792998 l
377.57625 92.653175 l
392.45625 92.796538 l
407.33625 91.936361 l
422.21625 93.226626 l
437.09625 92.509812 l
451.97625 92.223086 l
466.85625 92.653175 l
481.73625 91.936361 l
496.61625 93.369989 l
511.49625 92.9399 l
526.37625 93.369989 l
541.25625 93.083263 l
556.13625 93.94344 l
571.01625 93.656715 l
585.89625 93.94344 l
600.77625 93.226626 l
615.65625 94.660254 l
630.53625 95.233706 l
645.41625 93.656715 l
660.29625 92.653175 l
675.17625 93.94344 l
690.05625 93.369989 l
704.93625 93.226626 l
719.81625 93.226626 l
734.69625 100.824856 l
749.57625 110.000077 l
764.45625 118.74521 l
stroke
grestore
0.000 0.000 1.000 setrgbcolor
gsave
669.6 499 94.86 64.67 clipbox
94.85625 91.362909 m
109.73625 89.35583 l
124.61625 88.925741 l
139.49625 87.922201 l
154.37625 88.35229 l
169.25625 88.495653 l
184.13625 88.925741 l
199.01625 87.922201 l
213.89625 87.635476 l
228.77625 88.065564 l
243.65625 88.065564 l
258.53625 87.778838 l
273.41625 87.34875 l
288.29625 87.34875 l
303.17625 89.499192 l
318.05625 88.639015 l
332.93625 87.778838 l
347.81625 88.208927 l
362.69625 88.065564 l
377.57625 87.492113 l
392.45625 89.069104 l
407.33625 88.065564 l
422.21625 89.642555 l
437.09625 89.069104 l
451.97625 89.35583 l
466.85625 88.495653 l
481.73625 89.929281 l
496.61625 88.639015 l
511.49625 89.069104 l
526.37625 89.212467 l
541.25625 89.785918 l
556.13625 90.646095 l
571.01625 89.212467 l
585.89625 88.782378 l
600.77625 88.782378 l
615.65625 89.35583 l
630.53625 89.642555 l
645.41625 89.785918 l
660.29625 89.35583 l
675.17625 90.789458 l
690.05625 89.785918 l
704.93625 90.359369 l
719.81625 89.212467 l
734.69625 89.499192 l
749.57625 99.247865 l
764.45625 107.276184 l
stroke
grestore
1.000 0.000 0.000 setrgbcolor
gsave
669.6 499 94.86 64.67 clipbox
94.85625 260.674414 m
109.73625 255.369989 l
124.61625 255.226626 l
139.49625 249.492113 l
154.37625 244.187688 l
169.25625 240.460254 l
184.13625 242.467334 l
199.01625 241.607157 l
213.89625 242.75406 l
228.77625 239.026626 l
243.65625 245.764679 l
258.53625 248.918662 l
273.41625 248.058485 l
288.29625 245.477954 l
303.17625 250.208927 l
318.05625 248.058485 l
332.93625 250.208927 l
347.81625 250.065564 l
362.69625 256.516892 l
377.57625 261.104502 l
392.45625 263.828396 l
407.33625 257.95052 l
422.21625 252.646095 l
437.09625 255.369989 l
451.97625 252.072644 l
466.85625 255.226626 l
481.73625 254.796538 l
496.61625 256.516892 l
511.49625 253.506272 l
526.37625 259.097423 l
541.25625 256.086803 l
556.13625 258.237246 l
571.01625 261.821316 l
585.89625 264.115122 l
600.77625 265.692113 l
615.65625 264.401847 l
630.53625 268.559369 l
645.41625 266.408927 l
660.29625 266.122201 l
675.17625 270.853175 l
690.05625 269.562909 l
704.93625 274.580608 l
719.81625 268.702732 l
734.69625 356.297423 l
749.57625 448.909812 l
764.45625 540.94875 l
stroke
grestore
1.000 setlinewidth
0 setlinecap
gsave
669.6 499 94.86 64.67 clipbox
/o {
gsave
newpath
translate
1.0 setlinewidth
1 setlinejoin
0 setlinecap
0 -10 m
2.652031 -10 5.195799 -8.946337 7.071068 -7.071068 c
8.946337 -5.195799 10 -2.652031 10 0 c
10 2.652031 8.946337 5.195799 7.071068 7.071068 c
5.195799 8.946337 2.652031 10 0 10 c
-2.652031 10 -5.195799 8.946337 -7.071068 7.071068 c
-8.946337 5.195799 -10 2.652031 -10 0 c
-10 -2.652031 -8.946337 -5.195799 -7.071068 -7.071068 c
-5.195799 -8.946337 -2.652031 -10 0 -10 c
cl

gsave
grestore
stroke
grestore
} bind def
94.8563 260.674 o
109.736 255.37 o
124.616 255.227 o
139.496 249.492 o
154.376 244.188 o
169.256 240.46 o
184.136 242.467 o
199.016 241.607 o
213.896 242.754 o
228.776 239.027 o
243.656 245.765 o
258.536 248.919 o
273.416 248.058 o
288.296 245.478 o
303.176 250.209 o
318.056 248.058 o
332.936 250.209 o
347.816 250.066 o
362.696 256.517 o
377.576 261.105 o
392.456 263.828 o
407.336 257.951 o
422.216 252.646 o
437.096 255.37 o
451.976 252.073 o
466.856 255.227 o
481.736 254.797 o
496.616 256.517 o
511.496 253.506 o
526.376 259.097 o
541.256 256.087 o
556.136 258.237 o
571.016 261.821 o
585.896 264.115 o
600.776 265.692 o
615.656 264.402 o
630.536 268.559 o
645.416 266.409 o
660.296 266.122 o
675.176 270.853 o
690.056 269.563 o
704.936 274.581 o
719.816 268.703 o
734.696 356.297 o
749.576 448.91 o
764.456 540.949 o
grestore
3.000 setlinewidth
2 setlinecap
0.000 0.000 1.000 setrgbcolor
gsave
669.6 499 94.86 64.67 clipbox
94.85625 125.3399 m
109.73625 113.010697 l
124.61625 104.55229 l
139.49625 103.978838 l
154.37625 98.817777 l
169.25625 97.240785 l
184.13625 98.674414 l
199.01625 101.971759 l
213.89625 103.835476 l
228.77625 98.674414 l
243.65625 101.54167 l
258.53625 102.258485 l
273.41625 99.964679 l
288.29625 100.251405 l
303.17625 101.111582 l
318.05625 100.681493 l
332.93625 102.688573 l
347.81625 101.54167 l
362.69625 101.398308 l
377.57625 102.975299 l
392.45625 104.122201 l
407.33625 103.978838 l
422.21625 103.978838 l
437.09625 102.975299 l
451.97625 104.122201 l
466.85625 103.405387 l
481.73625 107.276184 l
496.61625 107.562909 l
511.49625 103.262024 l
526.37625 105.412467 l
541.25625 104.839015 l
556.13625 103.405387 l
571.01625 103.835476 l
585.89625 104.265564 l
600.77625 104.55229 l
615.65625 105.269104 l
630.53625 106.129281 l
645.41625 104.265564 l
660.29625 107.132821 l
675.17625 107.706272 l
690.05625 107.992998 l
704.93625 106.989458 l
719.81625 105.842555 l
734.69625 105.842555 l
749.57625 156.306272 l
764.45625 204.906272 l
stroke
grestore
1.000 setlinewidth
0 setlinecap
gsave
669.6 499 94.86 64.67 clipbox
/o {
gsave
newpath
translate
1.0 setlinewidth
1 setlinejoin
0 setlinecap
0 -10 m
2.652031 -10 5.195799 -8.946337 7.071068 -7.071068 c
8.946337 -5.195799 10 -2.652031 10 0 c
10 2.652031 8.946337 5.195799 7.071068 7.071068 c
5.195799 8.946337 2.652031 10 0 10 c
-2.652031 10 -5.195799 8.946337 -7.071068 7.071068 c
-8.946337 5.195799 -10 2.652031 -10 0 c
-10 -2.652031 -8.946337 -5.195799 -7.071068 -7.071068 c
-5.195799 -8.946337 -2.652031 -10 0 -10 c
cl

gsave
grestore
stroke
grestore
} bind def
94.8563 125.34 o
109.736 113.011 o
124.616 104.552 o
139.496 103.979 o
154.376 98.8178 o
169.256 97.2408 o
184.136 98.6744 o
199.016 101.972 o
213.896 103.835 o
228.776 98.6744 o
243.656 101.542 o
258.536 102.258 o
273.416 99.9647 o
288.296 100.251 o
303.176 101.112 o
318.056 100.681 o
332.936 102.689 o
347.816 101.542 o
362.696 101.398 o
377.576 102.975 o
392.456 104.122 o
407.336 103.979 o
422.216 103.979 o
437.096 102.975 o
451.976 104.122 o
466.856 103.405 o
481.736 107.276 o
496.616 107.563 o
511.496 103.262 o
526.376 105.412 o
541.256 104.839 o
556.136 103.405 o
571.016 103.835 o
585.896 104.266 o
600.776 104.552 o
615.656 105.269 o
630.536 106.129 o
645.416 104.266 o
660.296 107.133 o
675.176 107.706 o
690.056 107.993 o
704.936 106.989 o
719.816 105.843 o
734.696 105.843 o
749.576 156.306 o
764.456 204.906 o
grestore
0.800 setlinewidth
0 setlinejoin
2 setlinecap
[] 0 setdash
0.000 setgray
gsave
94.85625 64.66875 m
94.85625 563.62875 l
stroke
grestore
gsave
764.45625 64.66875 m
764.45625 563.62875 l
stroke
grestore
gsave
94.85625 64.66875 m
764.45625 64.66875 l
stroke
grestore
gsave
94.85625 563.62875 m
764.45625 563.62875 l
stroke
grestore
gsave
147.726562 569.628750 translate
0.000000 rotate
0.000000 0.000000 m /F glyphshow
13.789062 0.000000 m /r glyphshow
23.656250 0.000000 m /a glyphshow
38.363281 0.000000 m /c glyphshow
51.558594 0.000000 m /t glyphshow
60.968750 0.000000 m /i glyphshow
67.636719 0.000000 m /o glyphshow
82.320312 0.000000 m /n glyphshow
97.531250 0.000000 m /space glyphshow
105.160156 0.000000 m /o glyphshow
119.843750 0.000000 m /f glyphshow
128.292969 0.000000 m /space glyphshow
135.921875 0.000000 m /U glyphshow
153.488281 0.000000 m /n glyphshow
168.699219 0.000000 m /d glyphshow
183.933594 0.000000 m /e glyphshow
198.699219 0.000000 m /t glyphshow
208.109375 0.000000 m /e glyphshow
222.875000 0.000000 m /c glyphshow
236.070312 0.000000 m /t glyphshow
245.480469 0.000000 m /e glyphshow
260.246094 0.000000 m /d glyphshow
275.480469 0.000000 m /space glyphshow
283.109375 0.000000 m /T glyphshow
297.722656 0.000000 m /r glyphshow
307.589844 0.000000 m /a glyphshow
322.296875 0.000000 m /c glyphshow
335.492188 0.000000 m /k glyphshow
349.390625 0.000000 m /s glyphshow
361.894531 0.000000 m /slash glyphshow
369.980469 0.000000 m /P glyphshow
384.437500 0.000000 m /a glyphshow
399.144531 0.000000 m /r glyphshow
409.011719 0.000000 m /t glyphshow
418.421875 0.000000 m /i glyphshow
425.089844 0.000000 m /c glyphshow
438.285156 0.000000 m /l glyphshow
444.953125 0.000000 m /e glyphshow
459.718750 0.000000 m /s glyphshow
472.222656 0.000000 m /comma glyphshow
479.851562 0.000000 m /space glyphshow
487.480469 0.000000 m /two glyphshow
502.750000 0.000000 m /zero glyphshow
518.019531 0.000000 m /zero glyphshow
533.289062 0.000000 m /zero glyphshow
548.558594 0.000000 m /zero glyphshow
grestore
1.000 setlinewidth
0 setlinecap
0.800 setgray
gsave
184.19625 463.56625 m
352.19625 463.56625 l
354.19625 463.56625 355.19625 464.56625 355.19625 466.56625 c
355.19625 553.12875 l
355.19625 555.12875 354.19625 556.12875 352.19625 556.12875 c
184.19625 556.12875 l
182.19625 556.12875 181.19625 555.12875 181.19625 553.12875 c
181.19625 466.56625 l
181.19625 464.56625 182.19625 463.56625 184.19625 463.56625 c
cl
gsave
1.000 setgray
fill
grestore
stroke
grestore
3.000 setlinewidth
1 setlinejoin
2 setlinecap
[] 0 setdash
1.000 0.000 0.000 setrgbcolor
gsave
187.19625 543.988125 m
217.19625 543.988125 l
stroke
grestore
0.000 setgray
gsave
229.196250 538.738125 translate
0.000000 rotate
/DejaVuSans findfont
15.0 scalefont
setfont
0.000000 0.609375 moveto
/S glyphshow

9.521484 0.609375 moveto
/T glyphshow

18.684082 0.609375 moveto
/B glyphshow

28.974609 0.609375 moveto
/space glyphshow

33.742676 0.609375 moveto
/D glyphshow

45.292969 0.609375 moveto
/a glyphshow

54.484863 0.609375 moveto
/v glyphshow

63.361816 0.609375 moveto
/i glyphshow

67.529297 0.609375 moveto
/s glyphshow

75.344238 0.609375 moveto
/comma glyphshow

80.112305 0.609375 moveto
/space glyphshow

84.880371 0.609375 moveto
/three glyphshow

/DejaVuSans-Oblique findfont
15.0 scalefont
setfont
94.423828 0.609375 moveto
/delta glyphshow

103.601074 0.609375 moveto
/t glyphshow


grestore
0.000 0.000 1.000 setrgbcolor
gsave
187.19625 521.9725 m
217.19625 521.9725 l
stroke
grestore
0.000 setgray
gsave
229.196250 516.722500 translate
0.000000 rotate
/DejaVuSans findfont
15.0 scalefont
setfont
0.000000 0.859375 moveto
/O glyphshow

11.806641 0.859375 moveto
/u glyphshow

21.313477 0.859375 moveto
/r glyphshow

27.480469 0.859375 moveto
/s glyphshow

35.295410 0.859375 moveto
/comma glyphshow

40.063477 0.859375 moveto
/space glyphshow

44.831543 0.859375 moveto
/three glyphshow

/DejaVuSans-Oblique findfont
15.0 scalefont
setfont
54.375000 0.859375 moveto
/delta glyphshow

63.552246 0.859375 moveto
/t glyphshow


grestore
1.000 0.000 0.000 setrgbcolor
gsave
187.19625 499.956875 m
217.19625 499.956875 l
stroke
grestore
1.000 setlinewidth
0 setlinecap
gsave
/o {
gsave
newpath
translate
1.0 setlinewidth
1 setlinejoin
0 setlinecap
0 -10 m
2.652031 -10 5.195799 -8.946337 7.071068 -7.071068 c
8.946337 -5.195799 10 -2.652031 10 0 c
10 2.652031 8.946337 5.195799 7.071068 7.071068 c
5.195799 8.946337 2.652031 10 0 10 c
-2.652031 10 -5.195799 8.946337 -7.071068 7.071068 c
-8.946337 5.195799 -10 2.652031 -10 0 c
-10 -2.652031 -8.946337 -5.195799 -7.071068 -7.071068 c
-5.195799 -8.946337 -2.652031 -10 0 -10 c
cl

gsave
grestore
stroke
grestore
} bind def
202.196 499.957 o
grestore
0.000 setgray
gsave
229.196250 494.706875 translate
0.000000 rotate
/DejaVuSans findfont
15.0 scalefont
setfont
0.000000 0.609375 moveto
/S glyphshow

9.521484 0.609375 moveto
/T glyphshow

18.684082 0.609375 moveto
/B glyphshow

28.974609 0.609375 moveto
/space glyphshow

33.742676 0.609375 moveto
/D glyphshow

45.292969 0.609375 moveto
/a glyphshow

54.484863 0.609375 moveto
/v glyphshow

63.361816 0.609375 moveto
/i glyphshow

67.529297 0.609375 moveto
/s glyphshow

75.344238 0.609375 moveto
/comma glyphshow

80.112305 0.609375 moveto
/space glyphshow

84.880371 0.609375 moveto
/one glyphshow

94.423828 0.609375 moveto
/five glyphshow

/DejaVuSans-Oblique findfont
15.0 scalefont
setfont
103.967285 0.609375 moveto
/delta glyphshow

113.144531 0.609375 moveto
/t glyphshow


grestore
3.000 setlinewidth
2 setlinecap
0.000 0.000 1.000 setrgbcolor
gsave
187.19625 477.94125 m
217.19625 477.94125 l
stroke
grestore
1.000 setlinewidth
0 setlinecap
gsave
/o {
gsave
newpath
translate
1.0 setlinewidth
1 setlinejoin
0 setlinecap
0 -10 m
2.652031 -10 5.195799 -8.946337 7.071068 -7.071068 c
8.946337 -5.195799 10 -2.652031 10 0 c
10 2.652031 8.946337 5.195799 7.071068 7.071068 c
5.195799 8.946337 2.652031 10 0 10 c
-2.652031 10 -5.195799 8.946337 -7.071068 7.071068 c
-8.946337 5.195799 -10 2.652031 -10 0 c
-10 -2.652031 -8.946337 -5.195799 -7.071068 -7.071068 c
-5.195799 -8.946337 -2.652031 -10 0 -10 c
cl

gsave
grestore
stroke
grestore
} bind def
202.196 477.941 o
grestore
0.000 setgray
gsave
229.196250 472.691250 translate
0.000000 rotate
/DejaVuSans findfont
15.0 scalefont
setfont
0.000000 0.859375 moveto
/O glyphshow

11.806641 0.859375 moveto
/u glyphshow

21.313477 0.859375 moveto
/r glyphshow

27.480469 0.859375 moveto
/s glyphshow

35.295410 0.859375 moveto
/comma glyphshow

40.063477 0.859375 moveto
/space glyphshow

44.831543 0.859375 moveto
/one glyphshow

54.375000 0.859375 moveto
/five glyphshow

/DejaVuSans-Oblique findfont
15.0 scalefont
setfont
63.918457 0.859375 moveto
/delta glyphshow

73.095703 0.859375 moveto
/t glyphshow


grestore

end
showpage
