%!PS-Adobe-3.0 EPSF-3.0
%%Creator: cairo 1.12.14 (http://cairographics.org)
%%CreationDate: Fri Apr 11 17:18:31 2014
%%Pages: 1
%%DocumentData: Clean7Bit
%%LanguageLevel: 2
%%BoundingBox: 0 -1 166 130
%%EndComments
%%BeginProlog
save
50 dict begin
/q { gsave } bind def
/Q { grestore } bind def
/cm { 6 array astore concat } bind def
/w { setlinewidth } bind def
/J { setlinecap } bind def
/j { setlinejoin } bind def
/M { setmiterlimit } bind def
/d { setdash } bind def
/m { moveto } bind def
/l { lineto } bind def
/c { curveto } bind def
/h { closepath } bind def
/re { exch dup neg 3 1 roll 5 3 roll moveto 0 rlineto
      0 exch rlineto 0 rlineto closepath } bind def
/S { stroke } bind def
/f { fill } bind def
/f* { eofill } bind def
/n { newpath } bind def
/W { clip } bind def
/W* { eoclip } bind def
/BT { } bind def
/ET { } bind def
/pdfmark where { pop globaldict /?pdfmark /exec load put }
    { globaldict begin /?pdfmark /pop load def /pdfmark
    /cleartomark load def end } ifelse
/BDC { mark 3 1 roll /BDC pdfmark } bind def
/EMC { mark /EMC pdfmark } bind def
/cairo_store_point { /cairo_point_y exch def /cairo_point_x exch def } def
/Tj { show currentpoint cairo_store_point } bind def
/TJ {
  {
    dup
    type /stringtype eq
    { show } { -0.001 mul 0 cairo_font_matrix dtransform rmoveto } ifelse
  } forall
  currentpoint cairo_store_point
} bind def
/cairo_selectfont { cairo_font_matrix aload pop pop pop 0 0 6 array astore
    cairo_font exch selectfont cairo_point_x cairo_point_y moveto } bind def
/Tf { pop /cairo_font exch def /cairo_font_matrix where
      { pop cairo_selectfont } if } bind def
/Td { matrix translate cairo_font_matrix matrix concatmatrix dup
      /cairo_font_matrix exch def dup 4 get exch 5 get cairo_store_point
      /cairo_font where { pop cairo_selectfont } if } bind def
/Tm { 2 copy 8 2 roll 6 array astore /cairo_font_matrix exch def
      cairo_store_point /cairo_font where { pop cairo_selectfont } if } bind def
/g { setgray } bind def
/rg { setrgbcolor } bind def
/d1 { setcachedevice } bind def
%%EndProlog
%%Page: 1 1
%%BeginPageSetup
%%PageBoundingBox: 0 -1 166 130
%%EndPageSetup
q 0 -1 166 131 rectclip q
0.333333 1 0.333333 rg
0.527 114.808 114.285 -114.285 re f
0 0.501961 0 rg
1.04 w
0 J
0 j
[] 0.0 d
4 M q 1 0 0 -1 0 129.050003 cm
0.527 14.242 114.285 114.285 re S Q
1 0 0 rg
165.102 74.808 m 165.102 45.14 141.051 21.093 111.387 21.093 c 81.719 21.093
 57.672 45.14 57.672 74.808 c 57.672 104.472 81.719 128.523 111.387 128.523
 c 141.051 128.523 165.102 104.472 165.102 74.808 c h
f
0 0.501961 0 rg
q 1 0 0 -1 0 129.050003 cm
165.102 54.242 m 165.102 83.91 141.051 107.957 111.387 107.957 c 81.719
 107.957 57.672 83.91 57.672 54.242 c 57.672 24.578 81.719 0.527 111.387
 0.527 c 141.051 0.527 165.102 24.578 165.102 54.242 c h
S Q
Q Q
showpage
%%Trailer
end restore
%%EOF
