%!PS-Adobe-3.0 EPSF-3.0
%%Title: /home/yin/010000_error.eps
%%Creator: matplotlib version 3.1.0, http://matplotlib.org/
%%CreationDate: Mon Jan 13 15:39:56 2020
%%Orientation: portrait
%%BoundingBox: -126.0 72.0 738.0 720.0
%%EndComments
%%BeginProlog
/mpldict 9 dict def
mpldict begin
/m { moveto } bind def
/l { lineto } bind def
/r { rlineto } bind def
/c { curveto } bind def
/cl { closepath } bind def
/box {
m
1 index 0 r
0 exch r
neg 0 r
cl
} bind def
/clipbox {
box
clip
newpath
} bind def
%!PS-Adobe-3.0 Resource-Font
%%Title: DejaVu Sans
%%Copyright: Copyright (c) 2003 by Bitstream, Inc. All Rights Reserved. Copyright (c) 2006 by Tavmjong Bah. All Rights Reserved. DejaVu changes are in public domain 
%%Creator: Converted from TrueType to type 3 by PPR
25 dict begin
/_d{bind def}bind def
/_m{moveto}_d
/_l{lineto}_d
/_cl{closepath eofill}_d
/_c{curveto}_d
/_sc{7 -1 roll{setcachedevice}{pop pop pop pop pop pop}ifelse}_d
/_e{exec}_d
/FontName /DejaVuSans def
/PaintType 0 def
/FontMatrix[.001 0 0 .001 0 0]def
/FontBBox[-1021 -463 1793 1232]def
/FontType 3 def
/Encoding [ /space /parenleft /parenright /comma /period /zero /one /two /three /four /five /seven /B /E /M /O /P /S /T /a /c /d /e /f /h /i /k /l /n /o /p /r /s /t /u /x /minus ] def
/FontInfo 10 dict dup begin
/FamilyName (DejaVu Sans) def
/FullName (DejaVu Sans) def
/Notice (Copyright (c) 2003 by Bitstream, Inc. All Rights Reserved. Copyright (c) 2006 by Tavmjong Bah. All Rights Reserved. DejaVu changes are in public domain ) def
/Weight (Book) def
/Version (Version 2.35) def
/ItalicAngle 0.0 def
/isFixedPitch false def
/UnderlinePosition -130 def
/UnderlineThickness 90 def
end readonly def
/CharStrings 38 dict dup begin
/.notdef 0 def
/space{318 0 0 0 0 0 _sc
}_d
/parenleft{390 0 86 -131 310 759 _sc
310 759 _m
266 683 234 609 213 536 _c
191 463 181 389 181 314 _c
181 238 191 164 213 91 _c
234 17 266 -56 310 -131 _c
232 -131 _l
183 -54 146 20 122 94 _c
98 168 86 241 86 314 _c
86 386 98 459 122 533 _c
146 607 182 682 232 759 _c
310 759 _l
_cl}_d
/parenright{390 0 80 -131 304 759 _sc
80 759 _m
158 759 _l
206 682 243 607 267 533 _c
291 459 304 386 304 314 _c
304 241 291 168 267 94 _c
243 20 206 -54 158 -131 _c
80 -131 _l
123 -56 155 17 177 91 _c
198 164 209 238 209 314 _c
209 389 198 463 177 536 _c
155 609 123 683 80 759 _c
_cl}_d
/comma{318 0 77 -115 220 124 _sc
117 124 _m
220 124 _l
220 40 _l
140 -115 _l
77 -115 _l
117 40 _l
117 124 _l
_cl}_d
/period{318 0 107 0 210 124 _sc
107 124 _m
210 124 _l
210 0 _l
107 0 _l
107 124 _l
_cl}_d
/zero{636 0 66 -13 570 742 _sc
318 664 _m
267 664 229 639 203 589 _c
177 539 165 464 165 364 _c
165 264 177 189 203 139 _c
229 89 267 64 318 64 _c
369 64 407 89 433 139 _c
458 189 471 264 471 364 _c
471 464 458 539 433 589 _c
407 639 369 664 318 664 _c
318 742 _m
399 742 461 709 505 645 _c
548 580 570 486 570 364 _c
570 241 548 147 505 83 _c
461 19 399 -13 318 -13 _c
236 -13 173 19 130 83 _c
87 147 66 241 66 364 _c
66 486 87 580 130 645 _c
173 709 236 742 318 742 _c
_cl}_d
/one{636 0 110 0 544 729 _sc
124 83 _m
285 83 _l
285 639 _l
110 604 _l
110 694 _l
284 729 _l
383 729 _l
383 83 _l
544 83 _l
544 0 _l
124 0 _l
124 83 _l
_cl}_d
/two{{636 0 73 0 536 742 _sc
192 83 _m
536 83 _l
536 0 _l
73 0 _l
73 83 _l
110 121 161 173 226 239 _c
290 304 331 346 348 365 _c
380 400 402 430 414 455 _c
426 479 433 504 433 528 _c
433 566 419 598 392 622 _c
365 646 330 659 286 659 _c
255 659 222 653 188 643 _c
154 632 117 616 78 594 _c
78 694 _l
118 710 155 722 189 730 _c
223 738 255 742 284 742 _c
}_e{359 742 419 723 464 685 _c
509 647 532 597 532 534 _c
532 504 526 475 515 449 _c
504 422 484 390 454 354 _c
446 344 420 317 376 272 _c
332 227 271 164 192 83 _c
_cl}_e}_d
/three{{636 0 76 -13 556 742 _sc
406 393 _m
453 383 490 362 516 330 _c
542 298 556 258 556 212 _c
556 140 531 84 482 45 _c
432 6 362 -13 271 -13 _c
240 -13 208 -10 176 -4 _c
144 1 110 10 76 22 _c
76 117 _l
103 101 133 89 166 81 _c
198 73 232 69 268 69 _c
330 69 377 81 409 105 _c
441 129 458 165 458 212 _c
458 254 443 288 413 312 _c
383 336 341 349 287 349 _c
}_e{202 349 _l
202 430 _l
291 430 _l
339 430 376 439 402 459 _c
428 478 441 506 441 543 _c
441 580 427 609 401 629 _c
374 649 336 659 287 659 _c
260 659 231 656 200 650 _c
169 644 135 635 98 623 _c
98 711 _l
135 721 170 729 203 734 _c
235 739 266 742 296 742 _c
370 742 429 725 473 691 _c
517 657 539 611 539 553 _c
539 513 527 479 504 451 _c
481 423 448 403 406 393 _c
_cl}_e}_d
/four{636 0 49 0 580 729 _sc
378 643 _m
129 254 _l
378 254 _l
378 643 _l
352 729 _m
476 729 _l
476 254 _l
580 254 _l
580 172 _l
476 172 _l
476 0 _l
378 0 _l
378 172 _l
49 172 _l
49 267 _l
352 729 _l
_cl}_d
/five{{636 0 77 -13 549 729 _sc
108 729 _m
495 729 _l
495 646 _l
198 646 _l
198 467 _l
212 472 227 476 241 478 _c
255 480 270 482 284 482 _c
365 482 429 459 477 415 _c
525 370 549 310 549 234 _c
549 155 524 94 475 51 _c
426 8 357 -13 269 -13 _c
238 -13 207 -10 175 -6 _c
143 -1 111 6 77 17 _c
77 116 _l
106 100 136 88 168 80 _c
199 72 232 69 267 69 _c
}_e{323 69 368 83 401 113 _c
433 143 450 183 450 234 _c
450 284 433 324 401 354 _c
368 384 323 399 267 399 _c
241 399 214 396 188 390 _c
162 384 135 375 108 363 _c
108 729 _l
_cl}_e}_d
/seven{636 0 82 0 551 729 _sc
82 729 _m
551 729 _l
551 687 _l
286 0 _l
183 0 _l
432 646 _l
82 646 _l
82 729 _l
_cl}_d
/B{{686 0 98 0 615 729 _sc
197 348 _m
197 81 _l
355 81 _l
408 81 447 92 473 114 _c
498 136 511 169 511 215 _c
511 260 498 293 473 315 _c
447 337 408 348 355 348 _c
197 348 _l
197 648 _m
197 428 _l
343 428 _l
391 428 426 437 450 455 _c
474 473 486 500 486 538 _c
486 574 474 602 450 620 _c
426 638 391 648 343 648 _c
197 648 _l
98 729 _m
350 729 _l
}_e{425 729 483 713 524 682 _c
564 650 585 606 585 549 _c
585 504 574 468 553 442 _c
532 416 502 399 462 393 _c
510 382 548 360 575 327 _c
601 294 615 253 615 204 _c
615 138 592 88 548 53 _c
504 17 441 0 360 0 _c
98 0 _l
98 729 _l
_cl}_e}_d
/E{632 0 98 0 568 729 _sc
98 729 _m
559 729 _l
559 646 _l
197 646 _l
197 430 _l
544 430 _l
544 347 _l
197 347 _l
197 83 _l
568 83 _l
568 0 _l
98 0 _l
98 729 _l
_cl}_d
/M{863 0 98 0 765 729 _sc
98 729 _m
245 729 _l
431 233 _l
618 729 _l
765 729 _l
765 0 _l
669 0 _l
669 640 _l
481 140 _l
382 140 _l
194 640 _l
194 0 _l
98 0 _l
98 729 _l
_cl}_d
/O{787 0 56 -13 731 742 _sc
394 662 _m
322 662 265 635 223 582 _c
181 528 160 456 160 364 _c
160 272 181 199 223 146 _c
265 92 322 66 394 66 _c
465 66 522 92 564 146 _c
606 199 627 272 627 364 _c
627 456 606 528 564 582 _c
522 635 465 662 394 662 _c
394 742 _m
496 742 577 707 639 639 _c
700 571 731 479 731 364 _c
731 248 700 157 639 89 _c
577 21 496 -13 394 -13 _c
291 -13 209 21 148 89 _c
86 157 56 248 56 364 _c
56 479 86 571 148 639 _c
209 707 291 742 394 742 _c
_cl}_d
/P{603 0 98 0 569 729 _sc
197 648 _m
197 374 _l
321 374 _l
367 374 402 385 427 409 _c
452 433 465 467 465 511 _c
465 555 452 588 427 612 _c
402 636 367 648 321 648 _c
197 648 _l
98 729 _m
321 729 _l
402 729 464 710 506 673 _c
548 636 569 582 569 511 _c
569 439 548 384 506 348 _c
464 311 402 293 321 293 _c
197 293 _l
197 0 _l
98 0 _l
98 729 _l
_cl}_d
/S{{635 0 66 -13 579 742 _sc
535 705 _m
535 609 _l
497 627 462 640 429 649 _c
395 657 363 662 333 662 _c
279 662 237 651 208 631 _c
179 610 165 580 165 542 _c
165 510 174 485 194 469 _c
213 452 250 439 304 429 _c
364 417 _l
437 403 491 378 526 343 _c
561 307 579 260 579 201 _c
579 130 555 77 508 41 _c
460 5 391 -13 300 -13 _c
265 -13 228 -9 189 -2 _c
}_e{150 5 110 16 69 32 _c
69 134 _l
109 111 148 94 186 83 _c
224 71 262 66 300 66 _c
356 66 399 77 430 99 _c
460 121 476 152 476 194 _c
476 230 465 258 443 278 _c
421 298 385 313 335 323 _c
275 335 _l
201 349 148 372 115 404 _c
82 435 66 478 66 534 _c
66 598 88 649 134 686 _c
179 723 242 742 322 742 _c
356 742 390 739 426 733 _c
461 727 497 717 535 705 _c
}_e{_cl}_e}_d
/T{611 0 -2 0 614 729 _sc
-2 729 _m
614 729 _l
614 646 _l
355 646 _l
355 0 _l
256 0 _l
256 646 _l
-2 646 _l
-2 729 _l
_cl}_d
/a{{613 0 60 -13 522 560 _sc
343 275 _m
270 275 220 266 192 250 _c
164 233 150 205 150 165 _c
150 133 160 107 181 89 _c
202 70 231 61 267 61 _c
317 61 357 78 387 114 _c
417 149 432 196 432 255 _c
432 275 _l
343 275 _l
522 312 _m
522 0 _l
432 0 _l
432 83 _l
411 49 385 25 355 10 _c
325 -5 287 -13 243 -13 _c
187 -13 142 2 109 33 _c
76 64 60 106 60 159 _c
}_e{60 220 80 266 122 298 _c
163 329 224 345 306 345 _c
432 345 _l
432 354 _l
432 395 418 427 391 450 _c
364 472 326 484 277 484 _c
245 484 215 480 185 472 _c
155 464 127 453 100 439 _c
100 522 _l
132 534 164 544 195 550 _c
226 556 256 560 286 560 _c
365 560 424 539 463 498 _c
502 457 522 395 522 312 _c
_cl}_e}_d
/c{{550 0 55 -13 488 560 _sc
488 526 _m
488 442 _l
462 456 437 466 411 473 _c
385 480 360 484 334 484 _c
276 484 230 465 198 428 _c
166 391 150 339 150 273 _c
150 206 166 154 198 117 _c
230 80 276 62 334 62 _c
360 62 385 65 411 72 _c
437 79 462 90 488 104 _c
488 21 _l
462 9 436 0 410 -5 _c
383 -10 354 -13 324 -13 _c
242 -13 176 12 128 64 _c
}_e{79 115 55 185 55 273 _c
55 362 79 432 128 483 _c
177 534 244 560 330 560 _c
358 560 385 557 411 551 _c
437 545 463 537 488 526 _c
_cl}_e}_d
/d{{635 0 55 -13 544 760 _sc
454 464 _m
454 760 _l
544 760 _l
544 0 _l
454 0 _l
454 82 _l
435 49 411 25 382 10 _c
353 -5 319 -13 279 -13 _c
213 -13 159 13 117 65 _c
75 117 55 187 55 273 _c
55 359 75 428 117 481 _c
159 533 213 560 279 560 _c
319 560 353 552 382 536 _c
411 520 435 496 454 464 _c
148 273 _m
148 207 161 155 188 117 _c
215 79 253 61 301 61 _c
}_e{348 61 385 79 413 117 _c
440 155 454 207 454 273 _c
454 339 440 390 413 428 _c
385 466 348 485 301 485 _c
253 485 215 466 188 428 _c
161 390 148 339 148 273 _c
_cl}_e}_d
/e{{615 0 55 -13 562 560 _sc
562 296 _m
562 252 _l
149 252 _l
153 190 171 142 205 110 _c
238 78 284 62 344 62 _c
378 62 412 66 444 74 _c
476 82 509 95 541 113 _c
541 28 _l
509 14 476 3 442 -3 _c
408 -9 373 -13 339 -13 _c
251 -13 182 12 131 62 _c
80 112 55 181 55 268 _c
55 357 79 428 127 481 _c
175 533 241 560 323 560 _c
397 560 455 536 498 489 _c
}_e{540 441 562 377 562 296 _c
472 322 _m
471 371 457 410 431 440 _c
404 469 368 484 324 484 _c
274 484 234 469 204 441 _c
174 413 156 373 152 322 _c
472 322 _l
_cl}_e}_d
/f{352 0 23 0 371 760 _sc
371 760 _m
371 685 _l
285 685 _l
253 685 230 678 218 665 _c
205 652 199 629 199 595 _c
199 547 _l
347 547 _l
347 477 _l
199 477 _l
199 0 _l
109 0 _l
109 477 _l
23 477 _l
23 547 _l
109 547 _l
109 585 _l
109 645 123 690 151 718 _c
179 746 224 760 286 760 _c
371 760 _l
_cl}_d
/h{634 0 91 0 549 760 _sc
549 330 _m
549 0 _l
459 0 _l
459 327 _l
459 379 448 417 428 443 _c
408 469 378 482 338 482 _c
289 482 251 466 223 435 _c
195 404 181 362 181 309 _c
181 0 _l
91 0 _l
91 760 _l
181 760 _l
181 462 _l
202 494 227 519 257 535 _c
286 551 320 560 358 560 _c
420 560 468 540 500 501 _c
532 462 549 405 549 330 _c
_cl}_d
/i{278 0 94 0 184 760 _sc
94 547 _m
184 547 _l
184 0 _l
94 0 _l
94 547 _l
94 760 _m
184 760 _l
184 646 _l
94 646 _l
94 760 _l
_cl}_d
/k{579 0 91 0 576 760 _sc
91 760 _m
181 760 _l
181 311 _l
449 547 _l
564 547 _l
274 291 _l
576 0 _l
459 0 _l
181 267 _l
181 0 _l
91 0 _l
91 760 _l
_cl}_d
/l{278 0 94 0 184 760 _sc
94 760 _m
184 760 _l
184 0 _l
94 0 _l
94 760 _l
_cl}_d
/n{634 0 91 0 549 560 _sc
549 330 _m
549 0 _l
459 0 _l
459 327 _l
459 379 448 417 428 443 _c
408 469 378 482 338 482 _c
289 482 251 466 223 435 _c
195 404 181 362 181 309 _c
181 0 _l
91 0 _l
91 547 _l
181 547 _l
181 462 _l
202 494 227 519 257 535 _c
286 551 320 560 358 560 _c
420 560 468 540 500 501 _c
532 462 549 405 549 330 _c
_cl}_d
/o{612 0 55 -13 557 560 _sc
306 484 _m
258 484 220 465 192 427 _c
164 389 150 338 150 273 _c
150 207 163 156 191 118 _c
219 80 257 62 306 62 _c
354 62 392 80 420 118 _c
448 156 462 207 462 273 _c
462 337 448 389 420 427 _c
392 465 354 484 306 484 _c
306 560 _m
384 560 445 534 490 484 _c
534 433 557 363 557 273 _c
557 183 534 113 490 63 _c
445 12 384 -13 306 -13 _c
227 -13 165 12 121 63 _c
77 113 55 183 55 273 _c
55 363 77 433 121 484 _c
165 534 227 560 306 560 _c
_cl}_d
/p{{635 0 91 -207 580 560 _sc
181 82 _m
181 -207 _l
91 -207 _l
91 547 _l
181 547 _l
181 464 _l
199 496 223 520 252 536 _c
281 552 316 560 356 560 _c
422 560 476 533 518 481 _c
559 428 580 359 580 273 _c
580 187 559 117 518 65 _c
476 13 422 -13 356 -13 _c
316 -13 281 -5 252 10 _c
223 25 199 49 181 82 _c
487 273 _m
487 339 473 390 446 428 _c
418 466 381 485 334 485 _c
}_e{286 485 249 466 222 428 _c
194 390 181 339 181 273 _c
181 207 194 155 222 117 _c
249 79 286 61 334 61 _c
381 61 418 79 446 117 _c
473 155 487 207 487 273 _c
_cl}_e}_d
/r{411 0 91 0 411 560 _sc
411 463 _m
401 469 390 473 378 476 _c
366 478 353 480 339 480 _c
288 480 249 463 222 430 _c
194 397 181 350 181 288 _c
181 0 _l
91 0 _l
91 547 _l
181 547 _l
181 462 _l
199 495 224 520 254 536 _c
284 552 321 560 365 560 _c
371 560 378 559 386 559 _c
393 558 401 557 411 555 _c
411 463 _l
_cl}_d
/s{{521 0 54 -13 472 560 _sc
443 531 _m
443 446 _l
417 458 391 468 364 475 _c
336 481 308 485 279 485 _c
234 485 200 478 178 464 _c
156 450 145 430 145 403 _c
145 382 153 366 169 354 _c
185 342 217 330 265 320 _c
296 313 _l
360 299 405 279 432 255 _c
458 230 472 195 472 151 _c
472 100 452 60 412 31 _c
372 1 316 -13 246 -13 _c
216 -13 186 -10 154 -5 _c
}_e{122 0 89 8 54 20 _c
54 113 _l
87 95 120 82 152 74 _c
184 65 216 61 248 61 _c
290 61 323 68 346 82 _c
368 96 380 117 380 144 _c
380 168 371 187 355 200 _c
339 213 303 226 247 238 _c
216 245 _l
160 257 119 275 95 299 _c
70 323 58 356 58 399 _c
58 450 76 490 112 518 _c
148 546 200 560 268 560 _c
301 560 332 557 362 552 _c
391 547 418 540 443 531 _c
}_e{_cl}_e}_d
/t{392 0 27 0 368 702 _sc
183 702 _m
183 547 _l
368 547 _l
368 477 _l
183 477 _l
183 180 _l
183 135 189 106 201 94 _c
213 81 238 75 276 75 _c
368 75 _l
368 0 _l
276 0 _l
206 0 158 13 132 39 _c
106 65 93 112 93 180 _c
93 477 _l
27 477 _l
27 547 _l
93 547 _l
93 702 _l
183 702 _l
_cl}_d
/u{634 0 85 -13 543 560 _sc
85 216 _m
85 547 _l
175 547 _l
175 219 _l
175 167 185 129 205 103 _c
225 77 255 64 296 64 _c
344 64 383 79 411 110 _c
439 141 453 183 453 237 _c
453 547 _l
543 547 _l
543 0 _l
453 0 _l
453 84 _l
431 50 405 26 377 10 _c
348 -5 315 -13 277 -13 _c
214 -13 166 6 134 45 _c
101 83 85 140 85 216 _c
311 560 _m
311 560 _l
_cl}_d
/x{592 0 29 0 559 547 _sc
549 547 _m
351 281 _l
559 0 _l
453 0 _l
294 215 _l
135 0 _l
29 0 _l
241 286 _l
47 547 _l
153 547 _l
298 352 _l
443 547 _l
549 547 _l
_cl}_d
/minus{838 0 106 272 732 355 _sc
106 355 _m
732 355 _l
732 272 _l
106 272 _l
106 355 _l
_cl}_d
end readonly def

/BuildGlyph
 {exch begin
 CharStrings exch
 2 copy known not{pop /.notdef}if
 true 3 1 roll get exec
 end}_d

/BuildChar {
 1 index /Encoding get exch get
 1 index /BuildGlyph get exec
}_d

FontName currentdict end definefont pop
%!PS-Adobe-3.0 Resource-Font
%%Title: DejaVu Sans Oblique
%%Copyright: Copyright (c) 2003 by Bitstream, Inc. All Rights Reserved. Copyright (c) 2006 by Tavmjong Bah. All Rights Reserved. DejaVu changes are in public domain 
%%Creator: Converted from TrueType to type 3 by PPR
25 dict begin
/_d{bind def}bind def
/_m{moveto}_d
/_l{lineto}_d
/_cl{closepath eofill}_d
/_c{curveto}_d
/_sc{7 -1 roll{setcachedevice}{pop pop pop pop pop pop}ifelse}_d
/_e{exec}_d
/FontName /DejaVuSans-Oblique def
/PaintType 0 def
/FontMatrix[.001 0 0 .001 0 0]def
/FontBBox[-1016 -350 1659 1068]def
/FontType 3 def
/Encoding [ /t /delta ] def
/FontInfo 10 dict dup begin
/FamilyName (DejaVu Sans) def
/FullName (DejaVu Sans Oblique) def
/Notice (Copyright (c) 2003 by Bitstream, Inc. All Rights Reserved. Copyright (c) 2006 by Tavmjong Bah. All Rights Reserved. DejaVu changes are in public domain ) def
/Weight (Oblique) def
/Version (Version 2.35) def
/ItalicAngle -11.0 def
/isFixedPitch false def
/UnderlinePosition -130 def
/UnderlineThickness 90 def
end readonly def
/CharStrings 3 dict dup begin
/.notdef 0 def
/t{{392 0 64 0 423 702 _sc
423 547 _m
409 477 _l
230 477 _l
172 180 _l
170 169 168 160 167 152 _c
166 144 166 139 166 135 _c
166 114 172 99 185 89 _c
197 79 217 75 245 75 _c
336 75 _l
321 0 _l
235 0 _l
181 0 141 10 115 31 _c
89 52 76 84 76 126 _c
76 133 76 141 77 150 _c
78 159 80 169 82 180 _c
140 477 _l
64 477 _l
78 547 _l
153 547 _l
183 702 _l
}_e{273 702 _l
243 547 _l
423 547 _l
_cl}_e}_d
/delta{{612 0 38 -13 557 742 _sc
542 633 _m
514 655 461 667 383 667 _c
300 667 255 648 248 610 _c
242 580 280 557 364 542 _c
428 530 476 505 508 469 _c
546 425 556 358 539 268 _c
521 182 486 113 432 63 _c
377 12 310 -13 232 -13 _c
154 -13 98 12 63 63 _c
28 113 20 183 38 273 _c
50 339 84 399 139 453 _c
160 473 184 490 211 502 _c
165 528 147 563 156 609 _c
}_e{173 697 253 742 397 742 _c
469 742 522 730 557 708 _c
542 633 _l
274 478 _m
250 468 226 451 204 428 _c
168 391 144 339 132 273 _c
119 207 123 155 144 118 _c
164 80 199 62 248 62 _c
295 62 336 81 372 119 _c
407 156 431 206 443 268 _c
455 332 450 380 427 412 _c
401 445 369 464 329 468 _c
308 470 290 473 274 478 _c
_cl}_e}_d
end readonly def

/BuildGlyph
 {exch begin
 CharStrings exch
 2 copy known not{pop /.notdef}if
 true 3 1 roll get exec
 end}_d

/BuildChar {
 1 index /Encoding get exch get
 1 index /BuildGlyph get exec
}_d

FontName currentdict end definefont pop
end
%%EndProlog
mpldict begin
-126 72 translate
864 648 0 0 clipbox
gsave
0 0 m
864 0 l
864 648 l
0 648 l
cl
1.000 setgray
fill
grestore
gsave
108 71.28 m
777.6 71.28 l
777.6 570.24 l
108 570.24 l
cl
1.000 setgray
fill
grestore
0.800 setlinewidth
1 setlinejoin
0 setlinecap
[] 0 setdash
0.000 setgray
gsave
/o {
gsave
newpath
translate
0.8 setlinewidth
1 setlinejoin
0 setlinecap
0 0 m
0 -3.5 l

gsave
0.000 setgray
fill
grestore
stroke
grestore
} bind def
108 71.28 o
grestore
/DejaVuSans findfont
24.000 scalefont
setfont
gsave
100.367188 46.045625 translate
0.000000 rotate
0.000000 0.000000 m /five glyphshow
grestore
gsave
/o {
gsave
newpath
translate
0.8 setlinewidth
1 setlinejoin
0 setlinecap
0 0 m
0 -3.5 l

gsave
0.000 setgray
fill
grestore
stroke
grestore
} bind def
185.86 71.28 o
grestore
gsave
170.594840 46.045625 translate
0.000000 rotate
0.000000 0.000000 m /one glyphshow
15.269531 0.000000 m /zero glyphshow
grestore
gsave
/o {
gsave
newpath
translate
0.8 setlinewidth
1 setlinejoin
0 setlinecap
0 0 m
0 -3.5 l

gsave
0.000 setgray
fill
grestore
stroke
grestore
} bind def
263.721 71.28 o
grestore
gsave
248.455305 46.045625 translate
0.000000 rotate
0.000000 0.000000 m /one glyphshow
15.269531 0.000000 m /five glyphshow
grestore
gsave
/o {
gsave
newpath
translate
0.8 setlinewidth
1 setlinejoin
0 setlinecap
0 0 m
0 -3.5 l

gsave
0.000 setgray
fill
grestore
stroke
grestore
} bind def
341.581 71.28 o
grestore
gsave
326.315770 46.045625 translate
0.000000 rotate
0.000000 0.000000 m /two glyphshow
15.269531 0.000000 m /zero glyphshow
grestore
gsave
/o {
gsave
newpath
translate
0.8 setlinewidth
1 setlinejoin
0 setlinecap
0 0 m
0 -3.5 l

gsave
0.000 setgray
fill
grestore
stroke
grestore
} bind def
419.442 71.28 o
grestore
gsave
404.176235 46.045625 translate
0.000000 rotate
0.000000 0.000000 m /two glyphshow
15.269531 0.000000 m /five glyphshow
grestore
gsave
/o {
gsave
newpath
translate
0.8 setlinewidth
1 setlinejoin
0 setlinecap
0 0 m
0 -3.5 l

gsave
0.000 setgray
fill
grestore
stroke
grestore
} bind def
497.302 71.28 o
grestore
gsave
482.036701 46.045625 translate
0.000000 rotate
0.000000 0.000000 m /three glyphshow
15.269531 0.000000 m /zero glyphshow
grestore
gsave
/o {
gsave
newpath
translate
0.8 setlinewidth
1 setlinejoin
0 setlinecap
0 0 m
0 -3.5 l

gsave
0.000 setgray
fill
grestore
stroke
grestore
} bind def
575.163 71.28 o
grestore
gsave
559.897166 46.045625 translate
0.000000 rotate
0.000000 0.000000 m /three glyphshow
15.269531 0.000000 m /five glyphshow
grestore
gsave
/o {
gsave
newpath
translate
0.8 setlinewidth
1 setlinejoin
0 setlinecap
0 0 m
0 -3.5 l

gsave
0.000 setgray
fill
grestore
stroke
grestore
} bind def
653.023 71.28 o
grestore
gsave
637.757631 46.045625 translate
0.000000 rotate
0.000000 0.000000 m /four glyphshow
15.269531 0.000000 m /zero glyphshow
grestore
gsave
/o {
gsave
newpath
translate
0.8 setlinewidth
1 setlinejoin
0 setlinecap
0 0 m
0 -3.5 l

gsave
0.000 setgray
fill
grestore
stroke
grestore
} bind def
730.884 71.28 o
grestore
gsave
715.618096 46.045625 translate
0.000000 rotate
0.000000 0.000000 m /four glyphshow
15.269531 0.000000 m /five glyphshow
grestore
gsave
380.448438 18.811250 translate
0.000000 rotate
0.000000 0.000000 m /S glyphshow
15.234375 0.000000 m /n glyphshow
30.445312 0.000000 m /a glyphshow
45.152344 0.000000 m /p glyphshow
60.386719 0.000000 m /s glyphshow
72.890625 0.000000 m /h glyphshow
88.101562 0.000000 m /o glyphshow
102.785156 0.000000 m /t glyphshow
112.195312 0.000000 m /s glyphshow
grestore
gsave
/o {
gsave
newpath
translate
0.8 setlinewidth
1 setlinejoin
0 setlinecap
0 0 m
-3.5 0 l

gsave
0.000 setgray
fill
grestore
stroke
grestore
} bind def
108 210.633 o
grestore
gsave
44.000000 201.515830 translate
0.000000 rotate
/DejaVuSans findfont
24.0 scalefont
setfont
0.000000 0.343750 moveto
/one glyphshow

15.269531 0.343750 moveto
/zero glyphshow

/DejaVuSans findfont
16.799999999999997 scalefont
setfont
30.768750 9.531250 moveto
/minus glyphshow

44.845312 9.531250 moveto
/three glyphshow


grestore
gsave
/o {
gsave
newpath
translate
0.8 setlinewidth
1 setlinejoin
0 setlinecap
0 0 m
-3.5 0 l

gsave
0.000 setgray
fill
grestore
stroke
grestore
} bind def
108 370.418 o
grestore
gsave
44.000000 361.301177 translate
0.000000 rotate
/DejaVuSans findfont
24.0 scalefont
setfont
0.000000 0.343750 moveto
/one glyphshow

15.269531 0.343750 moveto
/zero glyphshow

/DejaVuSans findfont
16.799999999999997 scalefont
setfont
30.768750 9.531250 moveto
/minus glyphshow

44.845312 9.531250 moveto
/two glyphshow


grestore
gsave
/o {
gsave
newpath
translate
0.8 setlinewidth
1 setlinejoin
0 setlinecap
0 0 m
-3.5 0 l

gsave
0.000 setgray
fill
grestore
stroke
grestore
} bind def
108 530.204 o
grestore
gsave
44.000000 521.086525 translate
0.000000 rotate
/DejaVuSans findfont
24.0 scalefont
setfont
0.000000 0.562500 moveto
/one glyphshow

15.269531 0.562500 moveto
/zero glyphshow

/DejaVuSans findfont
16.799999999999997 scalefont
setfont
30.768750 9.750000 moveto
/minus glyphshow

44.845312 9.750000 moveto
/one glyphshow


grestore
0.600 setlinewidth
gsave
/o {
gsave
newpath
translate
0.6 setlinewidth
1 setlinejoin
0 setlinecap
0 0 m
-2 0 l

gsave
0.000 setgray
fill
grestore
stroke
grestore
} bind def
108 98.9479 o
grestore
gsave
/o {
gsave
newpath
translate
0.6 setlinewidth
1 setlinejoin
0 setlinecap
0 0 m
-2 0 l

gsave
0.000 setgray
fill
grestore
stroke
grestore
} bind def
108 127.085 o
grestore
gsave
/o {
gsave
newpath
translate
0.6 setlinewidth
1 setlinejoin
0 setlinecap
0 0 m
-2 0 l

gsave
0.000 setgray
fill
grestore
stroke
grestore
} bind def
108 147.048 o
grestore
gsave
/o {
gsave
newpath
translate
0.6 setlinewidth
1 setlinejoin
0 setlinecap
0 0 m
-2 0 l

gsave
0.000 setgray
fill
grestore
stroke
grestore
} bind def
108 162.533 o
grestore
gsave
/o {
gsave
newpath
translate
0.6 setlinewidth
1 setlinejoin
0 setlinecap
0 0 m
-2 0 l

gsave
0.000 setgray
fill
grestore
stroke
grestore
} bind def
108 175.185 o
grestore
gsave
/o {
gsave
newpath
translate
0.6 setlinewidth
1 setlinejoin
0 setlinecap
0 0 m
-2 0 l

gsave
0.000 setgray
fill
grestore
stroke
grestore
} bind def
108 185.882 o
grestore
gsave
/o {
gsave
newpath
translate
0.6 setlinewidth
1 setlinejoin
0 setlinecap
0 0 m
-2 0 l

gsave
0.000 setgray
fill
grestore
stroke
grestore
} bind def
108 195.148 o
grestore
gsave
/o {
gsave
newpath
translate
0.6 setlinewidth
1 setlinejoin
0 setlinecap
0 0 m
-2 0 l

gsave
0.000 setgray
fill
grestore
stroke
grestore
} bind def
108 203.322 o
grestore
gsave
/o {
gsave
newpath
translate
0.6 setlinewidth
1 setlinejoin
0 setlinecap
0 0 m
-2 0 l

gsave
0.000 setgray
fill
grestore
stroke
grestore
} bind def
108 258.733 o
grestore
gsave
/o {
gsave
newpath
translate
0.6 setlinewidth
1 setlinejoin
0 setlinecap
0 0 m
-2 0 l

gsave
0.000 setgray
fill
grestore
stroke
grestore
} bind def
108 286.87 o
grestore
gsave
/o {
gsave
newpath
translate
0.6 setlinewidth
1 setlinejoin
0 setlinecap
0 0 m
-2 0 l

gsave
0.000 setgray
fill
grestore
stroke
grestore
} bind def
108 306.833 o
grestore
gsave
/o {
gsave
newpath
translate
0.6 setlinewidth
1 setlinejoin
0 setlinecap
0 0 m
-2 0 l

gsave
0.000 setgray
fill
grestore
stroke
grestore
} bind def
108 322.318 o
grestore
gsave
/o {
gsave
newpath
translate
0.6 setlinewidth
1 setlinejoin
0 setlinecap
0 0 m
-2 0 l

gsave
0.000 setgray
fill
grestore
stroke
grestore
} bind def
108 334.97 o
grestore
gsave
/o {
gsave
newpath
translate
0.6 setlinewidth
1 setlinejoin
0 setlinecap
0 0 m
-2 0 l

gsave
0.000 setgray
fill
grestore
stroke
grestore
} bind def
108 345.667 o
grestore
gsave
/o {
gsave
newpath
translate
0.6 setlinewidth
1 setlinejoin
0 setlinecap
0 0 m
-2 0 l

gsave
0.000 setgray
fill
grestore
stroke
grestore
} bind def
108 354.934 o
grestore
gsave
/o {
gsave
newpath
translate
0.6 setlinewidth
1 setlinejoin
0 setlinecap
0 0 m
-2 0 l

gsave
0.000 setgray
fill
grestore
stroke
grestore
} bind def
108 363.107 o
grestore
gsave
/o {
gsave
newpath
translate
0.6 setlinewidth
1 setlinejoin
0 setlinecap
0 0 m
-2 0 l

gsave
0.000 setgray
fill
grestore
stroke
grestore
} bind def
108 418.519 o
grestore
gsave
/o {
gsave
newpath
translate
0.6 setlinewidth
1 setlinejoin
0 setlinecap
0 0 m
-2 0 l

gsave
0.000 setgray
fill
grestore
stroke
grestore
} bind def
108 446.655 o
grestore
gsave
/o {
gsave
newpath
translate
0.6 setlinewidth
1 setlinejoin
0 setlinecap
0 0 m
-2 0 l

gsave
0.000 setgray
fill
grestore
stroke
grestore
} bind def
108 466.619 o
grestore
gsave
/o {
gsave
newpath
translate
0.6 setlinewidth
1 setlinejoin
0 setlinecap
0 0 m
-2 0 l

gsave
0.000 setgray
fill
grestore
stroke
grestore
} bind def
108 482.104 o
grestore
gsave
/o {
gsave
newpath
translate
0.6 setlinewidth
1 setlinejoin
0 setlinecap
0 0 m
-2 0 l

gsave
0.000 setgray
fill
grestore
stroke
grestore
} bind def
108 494.756 o
grestore
gsave
/o {
gsave
newpath
translate
0.6 setlinewidth
1 setlinejoin
0 setlinecap
0 0 m
-2 0 l

gsave
0.000 setgray
fill
grestore
stroke
grestore
} bind def
108 505.453 o
grestore
gsave
/o {
gsave
newpath
translate
0.6 setlinewidth
1 setlinejoin
0 setlinecap
0 0 m
-2 0 l

gsave
0.000 setgray
fill
grestore
stroke
grestore
} bind def
108 514.719 o
grestore
gsave
/o {
gsave
newpath
translate
0.6 setlinewidth
1 setlinejoin
0 setlinecap
0 0 m
-2 0 l

gsave
0.000 setgray
fill
grestore
stroke
grestore
} bind def
108 522.892 o
grestore
gsave
35.000000 256.877187 translate
90.000000 rotate
0.000000 0.000000 m /E glyphshow
15.164062 0.000000 m /r glyphshow
25.031250 0.000000 m /r glyphshow
34.898438 0.000000 m /o glyphshow
49.582031 0.000000 m /r glyphshow
59.449219 0.000000 m /s glyphshow
71.953125 0.000000 m /space glyphshow
79.582031 0.000000 m /parenleft glyphshow
88.945312 0.000000 m /p glyphshow
104.179688 0.000000 m /x glyphshow
118.382812 0.000000 m /parenright glyphshow
grestore
3.000 setlinewidth
2 setlinecap
1.000 0.000 0.000 setrgbcolor
gsave
669.6 499 108 71.28 clipbox
108 159.731546 m
123.572093 180.475328 l
139.144186 199.15145 l
154.716279 151.560814 l
170.288372 155.183512 l
185.860465 196.62293 l
201.432558 203.840153 l
217.004651 225.362603 l
232.576744 150.890433 l
248.148837 155.211742 l
263.72093 156.096906 l
279.293023 150.732515 l
294.865116 149.217541 l
310.437209 147.153779 l
326.009302 151.375409 l
341.581395 160.166441 l
357.153488 171.392231 l
372.725581 162.924497 l
388.297674 155.037707 l
403.869767 180.014916 l
419.44186 184.26847 l
435.013953 208.348214 l
450.586047 186.023571 l
466.15814 180.026458 l
481.730233 165.204851 l
497.302326 193.105858 l
512.874419 181.272764 l
528.446512 208.154668 l
544.018605 190.425219 l
559.590698 213.481357 l
575.162791 178.630692 l
590.734884 209.821447 l
606.306977 232.524533 l
621.87907 209.241339 l
637.451163 225.586731 l
653.023256 205.12161 l
668.595349 208.655627 l
684.167442 222.551363 l
699.739535 220.300257 l
715.311628 209.25394 l
730.883721 211.735897 l
746.455814 229.620832 l
762.027907 211.922105 l
777.6 221.98862 l
stroke
grestore
0 setlinecap
[11.1 4.8] 0 setdash
gsave
669.6 499 108 71.28 clipbox
108 243.001613 m
123.572093 248.008725 l
139.144186 241.621268 l
154.716279 255.544571 l
170.288372 240.551005 l
185.860465 255.034465 l
201.432558 215.269721 l
217.004651 222.353544 l
232.576744 216.44686 l
248.148837 218.229156 l
263.72093 217.857458 l
279.293023 215.681317 l
294.865116 215.169039 l
310.437209 214.255613 l
326.009302 215.734852 l
341.581395 221.730075 l
357.153488 226.187731 l
372.725581 220.410044 l
388.297674 217.859334 l
403.869767 222.614453 l
419.44186 247.358159 l
435.013953 253.11766 l
450.586047 243.760024 l
466.15814 248.34685 l
481.730233 242.384731 l
497.302326 247.11082 l
512.874419 251.759488 l
528.446512 253.941178 l
544.018605 256.406358 l
559.590698 252.193571 l
575.162791 254.552282 l
590.734884 247.144451 l
606.306977 257.300446 l
621.87907 259.505405 l
637.451163 251.726486 l
653.023256 258.220572 l
668.595349 266.39182 l
684.167442 266.726892 l
699.739535 264.847925 l
715.311628 266.709573 l
730.883721 269.590925 l
746.455814 279.910868 l
762.027907 289.474145 l
777.6 288.225813 l
stroke
grestore
2 setlinecap
[] 0 setdash
0.000 0.000 1.000 setrgbcolor
gsave
669.6 499 108 71.28 clipbox
108 149.569583 m
123.572093 160.426877 l
139.144186 193.20798 l
154.716279 114.471502 l
170.288372 126.596724 l
185.860465 174.179122 l
201.432558 93.96 l
217.004651 163.287057 l
232.576744 122.864909 l
248.148837 116.00385 l
263.72093 124.702416 l
279.293023 118.611671 l
294.865116 124.214018 l
310.437209 99.726576 l
326.009302 107.245764 l
341.581395 130.092437 l
357.153488 155.943701 l
372.725581 155.740582 l
388.297674 125.527699 l
403.869767 117.712832 l
419.44186 148.738867 l
435.013953 184.849562 l
450.586047 139.267825 l
466.15814 182.671524 l
481.730233 194.045154 l
497.302326 183.842939 l
512.874419 180.520109 l
528.446512 197.88107 l
544.018605 187.001516 l
559.590698 201.650252 l
575.162791 192.083992 l
590.734884 155.457919 l
606.306977 161.035372 l
621.87907 165.974595 l
637.451163 169.028077 l
653.023256 151.443345 l
668.595349 153.208653 l
684.167442 163.878436 l
699.739535 156.836361 l
715.311628 143.569262 l
730.883721 165.968387 l
746.455814 157.766907 l
762.027907 161.921286 l
777.6 177.466071 l
stroke
grestore
0 setlinecap
[11.1 4.8] 0 setdash
gsave
669.6 499 108 71.28 clipbox
108 241.644352 m
123.572093 250.632428 l
139.144186 236.422524 l
154.716279 248.477698 l
170.288372 232.326836 l
185.860465 246.319087 l
201.432558 200.038574 l
217.004651 208.710369 l
232.576744 207.082121 l
248.148837 204.694612 l
263.72093 207.129287 l
279.293023 204.952136 l
294.865116 206.561978 l
310.437209 199.830504 l
326.009302 201.659019 l
341.581395 212.495993 l
357.153488 218.731146 l
372.725581 219.14119 l
388.297674 210.051425 l
403.869767 210.673947 l
419.44186 241.834062 l
435.013953 250.812343 l
450.586047 236.669967 l
466.15814 248.9603 l
481.730233 238.12564 l
497.302326 238.859512 l
512.874419 245.411937 l
528.446512 252.989629 l
544.018605 242.144103 l
559.590698 242.955896 l
575.162791 256.966333 l
590.734884 253.919984 l
606.306977 257.221413 l
621.87907 258.309648 l
637.451163 253.964968 l
653.023256 254.914325 l
668.595349 255.119317 l
684.167442 257.130218 l
699.739535 254.496983 l
715.311628 251.885212 l
730.883721 259.910486 l
746.455814 260.953972 l
762.027907 271.69476 l
777.6 273.020254 l
stroke
grestore
2 setlinecap
[] 0 setdash
1.000 0.000 0.000 setrgbcolor
gsave
669.6 499 108 71.28 clipbox
108 175.005338 m
123.572093 192.817069 l
139.144186 228.757241 l
154.716279 230.510295 l
170.288372 250.087509 l
185.860465 246.82677 l
201.432558 230.065415 l
217.004651 234.583252 l
232.576744 215.12027 l
248.148837 241.627484 l
263.72093 259.314706 l
279.293023 231.123518 l
294.865116 228.739603 l
310.437209 233.447234 l
326.009302 256.537913 l
341.581395 232.912707 l
357.153488 261.57388 l
372.725581 241.629259 l
388.297674 256.356107 l
403.869767 251.344676 l
419.44186 266.776658 l
435.013953 249.868652 l
450.586047 239.003515 l
466.15814 238.199844 l
481.730233 256.142857 l
497.302326 267.489544 l
512.874419 261.27549 l
528.446512 249.564812 l
544.018605 262.4897 l
559.590698 249.997845 l
575.162791 244.889522 l
590.734884 252.637836 l
606.306977 249.96242 l
621.87907 257.075514 l
637.451163 262.720383 l
653.023256 282.336133 l
668.595349 291.791503 l
684.167442 259.124172 l
699.739535 267.096349 l
715.311628 279.939247 l
730.883721 280.535568 l
746.455814 265.135802 l
762.027907 275.706926 l
777.6 277.034896 l
stroke
grestore
1.000 setlinewidth
0 setlinejoin
0 setlinecap
gsave
669.6 499 108 71.28 clipbox
/o {
gsave
newpath
translate
1.0 setlinewidth
0 setlinejoin
0 setlinecap
-10 -10 m
10 -10 l
10 10 l
-10 10 l
cl

gsave
grestore
stroke
grestore
} bind def
108 175.005 o
123.572 192.817 o
139.144 228.757 o
154.716 230.51 o
170.288 250.088 o
185.86 246.827 o
201.433 230.065 o
217.005 234.583 o
232.577 215.12 o
248.149 241.627 o
263.721 259.315 o
279.293 231.124 o
294.865 228.74 o
310.437 233.447 o
326.009 256.538 o
341.581 232.913 o
357.153 261.574 o
372.726 241.629 o
388.298 256.356 o
403.87 251.345 o
419.442 266.777 o
435.014 249.869 o
450.586 239.004 o
466.158 238.2 o
481.73 256.143 o
497.302 267.49 o
512.874 261.275 o
528.447 249.565 o
544.019 262.49 o
559.591 249.998 o
575.163 244.89 o
590.735 252.638 o
606.307 249.962 o
621.879 257.076 o
637.451 262.72 o
653.023 282.336 o
668.595 291.792 o
684.167 259.124 o
699.74 267.096 o
715.312 279.939 o
730.884 280.536 o
746.456 265.136 o
762.028 275.707 o
777.6 277.035 o
grestore
3.000 setlinewidth
1 setlinejoin
[11.1 4.8] 0 setdash
gsave
669.6 499 108 71.28 clipbox
108 209.09023 m
123.572093 221.001221 l
139.144186 232.275038 l
154.716279 229.624527 l
170.288372 259.366642 l
185.860465 260.233129 l
201.432558 253.687536 l
217.004651 258.608178 l
232.576744 259.836762 l
248.148837 256.153301 l
263.72093 250.433668 l
279.293023 248.787526 l
294.865116 244.131861 l
310.437209 247.735653 l
326.009302 266.428475 l
341.581395 268.393195 l
357.153488 265.999837 l
372.725581 277.593429 l
388.297674 292.912147 l
403.869767 287.695716 l
419.44186 283.682827 l
435.013953 287.29087 l
450.586047 285.998986 l
466.15814 267.170435 l
481.730233 273.388945 l
497.302326 263.389373 l
512.874419 260.817068 l
528.446512 266.163693 l
544.018605 258.309997 l
559.590698 258.402445 l
575.162791 261.296559 l
590.734884 258.747077 l
606.306977 261.977363 l
621.87907 268.968303 l
637.451163 266.163069 l
653.023256 261.842466 l
668.595349 264.41098 l
684.167442 266.635922 l
699.739535 262.276713 l
715.311628 269.602496 l
730.883721 261.744193 l
746.455814 262.11993 l
762.027907 286.297228 l
777.6 265.413352 l
stroke
grestore
1.000 setlinewidth
0 setlinejoin
[] 0 setdash
gsave
669.6 499 108 71.28 clipbox
/o {
gsave
newpath
translate
1.0 setlinewidth
0 setlinejoin
0 setlinecap
-10 -10 m
10 -10 l
10 10 l
-10 10 l
cl

gsave
grestore
stroke
grestore
} bind def
108 209.09 o
123.572 221.001 o
139.144 232.275 o
154.716 229.625 o
170.288 259.367 o
185.86 260.233 o
201.433 253.688 o
217.005 258.608 o
232.577 259.837 o
248.149 256.153 o
263.721 250.434 o
279.293 248.788 o
294.865 244.132 o
310.437 247.736 o
326.009 266.428 o
341.581 268.393 o
357.153 266 o
372.726 277.593 o
388.298 292.912 o
403.87 287.696 o
419.442 283.683 o
435.014 287.291 o
450.586 285.999 o
466.158 267.17 o
481.73 273.389 o
497.302 263.389 o
512.874 260.817 o
528.447 266.164 o
544.019 258.31 o
559.591 258.402 o
575.163 261.297 o
590.735 258.747 o
606.307 261.977 o
621.879 268.968 o
637.451 266.163 o
653.023 261.842 o
668.595 264.411 o
684.167 266.636 o
699.74 262.277 o
715.312 269.602 o
730.884 261.744 o
746.456 262.12 o
762.028 286.297 o
777.6 265.413 o
grestore
3.000 setlinewidth
1 setlinejoin
2 setlinecap
0.000 0.000 1.000 setrgbcolor
gsave
669.6 499 108 71.28 clipbox
108 189.35233 m
123.572093 210.361712 l
139.144186 246.955579 l
154.716279 234.026732 l
170.288372 253.452809 l
185.860465 223.613861 l
201.432558 240.797661 l
217.004651 239.503813 l
232.576744 216.222501 l
248.148837 223.061443 l
263.72093 263.770207 l
279.293023 243.26271 l
294.865116 228.68987 l
310.437209 236.077596 l
326.009302 244.214887 l
341.581395 254.632204 l
357.153488 247.8092 l
372.725581 221.858287 l
388.297674 250.818177 l
403.869767 260.770587 l
419.44186 235.539765 l
435.013953 268.935961 l
450.586047 258.409068 l
466.15814 246.863009 l
481.730233 260.161786 l
497.302326 252.984729 l
512.874419 278.567995 l
528.446512 277.672438 l
544.018605 254.218711 l
559.590698 262.325162 l
575.162791 267.836717 l
590.734884 224.159631 l
606.306977 256.703883 l
621.87907 246.805759 l
637.451163 243.694553 l
653.023256 269.361482 l
668.595349 284.364128 l
684.167442 269.97057 l
699.739535 246.976956 l
715.311628 242.45452 l
730.883721 253.756159 l
746.455814 253.605397 l
762.027907 282.866973 l
777.6 259.301286 l
stroke
grestore
1.000 setlinewidth
0 setlinejoin
0 setlinecap
gsave
669.6 499 108 71.28 clipbox
/o {
gsave
newpath
translate
1.0 setlinewidth
0 setlinejoin
0 setlinecap
-10 -10 m
10 -10 l
10 10 l
-10 10 l
cl

gsave
grestore
stroke
grestore
} bind def
108 189.352 o
123.572 210.362 o
139.144 246.956 o
154.716 234.027 o
170.288 253.453 o
185.86 223.614 o
201.433 240.798 o
217.005 239.504 o
232.577 216.223 o
248.149 223.061 o
263.721 263.77 o
279.293 243.263 o
294.865 228.69 o
310.437 236.078 o
326.009 244.215 o
341.581 254.632 o
357.153 247.809 o
372.726 221.858 o
388.298 250.818 o
403.87 260.771 o
419.442 235.54 o
435.014 268.936 o
450.586 258.409 o
466.158 246.863 o
481.73 260.162 o
497.302 252.985 o
512.874 278.568 o
528.447 277.672 o
544.019 254.219 o
559.591 262.325 o
575.163 267.837 o
590.735 224.16 o
606.307 256.704 o
621.879 246.806 o
637.451 243.695 o
653.023 269.361 o
668.595 284.364 o
684.167 269.971 o
699.74 246.977 o
715.312 242.455 o
730.884 253.756 o
746.456 253.605 o
762.028 282.867 o
777.6 259.301 o
grestore
3.000 setlinewidth
1 setlinejoin
[11.1 4.8] 0 setdash
gsave
669.6 499 108 71.28 clipbox
108 218.0953 m
123.572093 233.921638 l
139.144186 244.958531 l
154.716279 236.335374 l
170.288372 252.368728 l
185.860465 228.79571 l
201.432558 253.329896 l
217.004651 248.619138 l
232.576744 247.113692 l
248.148837 254.633308 l
263.72093 259.26101 l
279.293023 253.031076 l
294.865116 248.002246 l
310.437209 242.572869 l
326.009302 266.268357 l
341.581395 276.118121 l
357.153488 270.479803 l
372.725581 283.550953 l
388.297674 283.698325 l
403.869767 279.759577 l
419.44186 303.171052 l
435.013953 304.257805 l
450.586047 295.232332 l
466.15814 269.429919 l
481.730233 289.499317 l
497.302326 265.73498 l
512.874419 286.625073 l
528.446512 277.052751 l
544.018605 279.999544 l
559.590698 266.30601 l
575.162791 262.294185 l
590.734884 260.829188 l
606.306977 260.375593 l
621.87907 266.802918 l
637.451163 271.975138 l
653.023256 267.261934 l
668.595349 264.15538 l
684.167442 266.434686 l
699.739535 271.194976 l
715.311628 275.66888 l
730.883721 275.545903 l
746.455814 271.0516 l
762.027907 300.20639 l
777.6 281.053399 l
stroke
grestore
1.000 setlinewidth
0 setlinejoin
[] 0 setdash
gsave
669.6 499 108 71.28 clipbox
/o {
gsave
newpath
translate
1.0 setlinewidth
0 setlinejoin
0 setlinecap
-10 -10 m
10 -10 l
10 10 l
-10 10 l
cl

gsave
grestore
stroke
grestore
} bind def
108 218.095 o
123.572 233.922 o
139.144 244.959 o
154.716 236.335 o
170.288 252.369 o
185.86 228.796 o
201.433 253.33 o
217.005 248.619 o
232.577 247.114 o
248.149 254.633 o
263.721 259.261 o
279.293 253.031 o
294.865 248.002 o
310.437 242.573 o
326.009 266.268 o
341.581 276.118 o
357.153 270.48 o
372.726 283.551 o
388.298 283.698 o
403.87 279.76 o
419.442 303.171 o
435.014 304.258 o
450.586 295.232 o
466.158 269.43 o
481.73 289.499 o
497.302 265.735 o
512.874 286.625 o
528.447 277.053 o
544.019 280 o
559.591 266.306 o
575.163 262.294 o
590.735 260.829 o
606.307 260.376 o
621.879 266.803 o
637.451 271.975 o
653.023 267.262 o
668.595 264.155 o
684.167 266.435 o
699.74 271.195 o
715.312 275.669 o
730.884 275.546 o
746.456 271.052 o
762.028 300.206 o
777.6 281.053 o
grestore
3.000 setlinewidth
1 setlinejoin
2 setlinecap
1.000 0.000 0.000 setrgbcolor
gsave
669.6 499 108 71.28 clipbox
108 229.628749 m
123.572093 257.6682 l
139.144186 316.22691 l
154.716279 301.976828 l
170.288372 296.498797 l
185.860465 293.434092 l
201.432558 290.47086 l
217.004651 299.9377 l
232.576744 327.868472 l
248.148837 309.130394 l
263.72093 293.172449 l
279.293023 317.936206 l
294.865116 337.353858 l
310.437209 327.825283 l
326.009302 305.690473 l
341.581395 314.505362 l
357.153488 315.620304 l
372.725581 320.805402 l
388.297674 322.173554 l
403.869767 336.217028 l
419.44186 341.245166 l
435.013953 314.628583 l
450.586047 327.245328 l
466.15814 324.710661 l
481.730233 303.409856 l
497.302326 314.366205 l
512.874419 325.950789 l
528.446512 313.920114 l
544.018605 327.978952 l
559.590698 330.721797 l
575.162791 335.724317 l
590.734884 345.155373 l
606.306977 338.138812 l
621.87907 319.985097 l
637.451163 300.10248 l
653.023256 320.849644 l
668.595349 346.679674 l
684.167442 326.670263 l
699.739535 319.051185 l
715.311628 307.863997 l
730.883721 319.965861 l
746.455814 342.758977 l
762.027907 342.450538 l
777.6 340.897636 l
stroke
grestore
1.000 setlinewidth
0 setlinecap
gsave
669.6 499 108 71.28 clipbox
/o {
gsave
newpath
translate
1.0 setlinewidth
1 setlinejoin
0 setlinecap
0 -10 m
2.652031 -10 5.195799 -8.946337 7.071068 -7.071068 c
8.946337 -5.195799 10 -2.652031 10 0 c
10 2.652031 8.946337 5.195799 7.071068 7.071068 c
5.195799 8.946337 2.652031 10 0 10 c
-2.652031 10 -5.195799 8.946337 -7.071068 7.071068 c
-8.946337 5.195799 -10 2.652031 -10 0 c
-10 -2.652031 -8.946337 -5.195799 -7.071068 -7.071068 c
-5.195799 -8.946337 -2.652031 -10 0 -10 c
cl

gsave
grestore
stroke
grestore
} bind def
108 229.629 o
123.572 257.668 o
139.144 316.227 o
154.716 301.977 o
170.288 296.499 o
185.86 293.434 o
201.433 290.471 o
217.005 299.938 o
232.577 327.868 o
248.149 309.13 o
263.721 293.172 o
279.293 317.936 o
294.865 337.354 o
310.437 327.825 o
326.009 305.69 o
341.581 314.505 o
357.153 315.62 o
372.726 320.805 o
388.298 322.174 o
403.87 336.217 o
419.442 341.245 o
435.014 314.629 o
450.586 327.245 o
466.158 324.711 o
481.73 303.41 o
497.302 314.366 o
512.874 325.951 o
528.447 313.92 o
544.019 327.979 o
559.591 330.722 o
575.163 335.724 o
590.735 345.155 o
606.307 338.139 o
621.879 319.985 o
637.451 300.102 o
653.023 320.85 o
668.595 346.68 o
684.167 326.67 o
699.74 319.051 o
715.312 307.864 o
730.884 319.966 o
746.456 342.759 o
762.028 342.451 o
777.6 340.898 o
grestore
3.000 setlinewidth
[11.1 4.8] 0 setdash
gsave
669.6 499 108 71.28 clipbox
108 264.874289 m
123.572093 287.283512 l
139.144186 293.142025 l
154.716279 290.889064 l
170.288372 286.807289 l
185.860465 293.667283 l
201.432558 295.174277 l
217.004651 315.139145 l
232.576744 325.234956 l
248.148837 316.295666 l
263.72093 301.161011 l
279.293023 302.291487 l
294.865116 316.648672 l
310.437209 312.665571 l
326.009302 309.117637 l
341.581395 316.662376 l
357.153488 312.995429 l
372.725581 310.362553 l
388.297674 307.751778 l
403.869767 320.823982 l
419.44186 318.525918 l
435.013953 318.693114 l
450.586047 312.298709 l
466.15814 315.357207 l
481.730233 298.738459 l
497.302326 290.123658 l
512.874419 302.330742 l
528.446512 303.896235 l
544.018605 304.979796 l
559.590698 299.322597 l
575.162791 308.719154 l
590.734884 299.841829 l
606.306977 300.117006 l
621.87907 302.555477 l
637.451163 299.388294 l
653.023256 313.269672 l
668.595349 318.41281 l
684.167442 301.577136 l
699.739535 299.485179 l
715.311628 309.626586 l
730.883721 321.73729 l
746.455814 318.922755 l
762.027907 321.302915 l
777.6 316.43932 l
stroke
grestore
1.000 setlinewidth
[] 0 setdash
gsave
669.6 499 108 71.28 clipbox
/o {
gsave
newpath
translate
1.0 setlinewidth
1 setlinejoin
0 setlinecap
0 -10 m
2.652031 -10 5.195799 -8.946337 7.071068 -7.071068 c
8.946337 -5.195799 10 -2.652031 10 0 c
10 2.652031 8.946337 5.195799 7.071068 7.071068 c
5.195799 8.946337 2.652031 10 0 10 c
-2.652031 10 -5.195799 8.946337 -7.071068 7.071068 c
-8.946337 5.195799 -10 2.652031 -10 0 c
-10 -2.652031 -8.946337 -5.195799 -7.071068 -7.071068 c
-5.195799 -8.946337 -2.652031 -10 0 -10 c
cl

gsave
grestore
stroke
grestore
} bind def
108 264.874 o
123.572 287.284 o
139.144 293.142 o
154.716 290.889 o
170.288 286.807 o
185.86 293.667 o
201.433 295.174 o
217.005 315.139 o
232.577 325.235 o
248.149 316.296 o
263.721 301.161 o
279.293 302.291 o
294.865 316.649 o
310.437 312.666 o
326.009 309.118 o
341.581 316.662 o
357.153 312.995 o
372.726 310.363 o
388.298 307.752 o
403.87 320.824 o
419.442 318.526 o
435.014 318.693 o
450.586 312.299 o
466.158 315.357 o
481.73 298.738 o
497.302 290.124 o
512.874 302.331 o
528.447 303.896 o
544.019 304.98 o
559.591 299.323 o
575.163 308.719 o
590.735 299.842 o
606.307 300.117 o
621.879 302.555 o
637.451 299.388 o
653.023 313.27 o
668.595 318.413 o
684.167 301.577 o
699.74 299.485 o
715.312 309.627 o
730.884 321.737 o
746.456 318.923 o
762.028 321.303 o
777.6 316.439 o
grestore
3.000 setlinewidth
2 setlinecap
0.000 0.000 1.000 setrgbcolor
gsave
669.6 499 108 71.28 clipbox
108 282.584594 m
123.572093 307.401985 l
139.144186 326.065545 l
154.716279 320.925159 l
170.288372 338.846006 l
185.860465 332.778599 l
201.432558 322.450598 l
217.004651 321.029583 l
232.576744 332.522921 l
248.148837 322.219573 l
263.72093 329.175084 l
279.293023 324.646002 l
294.865116 337.141206 l
310.437209 333.708892 l
326.009302 347.80507 l
341.581395 350.207781 l
357.153488 326.335628 l
372.725581 330.095581 l
388.297674 341.824908 l
403.869767 343.247673 l
419.44186 342.982737 l
435.013953 329.64685 l
450.586047 336.300812 l
466.15814 335.886241 l
481.730233 326.131653 l
497.302326 332.876173 l
512.874419 345.694954 l
528.446512 334.875861 l
544.018605 353.52985 l
559.590698 348.441767 l
575.162791 356.95562 l
590.734884 360.246878 l
606.306977 353.282719 l
621.87907 353.323303 l
637.451163 346.61262 l
653.023256 349.644656 l
668.595349 356.633794 l
684.167442 345.280594 l
699.739535 352.070763 l
715.311628 362.173715 l
730.883721 348.508029 l
746.455814 360.145806 l
762.027907 351.20271 l
777.6 350.996361 l
stroke
grestore
1.000 setlinewidth
0 setlinecap
gsave
669.6 499 108 71.28 clipbox
/o {
gsave
newpath
translate
1.0 setlinewidth
1 setlinejoin
0 setlinecap
0 -10 m
2.652031 -10 5.195799 -8.946337 7.071068 -7.071068 c
8.946337 -5.195799 10 -2.652031 10 0 c
10 2.652031 8.946337 5.195799 7.071068 7.071068 c
5.195799 8.946337 2.652031 10 0 10 c
-2.652031 10 -5.195799 8.946337 -7.071068 7.071068 c
-8.946337 5.195799 -10 2.652031 -10 0 c
-10 -2.652031 -8.946337 -5.195799 -7.071068 -7.071068 c
-5.195799 -8.946337 -2.652031 -10 0 -10 c
cl

gsave
grestore
stroke
grestore
} bind def
108 282.585 o
123.572 307.402 o
139.144 326.066 o
154.716 320.925 o
170.288 338.846 o
185.86 332.779 o
201.433 322.451 o
217.005 321.03 o
232.577 332.523 o
248.149 322.22 o
263.721 329.175 o
279.293 324.646 o
294.865 337.141 o
310.437 333.709 o
326.009 347.805 o
341.581 350.208 o
357.153 326.336 o
372.726 330.096 o
388.298 341.825 o
403.87 343.248 o
419.442 342.983 o
435.014 329.647 o
450.586 336.301 o
466.158 335.886 o
481.73 326.132 o
497.302 332.876 o
512.874 345.695 o
528.447 334.876 o
544.019 353.53 o
559.591 348.442 o
575.163 356.956 o
590.735 360.247 o
606.307 353.283 o
621.879 353.323 o
637.451 346.613 o
653.023 349.645 o
668.595 356.634 o
684.167 345.281 o
699.74 352.071 o
715.312 362.174 o
730.884 348.508 o
746.456 360.146 o
762.028 351.203 o
777.6 350.996 o
grestore
3.000 setlinewidth
[11.1 4.8] 0 setdash
gsave
669.6 499 108 71.28 clipbox
108 303.409856 m
123.572093 326.01227 l
139.144186 321.152624 l
154.716279 321.415349 l
170.288372 324.984189 l
185.860465 322.70391 l
201.432558 334.875166 l
217.004651 347.038859 l
232.576744 341.98357 l
248.148837 338.950925 l
263.72093 335.474806 l
279.293023 334.188121 l
294.865116 336.490711 l
310.437209 334.742431 l
326.009302 336.527022 l
341.581395 338.698961 l
357.153488 338.89302 l
372.725581 329.914819 l
388.297674 336.829107 l
403.869767 346.405872 l
419.44186 346.029187 l
435.013953 338.479622 l
450.586047 341.285726 l
466.15814 334.839486 l
481.730233 327.664977 l
497.302326 336.383248 l
512.874419 328.381102 l
528.446512 334.182506 l
544.018605 336.057126 l
559.590698 331.428394 l
575.162791 339.166604 l
590.734884 327.702616 l
606.306977 335.840228 l
621.87907 331.368364 l
637.451163 339.535994 l
653.023256 340.581114 l
668.595349 344.451035 l
684.167442 334.419097 l
699.739535 333.160477 l
715.311628 342.547766 l
730.883721 338.713866 l
746.455814 337.371736 l
762.027907 338.513699 l
777.6 339.994822 l
stroke
grestore
1.000 setlinewidth
[] 0 setdash
gsave
669.6 499 108 71.28 clipbox
/o {
gsave
newpath
translate
1.0 setlinewidth
1 setlinejoin
0 setlinecap
0 -10 m
2.652031 -10 5.195799 -8.946337 7.071068 -7.071068 c
8.946337 -5.195799 10 -2.652031 10 0 c
10 2.652031 8.946337 5.195799 7.071068 7.071068 c
5.195799 8.946337 2.652031 10 0 10 c
-2.652031 10 -5.195799 8.946337 -7.071068 7.071068 c
-8.946337 5.195799 -10 2.652031 -10 0 c
-10 -2.652031 -8.946337 -5.195799 -7.071068 -7.071068 c
-5.195799 -8.946337 -2.652031 -10 0 -10 c
cl

gsave
grestore
stroke
grestore
} bind def
108 303.41 o
123.572 326.012 o
139.144 321.153 o
154.716 321.415 o
170.288 324.984 o
185.86 322.704 o
201.433 334.875 o
217.005 347.039 o
232.577 341.984 o
248.149 338.951 o
263.721 335.475 o
279.293 334.188 o
294.865 336.491 o
310.437 334.742 o
326.009 336.527 o
341.581 338.699 o
357.153 338.893 o
372.726 329.915 o
388.298 336.829 o
403.87 346.406 o
419.442 346.029 o
435.014 338.48 o
450.586 341.286 o
466.158 334.839 o
481.73 327.665 o
497.302 336.383 o
512.874 328.381 o
528.447 334.183 o
544.019 336.057 o
559.591 331.428 o
575.163 339.167 o
590.735 327.703 o
606.307 335.84 o
621.879 331.368 o
637.451 339.536 o
653.023 340.581 o
668.595 344.451 o
684.167 334.419 o
699.74 333.16 o
715.312 342.548 o
730.884 338.714 o
746.456 337.372 o
762.028 338.514 o
777.6 339.995 o
grestore
3.000 setlinewidth
2 setlinecap
1.000 0.000 0.000 setrgbcolor
gsave
669.6 499 108 71.28 clipbox
108 397.577258 m
123.572093 418.679701 l
139.144186 521.695595 l
154.716279 536.936786 l
170.288372 529.384349 l
185.860465 528.727094 l
201.432558 533.755139 l
217.004651 532.199646 l
232.576744 536.748229 l
248.148837 529.691644 l
263.72093 527.909227 l
279.293023 527.922854 l
294.865116 529.816108 l
310.437209 539.256087 l
326.009302 538.919675 l
341.581395 530.887334 l
357.153488 539.167716 l
372.725581 536.041802 l
388.297674 534.780025 l
403.869767 539.05297 l
419.44186 544.503192 l
435.013953 540.508539 l
450.586047 543.182254 l
466.15814 544.951817 l
481.730233 547.56 l
497.302326 539.893286 l
512.874419 545.481689 l
528.446512 546.904132 l
544.018605 538.952105 l
559.590698 536.210653 l
575.162791 537.297337 l
590.734884 532.752358 l
606.306977 534.705925 l
621.87907 546.013071 l
637.451163 541.598191 l
653.023256 537.955796 l
668.595349 539.056635 l
684.167442 541.055504 l
699.739535 543.674914 l
715.311628 539.304796 l
730.883721 547.320198 l
746.455814 546.617146 l
762.027907 539.249387 l
777.6 539.003473 l
stroke
grestore
1.000 setlinewidth
0 setlinejoin
0 setlinecap
gsave
669.6 499 108 71.28 clipbox
/o {
gsave
newpath
translate
1.0 setlinewidth
0 setlinejoin
0 setlinecap
0 10 m
-10 -10 l
10 -10 l
cl

gsave
grestore
stroke
grestore
} bind def
108 397.577 o
123.572 418.68 o
139.144 521.696 o
154.716 536.937 o
170.288 529.384 o
185.86 528.727 o
201.433 533.755 o
217.005 532.2 o
232.577 536.748 o
248.149 529.692 o
263.721 527.909 o
279.293 527.923 o
294.865 529.816 o
310.437 539.256 o
326.009 538.92 o
341.581 530.887 o
357.153 539.168 o
372.726 536.042 o
388.298 534.78 o
403.87 539.053 o
419.442 544.503 o
435.014 540.509 o
450.586 543.182 o
466.158 544.952 o
481.73 547.56 o
497.302 539.893 o
512.874 545.482 o
528.447 546.904 o
544.019 538.952 o
559.591 536.211 o
575.163 537.297 o
590.735 532.752 o
606.307 534.706 o
621.879 546.013 o
637.451 541.598 o
653.023 537.956 o
668.595 539.057 o
684.167 541.056 o
699.74 543.675 o
715.312 539.305 o
730.884 547.32 o
746.456 546.617 o
762.028 539.249 o
777.6 539.003 o
grestore
3.000 setlinewidth
1 setlinejoin
[11.1 4.8] 0 setdash
gsave
669.6 499 108 71.28 clipbox
108 423.45416 m
123.572093 420.309539 l
139.144186 422.824077 l
154.716279 427.710563 l
170.288372 424.925896 l
185.860465 427.112915 l
201.432558 428.781489 l
217.004651 425.342564 l
232.576744 434.733129 l
248.148837 433.430573 l
263.72093 435.198234 l
279.293023 439.506987 l
294.865116 438.266733 l
310.437209 440.681862 l
326.009302 441.86618 l
341.581395 440.358412 l
357.153488 443.373416 l
372.725581 445.158219 l
388.297674 445.443154 l
403.869767 444.010481 l
419.44186 454.297294 l
435.013953 458.555187 l
450.586047 461.276723 l
466.15814 456.862605 l
481.730233 464.168351 l
497.302326 458.689123 l
512.874419 464.411624 l
528.446512 462.345253 l
544.018605 463.786475 l
559.590698 458.876936 l
575.162791 458.297883 l
590.734884 459.691041 l
606.306977 459.587831 l
621.87907 461.299952 l
637.451163 458.635229 l
653.023256 461.516139 l
668.595349 463.524854 l
684.167442 467.759164 l
699.739535 467.805226 l
715.311628 466.751492 l
730.883721 466.482237 l
746.455814 470.436668 l
762.027907 470.261247 l
777.6 469.37493 l
stroke
grestore
1.000 setlinewidth
0 setlinejoin
[] 0 setdash
gsave
669.6 499 108 71.28 clipbox
/o {
gsave
newpath
translate
1.0 setlinewidth
0 setlinejoin
0 setlinecap
0 10 m
-10 -10 l
10 -10 l
cl

gsave
grestore
stroke
grestore
} bind def
108 423.454 o
123.572 420.31 o
139.144 422.824 o
154.716 427.711 o
170.288 424.926 o
185.86 427.113 o
201.433 428.781 o
217.005 425.343 o
232.577 434.733 o
248.149 433.431 o
263.721 435.198 o
279.293 439.507 o
294.865 438.267 o
310.437 440.682 o
326.009 441.866 o
341.581 440.358 o
357.153 443.373 o
372.726 445.158 o
388.298 445.443 o
403.87 444.01 o
419.442 454.297 o
435.014 458.555 o
450.586 461.277 o
466.158 456.863 o
481.73 464.168 o
497.302 458.689 o
512.874 464.412 o
528.447 462.345 o
544.019 463.786 o
559.591 458.877 o
575.163 458.298 o
590.735 459.691 o
606.307 459.588 o
621.879 461.3 o
637.451 458.635 o
653.023 461.516 o
668.595 463.525 o
684.167 467.759 o
699.74 467.805 o
715.312 466.751 o
730.884 466.482 o
746.456 470.437 o
762.028 470.261 o
777.6 469.375 o
grestore
3.000 setlinewidth
1 setlinejoin
2 setlinecap
0.000 0.000 1.000 setrgbcolor
gsave
669.6 499 108 71.28 clipbox
108 387.66541 m
123.572093 417.920929 l
139.144186 456.057868 l
154.716279 478.587465 l
170.288372 462.080539 l
185.860465 475.607427 l
201.432558 481.604044 l
217.004651 479.859665 l
232.576744 481.286694 l
248.148837 480.020031 l
263.72093 484.453491 l
279.293023 480.430705 l
294.865116 480.153481 l
310.437209 484.386644 l
326.009302 483.139991 l
341.581395 491.137143 l
357.153488 489.358981 l
372.725581 489.010706 l
388.297674 494.445809 l
403.869767 489.267038 l
419.44186 491.764733 l
435.013953 489.982098 l
450.586047 491.883088 l
466.15814 489.394349 l
481.730233 493.711436 l
497.302326 499.797273 l
512.874419 492.401058 l
528.446512 490.446623 l
544.018605 493.73374 l
559.590698 486.894804 l
575.162791 485.809592 l
590.734884 489.442936 l
606.306977 485.859965 l
621.87907 493.608743 l
637.451163 492.68917 l
653.023256 488.096341 l
668.595349 487.015808 l
684.167442 487.077587 l
699.739535 492.714545 l
715.311628 494.872248 l
730.883721 489.533899 l
746.455814 500.792907 l
762.027907 500.164556 l
777.6 499.638776 l
stroke
grestore
1.000 setlinewidth
0 setlinejoin
0 setlinecap
gsave
669.6 499 108 71.28 clipbox
/o {
gsave
newpath
translate
1.0 setlinewidth
0 setlinejoin
0 setlinecap
0 10 m
-10 -10 l
10 -10 l
cl

gsave
grestore
stroke
grestore
} bind def
108 387.665 o
123.572 417.921 o
139.144 456.058 o
154.716 478.587 o
170.288 462.081 o
185.86 475.607 o
201.433 481.604 o
217.005 479.86 o
232.577 481.287 o
248.149 480.02 o
263.721 484.453 o
279.293 480.431 o
294.865 480.153 o
310.437 484.387 o
326.009 483.14 o
341.581 491.137 o
357.153 489.359 o
372.726 489.011 o
388.298 494.446 o
403.87 489.267 o
419.442 491.765 o
435.014 489.982 o
450.586 491.883 o
466.158 489.394 o
481.73 493.711 o
497.302 499.797 o
512.874 492.401 o
528.447 490.447 o
544.019 493.734 o
559.591 486.895 o
575.163 485.81 o
590.735 489.443 o
606.307 485.86 o
621.879 493.609 o
637.451 492.689 o
653.023 488.096 o
668.595 487.016 o
684.167 487.078 o
699.74 492.715 o
715.312 494.872 o
730.884 489.534 o
746.456 500.793 o
762.028 500.165 o
777.6 499.639 o
grestore
3.000 setlinewidth
1 setlinejoin
[11.1 4.8] 0 setdash
gsave
669.6 499 108 71.28 clipbox
108 410.526093 m
123.572093 414.552878 l
139.144186 407.377746 l
154.716279 442.24952 l
170.288372 438.24898 l
185.860465 437.801841 l
201.432558 441.977371 l
217.004651 442.085173 l
232.576744 444.997547 l
248.148837 440.330799 l
263.72093 437.10485 l
279.293023 439.450297 l
294.865116 439.483393 l
310.437209 441.065263 l
326.009302 445.740753 l
341.581395 443.259097 l
357.153488 444.015528 l
372.725581 442.723594 l
388.297674 444.112774 l
403.869767 447.814668 l
419.44186 446.868755 l
435.013953 444.298483 l
450.586047 447.320417 l
466.15814 445.166491 l
481.730233 444.445976 l
497.302326 450.017735 l
512.874419 448.16705 l
528.446512 449.550519 l
544.018605 443.908279 l
559.590698 447.545949 l
575.162791 448.70453 l
590.734884 441.569625 l
606.306977 445.62628 l
621.87907 449.181695 l
637.451163 445.929408 l
653.023256 447.199572 l
668.595349 449.846957 l
684.167442 454.926166 l
699.739535 450.03382 l
715.311628 450.933483 l
730.883721 447.917413 l
746.455814 450.811149 l
762.027907 449.997017 l
777.6 451.101177 l
stroke
grestore
1.000 setlinewidth
0 setlinejoin
[] 0 setdash
gsave
669.6 499 108 71.28 clipbox
/o {
gsave
newpath
translate
1.0 setlinewidth
0 setlinejoin
0 setlinecap
0 10 m
-10 -10 l
10 -10 l
cl

gsave
grestore
stroke
grestore
} bind def
108 410.526 o
123.572 414.553 o
139.144 407.378 o
154.716 442.25 o
170.288 438.249 o
185.86 437.802 o
201.433 441.977 o
217.005 442.085 o
232.577 444.998 o
248.149 440.331 o
263.721 437.105 o
279.293 439.45 o
294.865 439.483 o
310.437 441.065 o
326.009 445.741 o
341.581 443.259 o
357.153 444.016 o
372.726 442.724 o
388.298 444.113 o
403.87 447.815 o
419.442 446.869 o
435.014 444.298 o
450.586 447.32 o
466.158 445.166 o
481.73 444.446 o
497.302 450.018 o
512.874 448.167 o
528.447 449.551 o
544.019 443.908 o
559.591 447.546 o
575.163 448.705 o
590.735 441.57 o
606.307 445.626 o
621.879 449.182 o
637.451 445.929 o
653.023 447.2 o
668.595 449.847 o
684.167 454.926 o
699.74 450.034 o
715.312 450.933 o
730.884 447.917 o
746.456 450.811 o
762.028 449.997 o
777.6 451.101 o
grestore
0.800 setlinewidth
2 setlinecap
[] 0 setdash
0.000 setgray
gsave
108 71.28 m
108 570.24 l
stroke
grestore
gsave
777.6 71.28 m
777.6 570.24 l
stroke
grestore
gsave
108 71.28 m
777.6 71.28 l
stroke
grestore
gsave
108 570.24 m
777.6 570.24 l
stroke
grestore
gsave
206.862500 576.240000 translate
0.000000 rotate
0.000000 0.000000 m /M glyphshow
20.707031 0.000000 m /e glyphshow
35.472656 0.000000 m /a glyphshow
50.179688 0.000000 m /n glyphshow
65.390625 0.000000 m /space glyphshow
73.019531 0.000000 m /e glyphshow
87.785156 0.000000 m /r glyphshow
97.652344 0.000000 m /r glyphshow
107.519531 0.000000 m /o glyphshow
122.203125 0.000000 m /r glyphshow
132.070312 0.000000 m /space glyphshow
139.699219 0.000000 m /o glyphshow
154.382812 0.000000 m /f glyphshow
162.832031 0.000000 m /space glyphshow
170.460938 0.000000 m /d glyphshow
185.695312 0.000000 m /e glyphshow
200.460938 0.000000 m /t glyphshow
209.871094 0.000000 m /e glyphshow
224.636719 0.000000 m /c glyphshow
237.832031 0.000000 m /t glyphshow
247.242188 0.000000 m /e glyphshow
262.007812 0.000000 m /d glyphshow
277.242188 0.000000 m /space glyphshow
284.871094 0.000000 m /p glyphshow
300.105469 0.000000 m /a glyphshow
314.812500 0.000000 m /r glyphshow
324.679688 0.000000 m /t glyphshow
334.089844 0.000000 m /i glyphshow
340.757812 0.000000 m /c glyphshow
353.953125 0.000000 m /l glyphshow
360.621094 0.000000 m /e glyphshow
375.386719 0.000000 m /s glyphshow
387.890625 0.000000 m /space glyphshow
395.519531 0.000000 m /one glyphshow
410.789062 0.000000 m /zero glyphshow
426.058594 0.000000 m /zero glyphshow
441.328125 0.000000 m /zero glyphshow
456.597656 0.000000 m /zero glyphshow
grestore
1.000 setlinewidth
0 setlinecap
0.800 setgray
gsave
125.86 205.99 m
331.86 205.99 l
333.86 205.99 334.86 206.99 334.86 208.99 c
334.86 559.74 l
334.86 561.74 333.86 562.74 331.86 562.74 c
125.86 562.74 l
123.86 562.74 122.86 561.74 122.86 559.74 c
122.86 208.99 l
122.86 206.99 123.86 205.99 125.86 205.99 c
cl
gsave
1.000 setgray
fill
grestore
stroke
grestore
3.000 setlinewidth
1 setlinejoin
2 setlinecap
[] 0 setdash
1.000 0.000 0.000 setrgbcolor
gsave
128.86 550.599375 m
158.86 550.599375 l
stroke
grestore
0.000 setgray
gsave
170.860000 545.349375 translate
0.000000 rotate
/DejaVuSans findfont
15.0 scalefont
setfont
0.000000 0.609375 moveto
/S glyphshow

9.521484 0.609375 moveto
/T glyphshow

18.684082 0.609375 moveto
/B glyphshow

28.974609 0.609375 moveto
/comma glyphshow

33.742676 0.609375 moveto
/space glyphshow

38.510742 0.609375 moveto
/three glyphshow

/DejaVuSans-Oblique findfont
15.0 scalefont
setfont
48.054199 0.609375 moveto
/delta glyphshow

57.231445 0.609375 moveto
/t glyphshow

/DejaVuSans findfont
15.0 scalefont
setfont
63.112793 0.609375 moveto
/comma glyphshow

67.880859 0.609375 moveto
/space glyphshow

72.648926 0.609375 moveto
/T glyphshow

81.811523 0.609375 moveto
/r glyphshow

87.978516 0.609375 moveto
/a glyphshow

97.170410 0.609375 moveto
/c glyphshow

105.417480 0.609375 moveto
/k glyphshow

114.104004 0.609375 moveto
/s glyphshow


grestore
0 setlinecap
[11.1 4.8] 0 setdash
1.000 0.000 0.000 setrgbcolor
gsave
128.86 528.58375 m
158.86 528.58375 l
stroke
grestore
0.000 setgray
gsave
170.860000 523.333750 translate
0.000000 rotate
/DejaVuSans findfont
15.0 scalefont
setfont
0.000000 0.609375 moveto
/S glyphshow

9.521484 0.609375 moveto
/T glyphshow

18.684082 0.609375 moveto
/B glyphshow

28.974609 0.609375 moveto
/comma glyphshow

33.742676 0.609375 moveto
/space glyphshow

38.510742 0.609375 moveto
/three glyphshow

/DejaVuSans-Oblique findfont
15.0 scalefont
setfont
48.054199 0.609375 moveto
/delta glyphshow

57.231445 0.609375 moveto
/t glyphshow

/DejaVuSans findfont
15.0 scalefont
setfont
63.112793 0.609375 moveto
/comma glyphshow

67.880859 0.609375 moveto
/space glyphshow

72.648926 0.609375 moveto
/P glyphshow

81.694336 0.609375 moveto
/a glyphshow

90.886230 0.609375 moveto
/r glyphshow

97.053223 0.609375 moveto
/t glyphshow

102.934570 0.609375 moveto
/i glyphshow

107.102051 0.609375 moveto
/c glyphshow

115.349121 0.609375 moveto
/l glyphshow

119.516602 0.609375 moveto
/e glyphshow

128.745117 0.609375 moveto
/s glyphshow


grestore
2 setlinecap
[] 0 setdash
0.000 0.000 1.000 setrgbcolor
gsave
128.86 506.568125 m
158.86 506.568125 l
stroke
grestore
0.000 setgray
gsave
170.860000 501.318125 translate
0.000000 rotate
/DejaVuSans findfont
15.0 scalefont
setfont
0.000000 0.609375 moveto
/O glyphshow

11.806641 0.609375 moveto
/u glyphshow

21.313477 0.609375 moveto
/r glyphshow

27.480469 0.609375 moveto
/s glyphshow

35.295410 0.609375 moveto
/comma glyphshow

40.063477 0.609375 moveto
/space glyphshow

44.831543 0.609375 moveto
/three glyphshow

/DejaVuSans-Oblique findfont
15.0 scalefont
setfont
54.375000 0.609375 moveto
/delta glyphshow

63.552246 0.609375 moveto
/t glyphshow

/DejaVuSans findfont
15.0 scalefont
setfont
69.433594 0.609375 moveto
/comma glyphshow

74.201660 0.609375 moveto
/space glyphshow

78.969727 0.609375 moveto
/T glyphshow

88.132324 0.609375 moveto
/r glyphshow

94.299316 0.609375 moveto
/a glyphshow

103.491211 0.609375 moveto
/c glyphshow

111.738281 0.609375 moveto
/k glyphshow

120.424805 0.609375 moveto
/s glyphshow


grestore
0 setlinecap
[11.1 4.8] 0 setdash
0.000 0.000 1.000 setrgbcolor
gsave
128.86 484.5525 m
158.86 484.5525 l
stroke
grestore
0.000 setgray
gsave
170.860000 479.302500 translate
0.000000 rotate
/DejaVuSans findfont
15.0 scalefont
setfont
0.000000 0.609375 moveto
/O glyphshow

11.806641 0.609375 moveto
/u glyphshow

21.313477 0.609375 moveto
/r glyphshow

27.480469 0.609375 moveto
/s glyphshow

35.295410 0.609375 moveto
/comma glyphshow

40.063477 0.609375 moveto
/space glyphshow

44.831543 0.609375 moveto
/three glyphshow

/DejaVuSans-Oblique findfont
15.0 scalefont
setfont
54.375000 0.609375 moveto
/delta glyphshow

63.552246 0.609375 moveto
/t glyphshow

/DejaVuSans findfont
15.0 scalefont
setfont
69.433594 0.609375 moveto
/comma glyphshow

74.201660 0.609375 moveto
/space glyphshow

78.969727 0.609375 moveto
/P glyphshow

88.015137 0.609375 moveto
/a glyphshow

97.207031 0.609375 moveto
/r glyphshow

103.374023 0.609375 moveto
/t glyphshow

109.255371 0.609375 moveto
/i glyphshow

113.422852 0.609375 moveto
/c glyphshow

121.669922 0.609375 moveto
/l glyphshow

125.837402 0.609375 moveto
/e glyphshow

135.065918 0.609375 moveto
/s glyphshow


grestore
2 setlinecap
[] 0 setdash
1.000 0.000 0.000 setrgbcolor
gsave
128.86 462.536875 m
158.86 462.536875 l
stroke
grestore
1.000 setlinewidth
0 setlinejoin
0 setlinecap
gsave
/o {
gsave
newpath
translate
1.0 setlinewidth
0 setlinejoin
0 setlinecap
-10 -10 m
10 -10 l
10 10 l
-10 10 l
cl

gsave
grestore
stroke
grestore
} bind def
143.86 462.537 o
grestore
0.000 setgray
gsave
170.860000 457.286875 translate
0.000000 rotate
/DejaVuSans findfont
15.0 scalefont
setfont
0.000000 0.609375 moveto
/S glyphshow

9.521484 0.609375 moveto
/T glyphshow

18.684082 0.609375 moveto
/B glyphshow

28.974609 0.609375 moveto
/comma glyphshow

33.742676 0.609375 moveto
/space glyphshow

38.510742 0.609375 moveto
/seven glyphshow

48.054199 0.609375 moveto
/period glyphshow

52.822266 0.609375 moveto
/five glyphshow

/DejaVuSans-Oblique findfont
15.0 scalefont
setfont
62.365723 0.609375 moveto
/delta glyphshow

71.542969 0.609375 moveto
/t glyphshow

/DejaVuSans findfont
15.0 scalefont
setfont
77.424316 0.609375 moveto
/comma glyphshow

82.192383 0.609375 moveto
/space glyphshow

86.960449 0.609375 moveto
/T glyphshow

96.123047 0.609375 moveto
/r glyphshow

102.290039 0.609375 moveto
/a glyphshow

111.481934 0.609375 moveto
/c glyphshow

119.729004 0.609375 moveto
/k glyphshow

128.415527 0.609375 moveto
/s glyphshow


grestore
3.000 setlinewidth
1 setlinejoin
[11.1 4.8] 0 setdash
1.000 0.000 0.000 setrgbcolor
gsave
128.86 440.52125 m
158.86 440.52125 l
stroke
grestore
1.000 setlinewidth
0 setlinejoin
[] 0 setdash
gsave
/o {
gsave
newpath
translate
1.0 setlinewidth
0 setlinejoin
0 setlinecap
-10 -10 m
10 -10 l
10 10 l
-10 10 l
cl

gsave
grestore
stroke
grestore
} bind def
143.86 440.521 o
grestore
0.000 setgray
gsave
170.860000 435.271250 translate
0.000000 rotate
/DejaVuSans findfont
15.0 scalefont
setfont
0.000000 0.609375 moveto
/S glyphshow

9.521484 0.609375 moveto
/T glyphshow

18.684082 0.609375 moveto
/B glyphshow

28.974609 0.609375 moveto
/comma glyphshow

33.742676 0.609375 moveto
/space glyphshow

38.510742 0.609375 moveto
/seven glyphshow

48.054199 0.609375 moveto
/period glyphshow

52.822266 0.609375 moveto
/five glyphshow

/DejaVuSans-Oblique findfont
15.0 scalefont
setfont
62.365723 0.609375 moveto
/delta glyphshow

71.542969 0.609375 moveto
/t glyphshow

/DejaVuSans findfont
15.0 scalefont
setfont
77.424316 0.609375 moveto
/comma glyphshow

82.192383 0.609375 moveto
/space glyphshow

86.960449 0.609375 moveto
/P glyphshow

96.005859 0.609375 moveto
/a glyphshow

105.197754 0.609375 moveto
/r glyphshow

111.364746 0.609375 moveto
/t glyphshow

117.246094 0.609375 moveto
/i glyphshow

121.413574 0.609375 moveto
/c glyphshow

129.660645 0.609375 moveto
/l glyphshow

133.828125 0.609375 moveto
/e glyphshow

143.056641 0.609375 moveto
/s glyphshow


grestore
3.000 setlinewidth
1 setlinejoin
2 setlinecap
0.000 0.000 1.000 setrgbcolor
gsave
128.86 418.505625 m
158.86 418.505625 l
stroke
grestore
1.000 setlinewidth
0 setlinejoin
0 setlinecap
gsave
/o {
gsave
newpath
translate
1.0 setlinewidth
0 setlinejoin
0 setlinecap
-10 -10 m
10 -10 l
10 10 l
-10 10 l
cl

gsave
grestore
stroke
grestore
} bind def
143.86 418.506 o
grestore
0.000 setgray
gsave
170.860000 413.255625 translate
0.000000 rotate
/DejaVuSans findfont
15.0 scalefont
setfont
0.000000 0.609375 moveto
/O glyphshow

11.806641 0.609375 moveto
/u glyphshow

21.313477 0.609375 moveto
/r glyphshow

27.480469 0.609375 moveto
/s glyphshow

35.295410 0.609375 moveto
/comma glyphshow

40.063477 0.609375 moveto
/space glyphshow

44.831543 0.609375 moveto
/seven glyphshow

54.375000 0.609375 moveto
/period glyphshow

59.143066 0.609375 moveto
/five glyphshow

/DejaVuSans-Oblique findfont
15.0 scalefont
setfont
68.686523 0.609375 moveto
/delta glyphshow

77.863770 0.609375 moveto
/t glyphshow

/DejaVuSans findfont
15.0 scalefont
setfont
83.745117 0.609375 moveto
/comma glyphshow

88.513184 0.609375 moveto
/space glyphshow

93.281250 0.609375 moveto
/T glyphshow

102.443848 0.609375 moveto
/r glyphshow

108.610840 0.609375 moveto
/a glyphshow

117.802734 0.609375 moveto
/c glyphshow

126.049805 0.609375 moveto
/k glyphshow

134.736328 0.609375 moveto
/s glyphshow


grestore
3.000 setlinewidth
1 setlinejoin
[11.1 4.8] 0 setdash
0.000 0.000 1.000 setrgbcolor
gsave
128.86 396.49 m
158.86 396.49 l
stroke
grestore
1.000 setlinewidth
0 setlinejoin
[] 0 setdash
gsave
/o {
gsave
newpath
translate
1.0 setlinewidth
0 setlinejoin
0 setlinecap
-10 -10 m
10 -10 l
10 10 l
-10 10 l
cl

gsave
grestore
stroke
grestore
} bind def
143.86 396.49 o
grestore
0.000 setgray
gsave
170.860000 391.240000 translate
0.000000 rotate
/DejaVuSans findfont
15.0 scalefont
setfont
0.000000 0.609375 moveto
/O glyphshow

11.806641 0.609375 moveto
/u glyphshow

21.313477 0.609375 moveto
/r glyphshow

27.480469 0.609375 moveto
/s glyphshow

35.295410 0.609375 moveto
/comma glyphshow

40.063477 0.609375 moveto
/space glyphshow

44.831543 0.609375 moveto
/seven glyphshow

54.375000 0.609375 moveto
/period glyphshow

59.143066 0.609375 moveto
/five glyphshow

/DejaVuSans-Oblique findfont
15.0 scalefont
setfont
68.686523 0.609375 moveto
/delta glyphshow

77.863770 0.609375 moveto
/t glyphshow

/DejaVuSans findfont
15.0 scalefont
setfont
83.745117 0.609375 moveto
/comma glyphshow

88.513184 0.609375 moveto
/space glyphshow

93.281250 0.609375 moveto
/P glyphshow

102.326660 0.609375 moveto
/a glyphshow

111.518555 0.609375 moveto
/r glyphshow

117.685547 0.609375 moveto
/t glyphshow

123.566895 0.609375 moveto
/i glyphshow

127.734375 0.609375 moveto
/c glyphshow

135.981445 0.609375 moveto
/l glyphshow

140.148926 0.609375 moveto
/e glyphshow

149.377441 0.609375 moveto
/s glyphshow


grestore
3.000 setlinewidth
1 setlinejoin
2 setlinecap
1.000 0.000 0.000 setrgbcolor
gsave
128.86 374.474375 m
158.86 374.474375 l
stroke
grestore
1.000 setlinewidth
0 setlinecap
gsave
/o {
gsave
newpath
translate
1.0 setlinewidth
1 setlinejoin
0 setlinecap
0 -10 m
2.652031 -10 5.195799 -8.946337 7.071068 -7.071068 c
8.946337 -5.195799 10 -2.652031 10 0 c
10 2.652031 8.946337 5.195799 7.071068 7.071068 c
5.195799 8.946337 2.652031 10 0 10 c
-2.652031 10 -5.195799 8.946337 -7.071068 7.071068 c
-8.946337 5.195799 -10 2.652031 -10 0 c
-10 -2.652031 -8.946337 -5.195799 -7.071068 -7.071068 c
-5.195799 -8.946337 -2.652031 -10 0 -10 c
cl

gsave
grestore
stroke
grestore
} bind def
143.86 374.474 o
grestore
0.000 setgray
gsave
170.860000 369.224375 translate
0.000000 rotate
/DejaVuSans findfont
15.0 scalefont
setfont
0.000000 0.609375 moveto
/S glyphshow

9.521484 0.609375 moveto
/T glyphshow

18.684082 0.609375 moveto
/B glyphshow

28.974609 0.609375 moveto
/comma glyphshow

33.742676 0.609375 moveto
/space glyphshow

38.510742 0.609375 moveto
/one glyphshow

48.054199 0.609375 moveto
/five glyphshow

/DejaVuSans-Oblique findfont
15.0 scalefont
setfont
57.597656 0.609375 moveto
/delta glyphshow

66.774902 0.609375 moveto
/t glyphshow

/DejaVuSans findfont
15.0 scalefont
setfont
72.656250 0.609375 moveto
/comma glyphshow

77.424316 0.609375 moveto
/space glyphshow

82.192383 0.609375 moveto
/T glyphshow

91.354980 0.609375 moveto
/r glyphshow

97.521973 0.609375 moveto
/a glyphshow

106.713867 0.609375 moveto
/c glyphshow

114.960938 0.609375 moveto
/k glyphshow

123.647461 0.609375 moveto
/s glyphshow


grestore
3.000 setlinewidth
[11.1 4.8] 0 setdash
1.000 0.000 0.000 setrgbcolor
gsave
128.86 352.45875 m
158.86 352.45875 l
stroke
grestore
1.000 setlinewidth
[] 0 setdash
gsave
/o {
gsave
newpath
translate
1.0 setlinewidth
1 setlinejoin
0 setlinecap
0 -10 m
2.652031 -10 5.195799 -8.946337 7.071068 -7.071068 c
8.946337 -5.195799 10 -2.652031 10 0 c
10 2.652031 8.946337 5.195799 7.071068 7.071068 c
5.195799 8.946337 2.652031 10 0 10 c
-2.652031 10 -5.195799 8.946337 -7.071068 7.071068 c
-8.946337 5.195799 -10 2.652031 -10 0 c
-10 -2.652031 -8.946337 -5.195799 -7.071068 -7.071068 c
-5.195799 -8.946337 -2.652031 -10 0 -10 c
cl

gsave
grestore
stroke
grestore
} bind def
143.86 352.459 o
grestore
0.000 setgray
gsave
170.860000 347.208750 translate
0.000000 rotate
/DejaVuSans findfont
15.0 scalefont
setfont
0.000000 0.609375 moveto
/S glyphshow

9.521484 0.609375 moveto
/T glyphshow

18.684082 0.609375 moveto
/B glyphshow

28.974609 0.609375 moveto
/comma glyphshow

33.742676 0.609375 moveto
/space glyphshow

38.510742 0.609375 moveto
/one glyphshow

48.054199 0.609375 moveto
/five glyphshow

/DejaVuSans-Oblique findfont
15.0 scalefont
setfont
57.597656 0.609375 moveto
/delta glyphshow

66.774902 0.609375 moveto
/t glyphshow

/DejaVuSans findfont
15.0 scalefont
setfont
72.656250 0.609375 moveto
/comma glyphshow

77.424316 0.609375 moveto
/space glyphshow

82.192383 0.609375 moveto
/P glyphshow

91.237793 0.609375 moveto
/a glyphshow

100.429688 0.609375 moveto
/r glyphshow

106.596680 0.609375 moveto
/t glyphshow

112.478027 0.609375 moveto
/i glyphshow

116.645508 0.609375 moveto
/c glyphshow

124.892578 0.609375 moveto
/l glyphshow

129.060059 0.609375 moveto
/e glyphshow

138.288574 0.609375 moveto
/s glyphshow


grestore
3.000 setlinewidth
2 setlinecap
0.000 0.000 1.000 setrgbcolor
gsave
128.86 330.443125 m
158.86 330.443125 l
stroke
grestore
1.000 setlinewidth
0 setlinecap
gsave
/o {
gsave
newpath
translate
1.0 setlinewidth
1 setlinejoin
0 setlinecap
0 -10 m
2.652031 -10 5.195799 -8.946337 7.071068 -7.071068 c
8.946337 -5.195799 10 -2.652031 10 0 c
10 2.652031 8.946337 5.195799 7.071068 7.071068 c
5.195799 8.946337 2.652031 10 0 10 c
-2.652031 10 -5.195799 8.946337 -7.071068 7.071068 c
-8.946337 5.195799 -10 2.652031 -10 0 c
-10 -2.652031 -8.946337 -5.195799 -7.071068 -7.071068 c
-5.195799 -8.946337 -2.652031 -10 0 -10 c
cl

gsave
grestore
stroke
grestore
} bind def
143.86 330.443 o
grestore
0.000 setgray
gsave
170.860000 325.193125 translate
0.000000 rotate
/DejaVuSans findfont
15.0 scalefont
setfont
0.000000 0.609375 moveto
/O glyphshow

11.806641 0.609375 moveto
/u glyphshow

21.313477 0.609375 moveto
/r glyphshow

27.480469 0.609375 moveto
/s glyphshow

35.295410 0.609375 moveto
/comma glyphshow

40.063477 0.609375 moveto
/space glyphshow

44.831543 0.609375 moveto
/one glyphshow

54.375000 0.609375 moveto
/five glyphshow

/DejaVuSans-Oblique findfont
15.0 scalefont
setfont
63.918457 0.609375 moveto
/delta glyphshow

73.095703 0.609375 moveto
/t glyphshow

/DejaVuSans findfont
15.0 scalefont
setfont
78.977051 0.609375 moveto
/comma glyphshow

83.745117 0.609375 moveto
/space glyphshow

88.513184 0.609375 moveto
/T glyphshow

97.675781 0.609375 moveto
/r glyphshow

103.842773 0.609375 moveto
/a glyphshow

113.034668 0.609375 moveto
/c glyphshow

121.281738 0.609375 moveto
/k glyphshow

129.968262 0.609375 moveto
/s glyphshow


grestore
3.000 setlinewidth
[11.1 4.8] 0 setdash
0.000 0.000 1.000 setrgbcolor
gsave
128.86 308.4275 m
158.86 308.4275 l
stroke
grestore
1.000 setlinewidth
[] 0 setdash
gsave
/o {
gsave
newpath
translate
1.0 setlinewidth
1 setlinejoin
0 setlinecap
0 -10 m
2.652031 -10 5.195799 -8.946337 7.071068 -7.071068 c
8.946337 -5.195799 10 -2.652031 10 0 c
10 2.652031 8.946337 5.195799 7.071068 7.071068 c
5.195799 8.946337 2.652031 10 0 10 c
-2.652031 10 -5.195799 8.946337 -7.071068 7.071068 c
-8.946337 5.195799 -10 2.652031 -10 0 c
-10 -2.652031 -8.946337 -5.195799 -7.071068 -7.071068 c
-5.195799 -8.946337 -2.652031 -10 0 -10 c
cl

gsave
grestore
stroke
grestore
} bind def
143.86 308.428 o
grestore
0.000 setgray
gsave
170.860000 303.177500 translate
0.000000 rotate
/DejaVuSans findfont
15.0 scalefont
setfont
0.000000 0.609375 moveto
/O glyphshow

11.806641 0.609375 moveto
/u glyphshow

21.313477 0.609375 moveto
/r glyphshow

27.480469 0.609375 moveto
/s glyphshow

35.295410 0.609375 moveto
/comma glyphshow

40.063477 0.609375 moveto
/space glyphshow

44.831543 0.609375 moveto
/one glyphshow

54.375000 0.609375 moveto
/five glyphshow

/DejaVuSans-Oblique findfont
15.0 scalefont
setfont
63.918457 0.609375 moveto
/delta glyphshow

73.095703 0.609375 moveto
/t glyphshow

/DejaVuSans findfont
15.0 scalefont
setfont
78.977051 0.609375 moveto
/comma glyphshow

83.745117 0.609375 moveto
/space glyphshow

88.513184 0.609375 moveto
/P glyphshow

97.558594 0.609375 moveto
/a glyphshow

106.750488 0.609375 moveto
/r glyphshow

112.917480 0.609375 moveto
/t glyphshow

118.798828 0.609375 moveto
/i glyphshow

122.966309 0.609375 moveto
/c glyphshow

131.213379 0.609375 moveto
/l glyphshow

135.380859 0.609375 moveto
/e glyphshow

144.609375 0.609375 moveto
/s glyphshow


grestore
3.000 setlinewidth
2 setlinecap
1.000 0.000 0.000 setrgbcolor
gsave
128.86 286.411875 m
158.86 286.411875 l
stroke
grestore
1.000 setlinewidth
0 setlinejoin
0 setlinecap
gsave
/o {
gsave
newpath
translate
1.0 setlinewidth
0 setlinejoin
0 setlinecap
0 10 m
-10 -10 l
10 -10 l
cl

gsave
grestore
stroke
grestore
} bind def
143.86 286.412 o
grestore
0.000 setgray
gsave
170.860000 281.161875 translate
0.000000 rotate
/DejaVuSans findfont
15.0 scalefont
setfont
0.000000 0.609375 moveto
/S glyphshow

9.521484 0.609375 moveto
/T glyphshow

18.684082 0.609375 moveto
/B glyphshow

28.974609 0.609375 moveto
/comma glyphshow

33.742676 0.609375 moveto
/space glyphshow

38.510742 0.609375 moveto
/three glyphshow

48.054199 0.609375 moveto
/zero glyphshow

/DejaVuSans-Oblique findfont
15.0 scalefont
setfont
57.597656 0.609375 moveto
/delta glyphshow

66.774902 0.609375 moveto
/t glyphshow

/DejaVuSans findfont
15.0 scalefont
setfont
72.656250 0.609375 moveto
/comma glyphshow

77.424316 0.609375 moveto
/space glyphshow

82.192383 0.609375 moveto
/T glyphshow

91.354980 0.609375 moveto
/r glyphshow

97.521973 0.609375 moveto
/a glyphshow

106.713867 0.609375 moveto
/c glyphshow

114.960938 0.609375 moveto
/k glyphshow

123.647461 0.609375 moveto
/s glyphshow


grestore
3.000 setlinewidth
1 setlinejoin
[11.1 4.8] 0 setdash
1.000 0.000 0.000 setrgbcolor
gsave
128.86 264.39625 m
158.86 264.39625 l
stroke
grestore
1.000 setlinewidth
0 setlinejoin
[] 0 setdash
gsave
/o {
gsave
newpath
translate
1.0 setlinewidth
0 setlinejoin
0 setlinecap
0 10 m
-10 -10 l
10 -10 l
cl

gsave
grestore
stroke
grestore
} bind def
143.86 264.396 o
grestore
0.000 setgray
gsave
170.860000 259.146250 translate
0.000000 rotate
/DejaVuSans findfont
15.0 scalefont
setfont
0.000000 0.609375 moveto
/S glyphshow

9.521484 0.609375 moveto
/T glyphshow

18.684082 0.609375 moveto
/B glyphshow

28.974609 0.609375 moveto
/comma glyphshow

33.742676 0.609375 moveto
/space glyphshow

38.510742 0.609375 moveto
/three glyphshow

48.054199 0.609375 moveto
/zero glyphshow

/DejaVuSans-Oblique findfont
15.0 scalefont
setfont
57.597656 0.609375 moveto
/delta glyphshow

66.774902 0.609375 moveto
/t glyphshow

/DejaVuSans findfont
15.0 scalefont
setfont
72.656250 0.609375 moveto
/comma glyphshow

77.424316 0.609375 moveto
/space glyphshow

82.192383 0.609375 moveto
/P glyphshow

91.237793 0.609375 moveto
/a glyphshow

100.429688 0.609375 moveto
/r glyphshow

106.596680 0.609375 moveto
/t glyphshow

112.478027 0.609375 moveto
/i glyphshow

116.645508 0.609375 moveto
/c glyphshow

124.892578 0.609375 moveto
/l glyphshow

129.060059 0.609375 moveto
/e glyphshow

138.288574 0.609375 moveto
/s glyphshow


grestore
3.000 setlinewidth
1 setlinejoin
2 setlinecap
0.000 0.000 1.000 setrgbcolor
gsave
128.86 242.380625 m
158.86 242.380625 l
stroke
grestore
1.000 setlinewidth
0 setlinejoin
0 setlinecap
gsave
/o {
gsave
newpath
translate
1.0 setlinewidth
0 setlinejoin
0 setlinecap
0 10 m
-10 -10 l
10 -10 l
cl

gsave
grestore
stroke
grestore
} bind def
143.86 242.381 o
grestore
0.000 setgray
gsave
170.860000 237.130625 translate
0.000000 rotate
/DejaVuSans findfont
15.0 scalefont
setfont
0.000000 0.609375 moveto
/O glyphshow

11.806641 0.609375 moveto
/u glyphshow

21.313477 0.609375 moveto
/r glyphshow

27.480469 0.609375 moveto
/s glyphshow

35.295410 0.609375 moveto
/comma glyphshow

40.063477 0.609375 moveto
/space glyphshow

44.831543 0.609375 moveto
/three glyphshow

54.375000 0.609375 moveto
/zero glyphshow

/DejaVuSans-Oblique findfont
15.0 scalefont
setfont
63.918457 0.609375 moveto
/delta glyphshow

73.095703 0.609375 moveto
/t glyphshow

/DejaVuSans findfont
15.0 scalefont
setfont
78.977051 0.609375 moveto
/comma glyphshow

83.745117 0.609375 moveto
/space glyphshow

88.513184 0.609375 moveto
/T glyphshow

97.675781 0.609375 moveto
/r glyphshow

103.842773 0.609375 moveto
/a glyphshow

113.034668 0.609375 moveto
/c glyphshow

121.281738 0.609375 moveto
/k glyphshow

129.968262 0.609375 moveto
/s glyphshow


grestore
3.000 setlinewidth
1 setlinejoin
[11.1 4.8] 0 setdash
0.000 0.000 1.000 setrgbcolor
gsave
128.86 220.365 m
158.86 220.365 l
stroke
grestore
1.000 setlinewidth
0 setlinejoin
[] 0 setdash
gsave
/o {
gsave
newpath
translate
1.0 setlinewidth
0 setlinejoin
0 setlinecap
0 10 m
-10 -10 l
10 -10 l
cl

gsave
grestore
stroke
grestore
} bind def
143.86 220.365 o
grestore
0.000 setgray
gsave
170.860000 215.115000 translate
0.000000 rotate
/DejaVuSans findfont
15.0 scalefont
setfont
0.000000 0.609375 moveto
/O glyphshow

11.806641 0.609375 moveto
/u glyphshow

21.313477 0.609375 moveto
/r glyphshow

27.480469 0.609375 moveto
/s glyphshow

35.295410 0.609375 moveto
/comma glyphshow

40.063477 0.609375 moveto
/space glyphshow

44.831543 0.609375 moveto
/three glyphshow

54.375000 0.609375 moveto
/zero glyphshow

/DejaVuSans-Oblique findfont
15.0 scalefont
setfont
63.918457 0.609375 moveto
/delta glyphshow

73.095703 0.609375 moveto
/t glyphshow

/DejaVuSans findfont
15.0 scalefont
setfont
78.977051 0.609375 moveto
/comma glyphshow

83.745117 0.609375 moveto
/space glyphshow

88.513184 0.609375 moveto
/P glyphshow

97.558594 0.609375 moveto
/a glyphshow

106.750488 0.609375 moveto
/r glyphshow

112.917480 0.609375 moveto
/t glyphshow

118.798828 0.609375 moveto
/i glyphshow

122.966309 0.609375 moveto
/c glyphshow

131.213379 0.609375 moveto
/l glyphshow

135.380859 0.609375 moveto
/e glyphshow

144.609375 0.609375 moveto
/s glyphshow


grestore

end
showpage
