%!PS-Adobe-3.0 EPSF-3.0
%%Title: /home/yin/010000_undetected.eps
%%Creator: matplotlib version 3.1.0, http://matplotlib.org/
%%CreationDate: Mon Jan 13 15:43:00 2020
%%Orientation: portrait
%%BoundingBox: -126.0 72.0 738.0 720.0
%%EndComments
%%BeginProlog
/mpldict 9 dict def
mpldict begin
/m { moveto } bind def
/l { lineto } bind def
/r { rlineto } bind def
/c { curveto } bind def
/cl { closepath } bind def
/box {
m
1 index 0 r
0 exch r
neg 0 r
cl
} bind def
/clipbox {
box
clip
newpath
} bind def
%!PS-Adobe-3.0 Resource-Font
%%Title: DejaVu Sans
%%Copyright: Copyright (c) 2003 by Bitstream, Inc. All Rights Reserved. Copyright (c) 2006 by Tavmjong Bah. All Rights Reserved. DejaVu changes are in public domain 
%%Creator: Converted from TrueType to type 3 by PPR
25 dict begin
/_d{bind def}bind def
/_m{moveto}_d
/_l{lineto}_d
/_cl{closepath eofill}_d
/_c{curveto}_d
/_sc{7 -1 roll{setcachedevice}{pop pop pop pop pop pop}ifelse}_d
/_e{exec}_d
/FontName /DejaVuSans def
/PaintType 0 def
/FontMatrix[.001 0 0 .001 0 0]def
/FontBBox[-1021 -463 1793 1232]def
/FontType 3 def
/Encoding [ /space /comma /period /slash /zero /one /two /three /four /five /seven /B /F /O /P /S /T /U /a /c /d /e /f /h /i /k /l /n /o /p /r /s /t /u /minus ] def
/FontInfo 10 dict dup begin
/FamilyName (DejaVu Sans) def
/FullName (DejaVu Sans) def
/Notice (Copyright (c) 2003 by Bitstream, Inc. All Rights Reserved. Copyright (c) 2006 by Tavmjong Bah. All Rights Reserved. DejaVu changes are in public domain ) def
/Weight (Book) def
/Version (Version 2.35) def
/ItalicAngle 0.0 def
/isFixedPitch false def
/UnderlinePosition -130 def
/UnderlineThickness 90 def
end readonly def
/CharStrings 36 dict dup begin
/.notdef 0 def
/space{318 0 0 0 0 0 _sc
}_d
/comma{318 0 77 -115 220 124 _sc
117 124 _m
220 124 _l
220 40 _l
140 -115 _l
77 -115 _l
117 40 _l
117 124 _l
_cl}_d
/period{318 0 107 0 210 124 _sc
107 124 _m
210 124 _l
210 0 _l
107 0 _l
107 124 _l
_cl}_d
/slash{337 0 0 -92 337 729 _sc
254 729 _m
337 729 _l
83 -92 _l
0 -92 _l
254 729 _l
_cl}_d
/zero{636 0 66 -13 570 742 _sc
318 664 _m
267 664 229 639 203 589 _c
177 539 165 464 165 364 _c
165 264 177 189 203 139 _c
229 89 267 64 318 64 _c
369 64 407 89 433 139 _c
458 189 471 264 471 364 _c
471 464 458 539 433 589 _c
407 639 369 664 318 664 _c
318 742 _m
399 742 461 709 505 645 _c
548 580 570 486 570 364 _c
570 241 548 147 505 83 _c
461 19 399 -13 318 -13 _c
236 -13 173 19 130 83 _c
87 147 66 241 66 364 _c
66 486 87 580 130 645 _c
173 709 236 742 318 742 _c
_cl}_d
/one{636 0 110 0 544 729 _sc
124 83 _m
285 83 _l
285 639 _l
110 604 _l
110 694 _l
284 729 _l
383 729 _l
383 83 _l
544 83 _l
544 0 _l
124 0 _l
124 83 _l
_cl}_d
/two{{636 0 73 0 536 742 _sc
192 83 _m
536 83 _l
536 0 _l
73 0 _l
73 83 _l
110 121 161 173 226 239 _c
290 304 331 346 348 365 _c
380 400 402 430 414 455 _c
426 479 433 504 433 528 _c
433 566 419 598 392 622 _c
365 646 330 659 286 659 _c
255 659 222 653 188 643 _c
154 632 117 616 78 594 _c
78 694 _l
118 710 155 722 189 730 _c
223 738 255 742 284 742 _c
}_e{359 742 419 723 464 685 _c
509 647 532 597 532 534 _c
532 504 526 475 515 449 _c
504 422 484 390 454 354 _c
446 344 420 317 376 272 _c
332 227 271 164 192 83 _c
_cl}_e}_d
/three{{636 0 76 -13 556 742 _sc
406 393 _m
453 383 490 362 516 330 _c
542 298 556 258 556 212 _c
556 140 531 84 482 45 _c
432 6 362 -13 271 -13 _c
240 -13 208 -10 176 -4 _c
144 1 110 10 76 22 _c
76 117 _l
103 101 133 89 166 81 _c
198 73 232 69 268 69 _c
330 69 377 81 409 105 _c
441 129 458 165 458 212 _c
458 254 443 288 413 312 _c
383 336 341 349 287 349 _c
}_e{202 349 _l
202 430 _l
291 430 _l
339 430 376 439 402 459 _c
428 478 441 506 441 543 _c
441 580 427 609 401 629 _c
374 649 336 659 287 659 _c
260 659 231 656 200 650 _c
169 644 135 635 98 623 _c
98 711 _l
135 721 170 729 203 734 _c
235 739 266 742 296 742 _c
370 742 429 725 473 691 _c
517 657 539 611 539 553 _c
539 513 527 479 504 451 _c
481 423 448 403 406 393 _c
_cl}_e}_d
/four{636 0 49 0 580 729 _sc
378 643 _m
129 254 _l
378 254 _l
378 643 _l
352 729 _m
476 729 _l
476 254 _l
580 254 _l
580 172 _l
476 172 _l
476 0 _l
378 0 _l
378 172 _l
49 172 _l
49 267 _l
352 729 _l
_cl}_d
/five{{636 0 77 -13 549 729 _sc
108 729 _m
495 729 _l
495 646 _l
198 646 _l
198 467 _l
212 472 227 476 241 478 _c
255 480 270 482 284 482 _c
365 482 429 459 477 415 _c
525 370 549 310 549 234 _c
549 155 524 94 475 51 _c
426 8 357 -13 269 -13 _c
238 -13 207 -10 175 -6 _c
143 -1 111 6 77 17 _c
77 116 _l
106 100 136 88 168 80 _c
199 72 232 69 267 69 _c
}_e{323 69 368 83 401 113 _c
433 143 450 183 450 234 _c
450 284 433 324 401 354 _c
368 384 323 399 267 399 _c
241 399 214 396 188 390 _c
162 384 135 375 108 363 _c
108 729 _l
_cl}_e}_d
/seven{636 0 82 0 551 729 _sc
82 729 _m
551 729 _l
551 687 _l
286 0 _l
183 0 _l
432 646 _l
82 646 _l
82 729 _l
_cl}_d
/B{{686 0 98 0 615 729 _sc
197 348 _m
197 81 _l
355 81 _l
408 81 447 92 473 114 _c
498 136 511 169 511 215 _c
511 260 498 293 473 315 _c
447 337 408 348 355 348 _c
197 348 _l
197 648 _m
197 428 _l
343 428 _l
391 428 426 437 450 455 _c
474 473 486 500 486 538 _c
486 574 474 602 450 620 _c
426 638 391 648 343 648 _c
197 648 _l
98 729 _m
350 729 _l
}_e{425 729 483 713 524 682 _c
564 650 585 606 585 549 _c
585 504 574 468 553 442 _c
532 416 502 399 462 393 _c
510 382 548 360 575 327 _c
601 294 615 253 615 204 _c
615 138 592 88 548 53 _c
504 17 441 0 360 0 _c
98 0 _l
98 729 _l
_cl}_e}_d
/F{575 0 98 0 517 729 _sc
98 729 _m
517 729 _l
517 646 _l
197 646 _l
197 431 _l
486 431 _l
486 348 _l
197 348 _l
197 0 _l
98 0 _l
98 729 _l
_cl}_d
/O{787 0 56 -13 731 742 _sc
394 662 _m
322 662 265 635 223 582 _c
181 528 160 456 160 364 _c
160 272 181 199 223 146 _c
265 92 322 66 394 66 _c
465 66 522 92 564 146 _c
606 199 627 272 627 364 _c
627 456 606 528 564 582 _c
522 635 465 662 394 662 _c
394 742 _m
496 742 577 707 639 639 _c
700 571 731 479 731 364 _c
731 248 700 157 639 89 _c
577 21 496 -13 394 -13 _c
291 -13 209 21 148 89 _c
86 157 56 248 56 364 _c
56 479 86 571 148 639 _c
209 707 291 742 394 742 _c
_cl}_d
/P{603 0 98 0 569 729 _sc
197 648 _m
197 374 _l
321 374 _l
367 374 402 385 427 409 _c
452 433 465 467 465 511 _c
465 555 452 588 427 612 _c
402 636 367 648 321 648 _c
197 648 _l
98 729 _m
321 729 _l
402 729 464 710 506 673 _c
548 636 569 582 569 511 _c
569 439 548 384 506 348 _c
464 311 402 293 321 293 _c
197 293 _l
197 0 _l
98 0 _l
98 729 _l
_cl}_d
/S{{635 0 66 -13 579 742 _sc
535 705 _m
535 609 _l
497 627 462 640 429 649 _c
395 657 363 662 333 662 _c
279 662 237 651 208 631 _c
179 610 165 580 165 542 _c
165 510 174 485 194 469 _c
213 452 250 439 304 429 _c
364 417 _l
437 403 491 378 526 343 _c
561 307 579 260 579 201 _c
579 130 555 77 508 41 _c
460 5 391 -13 300 -13 _c
265 -13 228 -9 189 -2 _c
}_e{150 5 110 16 69 32 _c
69 134 _l
109 111 148 94 186 83 _c
224 71 262 66 300 66 _c
356 66 399 77 430 99 _c
460 121 476 152 476 194 _c
476 230 465 258 443 278 _c
421 298 385 313 335 323 _c
275 335 _l
201 349 148 372 115 404 _c
82 435 66 478 66 534 _c
66 598 88 649 134 686 _c
179 723 242 742 322 742 _c
356 742 390 739 426 733 _c
461 727 497 717 535 705 _c
}_e{_cl}_e}_d
/T{611 0 -2 0 614 729 _sc
-2 729 _m
614 729 _l
614 646 _l
355 646 _l
355 0 _l
256 0 _l
256 646 _l
-2 646 _l
-2 729 _l
_cl}_d
/U{732 0 87 -13 645 729 _sc
87 729 _m
186 729 _l
186 286 _l
186 208 200 151 228 117 _c
256 83 302 66 366 66 _c
429 66 475 83 503 117 _c
531 151 546 208 546 286 _c
546 729 _l
645 729 _l
645 274 _l
645 178 621 107 574 59 _c
527 11 458 -13 366 -13 _c
274 -13 204 11 157 59 _c
110 107 87 178 87 274 _c
87 729 _l
_cl}_d
/a{{613 0 60 -13 522 560 _sc
343 275 _m
270 275 220 266 192 250 _c
164 233 150 205 150 165 _c
150 133 160 107 181 89 _c
202 70 231 61 267 61 _c
317 61 357 78 387 114 _c
417 149 432 196 432 255 _c
432 275 _l
343 275 _l
522 312 _m
522 0 _l
432 0 _l
432 83 _l
411 49 385 25 355 10 _c
325 -5 287 -13 243 -13 _c
187 -13 142 2 109 33 _c
76 64 60 106 60 159 _c
}_e{60 220 80 266 122 298 _c
163 329 224 345 306 345 _c
432 345 _l
432 354 _l
432 395 418 427 391 450 _c
364 472 326 484 277 484 _c
245 484 215 480 185 472 _c
155 464 127 453 100 439 _c
100 522 _l
132 534 164 544 195 550 _c
226 556 256 560 286 560 _c
365 560 424 539 463 498 _c
502 457 522 395 522 312 _c
_cl}_e}_d
/c{{550 0 55 -13 488 560 _sc
488 526 _m
488 442 _l
462 456 437 466 411 473 _c
385 480 360 484 334 484 _c
276 484 230 465 198 428 _c
166 391 150 339 150 273 _c
150 206 166 154 198 117 _c
230 80 276 62 334 62 _c
360 62 385 65 411 72 _c
437 79 462 90 488 104 _c
488 21 _l
462 9 436 0 410 -5 _c
383 -10 354 -13 324 -13 _c
242 -13 176 12 128 64 _c
}_e{79 115 55 185 55 273 _c
55 362 79 432 128 483 _c
177 534 244 560 330 560 _c
358 560 385 557 411 551 _c
437 545 463 537 488 526 _c
_cl}_e}_d
/d{{635 0 55 -13 544 760 _sc
454 464 _m
454 760 _l
544 760 _l
544 0 _l
454 0 _l
454 82 _l
435 49 411 25 382 10 _c
353 -5 319 -13 279 -13 _c
213 -13 159 13 117 65 _c
75 117 55 187 55 273 _c
55 359 75 428 117 481 _c
159 533 213 560 279 560 _c
319 560 353 552 382 536 _c
411 520 435 496 454 464 _c
148 273 _m
148 207 161 155 188 117 _c
215 79 253 61 301 61 _c
}_e{348 61 385 79 413 117 _c
440 155 454 207 454 273 _c
454 339 440 390 413 428 _c
385 466 348 485 301 485 _c
253 485 215 466 188 428 _c
161 390 148 339 148 273 _c
_cl}_e}_d
/e{{615 0 55 -13 562 560 _sc
562 296 _m
562 252 _l
149 252 _l
153 190 171 142 205 110 _c
238 78 284 62 344 62 _c
378 62 412 66 444 74 _c
476 82 509 95 541 113 _c
541 28 _l
509 14 476 3 442 -3 _c
408 -9 373 -13 339 -13 _c
251 -13 182 12 131 62 _c
80 112 55 181 55 268 _c
55 357 79 428 127 481 _c
175 533 241 560 323 560 _c
397 560 455 536 498 489 _c
}_e{540 441 562 377 562 296 _c
472 322 _m
471 371 457 410 431 440 _c
404 469 368 484 324 484 _c
274 484 234 469 204 441 _c
174 413 156 373 152 322 _c
472 322 _l
_cl}_e}_d
/f{352 0 23 0 371 760 _sc
371 760 _m
371 685 _l
285 685 _l
253 685 230 678 218 665 _c
205 652 199 629 199 595 _c
199 547 _l
347 547 _l
347 477 _l
199 477 _l
199 0 _l
109 0 _l
109 477 _l
23 477 _l
23 547 _l
109 547 _l
109 585 _l
109 645 123 690 151 718 _c
179 746 224 760 286 760 _c
371 760 _l
_cl}_d
/h{634 0 91 0 549 760 _sc
549 330 _m
549 0 _l
459 0 _l
459 327 _l
459 379 448 417 428 443 _c
408 469 378 482 338 482 _c
289 482 251 466 223 435 _c
195 404 181 362 181 309 _c
181 0 _l
91 0 _l
91 760 _l
181 760 _l
181 462 _l
202 494 227 519 257 535 _c
286 551 320 560 358 560 _c
420 560 468 540 500 501 _c
532 462 549 405 549 330 _c
_cl}_d
/i{278 0 94 0 184 760 _sc
94 547 _m
184 547 _l
184 0 _l
94 0 _l
94 547 _l
94 760 _m
184 760 _l
184 646 _l
94 646 _l
94 760 _l
_cl}_d
/k{579 0 91 0 576 760 _sc
91 760 _m
181 760 _l
181 311 _l
449 547 _l
564 547 _l
274 291 _l
576 0 _l
459 0 _l
181 267 _l
181 0 _l
91 0 _l
91 760 _l
_cl}_d
/l{278 0 94 0 184 760 _sc
94 760 _m
184 760 _l
184 0 _l
94 0 _l
94 760 _l
_cl}_d
/n{634 0 91 0 549 560 _sc
549 330 _m
549 0 _l
459 0 _l
459 327 _l
459 379 448 417 428 443 _c
408 469 378 482 338 482 _c
289 482 251 466 223 435 _c
195 404 181 362 181 309 _c
181 0 _l
91 0 _l
91 547 _l
181 547 _l
181 462 _l
202 494 227 519 257 535 _c
286 551 320 560 358 560 _c
420 560 468 540 500 501 _c
532 462 549 405 549 330 _c
_cl}_d
/o{612 0 55 -13 557 560 _sc
306 484 _m
258 484 220 465 192 427 _c
164 389 150 338 150 273 _c
150 207 163 156 191 118 _c
219 80 257 62 306 62 _c
354 62 392 80 420 118 _c
448 156 462 207 462 273 _c
462 337 448 389 420 427 _c
392 465 354 484 306 484 _c
306 560 _m
384 560 445 534 490 484 _c
534 433 557 363 557 273 _c
557 183 534 113 490 63 _c
445 12 384 -13 306 -13 _c
227 -13 165 12 121 63 _c
77 113 55 183 55 273 _c
55 363 77 433 121 484 _c
165 534 227 560 306 560 _c
_cl}_d
/p{{635 0 91 -207 580 560 _sc
181 82 _m
181 -207 _l
91 -207 _l
91 547 _l
181 547 _l
181 464 _l
199 496 223 520 252 536 _c
281 552 316 560 356 560 _c
422 560 476 533 518 481 _c
559 428 580 359 580 273 _c
580 187 559 117 518 65 _c
476 13 422 -13 356 -13 _c
316 -13 281 -5 252 10 _c
223 25 199 49 181 82 _c
487 273 _m
487 339 473 390 446 428 _c
418 466 381 485 334 485 _c
}_e{286 485 249 466 222 428 _c
194 390 181 339 181 273 _c
181 207 194 155 222 117 _c
249 79 286 61 334 61 _c
381 61 418 79 446 117 _c
473 155 487 207 487 273 _c
_cl}_e}_d
/r{411 0 91 0 411 560 _sc
411 463 _m
401 469 390 473 378 476 _c
366 478 353 480 339 480 _c
288 480 249 463 222 430 _c
194 397 181 350 181 288 _c
181 0 _l
91 0 _l
91 547 _l
181 547 _l
181 462 _l
199 495 224 520 254 536 _c
284 552 321 560 365 560 _c
371 560 378 559 386 559 _c
393 558 401 557 411 555 _c
411 463 _l
_cl}_d
/s{{521 0 54 -13 472 560 _sc
443 531 _m
443 446 _l
417 458 391 468 364 475 _c
336 481 308 485 279 485 _c
234 485 200 478 178 464 _c
156 450 145 430 145 403 _c
145 382 153 366 169 354 _c
185 342 217 330 265 320 _c
296 313 _l
360 299 405 279 432 255 _c
458 230 472 195 472 151 _c
472 100 452 60 412 31 _c
372 1 316 -13 246 -13 _c
216 -13 186 -10 154 -5 _c
}_e{122 0 89 8 54 20 _c
54 113 _l
87 95 120 82 152 74 _c
184 65 216 61 248 61 _c
290 61 323 68 346 82 _c
368 96 380 117 380 144 _c
380 168 371 187 355 200 _c
339 213 303 226 247 238 _c
216 245 _l
160 257 119 275 95 299 _c
70 323 58 356 58 399 _c
58 450 76 490 112 518 _c
148 546 200 560 268 560 _c
301 560 332 557 362 552 _c
391 547 418 540 443 531 _c
}_e{_cl}_e}_d
/t{392 0 27 0 368 702 _sc
183 702 _m
183 547 _l
368 547 _l
368 477 _l
183 477 _l
183 180 _l
183 135 189 106 201 94 _c
213 81 238 75 276 75 _c
368 75 _l
368 0 _l
276 0 _l
206 0 158 13 132 39 _c
106 65 93 112 93 180 _c
93 477 _l
27 477 _l
27 547 _l
93 547 _l
93 702 _l
183 702 _l
_cl}_d
/u{634 0 85 -13 543 560 _sc
85 216 _m
85 547 _l
175 547 _l
175 219 _l
175 167 185 129 205 103 _c
225 77 255 64 296 64 _c
344 64 383 79 411 110 _c
439 141 453 183 453 237 _c
453 547 _l
543 547 _l
543 0 _l
453 0 _l
453 84 _l
431 50 405 26 377 10 _c
348 -5 315 -13 277 -13 _c
214 -13 166 6 134 45 _c
101 83 85 140 85 216 _c
311 560 _m
311 560 _l
_cl}_d
/minus{838 0 106 272 732 355 _sc
106 355 _m
732 355 _l
732 272 _l
106 272 _l
106 355 _l
_cl}_d
end readonly def

/BuildGlyph
 {exch begin
 CharStrings exch
 2 copy known not{pop /.notdef}if
 true 3 1 roll get exec
 end}_d

/BuildChar {
 1 index /Encoding get exch get
 1 index /BuildGlyph get exec
}_d

FontName currentdict end definefont pop
%!PS-Adobe-3.0 Resource-Font
%%Title: DejaVu Sans Oblique
%%Copyright: Copyright (c) 2003 by Bitstream, Inc. All Rights Reserved. Copyright (c) 2006 by Tavmjong Bah. All Rights Reserved. DejaVu changes are in public domain 
%%Creator: Converted from TrueType to type 3 by PPR
25 dict begin
/_d{bind def}bind def
/_m{moveto}_d
/_l{lineto}_d
/_cl{closepath eofill}_d
/_c{curveto}_d
/_sc{7 -1 roll{setcachedevice}{pop pop pop pop pop pop}ifelse}_d
/_e{exec}_d
/FontName /DejaVuSans-Oblique def
/PaintType 0 def
/FontMatrix[.001 0 0 .001 0 0]def
/FontBBox[-1016 -350 1659 1068]def
/FontType 3 def
/Encoding [ /t /delta ] def
/FontInfo 10 dict dup begin
/FamilyName (DejaVu Sans) def
/FullName (DejaVu Sans Oblique) def
/Notice (Copyright (c) 2003 by Bitstream, Inc. All Rights Reserved. Copyright (c) 2006 by Tavmjong Bah. All Rights Reserved. DejaVu changes are in public domain ) def
/Weight (Oblique) def
/Version (Version 2.35) def
/ItalicAngle -11.0 def
/isFixedPitch false def
/UnderlinePosition -130 def
/UnderlineThickness 90 def
end readonly def
/CharStrings 3 dict dup begin
/.notdef 0 def
/t{{392 0 64 0 423 702 _sc
423 547 _m
409 477 _l
230 477 _l
172 180 _l
170 169 168 160 167 152 _c
166 144 166 139 166 135 _c
166 114 172 99 185 89 _c
197 79 217 75 245 75 _c
336 75 _l
321 0 _l
235 0 _l
181 0 141 10 115 31 _c
89 52 76 84 76 126 _c
76 133 76 141 77 150 _c
78 159 80 169 82 180 _c
140 477 _l
64 477 _l
78 547 _l
153 547 _l
183 702 _l
}_e{273 702 _l
243 547 _l
423 547 _l
_cl}_e}_d
/delta{{612 0 38 -13 557 742 _sc
542 633 _m
514 655 461 667 383 667 _c
300 667 255 648 248 610 _c
242 580 280 557 364 542 _c
428 530 476 505 508 469 _c
546 425 556 358 539 268 _c
521 182 486 113 432 63 _c
377 12 310 -13 232 -13 _c
154 -13 98 12 63 63 _c
28 113 20 183 38 273 _c
50 339 84 399 139 453 _c
160 473 184 490 211 502 _c
165 528 147 563 156 609 _c
}_e{173 697 253 742 397 742 _c
469 742 522 730 557 708 _c
542 633 _l
274 478 _m
250 468 226 451 204 428 _c
168 391 144 339 132 273 _c
119 207 123 155 144 118 _c
164 80 199 62 248 62 _c
295 62 336 81 372 119 _c
407 156 431 206 443 268 _c
455 332 450 380 427 412 _c
401 445 369 464 329 468 _c
308 470 290 473 274 478 _c
_cl}_e}_d
end readonly def

/BuildGlyph
 {exch begin
 CharStrings exch
 2 copy known not{pop /.notdef}if
 true 3 1 roll get exec
 end}_d

/BuildChar {
 1 index /Encoding get exch get
 1 index /BuildGlyph get exec
}_d

FontName currentdict end definefont pop
end
%%EndProlog
mpldict begin
-126 72 translate
864 648 0 0 clipbox
gsave
0 0 m
864 0 l
864 648 l
0 648 l
cl
1.000 setgray
fill
grestore
gsave
108 71.28 m
777.6 71.28 l
777.6 570.24 l
108 570.24 l
cl
1.000 setgray
fill
grestore
0.800 setlinewidth
1 setlinejoin
0 setlinecap
[] 0 setdash
0.000 setgray
gsave
/o {
gsave
newpath
translate
0.8 setlinewidth
1 setlinejoin
0 setlinecap
0 0 m
0 -3.5 l

gsave
0.000 setgray
fill
grestore
stroke
grestore
} bind def
108 71.28 o
grestore
/DejaVuSans findfont
24.000 scalefont
setfont
gsave
100.367188 46.045625 translate
0.000000 rotate
0.000000 0.000000 m /five glyphshow
grestore
gsave
/o {
gsave
newpath
translate
0.8 setlinewidth
1 setlinejoin
0 setlinecap
0 0 m
0 -3.5 l

gsave
0.000 setgray
fill
grestore
stroke
grestore
} bind def
185.86 71.28 o
grestore
gsave
170.594840 46.045625 translate
0.000000 rotate
0.000000 0.000000 m /one glyphshow
15.269531 0.000000 m /zero glyphshow
grestore
gsave
/o {
gsave
newpath
translate
0.8 setlinewidth
1 setlinejoin
0 setlinecap
0 0 m
0 -3.5 l

gsave
0.000 setgray
fill
grestore
stroke
grestore
} bind def
263.721 71.28 o
grestore
gsave
248.455305 46.045625 translate
0.000000 rotate
0.000000 0.000000 m /one glyphshow
15.269531 0.000000 m /five glyphshow
grestore
gsave
/o {
gsave
newpath
translate
0.8 setlinewidth
1 setlinejoin
0 setlinecap
0 0 m
0 -3.5 l

gsave
0.000 setgray
fill
grestore
stroke
grestore
} bind def
341.581 71.28 o
grestore
gsave
326.315770 46.045625 translate
0.000000 rotate
0.000000 0.000000 m /two glyphshow
15.269531 0.000000 m /zero glyphshow
grestore
gsave
/o {
gsave
newpath
translate
0.8 setlinewidth
1 setlinejoin
0 setlinecap
0 0 m
0 -3.5 l

gsave
0.000 setgray
fill
grestore
stroke
grestore
} bind def
419.442 71.28 o
grestore
gsave
404.176235 46.045625 translate
0.000000 rotate
0.000000 0.000000 m /two glyphshow
15.269531 0.000000 m /five glyphshow
grestore
gsave
/o {
gsave
newpath
translate
0.8 setlinewidth
1 setlinejoin
0 setlinecap
0 0 m
0 -3.5 l

gsave
0.000 setgray
fill
grestore
stroke
grestore
} bind def
497.302 71.28 o
grestore
gsave
482.036701 46.045625 translate
0.000000 rotate
0.000000 0.000000 m /three glyphshow
15.269531 0.000000 m /zero glyphshow
grestore
gsave
/o {
gsave
newpath
translate
0.8 setlinewidth
1 setlinejoin
0 setlinecap
0 0 m
0 -3.5 l

gsave
0.000 setgray
fill
grestore
stroke
grestore
} bind def
575.163 71.28 o
grestore
gsave
559.897166 46.045625 translate
0.000000 rotate
0.000000 0.000000 m /three glyphshow
15.269531 0.000000 m /five glyphshow
grestore
gsave
/o {
gsave
newpath
translate
0.8 setlinewidth
1 setlinejoin
0 setlinecap
0 0 m
0 -3.5 l

gsave
0.000 setgray
fill
grestore
stroke
grestore
} bind def
653.023 71.28 o
grestore
gsave
637.757631 46.045625 translate
0.000000 rotate
0.000000 0.000000 m /four glyphshow
15.269531 0.000000 m /zero glyphshow
grestore
gsave
/o {
gsave
newpath
translate
0.8 setlinewidth
1 setlinejoin
0 setlinecap
0 0 m
0 -3.5 l

gsave
0.000 setgray
fill
grestore
stroke
grestore
} bind def
730.884 71.28 o
grestore
gsave
715.618096 46.045625 translate
0.000000 rotate
0.000000 0.000000 m /four glyphshow
15.269531 0.000000 m /five glyphshow
grestore
gsave
380.448438 18.811250 translate
0.000000 rotate
0.000000 0.000000 m /S glyphshow
15.234375 0.000000 m /n glyphshow
30.445312 0.000000 m /a glyphshow
45.152344 0.000000 m /p glyphshow
60.386719 0.000000 m /s glyphshow
72.890625 0.000000 m /h glyphshow
88.101562 0.000000 m /o glyphshow
102.785156 0.000000 m /t glyphshow
112.195312 0.000000 m /s glyphshow
grestore
gsave
/o {
gsave
newpath
translate
0.8 setlinewidth
1 setlinejoin
0 setlinecap
0 0 m
-3.5 0 l

gsave
0.000 setgray
fill
grestore
stroke
grestore
} bind def
108 93.96 o
grestore
gsave
44.000000 84.842813 translate
0.000000 rotate
/DejaVuSans findfont
24.0 scalefont
setfont
0.000000 0.562500 moveto
/one glyphshow

15.269531 0.562500 moveto
/zero glyphshow

/DejaVuSans findfont
16.799999999999997 scalefont
setfont
30.768750 9.750000 moveto
/minus glyphshow

44.845312 9.750000 moveto
/four glyphshow


grestore
gsave
/o {
gsave
newpath
translate
0.8 setlinewidth
1 setlinejoin
0 setlinecap
0 0 m
-3.5 0 l

gsave
0.000 setgray
fill
grestore
stroke
grestore
} bind def
108 225.213 o
grestore
gsave
44.000000 216.096221 translate
0.000000 rotate
/DejaVuSans findfont
24.0 scalefont
setfont
0.000000 0.343750 moveto
/one glyphshow

15.269531 0.343750 moveto
/zero glyphshow

/DejaVuSans findfont
16.799999999999997 scalefont
setfont
30.768750 9.531250 moveto
/minus glyphshow

44.845312 9.531250 moveto
/three glyphshow


grestore
gsave
/o {
gsave
newpath
translate
0.8 setlinewidth
1 setlinejoin
0 setlinecap
0 0 m
-3.5 0 l

gsave
0.000 setgray
fill
grestore
stroke
grestore
} bind def
108 356.467 o
grestore
gsave
44.000000 347.349630 translate
0.000000 rotate
/DejaVuSans findfont
24.0 scalefont
setfont
0.000000 0.343750 moveto
/one glyphshow

15.269531 0.343750 moveto
/zero glyphshow

/DejaVuSans findfont
16.799999999999997 scalefont
setfont
30.768750 9.531250 moveto
/minus glyphshow

44.845312 9.531250 moveto
/two glyphshow


grestore
gsave
/o {
gsave
newpath
translate
0.8 setlinewidth
1 setlinejoin
0 setlinecap
0 0 m
-3.5 0 l

gsave
0.000 setgray
fill
grestore
stroke
grestore
} bind def
108 487.72 o
grestore
gsave
44.000000 478.603039 translate
0.000000 rotate
/DejaVuSans findfont
24.0 scalefont
setfont
0.000000 0.562500 moveto
/one glyphshow

15.269531 0.562500 moveto
/zero glyphshow

/DejaVuSans findfont
16.799999999999997 scalefont
setfont
30.768750 9.750000 moveto
/minus glyphshow

44.845312 9.750000 moveto
/one glyphshow


grestore
0.600 setlinewidth
gsave
/o {
gsave
newpath
translate
0.6 setlinewidth
1 setlinejoin
0 setlinecap
0 0 m
-2 0 l

gsave
0.000 setgray
fill
grestore
stroke
grestore
} bind def
108 73.6286 o
grestore
gsave
/o {
gsave
newpath
translate
0.6 setlinewidth
1 setlinejoin
0 setlinecap
0 0 m
-2 0 l

gsave
0.000 setgray
fill
grestore
stroke
grestore
} bind def
108 81.2402 o
grestore
gsave
/o {
gsave
newpath
translate
0.6 setlinewidth
1 setlinejoin
0 setlinecap
0 0 m
-2 0 l

gsave
0.000 setgray
fill
grestore
stroke
grestore
} bind def
108 87.9542 o
grestore
gsave
/o {
gsave
newpath
translate
0.6 setlinewidth
1 setlinejoin
0 setlinecap
0 0 m
-2 0 l

gsave
0.000 setgray
fill
grestore
stroke
grestore
} bind def
108 133.471 o
grestore
gsave
/o {
gsave
newpath
translate
0.6 setlinewidth
1 setlinejoin
0 setlinecap
0 0 m
-2 0 l

gsave
0.000 setgray
fill
grestore
stroke
grestore
} bind def
108 156.584 o
grestore
gsave
/o {
gsave
newpath
translate
0.6 setlinewidth
1 setlinejoin
0 setlinecap
0 0 m
-2 0 l

gsave
0.000 setgray
fill
grestore
stroke
grestore
} bind def
108 172.982 o
grestore
gsave
/o {
gsave
newpath
translate
0.6 setlinewidth
1 setlinejoin
0 setlinecap
0 0 m
-2 0 l

gsave
0.000 setgray
fill
grestore
stroke
grestore
} bind def
108 185.702 o
grestore
gsave
/o {
gsave
newpath
translate
0.6 setlinewidth
1 setlinejoin
0 setlinecap
0 0 m
-2 0 l

gsave
0.000 setgray
fill
grestore
stroke
grestore
} bind def
108 196.095 o
grestore
gsave
/o {
gsave
newpath
translate
0.6 setlinewidth
1 setlinejoin
0 setlinecap
0 0 m
-2 0 l

gsave
0.000 setgray
fill
grestore
stroke
grestore
} bind def
108 204.882 o
grestore
gsave
/o {
gsave
newpath
translate
0.6 setlinewidth
1 setlinejoin
0 setlinecap
0 0 m
-2 0 l

gsave
0.000 setgray
fill
grestore
stroke
grestore
} bind def
108 212.494 o
grestore
gsave
/o {
gsave
newpath
translate
0.6 setlinewidth
1 setlinejoin
0 setlinecap
0 0 m
-2 0 l

gsave
0.000 setgray
fill
grestore
stroke
grestore
} bind def
108 219.208 o
grestore
gsave
/o {
gsave
newpath
translate
0.6 setlinewidth
1 setlinejoin
0 setlinecap
0 0 m
-2 0 l

gsave
0.000 setgray
fill
grestore
stroke
grestore
} bind def
108 264.725 o
grestore
gsave
/o {
gsave
newpath
translate
0.6 setlinewidth
1 setlinejoin
0 setlinecap
0 0 m
-2 0 l

gsave
0.000 setgray
fill
grestore
stroke
grestore
} bind def
108 287.837 o
grestore
gsave
/o {
gsave
newpath
translate
0.6 setlinewidth
1 setlinejoin
0 setlinecap
0 0 m
-2 0 l

gsave
0.000 setgray
fill
grestore
stroke
grestore
} bind def
108 304.236 o
grestore
gsave
/o {
gsave
newpath
translate
0.6 setlinewidth
1 setlinejoin
0 setlinecap
0 0 m
-2 0 l

gsave
0.000 setgray
fill
grestore
stroke
grestore
} bind def
108 316.956 o
grestore
gsave
/o {
gsave
newpath
translate
0.6 setlinewidth
1 setlinejoin
0 setlinecap
0 0 m
-2 0 l

gsave
0.000 setgray
fill
grestore
stroke
grestore
} bind def
108 327.348 o
grestore
gsave
/o {
gsave
newpath
translate
0.6 setlinewidth
1 setlinejoin
0 setlinecap
0 0 m
-2 0 l

gsave
0.000 setgray
fill
grestore
stroke
grestore
} bind def
108 336.135 o
grestore
gsave
/o {
gsave
newpath
translate
0.6 setlinewidth
1 setlinejoin
0 setlinecap
0 0 m
-2 0 l

gsave
0.000 setgray
fill
grestore
stroke
grestore
} bind def
108 343.747 o
grestore
gsave
/o {
gsave
newpath
translate
0.6 setlinewidth
1 setlinejoin
0 setlinecap
0 0 m
-2 0 l

gsave
0.000 setgray
fill
grestore
stroke
grestore
} bind def
108 350.461 o
grestore
gsave
/o {
gsave
newpath
translate
0.6 setlinewidth
1 setlinejoin
0 setlinecap
0 0 m
-2 0 l

gsave
0.000 setgray
fill
grestore
stroke
grestore
} bind def
108 395.978 o
grestore
gsave
/o {
gsave
newpath
translate
0.6 setlinewidth
1 setlinejoin
0 setlinecap
0 0 m
-2 0 l

gsave
0.000 setgray
fill
grestore
stroke
grestore
} bind def
108 419.091 o
grestore
gsave
/o {
gsave
newpath
translate
0.6 setlinewidth
1 setlinejoin
0 setlinecap
0 0 m
-2 0 l

gsave
0.000 setgray
fill
grestore
stroke
grestore
} bind def
108 435.489 o
grestore
gsave
/o {
gsave
newpath
translate
0.6 setlinewidth
1 setlinejoin
0 setlinecap
0 0 m
-2 0 l

gsave
0.000 setgray
fill
grestore
stroke
grestore
} bind def
108 448.209 o
grestore
gsave
/o {
gsave
newpath
translate
0.6 setlinewidth
1 setlinejoin
0 setlinecap
0 0 m
-2 0 l

gsave
0.000 setgray
fill
grestore
stroke
grestore
} bind def
108 458.602 o
grestore
gsave
/o {
gsave
newpath
translate
0.6 setlinewidth
1 setlinejoin
0 setlinecap
0 0 m
-2 0 l

gsave
0.000 setgray
fill
grestore
stroke
grestore
} bind def
108 467.389 o
grestore
gsave
/o {
gsave
newpath
translate
0.6 setlinewidth
1 setlinejoin
0 setlinecap
0 0 m
-2 0 l

gsave
0.000 setgray
fill
grestore
stroke
grestore
} bind def
108 475 o
grestore
gsave
/o {
gsave
newpath
translate
0.6 setlinewidth
1 setlinejoin
0 setlinecap
0 0 m
-2 0 l

gsave
0.000 setgray
fill
grestore
stroke
grestore
} bind def
108 481.714 o
grestore
gsave
/o {
gsave
newpath
translate
0.6 setlinewidth
1 setlinejoin
0 setlinecap
0 0 m
-2 0 l

gsave
0.000 setgray
fill
grestore
stroke
grestore
} bind def
108 527.231 o
grestore
gsave
/o {
gsave
newpath
translate
0.6 setlinewidth
1 setlinejoin
0 setlinecap
0 0 m
-2 0 l

gsave
0.000 setgray
fill
grestore
stroke
grestore
} bind def
108 550.344 o
grestore
gsave
/o {
gsave
newpath
translate
0.6 setlinewidth
1 setlinejoin
0 setlinecap
0 0 m
-2 0 l

gsave
0.000 setgray
fill
grestore
stroke
grestore
} bind def
108 566.743 o
grestore
gsave
35.000000 271.978750 translate
90.000000 rotate
0.000000 0.000000 m /F glyphshow
13.789062 0.000000 m /r glyphshow
23.656250 0.000000 m /a glyphshow
38.363281 0.000000 m /c glyphshow
51.558594 0.000000 m /t glyphshow
60.968750 0.000000 m /i glyphshow
67.636719 0.000000 m /o glyphshow
82.320312 0.000000 m /n glyphshow
grestore
3.000 setlinewidth
2 setlinecap
1.000 0.000 0.000 setrgbcolor
gsave
669.6 499 108 71.28 clipbox
108 332.781344 m
123.572093 308.358303 l
139.144186 172.982426 l
154.716279 172.982426 l
170.288372 196.095004 l
185.860465 156.583791 l
201.432558 93.96 l
217.004651 196.095004 l
232.576744 219.207582 l
248.148837 196.095004 l
263.72093 133.471213 l
279.293023 156.583791 l
294.865116 156.583791 l
310.437209 93.96 l
326.009302 172.982426 l
341.581395 196.095004 l
357.153488 172.982426 l
372.725581 196.095004 l
388.297674 156.583791 l
403.869767 185.702196 l
419.44186 212.493639 l
435.013953 185.702196 l
450.586047 185.702196 l
466.15814 172.982426 l
481.730233 172.982426 l
497.302326 230.64634 l
512.874419 225.213409 l
528.446512 230.64634 l
544.018605 235.606217 l
559.590698 230.64634 l
575.162791 244.393212 l
590.734884 225.213409 l
606.306977 219.207582 l
621.87907 252.004852 l
637.451163 252.004852 l
653.023256 240.168862 l
668.595349 225.213409 l
684.167442 252.004852 l
699.739535 240.168862 l
715.311628 240.168862 l
730.883721 240.168862 l
746.455814 248.325987 l
762.027907 248.325987 l
777.6 235.606217 l
stroke
grestore
0 setlinecap
[11.1 4.8] 0 setdash
gsave
669.6 499 108 71.28 clipbox
108 93.96 m
123.572093 172.982426 l
139.144186 93.96 l
154.716279 133.471213 l
170.288372 172.982426 l
185.860465 93.96 l
185.871777 -1 l
216.985889 -1 m
217.004651 156.583791 l
232.576744 156.583791 l
248.148837 133.471213 l
263.72093 133.471213 l
279.293023 93.96 l
294.865116 133.471213 l
310.437209 93.96 l
326.009302 133.471213 l
341.581395 156.583791 l
357.153488 156.583791 l
372.725581 156.583791 l
372.744343 -1 l
403.858456 -1 m
403.869767 93.96 l
419.44186 172.982426 l
435.013953 133.471213 l
450.586047 156.583791 l
466.15814 133.471213 l
481.730233 156.583791 l
497.302326 172.982426 l
512.874419 185.702196 l
528.446512 185.702196 l
544.018605 196.095004 l
559.590698 196.095004 l
575.162791 219.207582 l
590.734884 133.471213 l
606.306977 185.702196 l
621.87907 225.213409 l
637.451163 219.207582 l
653.023256 212.493639 l
668.595349 185.702196 l
684.167442 219.207582 l
699.739535 196.095004 l
715.311628 212.493639 l
730.883721 185.702196 l
746.455814 204.881999 l
762.027907 204.881999 l
777.6 172.982426 l
stroke
grestore
2 setlinecap
[] 0 setdash
0.000 0.000 1.000 setrgbcolor
gsave
669.6 499 108 71.28 clipbox
108 331.911058 m
123.572093 307.017003 l
139.144186 133.471213 l
154.716279 133.471213 l
170.288372 172.982426 l
185.860465 172.982426 l
201.432558 93.96 l
217.004651 196.095004 l
232.576744 225.213409 l
248.148837 185.702196 l
263.72093 133.471213 l
279.293023 172.982426 l
294.865116 172.982426 l
310.437209 133.471213 l
326.009302 185.702196 l
341.581395 212.493639 l
357.153488 185.702196 l
372.725581 204.881999 l
388.297674 172.982426 l
403.869767 204.881999 l
419.44186 219.207582 l
435.013953 172.982426 l
450.586047 172.982426 l
466.15814 172.982426 l
481.730233 172.982426 l
497.302326 230.64634 l
512.874419 230.64634 l
528.446512 240.168862 l
544.018605 225.213409 l
559.590698 235.606217 l
575.162791 244.393212 l
590.734884 230.64634 l
606.306977 204.881999 l
621.87907 235.606217 l
637.451163 235.606217 l
653.023256 235.606217 l
668.595349 212.493639 l
684.167442 235.606217 l
699.739535 204.881999 l
715.311628 204.881999 l
730.883721 219.207582 l
746.455814 225.213409 l
762.027907 219.207582 l
777.6 204.881999 l
stroke
grestore
0 setlinecap
[11.1 4.8] 0 setdash
gsave
669.6 499 108 71.28 clipbox
123.55608 -1 m
123.572093 133.471213 l
139.144186 93.96 l
154.716279 93.96 l
170.288372 133.471213 l
185.860465 93.96 l
185.871777 -1 l
216.988638 -1 m
217.004651 133.471213 l
232.576744 156.583791 l
248.148837 93.96 l
263.72093 93.96 l
279.293023 93.96 l
294.865116 133.471213 l
310.437209 93.96 l
326.009302 133.471213 l
341.581395 185.702196 l
357.153488 156.583791 l
372.725581 156.583791 l
372.744343 -1 l
403.858456 -1 m
403.869767 93.96 l
419.44186 185.702196 l
435.013953 133.471213 l
450.586047 156.583791 l
466.15814 93.96 l
481.730233 172.982426 l
497.302326 156.583791 l
512.874419 185.702196 l
528.446512 196.095004 l
544.018605 172.982426 l
559.590698 196.095004 l
575.162791 225.213409 l
590.734884 156.583791 l
606.306977 172.982426 l
621.87907 204.881999 l
637.451163 212.493639 l
653.023256 204.881999 l
668.595349 185.702196 l
684.167442 204.881999 l
699.739535 172.982426 l
715.311628 185.702196 l
730.883721 172.982426 l
746.455814 204.881999 l
762.027907 196.095004 l
777.6 172.982426 l
stroke
grestore
2 setlinecap
[] 0 setdash
1.000 0.000 0.000 setrgbcolor
gsave
669.6 499 108 71.28 clipbox
108 388.691192 m
123.572093 348.528514 l
139.144186 244.393212 l
154.716279 244.393212 l
170.288372 261.800769 l
185.860465 258.718795 l
201.432558 252.004852 l
217.004651 248.325987 l
232.576744 240.168862 l
248.148837 261.800769 l
263.72093 272.691421 l
279.293023 267.50579 l
294.865116 261.800769 l
310.437209 244.393212 l
326.009302 258.718795 l
341.581395 252.004852 l
357.153488 252.004852 l
372.725581 240.168862 l
388.297674 235.606217 l
403.869767 244.393212 l
419.44186 248.325987 l
435.013953 261.800769 l
450.586047 252.004852 l
466.15814 244.393212 l
481.730233 244.393212 l
497.302326 255.460615 l
512.874419 270.157553 l
528.446512 283.904425 l
544.018605 267.50579 l
559.590698 272.691421 l
575.162791 252.004852 l
590.734884 261.800769 l
606.306977 270.157553 l
621.87907 258.718795 l
637.451163 255.460615 l
653.023256 261.800769 l
668.595349 267.50579 l
684.167442 264.724622 l
699.739535 272.691421 l
715.311628 272.691421 l
730.883721 264.724622 l
746.455814 275.117431 l
762.027907 285.904722 l
777.6 261.800769 l
stroke
grestore
1.000 setlinewidth
0 setlinejoin
0 setlinecap
gsave
669.6 499 108 71.28 clipbox
/o {
gsave
newpath
translate
1.0 setlinewidth
0 setlinejoin
0 setlinecap
-10 -10 m
10 -10 l
10 10 l
-10 10 l
cl

gsave
grestore
stroke
grestore
} bind def
108 388.691 o
123.572 348.529 o
139.144 244.393 o
154.716 244.393 o
170.288 261.801 o
185.86 258.719 o
201.433 252.005 o
217.005 248.326 o
232.577 240.169 o
248.149 261.801 o
263.721 272.691 o
279.293 267.506 o
294.865 261.801 o
310.437 244.393 o
326.009 258.719 o
341.581 252.005 o
357.153 252.005 o
372.726 240.169 o
388.298 235.606 o
403.87 244.393 o
419.442 248.326 o
435.014 261.801 o
450.586 252.005 o
466.158 244.393 o
481.73 244.393 o
497.302 255.461 o
512.874 270.158 o
528.447 283.904 o
544.019 267.506 o
559.591 272.691 o
575.163 252.005 o
590.735 261.801 o
606.307 270.158 o
621.879 258.719 o
637.451 255.461 o
653.023 261.801 o
668.595 267.506 o
684.167 264.725 o
699.74 272.691 o
715.312 272.691 o
730.884 264.725 o
746.456 275.117 o
762.028 285.905 o
777.6 261.801 o
grestore
3.000 setlinewidth
1 setlinejoin
[11.1 4.8] 0 setdash
gsave
669.6 499 108 71.28 clipbox
108 93.96 m
123.572093 172.982426 l
139.144186 133.471213 l
154.716279 172.982426 l
170.288372 185.702196 l
185.860465 204.881999 l
201.432558 185.702196 l
217.004651 204.881999 l
232.576744 133.471213 l
248.148837 185.702196 l
263.72093 204.881999 l
279.293023 196.095004 l
294.865116 204.881999 l
310.437209 185.702196 l
326.009302 185.702196 l
341.581395 156.583791 l
357.153488 172.982426 l
372.725581 133.471213 l
388.297674 172.982426 l
403.869767 133.471213 l
419.44186 172.982426 l
435.013953 196.095004 l
450.586047 185.702196 l
466.15814 172.982426 l
481.730233 172.982426 l
497.302326 133.471213 l
512.874419 185.702196 l
528.446512 204.881999 l
544.018605 156.583791 l
559.590698 204.881999 l
575.162791 196.095004 l
590.734884 93.96 l
606.306977 196.095004 l
621.87907 133.471213 l
637.451163 156.583791 l
653.023256 172.982426 l
668.595349 204.881999 l
684.167442 185.702196 l
699.739535 225.213409 l
715.311628 212.493639 l
730.883721 196.095004 l
746.455814 196.095004 l
762.027907 225.213409 l
777.6 156.583791 l
stroke
grestore
1.000 setlinewidth
0 setlinejoin
[] 0 setdash
gsave
669.6 499 108 71.28 clipbox
/o {
gsave
newpath
translate
1.0 setlinewidth
0 setlinejoin
0 setlinecap
-10 -10 m
10 -10 l
10 10 l
-10 10 l
cl

gsave
grestore
stroke
grestore
} bind def
108 93.96 o
123.572 172.982 o
139.144 133.471 o
154.716 172.982 o
170.288 185.702 o
185.86 204.882 o
201.433 185.702 o
217.005 204.882 o
232.577 133.471 o
248.149 185.702 o
263.721 204.882 o
279.293 196.095 o
294.865 204.882 o
310.437 185.702 o
326.009 185.702 o
341.581 156.584 o
357.153 172.982 o
372.726 133.471 o
388.298 172.982 o
403.87 133.471 o
419.442 172.982 o
435.014 196.095 o
450.586 185.702 o
466.158 172.982 o
481.73 172.982 o
497.302 133.471 o
512.874 185.702 o
528.447 204.882 o
544.019 156.584 o
559.591 204.882 o
575.163 196.095 o
590.735 93.96 o
606.307 196.095 o
621.879 133.471 o
637.451 156.584 o
653.023 172.982 o
668.595 204.882 o
684.167 185.702 o
699.74 225.213 o
715.312 212.494 o
730.884 196.095 o
746.456 196.095 o
762.028 225.213 o
777.6 156.584 o
grestore
3.000 setlinewidth
1 setlinejoin
2 setlinecap
0.000 0.000 1.000 setrgbcolor
gsave
669.6 499 108 71.28 clipbox
108 388.36639 m
123.572093 347.869516 l
139.144186 240.168862 l
154.716279 235.606217 l
170.288372 244.393212 l
185.860465 240.168862 l
201.432558 248.325987 l
217.004651 240.168862 l
232.576744 240.168862 l
248.148837 261.800769 l
263.72093 270.157553 l
279.293023 267.50579 l
294.865116 252.004852 l
310.437209 270.157553 l
326.009302 277.444392 l
341.581395 267.50579 l
357.153488 272.691421 l
372.725581 252.004852 l
388.297674 255.460615 l
403.869767 258.718795 l
419.44186 255.460615 l
435.013953 255.460615 l
450.586047 252.004852 l
466.15814 244.393212 l
481.730233 255.460615 l
497.302326 258.718795 l
512.874419 261.800769 l
528.446512 279.680075 l
544.018605 267.50579 l
559.590698 281.831373 l
575.162791 264.724622 l
590.734884 267.50579 l
606.306977 272.691421 l
621.87907 258.718795 l
637.451163 264.724622 l
653.023256 270.157553 l
668.595349 272.691421 l
684.167442 275.117431 l
699.739535 287.8372 l
715.311628 283.904425 l
730.883721 275.117431 l
746.455814 287.8372 l
762.027907 287.8372 l
777.6 275.117431 l
stroke
grestore
1.000 setlinewidth
0 setlinejoin
0 setlinecap
gsave
669.6 499 108 71.28 clipbox
/o {
gsave
newpath
translate
1.0 setlinewidth
0 setlinejoin
0 setlinecap
-10 -10 m
10 -10 l
10 10 l
-10 10 l
cl

gsave
grestore
stroke
grestore
} bind def
108 388.366 o
123.572 347.87 o
139.144 240.169 o
154.716 235.606 o
170.288 244.393 o
185.86 240.169 o
201.433 248.326 o
217.005 240.169 o
232.577 240.169 o
248.149 261.801 o
263.721 270.158 o
279.293 267.506 o
294.865 252.005 o
310.437 270.158 o
326.009 277.444 o
341.581 267.506 o
357.153 272.691 o
372.726 252.005 o
388.298 255.461 o
403.87 258.719 o
419.442 255.461 o
435.014 255.461 o
450.586 252.005 o
466.158 244.393 o
481.73 255.461 o
497.302 258.719 o
512.874 261.801 o
528.447 279.68 o
544.019 267.506 o
559.591 281.831 o
575.163 264.725 o
590.735 267.506 o
606.307 272.691 o
621.879 258.719 o
637.451 264.725 o
653.023 270.158 o
668.595 272.691 o
684.167 275.117 o
699.74 287.837 o
715.312 283.904 o
730.884 275.117 o
746.456 287.837 o
762.028 287.837 o
777.6 275.117 o
grestore
3.000 setlinewidth
1 setlinejoin
[11.1 4.8] 0 setdash
gsave
669.6 499 108 71.28 clipbox
108 93.96 m
123.572093 172.982426 l
139.144186 133.471213 l
154.716279 172.982426 l
170.288372 196.095004 l
185.860465 133.471213 l
201.432558 172.982426 l
217.004651 185.702196 l
217.026875 -1 l
248.126613 -1 m
248.148837 185.702196 l
263.72093 156.583791 l
279.293023 156.583791 l
294.865116 133.471213 l
310.437209 156.583791 l
326.009302 172.982426 l
341.581395 185.702196 l
357.153488 172.982426 l
372.725581 93.96 l
388.297674 156.583791 l
403.869767 133.471213 l
419.44186 156.583791 l
435.013953 196.095004 l
450.586047 156.583791 l
466.15814 93.96 l
481.730233 185.702196 l
497.302326 156.583791 l
512.874419 156.583791 l
528.446512 172.982426 l
544.018605 156.583791 l
559.590698 172.982426 l
575.162791 133.471213 l
590.734884 93.96 l
606.306977 172.982426 l
621.87907 93.96 l
637.451163 133.471213 l
653.023256 156.583791 l
668.595349 185.702196 l
684.167442 185.702196 l
699.739535 212.493639 l
715.311628 185.702196 l
730.883721 156.583791 l
746.455814 156.583791 l
762.027907 225.213409 l
762.054826 -1 l
stroke
grestore
1.000 setlinewidth
0 setlinejoin
[] 0 setdash
gsave
669.6 499 108 71.28 clipbox
/o {
gsave
newpath
translate
1.0 setlinewidth
0 setlinejoin
0 setlinecap
-10 -10 m
10 -10 l
10 10 l
-10 10 l
cl

gsave
grestore
stroke
grestore
} bind def
108 93.96 o
123.572 172.982 o
139.144 133.471 o
154.716 172.982 o
170.288 196.095 o
185.86 133.471 o
201.433 172.982 o
217.005 185.702 o
217.027 -1 o
248.127 -1 o
248.149 185.702 o
263.721 156.584 o
279.293 156.584 o
294.865 133.471 o
310.437 156.584 o
326.009 172.982 o
341.581 185.702 o
357.153 172.982 o
372.726 93.96 o
388.298 156.584 o
403.87 133.471 o
419.442 156.584 o
435.014 196.095 o
450.586 156.584 o
466.158 93.96 o
481.73 185.702 o
497.302 156.584 o
512.874 156.584 o
528.447 172.982 o
544.019 156.584 o
559.591 172.982 o
575.163 133.471 o
590.735 93.96 o
606.307 172.982 o
621.879 93.96 o
637.451 133.471 o
653.023 156.584 o
668.595 185.702 o
684.167 185.702 o
699.74 212.494 o
715.312 185.702 o
730.884 156.584 o
746.456 156.584 o
762.028 225.213 o
762.055 -1 o
grestore
3.000 setlinewidth
1 setlinejoin
2 setlinecap
1.000 0.000 0.000 setrgbcolor
gsave
669.6 499 108 71.28 clipbox
108 431.962183 m
123.572093 399.299512 l
139.144186 319.191289 l
154.716279 327.348413 l
170.288372 330.129581 l
185.860465 328.290627 l
201.432558 328.290627 l
217.004651 331.911058 l
232.576744 338.527477 l
248.148837 340.823196 l
263.72093 340.823196 l
279.293023 344.455165 l
294.865116 336.943969 l
310.437209 343.747048 l
326.009302 344.455165 l
341.581395 353.542965 l
357.153488 354.139857 l
372.725581 357.034013 l
388.297674 351.713847 l
403.869767 355.893922 l
419.44186 352.939757 l
435.013953 356.466818 l
450.586047 358.151747 l
466.15814 362.415613 l
481.730233 362.926851 l
497.302326 360.8538 l
512.874419 366.859626 l
528.446512 362.415613 l
544.018605 364.433616 l
559.590698 367.80184 l
575.162791 370.538492 l
590.734884 371.422271 l
606.306977 381.079552 l
621.87907 376.855202 l
637.451163 374.411858 l
653.023256 374.411858 l
668.595349 379.198106 l
684.167442 381.81508 l
699.739535 379.198106 l
715.311628 380.708198 l
730.883721 380.334409 l
746.455814 383.613419 l
762.027907 383.966378 l
777.6 386.039429 l
stroke
grestore
1.000 setlinewidth
0 setlinecap
gsave
669.6 499 108 71.28 clipbox
/o {
gsave
newpath
translate
1.0 setlinewidth
1 setlinejoin
0 setlinecap
0 -10 m
2.652031 -10 5.195799 -8.946337 7.071068 -7.071068 c
8.946337 -5.195799 10 -2.652031 10 0 c
10 2.652031 8.946337 5.195799 7.071068 7.071068 c
5.195799 8.946337 2.652031 10 0 10 c
-2.652031 10 -5.195799 8.946337 -7.071068 7.071068 c
-8.946337 5.195799 -10 2.652031 -10 0 c
-10 -2.652031 -8.946337 -5.195799 -7.071068 -7.071068 c
-5.195799 -8.946337 -2.652031 -10 0 -10 c
cl

gsave
grestore
stroke
grestore
} bind def
108 431.962 o
123.572 399.3 o
139.144 319.191 o
154.716 327.348 o
170.288 330.13 o
185.86 328.291 o
201.433 328.291 o
217.005 331.911 o
232.577 338.527 o
248.149 340.823 o
263.721 340.823 o
279.293 344.455 o
294.865 336.944 o
310.437 343.747 o
326.009 344.455 o
341.581 353.543 o
357.153 354.14 o
372.726 357.034 o
388.298 351.714 o
403.87 355.894 o
419.442 352.94 o
435.014 356.467 o
450.586 358.152 o
466.158 362.416 o
481.73 362.927 o
497.302 360.854 o
512.874 366.86 o
528.447 362.416 o
544.019 364.434 o
559.591 367.802 o
575.163 370.538 o
590.735 371.422 o
606.307 381.08 o
621.879 376.855 o
637.451 374.412 o
653.023 374.412 o
668.595 379.198 o
684.167 381.815 o
699.74 379.198 o
715.312 380.708 o
730.884 380.334 o
746.456 383.613 o
762.028 383.966 o
777.6 386.039 o
grestore
3.000 setlinewidth
[11.1 4.8] 0 setdash
gsave
669.6 499 108 71.28 clipbox
108 196.095004 m
123.572093 230.64634 l
139.144186 196.095004 l
154.716279 235.606217 l
170.288372 219.207582 l
185.860465 212.493639 l
201.432558 185.702196 l
217.004651 225.213409 l
232.576744 244.393212 l
248.148837 212.493639 l
263.72093 225.213409 l
279.293023 212.493639 l
294.865116 204.881999 l
310.437209 225.213409 l
326.009302 225.213409 l
341.581395 244.393212 l
357.153488 244.393212 l
372.725581 240.168862 l
388.297674 225.213409 l
403.869767 235.606217 l
419.44186 235.606217 l
435.013953 240.168862 l
450.586047 255.460615 l
466.15814 219.207582 l
481.730233 225.213409 l
497.302326 225.213409 l
512.874419 244.393212 l
528.446512 204.881999 l
544.018605 248.325987 l
559.590698 219.207582 l
575.162791 244.393212 l
590.734884 219.207582 l
606.306977 258.718795 l
621.87907 235.606217 l
637.451163 235.606217 l
653.023256 225.213409 l
668.595349 235.606217 l
684.167442 230.64634 l
699.739535 240.168862 l
715.311628 230.64634 l
730.883721 240.168862 l
746.455814 235.606217 l
762.027907 248.325987 l
777.6 258.718795 l
stroke
grestore
1.000 setlinewidth
[] 0 setdash
gsave
669.6 499 108 71.28 clipbox
/o {
gsave
newpath
translate
1.0 setlinewidth
1 setlinejoin
0 setlinecap
0 -10 m
2.652031 -10 5.195799 -8.946337 7.071068 -7.071068 c
8.946337 -5.195799 10 -2.652031 10 0 c
10 2.652031 8.946337 5.195799 7.071068 7.071068 c
5.195799 8.946337 2.652031 10 0 10 c
-2.652031 10 -5.195799 8.946337 -7.071068 7.071068 c
-8.946337 5.195799 -10 2.652031 -10 0 c
-10 -2.652031 -8.946337 -5.195799 -7.071068 -7.071068 c
-5.195799 -8.946337 -2.652031 -10 0 -10 c
cl

gsave
grestore
stroke
grestore
} bind def
108 196.095 o
123.572 230.646 o
139.144 196.095 o
154.716 235.606 o
170.288 219.208 o
185.86 212.494 o
201.433 185.702 o
217.005 225.213 o
232.577 244.393 o
248.149 212.494 o
263.721 225.213 o
279.293 212.494 o
294.865 204.882 o
310.437 225.213 o
326.009 225.213 o
341.581 244.393 o
357.153 244.393 o
372.726 240.169 o
388.298 225.213 o
403.87 235.606 o
419.442 235.606 o
435.014 240.169 o
450.586 255.461 o
466.158 219.208 o
481.73 225.213 o
497.302 225.213 o
512.874 244.393 o
528.447 204.882 o
544.019 248.326 o
559.591 219.208 o
575.163 244.393 o
590.735 219.208 o
606.307 258.719 o
621.879 235.606 o
637.451 235.606 o
653.023 225.213 o
668.595 235.606 o
684.167 230.646 o
699.74 240.169 o
715.312 230.646 o
730.884 240.169 o
746.456 235.606 o
762.028 248.326 o
777.6 258.719 o
grestore
3.000 setlinewidth
2 setlinecap
0.000 0.000 1.000 setrgbcolor
gsave
669.6 499 108 71.28 clipbox
108 435.915169 m
123.572093 403.446987 l
139.144186 324.42456 l
154.716279 325.415936 l
170.288372 325.415936 l
185.860465 330.129581 l
201.432558 327.348413 l
217.004651 335.315212 l
232.576744 336.135408 l
248.148837 340.068183 l
263.72093 338.527477 l
279.293023 345.154592 l
294.865116 343.030025 l
310.437209 342.303867 l
326.009302 340.823196 l
341.581395 351.090861 l
357.153488 351.713847 l
372.725581 352.939757 l
388.297674 351.090861 l
403.869767 352.330097 l
419.44186 349.824084 l
435.013953 354.139857 l
450.586047 355.31521 l
466.15814 358.151747 l
481.730233 362.926851 l
497.302326 360.323539 l
512.874419 370.538492 l
528.446512 364.927149 l
544.018605 363.935774 l
559.590698 368.26717 l
575.162791 370.982094 l
590.734884 372.722768 l
606.306977 380.708198 l
621.87907 379.198106 l
637.451163 378.03869 l
653.023256 379.958152 l
668.595349 384.665805 l
684.167442 383.966378 l
699.739535 382.541238 l
715.311628 380.334409 l
730.883721 379.579396 l
746.455814 384.665805 l
762.027907 382.900877 l
777.6 386.714024 l
stroke
grestore
1.000 setlinewidth
0 setlinecap
gsave
669.6 499 108 71.28 clipbox
/o {
gsave
newpath
translate
1.0 setlinewidth
1 setlinejoin
0 setlinecap
0 -10 m
2.652031 -10 5.195799 -8.946337 7.071068 -7.071068 c
8.946337 -5.195799 10 -2.652031 10 0 c
10 2.652031 8.946337 5.195799 7.071068 7.071068 c
5.195799 8.946337 2.652031 10 0 10 c
-2.652031 10 -5.195799 8.946337 -7.071068 7.071068 c
-8.946337 5.195799 -10 2.652031 -10 0 c
-10 -2.652031 -8.946337 -5.195799 -7.071068 -7.071068 c
-5.195799 -8.946337 -2.652031 -10 0 -10 c
cl

gsave
grestore
stroke
grestore
} bind def
108 435.915 o
123.572 403.447 o
139.144 324.425 o
154.716 325.416 o
170.288 325.416 o
185.86 330.13 o
201.433 327.348 o
217.005 335.315 o
232.577 336.135 o
248.149 340.068 o
263.721 338.527 o
279.293 345.155 o
294.865 343.03 o
310.437 342.304 o
326.009 340.823 o
341.581 351.091 o
357.153 351.714 o
372.726 352.94 o
388.298 351.091 o
403.87 352.33 o
419.442 349.824 o
435.014 354.14 o
450.586 355.315 o
466.158 358.152 o
481.73 362.927 o
497.302 360.324 o
512.874 370.538 o
528.447 364.927 o
544.019 363.936 o
559.591 368.267 o
575.163 370.982 o
590.735 372.723 o
606.307 380.708 o
621.879 379.198 o
637.451 378.039 o
653.023 379.958 o
668.595 384.666 o
684.167 383.966 o
699.74 382.541 o
715.312 380.334 o
730.884 379.579 o
746.456 384.666 o
762.028 382.901 o
777.6 386.714 o
grestore
3.000 setlinewidth
[11.1 4.8] 0 setdash
gsave
669.6 499 108 71.28 clipbox
108 196.095004 m
123.572093 219.207582 l
139.144186 185.702196 l
154.716279 172.982426 l
170.288372 172.982426 l
185.860465 172.982426 l
201.432558 204.881999 l
217.004651 230.64634 l
232.576744 230.64634 l
248.148837 185.702196 l
263.72093 212.493639 l
279.293023 212.493639 l
294.865116 196.095004 l
310.437209 212.493639 l
326.009302 196.095004 l
341.581395 212.493639 l
357.153488 225.213409 l
372.725581 212.493639 l
388.297674 185.702196 l
403.869767 212.493639 l
419.44186 196.095004 l
435.013953 225.213409 l
450.586047 230.64634 l
466.15814 196.095004 l
481.730233 225.213409 l
497.302326 212.493639 l
512.874419 244.393212 l
528.446512 196.095004 l
544.018605 244.393212 l
559.590698 219.207582 l
575.162791 230.64634 l
590.734884 212.493639 l
606.306977 244.393212 l
621.87907 230.64634 l
637.451163 235.606217 l
653.023256 196.095004 l
668.595349 230.64634 l
684.167442 230.64634 l
699.739535 225.213409 l
715.311628 212.493639 l
730.883721 204.881999 l
746.455814 204.881999 l
762.027907 240.168862 l
777.6 225.213409 l
stroke
grestore
1.000 setlinewidth
[] 0 setdash
gsave
669.6 499 108 71.28 clipbox
/o {
gsave
newpath
translate
1.0 setlinewidth
1 setlinejoin
0 setlinecap
0 -10 m
2.652031 -10 5.195799 -8.946337 7.071068 -7.071068 c
8.946337 -5.195799 10 -2.652031 10 0 c
10 2.652031 8.946337 5.195799 7.071068 7.071068 c
5.195799 8.946337 2.652031 10 0 10 c
-2.652031 10 -5.195799 8.946337 -7.071068 7.071068 c
-8.946337 5.195799 -10 2.652031 -10 0 c
-10 -2.652031 -8.946337 -5.195799 -7.071068 -7.071068 c
-5.195799 -8.946337 -2.652031 -10 0 -10 c
cl

gsave
grestore
stroke
grestore
} bind def
108 196.095 o
123.572 219.208 o
139.144 185.702 o
154.716 172.982 o
170.288 172.982 o
185.86 172.982 o
201.433 204.882 o
217.005 230.646 o
232.577 230.646 o
248.149 185.702 o
263.721 212.494 o
279.293 212.494 o
294.865 196.095 o
310.437 212.494 o
326.009 196.095 o
341.581 212.494 o
357.153 225.213 o
372.726 212.494 o
388.298 185.702 o
403.87 212.494 o
419.442 196.095 o
435.014 225.213 o
450.586 230.646 o
466.158 196.095 o
481.73 225.213 o
497.302 212.494 o
512.874 244.393 o
528.447 196.095 o
544.019 244.393 o
559.591 219.208 o
575.163 230.646 o
590.735 212.494 o
606.307 244.393 o
621.879 230.646 o
637.451 235.606 o
653.023 196.095 o
668.595 230.646 o
684.167 230.646 o
699.74 225.213 o
715.312 212.494 o
730.884 204.882 o
746.456 204.882 o
762.028 240.169 o
777.6 225.213 o
grestore
3.000 setlinewidth
2 setlinecap
1.000 0.000 0.000 setrgbcolor
gsave
669.6 499 108 71.28 clipbox
108 529.713238 m
123.572093 506.736932 l
139.144186 473.557276 l
154.716279 483.828153 l
170.288372 496.523505 l
185.860465 503.068954 l
201.432558 508.188279 l
217.004651 513.323698 l
232.576744 515.325249 l
248.148837 521.415306 l
263.72093 522.910543 l
279.293023 524.93416 l
294.865116 526.572111 l
310.437209 527.458996 l
326.009302 530.660372 l
341.581395 532.456711 l
357.153488 533.996029 l
372.725581 534.525118 l
388.297674 536.083543 l
403.869767 536.810936 l
419.44186 538.613166 l
435.013953 540.743712 l
450.586047 541.768806 l
466.15814 541.945217 l
481.730233 541.879127 l
497.302326 544.041853 l
512.874419 545.238858 l
528.446512 544.905386 l
544.018605 545.05152 l
559.590698 544.548922 l
575.162791 543.850533 l
590.734884 543.743966 l
606.306977 543.208123 l
621.87907 542.775791 l
637.451163 543.956901 l
653.023256 544.27482 l
668.595349 544.61199 l
684.167442 544.947177 l
699.739535 546.023121 l
715.311628 545.858907 l
730.883721 545.982112 l
746.455814 546.431597 l
762.027907 547.56 l
777.6 547.159558 l
stroke
grestore
1.000 setlinewidth
0 setlinejoin
0 setlinecap
gsave
669.6 499 108 71.28 clipbox
/o {
gsave
newpath
translate
1.0 setlinewidth
0 setlinejoin
0 setlinecap
0 10 m
-10 -10 l
10 -10 l
cl

gsave
grestore
stroke
grestore
} bind def
108 529.713 o
123.572 506.737 o
139.144 473.557 o
154.716 483.828 o
170.288 496.524 o
185.86 503.069 o
201.433 508.188 o
217.005 513.324 o
232.577 515.325 o
248.149 521.415 o
263.721 522.911 o
279.293 524.934 o
294.865 526.572 o
310.437 527.459 o
326.009 530.66 o
341.581 532.457 o
357.153 533.996 o
372.726 534.525 o
388.298 536.084 o
403.87 536.811 o
419.442 538.613 o
435.014 540.744 o
450.586 541.769 o
466.158 541.945 o
481.73 541.879 o
497.302 544.042 o
512.874 545.239 o
528.447 544.905 o
544.019 545.052 o
559.591 544.549 o
575.163 543.851 o
590.735 543.744 o
606.307 543.208 o
621.879 542.776 o
637.451 543.957 o
653.023 544.275 o
668.595 544.612 o
684.167 544.947 o
699.74 546.023 o
715.312 545.859 o
730.884 545.982 o
746.456 546.432 o
762.028 547.56 o
777.6 547.16 o
grestore
3.000 setlinewidth
1 setlinejoin
[11.1 4.8] 0 setdash
gsave
669.6 499 108 71.28 clipbox
108 408.009632 m
123.572093 398.213715 l
139.144186 389.014154 l
154.716279 393.947188 l
170.288372 391.841311 l
185.860465 389.65464 l
201.432558 385.356755 l
217.004651 390.288009 l
232.576744 393.054178 l
248.148837 403.696452 l
263.72093 398.213715 l
279.293023 394.826424 l
294.865116 401.151268 l
310.437209 402.944758 l
326.009302 406.843893 l
341.581395 400.365013 l
357.153488 407.078956 l
372.725581 408.239946 l
388.297674 417.744785 l
403.869767 412.233981 l
419.44186 418.517713 l
435.013953 424.696014 l
450.586047 425.380739 l
466.15814 427.222393 l
481.730233 421.508701 l
497.302326 420.590765 l
512.874419 427.386903 l
528.446512 428.202406 l
544.018605 425.720041 l
559.590698 421.508701 l
575.162791 424.867968 l
590.734884 419.845622 l
606.306977 420.40539 l
621.87907 426.725996 l
637.451163 425.210327 l
653.023256 424.696014 l
668.595349 430.269673 l
684.167442 429.324857 l
699.739535 428.525368 l
715.311628 431.658169 l
730.883721 432.113585 l
746.455814 435.346559 l
762.027907 433.899714 l
777.6 439.478993 l
stroke
grestore
1.000 setlinewidth
0 setlinejoin
[] 0 setdash
gsave
669.6 499 108 71.28 clipbox
/o {
gsave
newpath
translate
1.0 setlinewidth
0 setlinejoin
0 setlinecap
0 10 m
-10 -10 l
10 -10 l
cl

gsave
grestore
stroke
grestore
} bind def
108 408.01 o
123.572 398.214 o
139.144 389.014 o
154.716 393.947 o
170.288 391.841 o
185.86 389.655 o
201.433 385.357 o
217.005 390.288 o
232.577 393.054 o
248.149 403.696 o
263.721 398.214 o
279.293 394.826 o
294.865 401.151 o
310.437 402.945 o
326.009 406.844 o
341.581 400.365 o
357.153 407.079 o
372.726 408.24 o
388.298 417.745 o
403.87 412.234 o
419.442 418.518 o
435.014 424.696 o
450.586 425.381 o
466.158 427.222 o
481.73 421.509 o
497.302 420.591 o
512.874 427.387 o
528.447 428.202 o
544.019 425.72 o
559.591 421.509 o
575.163 424.868 o
590.735 419.846 o
606.307 420.405 o
621.879 426.726 o
637.451 425.21 o
653.023 424.696 o
668.595 430.27 o
684.167 429.325 o
699.74 428.525 o
715.312 431.658 o
730.884 432.114 o
746.456 435.347 o
762.028 433.9 o
777.6 439.479 o
grestore
3.000 setlinewidth
1 setlinejoin
2 setlinecap
0.000 0.000 1.000 setrgbcolor
gsave
669.6 499 108 71.28 clipbox
108 530.33741 m
123.572093 504.48818 l
139.144186 460.837506 l
154.716279 468.677066 l
170.288372 477.781625 l
185.860465 482.34427 l
201.432558 486.393854 l
217.004651 491.095459 l
232.576744 491.363455 l
248.148837 493.566222 l
263.72093 493.101314 l
279.293023 496.180558 l
294.865116 497.731745 l
310.437209 499.613191 l
326.009302 499.705653 l
341.581395 501.702765 l
357.153488 504.061831 l
372.725581 502.807073 l
388.297674 503.890394 l
403.869767 505.037709 l
419.44186 505.831456 l
435.013953 507.184333 l
450.586047 506.736932 l
466.15814 505.665267 l
481.730233 506.40933 l
497.302326 507.74872 l
512.874419 508.742861 l
528.446512 505.456848 l
544.018605 506.327134 l
559.590698 507.78882 l
575.162791 508.307573 l
590.734884 507.74872 l
606.306977 507.628249 l
621.87907 506.285992 l
637.451163 508.307573 l
653.023256 508.307573 l
668.595349 508.028831 l
684.167442 506.491407 l
699.739535 507.78882 l
715.311628 506.77775 l
730.883721 509.057359 l
746.455814 507.103248 l
762.027907 509.797411 l
777.6 508.386964 l
stroke
grestore
1.000 setlinewidth
0 setlinejoin
0 setlinecap
gsave
669.6 499 108 71.28 clipbox
/o {
gsave
newpath
translate
1.0 setlinewidth
0 setlinejoin
0 setlinecap
0 10 m
-10 -10 l
10 -10 l
cl

gsave
grestore
stroke
grestore
} bind def
108 530.337 o
123.572 504.488 o
139.144 460.838 o
154.716 468.677 o
170.288 477.782 o
185.86 482.344 o
201.433 486.394 o
217.005 491.095 o
232.577 491.363 o
248.149 493.566 o
263.721 493.101 o
279.293 496.181 o
294.865 497.732 o
310.437 499.613 o
326.009 499.706 o
341.581 501.703 o
357.153 504.062 o
372.726 502.807 o
388.298 503.89 o
403.87 505.038 o
419.442 505.831 o
435.014 507.184 o
450.586 506.737 o
466.158 505.665 o
481.73 506.409 o
497.302 507.749 o
512.874 508.743 o
528.447 505.457 o
544.019 506.327 o
559.591 507.789 o
575.163 508.308 o
590.735 507.749 o
606.307 507.628 o
621.879 506.286 o
637.451 508.308 o
653.023 508.308 o
668.595 508.029 o
684.167 506.491 o
699.74 507.789 o
715.312 506.778 o
730.884 509.057 o
746.456 507.103 o
762.028 509.797 o
777.6 508.387 o
grestore
3.000 setlinewidth
1 setlinejoin
[11.1 4.8] 0 setdash
gsave
669.6 499 108 71.28 clipbox
108 313.428544 m
123.572093 307.017003 l
139.144186 316.955605 l
154.716279 333.638543 l
170.288372 321.342587 l
185.860465 335.315212 l
201.432558 334.483042 l
217.004651 337.741222 l
232.576744 323.415638 l
248.148837 338.527477 l
263.72093 340.823196 l
279.293023 346.528216 l
294.865116 324.42456 l
310.437209 336.943969 l
326.009302 335.315212 l
341.581395 329.217519 l
357.153488 344.455165 l
372.725581 331.027279 l
388.297674 339.303035 l
403.869767 336.943969 l
419.44186 344.455165 l
435.013953 347.202811 l
450.586047 332.781344 l
466.15814 340.068183 l
481.730233 331.911058 l
497.302326 343.747048 l
512.874419 343.030025 l
528.446512 335.315212 l
544.018605 343.030025 l
559.590698 336.135408 l
575.162791 341.568339 l
590.734884 338.527477 l
606.306977 335.315212 l
621.87907 354.730563 l
637.451163 351.090861 l
653.023256 343.030025 l
668.595349 344.455165 l
684.167442 341.568339 l
699.739535 346.528216 l
715.311628 343.747048 l
730.883721 343.030025 l
746.455814 356.466818 l
762.027907 346.528216 l
777.6 350.460991 l
stroke
grestore
1.000 setlinewidth
0 setlinejoin
[] 0 setdash
gsave
669.6 499 108 71.28 clipbox
/o {
gsave
newpath
translate
1.0 setlinewidth
0 setlinejoin
0 setlinecap
0 10 m
-10 -10 l
10 -10 l
cl

gsave
grestore
stroke
grestore
} bind def
108 313.429 o
123.572 307.017 o
139.144 316.956 o
154.716 333.639 o
170.288 321.343 o
185.86 335.315 o
201.433 334.483 o
217.005 337.741 o
232.577 323.416 o
248.149 338.527 o
263.721 340.823 o
279.293 346.528 o
294.865 324.425 o
310.437 336.944 o
326.009 335.315 o
341.581 329.218 o
357.153 344.455 o
372.726 331.027 o
388.298 339.303 o
403.87 336.944 o
419.442 344.455 o
435.014 347.203 o
450.586 332.781 o
466.158 340.068 o
481.73 331.911 o
497.302 343.747 o
512.874 343.03 o
528.447 335.315 o
544.019 343.03 o
559.591 336.135 o
575.163 341.568 o
590.735 338.527 o
606.307 335.315 o
621.879 354.731 o
637.451 351.091 o
653.023 343.03 o
668.595 344.455 o
684.167 341.568 o
699.74 346.528 o
715.312 343.747 o
730.884 343.03 o
746.456 356.467 o
762.028 346.528 o
777.6 350.461 o
grestore
0.800 setlinewidth
2 setlinecap
[] 0 setdash
0.000 setgray
gsave
108 71.28 m
108 570.24 l
stroke
grestore
gsave
777.6 71.28 m
777.6 570.24 l
stroke
grestore
gsave
108 71.28 m
777.6 71.28 l
stroke
grestore
gsave
108 570.24 m
777.6 570.24 l
stroke
grestore
gsave
160.870313 576.240000 translate
0.000000 rotate
0.000000 0.000000 m /F glyphshow
13.789062 0.000000 m /r glyphshow
23.656250 0.000000 m /a glyphshow
38.363281 0.000000 m /c glyphshow
51.558594 0.000000 m /t glyphshow
60.968750 0.000000 m /i glyphshow
67.636719 0.000000 m /o glyphshow
82.320312 0.000000 m /n glyphshow
97.531250 0.000000 m /space glyphshow
105.160156 0.000000 m /o glyphshow
119.843750 0.000000 m /f glyphshow
128.292969 0.000000 m /space glyphshow
135.921875 0.000000 m /U glyphshow
153.488281 0.000000 m /n glyphshow
168.699219 0.000000 m /d glyphshow
183.933594 0.000000 m /e glyphshow
198.699219 0.000000 m /t glyphshow
208.109375 0.000000 m /e glyphshow
222.875000 0.000000 m /c glyphshow
236.070312 0.000000 m /t glyphshow
245.480469 0.000000 m /e glyphshow
260.246094 0.000000 m /d glyphshow
275.480469 0.000000 m /space glyphshow
283.109375 0.000000 m /T glyphshow
297.722656 0.000000 m /r glyphshow
307.589844 0.000000 m /a glyphshow
322.296875 0.000000 m /c glyphshow
335.492188 0.000000 m /k glyphshow
349.390625 0.000000 m /s glyphshow
361.894531 0.000000 m /slash glyphshow
369.980469 0.000000 m /P glyphshow
384.437500 0.000000 m /a glyphshow
399.144531 0.000000 m /r glyphshow
409.011719 0.000000 m /t glyphshow
418.421875 0.000000 m /i glyphshow
425.089844 0.000000 m /c glyphshow
438.285156 0.000000 m /l glyphshow
444.953125 0.000000 m /e glyphshow
459.718750 0.000000 m /s glyphshow
472.222656 0.000000 m /comma glyphshow
479.851562 0.000000 m /space glyphshow
487.480469 0.000000 m /one glyphshow
502.750000 0.000000 m /zero glyphshow
518.019531 0.000000 m /zero glyphshow
533.289062 0.000000 m /zero glyphshow
548.558594 0.000000 m /zero glyphshow
grestore
1.000 setlinewidth
0 setlinecap
0.800 setgray
gsave
125.86 205.99 m
331.86 205.99 l
333.86 205.99 334.86 206.99 334.86 208.99 c
334.86 559.74 l
334.86 561.74 333.86 562.74 331.86 562.74 c
125.86 562.74 l
123.86 562.74 122.86 561.74 122.86 559.74 c
122.86 208.99 l
122.86 206.99 123.86 205.99 125.86 205.99 c
cl
gsave
1.000 setgray
fill
grestore
stroke
grestore
3.000 setlinewidth
1 setlinejoin
2 setlinecap
[] 0 setdash
1.000 0.000 0.000 setrgbcolor
gsave
128.86 550.599375 m
158.86 550.599375 l
stroke
grestore
0.000 setgray
gsave
170.860000 545.349375 translate
0.000000 rotate
/DejaVuSans findfont
15.0 scalefont
setfont
0.000000 0.609375 moveto
/S glyphshow

9.521484 0.609375 moveto
/T glyphshow

18.684082 0.609375 moveto
/B glyphshow

28.974609 0.609375 moveto
/comma glyphshow

33.742676 0.609375 moveto
/space glyphshow

38.510742 0.609375 moveto
/three glyphshow

/DejaVuSans-Oblique findfont
15.0 scalefont
setfont
48.054199 0.609375 moveto
/delta glyphshow

57.231445 0.609375 moveto
/t glyphshow

/DejaVuSans findfont
15.0 scalefont
setfont
63.112793 0.609375 moveto
/comma glyphshow

67.880859 0.609375 moveto
/space glyphshow

72.648926 0.609375 moveto
/T glyphshow

81.811523 0.609375 moveto
/r glyphshow

87.978516 0.609375 moveto
/a glyphshow

97.170410 0.609375 moveto
/c glyphshow

105.417480 0.609375 moveto
/k glyphshow

114.104004 0.609375 moveto
/s glyphshow


grestore
0 setlinecap
[11.1 4.8] 0 setdash
1.000 0.000 0.000 setrgbcolor
gsave
128.86 528.58375 m
158.86 528.58375 l
stroke
grestore
0.000 setgray
gsave
170.860000 523.333750 translate
0.000000 rotate
/DejaVuSans findfont
15.0 scalefont
setfont
0.000000 0.609375 moveto
/S glyphshow

9.521484 0.609375 moveto
/T glyphshow

18.684082 0.609375 moveto
/B glyphshow

28.974609 0.609375 moveto
/comma glyphshow

33.742676 0.609375 moveto
/space glyphshow

38.510742 0.609375 moveto
/three glyphshow

/DejaVuSans-Oblique findfont
15.0 scalefont
setfont
48.054199 0.609375 moveto
/delta glyphshow

57.231445 0.609375 moveto
/t glyphshow

/DejaVuSans findfont
15.0 scalefont
setfont
63.112793 0.609375 moveto
/comma glyphshow

67.880859 0.609375 moveto
/space glyphshow

72.648926 0.609375 moveto
/P glyphshow

81.694336 0.609375 moveto
/a glyphshow

90.886230 0.609375 moveto
/r glyphshow

97.053223 0.609375 moveto
/t glyphshow

102.934570 0.609375 moveto
/i glyphshow

107.102051 0.609375 moveto
/c glyphshow

115.349121 0.609375 moveto
/l glyphshow

119.516602 0.609375 moveto
/e glyphshow

128.745117 0.609375 moveto
/s glyphshow


grestore
2 setlinecap
[] 0 setdash
0.000 0.000 1.000 setrgbcolor
gsave
128.86 506.568125 m
158.86 506.568125 l
stroke
grestore
0.000 setgray
gsave
170.860000 501.318125 translate
0.000000 rotate
/DejaVuSans findfont
15.0 scalefont
setfont
0.000000 0.609375 moveto
/O glyphshow

11.806641 0.609375 moveto
/u glyphshow

21.313477 0.609375 moveto
/r glyphshow

27.480469 0.609375 moveto
/s glyphshow

35.295410 0.609375 moveto
/comma glyphshow

40.063477 0.609375 moveto
/space glyphshow

44.831543 0.609375 moveto
/three glyphshow

/DejaVuSans-Oblique findfont
15.0 scalefont
setfont
54.375000 0.609375 moveto
/delta glyphshow

63.552246 0.609375 moveto
/t glyphshow

/DejaVuSans findfont
15.0 scalefont
setfont
69.433594 0.609375 moveto
/comma glyphshow

74.201660 0.609375 moveto
/space glyphshow

78.969727 0.609375 moveto
/T glyphshow

88.132324 0.609375 moveto
/r glyphshow

94.299316 0.609375 moveto
/a glyphshow

103.491211 0.609375 moveto
/c glyphshow

111.738281 0.609375 moveto
/k glyphshow

120.424805 0.609375 moveto
/s glyphshow


grestore
0 setlinecap
[11.1 4.8] 0 setdash
0.000 0.000 1.000 setrgbcolor
gsave
128.86 484.5525 m
158.86 484.5525 l
stroke
grestore
0.000 setgray
gsave
170.860000 479.302500 translate
0.000000 rotate
/DejaVuSans findfont
15.0 scalefont
setfont
0.000000 0.609375 moveto
/O glyphshow

11.806641 0.609375 moveto
/u glyphshow

21.313477 0.609375 moveto
/r glyphshow

27.480469 0.609375 moveto
/s glyphshow

35.295410 0.609375 moveto
/comma glyphshow

40.063477 0.609375 moveto
/space glyphshow

44.831543 0.609375 moveto
/three glyphshow

/DejaVuSans-Oblique findfont
15.0 scalefont
setfont
54.375000 0.609375 moveto
/delta glyphshow

63.552246 0.609375 moveto
/t glyphshow

/DejaVuSans findfont
15.0 scalefont
setfont
69.433594 0.609375 moveto
/comma glyphshow

74.201660 0.609375 moveto
/space glyphshow

78.969727 0.609375 moveto
/P glyphshow

88.015137 0.609375 moveto
/a glyphshow

97.207031 0.609375 moveto
/r glyphshow

103.374023 0.609375 moveto
/t glyphshow

109.255371 0.609375 moveto
/i glyphshow

113.422852 0.609375 moveto
/c glyphshow

121.669922 0.609375 moveto
/l glyphshow

125.837402 0.609375 moveto
/e glyphshow

135.065918 0.609375 moveto
/s glyphshow


grestore
2 setlinecap
[] 0 setdash
1.000 0.000 0.000 setrgbcolor
gsave
128.86 462.536875 m
158.86 462.536875 l
stroke
grestore
1.000 setlinewidth
0 setlinejoin
0 setlinecap
gsave
/o {
gsave
newpath
translate
1.0 setlinewidth
0 setlinejoin
0 setlinecap
-10 -10 m
10 -10 l
10 10 l
-10 10 l
cl

gsave
grestore
stroke
grestore
} bind def
143.86 462.537 o
grestore
0.000 setgray
gsave
170.860000 457.286875 translate
0.000000 rotate
/DejaVuSans findfont
15.0 scalefont
setfont
0.000000 0.609375 moveto
/S glyphshow

9.521484 0.609375 moveto
/T glyphshow

18.684082 0.609375 moveto
/B glyphshow

28.974609 0.609375 moveto
/comma glyphshow

33.742676 0.609375 moveto
/space glyphshow

38.510742 0.609375 moveto
/seven glyphshow

48.054199 0.609375 moveto
/period glyphshow

52.822266 0.609375 moveto
/five glyphshow

/DejaVuSans-Oblique findfont
15.0 scalefont
setfont
62.365723 0.609375 moveto
/delta glyphshow

71.542969 0.609375 moveto
/t glyphshow

/DejaVuSans findfont
15.0 scalefont
setfont
77.424316 0.609375 moveto
/comma glyphshow

82.192383 0.609375 moveto
/space glyphshow

86.960449 0.609375 moveto
/T glyphshow

96.123047 0.609375 moveto
/r glyphshow

102.290039 0.609375 moveto
/a glyphshow

111.481934 0.609375 moveto
/c glyphshow

119.729004 0.609375 moveto
/k glyphshow

128.415527 0.609375 moveto
/s glyphshow


grestore
3.000 setlinewidth
1 setlinejoin
[11.1 4.8] 0 setdash
1.000 0.000 0.000 setrgbcolor
gsave
128.86 440.52125 m
158.86 440.52125 l
stroke
grestore
1.000 setlinewidth
0 setlinejoin
[] 0 setdash
gsave
/o {
gsave
newpath
translate
1.0 setlinewidth
0 setlinejoin
0 setlinecap
-10 -10 m
10 -10 l
10 10 l
-10 10 l
cl

gsave
grestore
stroke
grestore
} bind def
143.86 440.521 o
grestore
0.000 setgray
gsave
170.860000 435.271250 translate
0.000000 rotate
/DejaVuSans findfont
15.0 scalefont
setfont
0.000000 0.609375 moveto
/S glyphshow

9.521484 0.609375 moveto
/T glyphshow

18.684082 0.609375 moveto
/B glyphshow

28.974609 0.609375 moveto
/comma glyphshow

33.742676 0.609375 moveto
/space glyphshow

38.510742 0.609375 moveto
/seven glyphshow

48.054199 0.609375 moveto
/period glyphshow

52.822266 0.609375 moveto
/five glyphshow

/DejaVuSans-Oblique findfont
15.0 scalefont
setfont
62.365723 0.609375 moveto
/delta glyphshow

71.542969 0.609375 moveto
/t glyphshow

/DejaVuSans findfont
15.0 scalefont
setfont
77.424316 0.609375 moveto
/comma glyphshow

82.192383 0.609375 moveto
/space glyphshow

86.960449 0.609375 moveto
/P glyphshow

96.005859 0.609375 moveto
/a glyphshow

105.197754 0.609375 moveto
/r glyphshow

111.364746 0.609375 moveto
/t glyphshow

117.246094 0.609375 moveto
/i glyphshow

121.413574 0.609375 moveto
/c glyphshow

129.660645 0.609375 moveto
/l glyphshow

133.828125 0.609375 moveto
/e glyphshow

143.056641 0.609375 moveto
/s glyphshow


grestore
3.000 setlinewidth
1 setlinejoin
2 setlinecap
0.000 0.000 1.000 setrgbcolor
gsave
128.86 418.505625 m
158.86 418.505625 l
stroke
grestore
1.000 setlinewidth
0 setlinejoin
0 setlinecap
gsave
/o {
gsave
newpath
translate
1.0 setlinewidth
0 setlinejoin
0 setlinecap
-10 -10 m
10 -10 l
10 10 l
-10 10 l
cl

gsave
grestore
stroke
grestore
} bind def
143.86 418.506 o
grestore
0.000 setgray
gsave
170.860000 413.255625 translate
0.000000 rotate
/DejaVuSans findfont
15.0 scalefont
setfont
0.000000 0.609375 moveto
/O glyphshow

11.806641 0.609375 moveto
/u glyphshow

21.313477 0.609375 moveto
/r glyphshow

27.480469 0.609375 moveto
/s glyphshow

35.295410 0.609375 moveto
/comma glyphshow

40.063477 0.609375 moveto
/space glyphshow

44.831543 0.609375 moveto
/seven glyphshow

54.375000 0.609375 moveto
/period glyphshow

59.143066 0.609375 moveto
/five glyphshow

/DejaVuSans-Oblique findfont
15.0 scalefont
setfont
68.686523 0.609375 moveto
/delta glyphshow

77.863770 0.609375 moveto
/t glyphshow

/DejaVuSans findfont
15.0 scalefont
setfont
83.745117 0.609375 moveto
/comma glyphshow

88.513184 0.609375 moveto
/space glyphshow

93.281250 0.609375 moveto
/T glyphshow

102.443848 0.609375 moveto
/r glyphshow

108.610840 0.609375 moveto
/a glyphshow

117.802734 0.609375 moveto
/c glyphshow

126.049805 0.609375 moveto
/k glyphshow

134.736328 0.609375 moveto
/s glyphshow


grestore
3.000 setlinewidth
1 setlinejoin
[11.1 4.8] 0 setdash
0.000 0.000 1.000 setrgbcolor
gsave
128.86 396.49 m
158.86 396.49 l
stroke
grestore
1.000 setlinewidth
0 setlinejoin
[] 0 setdash
gsave
/o {
gsave
newpath
translate
1.0 setlinewidth
0 setlinejoin
0 setlinecap
-10 -10 m
10 -10 l
10 10 l
-10 10 l
cl

gsave
grestore
stroke
grestore
} bind def
143.86 396.49 o
grestore
0.000 setgray
gsave
170.860000 391.240000 translate
0.000000 rotate
/DejaVuSans findfont
15.0 scalefont
setfont
0.000000 0.609375 moveto
/O glyphshow

11.806641 0.609375 moveto
/u glyphshow

21.313477 0.609375 moveto
/r glyphshow

27.480469 0.609375 moveto
/s glyphshow

35.295410 0.609375 moveto
/comma glyphshow

40.063477 0.609375 moveto
/space glyphshow

44.831543 0.609375 moveto
/seven glyphshow

54.375000 0.609375 moveto
/period glyphshow

59.143066 0.609375 moveto
/five glyphshow

/DejaVuSans-Oblique findfont
15.0 scalefont
setfont
68.686523 0.609375 moveto
/delta glyphshow

77.863770 0.609375 moveto
/t glyphshow

/DejaVuSans findfont
15.0 scalefont
setfont
83.745117 0.609375 moveto
/comma glyphshow

88.513184 0.609375 moveto
/space glyphshow

93.281250 0.609375 moveto
/P glyphshow

102.326660 0.609375 moveto
/a glyphshow

111.518555 0.609375 moveto
/r glyphshow

117.685547 0.609375 moveto
/t glyphshow

123.566895 0.609375 moveto
/i glyphshow

127.734375 0.609375 moveto
/c glyphshow

135.981445 0.609375 moveto
/l glyphshow

140.148926 0.609375 moveto
/e glyphshow

149.377441 0.609375 moveto
/s glyphshow


grestore
3.000 setlinewidth
1 setlinejoin
2 setlinecap
1.000 0.000 0.000 setrgbcolor
gsave
128.86 374.474375 m
158.86 374.474375 l
stroke
grestore
1.000 setlinewidth
0 setlinecap
gsave
/o {
gsave
newpath
translate
1.0 setlinewidth
1 setlinejoin
0 setlinecap
0 -10 m
2.652031 -10 5.195799 -8.946337 7.071068 -7.071068 c
8.946337 -5.195799 10 -2.652031 10 0 c
10 2.652031 8.946337 5.195799 7.071068 7.071068 c
5.195799 8.946337 2.652031 10 0 10 c
-2.652031 10 -5.195799 8.946337 -7.071068 7.071068 c
-8.946337 5.195799 -10 2.652031 -10 0 c
-10 -2.652031 -8.946337 -5.195799 -7.071068 -7.071068 c
-5.195799 -8.946337 -2.652031 -10 0 -10 c
cl

gsave
grestore
stroke
grestore
} bind def
143.86 374.474 o
grestore
0.000 setgray
gsave
170.860000 369.224375 translate
0.000000 rotate
/DejaVuSans findfont
15.0 scalefont
setfont
0.000000 0.609375 moveto
/S glyphshow

9.521484 0.609375 moveto
/T glyphshow

18.684082 0.609375 moveto
/B glyphshow

28.974609 0.609375 moveto
/comma glyphshow

33.742676 0.609375 moveto
/space glyphshow

38.510742 0.609375 moveto
/one glyphshow

48.054199 0.609375 moveto
/five glyphshow

/DejaVuSans-Oblique findfont
15.0 scalefont
setfont
57.597656 0.609375 moveto
/delta glyphshow

66.774902 0.609375 moveto
/t glyphshow

/DejaVuSans findfont
15.0 scalefont
setfont
72.656250 0.609375 moveto
/comma glyphshow

77.424316 0.609375 moveto
/space glyphshow

82.192383 0.609375 moveto
/T glyphshow

91.354980 0.609375 moveto
/r glyphshow

97.521973 0.609375 moveto
/a glyphshow

106.713867 0.609375 moveto
/c glyphshow

114.960938 0.609375 moveto
/k glyphshow

123.647461 0.609375 moveto
/s glyphshow


grestore
3.000 setlinewidth
[11.1 4.8] 0 setdash
1.000 0.000 0.000 setrgbcolor
gsave
128.86 352.45875 m
158.86 352.45875 l
stroke
grestore
1.000 setlinewidth
[] 0 setdash
gsave
/o {
gsave
newpath
translate
1.0 setlinewidth
1 setlinejoin
0 setlinecap
0 -10 m
2.652031 -10 5.195799 -8.946337 7.071068 -7.071068 c
8.946337 -5.195799 10 -2.652031 10 0 c
10 2.652031 8.946337 5.195799 7.071068 7.071068 c
5.195799 8.946337 2.652031 10 0 10 c
-2.652031 10 -5.195799 8.946337 -7.071068 7.071068 c
-8.946337 5.195799 -10 2.652031 -10 0 c
-10 -2.652031 -8.946337 -5.195799 -7.071068 -7.071068 c
-5.195799 -8.946337 -2.652031 -10 0 -10 c
cl

gsave
grestore
stroke
grestore
} bind def
143.86 352.459 o
grestore
0.000 setgray
gsave
170.860000 347.208750 translate
0.000000 rotate
/DejaVuSans findfont
15.0 scalefont
setfont
0.000000 0.609375 moveto
/S glyphshow

9.521484 0.609375 moveto
/T glyphshow

18.684082 0.609375 moveto
/B glyphshow

28.974609 0.609375 moveto
/comma glyphshow

33.742676 0.609375 moveto
/space glyphshow

38.510742 0.609375 moveto
/one glyphshow

48.054199 0.609375 moveto
/five glyphshow

/DejaVuSans-Oblique findfont
15.0 scalefont
setfont
57.597656 0.609375 moveto
/delta glyphshow

66.774902 0.609375 moveto
/t glyphshow

/DejaVuSans findfont
15.0 scalefont
setfont
72.656250 0.609375 moveto
/comma glyphshow

77.424316 0.609375 moveto
/space glyphshow

82.192383 0.609375 moveto
/P glyphshow

91.237793 0.609375 moveto
/a glyphshow

100.429688 0.609375 moveto
/r glyphshow

106.596680 0.609375 moveto
/t glyphshow

112.478027 0.609375 moveto
/i glyphshow

116.645508 0.609375 moveto
/c glyphshow

124.892578 0.609375 moveto
/l glyphshow

129.060059 0.609375 moveto
/e glyphshow

138.288574 0.609375 moveto
/s glyphshow


grestore
3.000 setlinewidth
2 setlinecap
0.000 0.000 1.000 setrgbcolor
gsave
128.86 330.443125 m
158.86 330.443125 l
stroke
grestore
1.000 setlinewidth
0 setlinecap
gsave
/o {
gsave
newpath
translate
1.0 setlinewidth
1 setlinejoin
0 setlinecap
0 -10 m
2.652031 -10 5.195799 -8.946337 7.071068 -7.071068 c
8.946337 -5.195799 10 -2.652031 10 0 c
10 2.652031 8.946337 5.195799 7.071068 7.071068 c
5.195799 8.946337 2.652031 10 0 10 c
-2.652031 10 -5.195799 8.946337 -7.071068 7.071068 c
-8.946337 5.195799 -10 2.652031 -10 0 c
-10 -2.652031 -8.946337 -5.195799 -7.071068 -7.071068 c
-5.195799 -8.946337 -2.652031 -10 0 -10 c
cl

gsave
grestore
stroke
grestore
} bind def
143.86 330.443 o
grestore
0.000 setgray
gsave
170.860000 325.193125 translate
0.000000 rotate
/DejaVuSans findfont
15.0 scalefont
setfont
0.000000 0.609375 moveto
/O glyphshow

11.806641 0.609375 moveto
/u glyphshow

21.313477 0.609375 moveto
/r glyphshow

27.480469 0.609375 moveto
/s glyphshow

35.295410 0.609375 moveto
/comma glyphshow

40.063477 0.609375 moveto
/space glyphshow

44.831543 0.609375 moveto
/one glyphshow

54.375000 0.609375 moveto
/five glyphshow

/DejaVuSans-Oblique findfont
15.0 scalefont
setfont
63.918457 0.609375 moveto
/delta glyphshow

73.095703 0.609375 moveto
/t glyphshow

/DejaVuSans findfont
15.0 scalefont
setfont
78.977051 0.609375 moveto
/comma glyphshow

83.745117 0.609375 moveto
/space glyphshow

88.513184 0.609375 moveto
/T glyphshow

97.675781 0.609375 moveto
/r glyphshow

103.842773 0.609375 moveto
/a glyphshow

113.034668 0.609375 moveto
/c glyphshow

121.281738 0.609375 moveto
/k glyphshow

129.968262 0.609375 moveto
/s glyphshow


grestore
3.000 setlinewidth
[11.1 4.8] 0 setdash
0.000 0.000 1.000 setrgbcolor
gsave
128.86 308.4275 m
158.86 308.4275 l
stroke
grestore
1.000 setlinewidth
[] 0 setdash
gsave
/o {
gsave
newpath
translate
1.0 setlinewidth
1 setlinejoin
0 setlinecap
0 -10 m
2.652031 -10 5.195799 -8.946337 7.071068 -7.071068 c
8.946337 -5.195799 10 -2.652031 10 0 c
10 2.652031 8.946337 5.195799 7.071068 7.071068 c
5.195799 8.946337 2.652031 10 0 10 c
-2.652031 10 -5.195799 8.946337 -7.071068 7.071068 c
-8.946337 5.195799 -10 2.652031 -10 0 c
-10 -2.652031 -8.946337 -5.195799 -7.071068 -7.071068 c
-5.195799 -8.946337 -2.652031 -10 0 -10 c
cl

gsave
grestore
stroke
grestore
} bind def
143.86 308.428 o
grestore
0.000 setgray
gsave
170.860000 303.177500 translate
0.000000 rotate
/DejaVuSans findfont
15.0 scalefont
setfont
0.000000 0.609375 moveto
/O glyphshow

11.806641 0.609375 moveto
/u glyphshow

21.313477 0.609375 moveto
/r glyphshow

27.480469 0.609375 moveto
/s glyphshow

35.295410 0.609375 moveto
/comma glyphshow

40.063477 0.609375 moveto
/space glyphshow

44.831543 0.609375 moveto
/one glyphshow

54.375000 0.609375 moveto
/five glyphshow

/DejaVuSans-Oblique findfont
15.0 scalefont
setfont
63.918457 0.609375 moveto
/delta glyphshow

73.095703 0.609375 moveto
/t glyphshow

/DejaVuSans findfont
15.0 scalefont
setfont
78.977051 0.609375 moveto
/comma glyphshow

83.745117 0.609375 moveto
/space glyphshow

88.513184 0.609375 moveto
/P glyphshow

97.558594 0.609375 moveto
/a glyphshow

106.750488 0.609375 moveto
/r glyphshow

112.917480 0.609375 moveto
/t glyphshow

118.798828 0.609375 moveto
/i glyphshow

122.966309 0.609375 moveto
/c glyphshow

131.213379 0.609375 moveto
/l glyphshow

135.380859 0.609375 moveto
/e glyphshow

144.609375 0.609375 moveto
/s glyphshow


grestore
3.000 setlinewidth
2 setlinecap
1.000 0.000 0.000 setrgbcolor
gsave
128.86 286.411875 m
158.86 286.411875 l
stroke
grestore
1.000 setlinewidth
0 setlinejoin
0 setlinecap
gsave
/o {
gsave
newpath
translate
1.0 setlinewidth
0 setlinejoin
0 setlinecap
0 10 m
-10 -10 l
10 -10 l
cl

gsave
grestore
stroke
grestore
} bind def
143.86 286.412 o
grestore
0.000 setgray
gsave
170.860000 281.161875 translate
0.000000 rotate
/DejaVuSans findfont
15.0 scalefont
setfont
0.000000 0.609375 moveto
/S glyphshow

9.521484 0.609375 moveto
/T glyphshow

18.684082 0.609375 moveto
/B glyphshow

28.974609 0.609375 moveto
/comma glyphshow

33.742676 0.609375 moveto
/space glyphshow

38.510742 0.609375 moveto
/three glyphshow

48.054199 0.609375 moveto
/zero glyphshow

/DejaVuSans-Oblique findfont
15.0 scalefont
setfont
57.597656 0.609375 moveto
/delta glyphshow

66.774902 0.609375 moveto
/t glyphshow

/DejaVuSans findfont
15.0 scalefont
setfont
72.656250 0.609375 moveto
/comma glyphshow

77.424316 0.609375 moveto
/space glyphshow

82.192383 0.609375 moveto
/T glyphshow

91.354980 0.609375 moveto
/r glyphshow

97.521973 0.609375 moveto
/a glyphshow

106.713867 0.609375 moveto
/c glyphshow

114.960938 0.609375 moveto
/k glyphshow

123.647461 0.609375 moveto
/s glyphshow


grestore
3.000 setlinewidth
1 setlinejoin
[11.1 4.8] 0 setdash
1.000 0.000 0.000 setrgbcolor
gsave
128.86 264.39625 m
158.86 264.39625 l
stroke
grestore
1.000 setlinewidth
0 setlinejoin
[] 0 setdash
gsave
/o {
gsave
newpath
translate
1.0 setlinewidth
0 setlinejoin
0 setlinecap
0 10 m
-10 -10 l
10 -10 l
cl

gsave
grestore
stroke
grestore
} bind def
143.86 264.396 o
grestore
0.000 setgray
gsave
170.860000 259.146250 translate
0.000000 rotate
/DejaVuSans findfont
15.0 scalefont
setfont
0.000000 0.609375 moveto
/S glyphshow

9.521484 0.609375 moveto
/T glyphshow

18.684082 0.609375 moveto
/B glyphshow

28.974609 0.609375 moveto
/comma glyphshow

33.742676 0.609375 moveto
/space glyphshow

38.510742 0.609375 moveto
/three glyphshow

48.054199 0.609375 moveto
/zero glyphshow

/DejaVuSans-Oblique findfont
15.0 scalefont
setfont
57.597656 0.609375 moveto
/delta glyphshow

66.774902 0.609375 moveto
/t glyphshow

/DejaVuSans findfont
15.0 scalefont
setfont
72.656250 0.609375 moveto
/comma glyphshow

77.424316 0.609375 moveto
/space glyphshow

82.192383 0.609375 moveto
/P glyphshow

91.237793 0.609375 moveto
/a glyphshow

100.429688 0.609375 moveto
/r glyphshow

106.596680 0.609375 moveto
/t glyphshow

112.478027 0.609375 moveto
/i glyphshow

116.645508 0.609375 moveto
/c glyphshow

124.892578 0.609375 moveto
/l glyphshow

129.060059 0.609375 moveto
/e glyphshow

138.288574 0.609375 moveto
/s glyphshow


grestore
3.000 setlinewidth
1 setlinejoin
2 setlinecap
0.000 0.000 1.000 setrgbcolor
gsave
128.86 242.380625 m
158.86 242.380625 l
stroke
grestore
1.000 setlinewidth
0 setlinejoin
0 setlinecap
gsave
/o {
gsave
newpath
translate
1.0 setlinewidth
0 setlinejoin
0 setlinecap
0 10 m
-10 -10 l
10 -10 l
cl

gsave
grestore
stroke
grestore
} bind def
143.86 242.381 o
grestore
0.000 setgray
gsave
170.860000 237.130625 translate
0.000000 rotate
/DejaVuSans findfont
15.0 scalefont
setfont
0.000000 0.609375 moveto
/O glyphshow

11.806641 0.609375 moveto
/u glyphshow

21.313477 0.609375 moveto
/r glyphshow

27.480469 0.609375 moveto
/s glyphshow

35.295410 0.609375 moveto
/comma glyphshow

40.063477 0.609375 moveto
/space glyphshow

44.831543 0.609375 moveto
/three glyphshow

54.375000 0.609375 moveto
/zero glyphshow

/DejaVuSans-Oblique findfont
15.0 scalefont
setfont
63.918457 0.609375 moveto
/delta glyphshow

73.095703 0.609375 moveto
/t glyphshow

/DejaVuSans findfont
15.0 scalefont
setfont
78.977051 0.609375 moveto
/comma glyphshow

83.745117 0.609375 moveto
/space glyphshow

88.513184 0.609375 moveto
/T glyphshow

97.675781 0.609375 moveto
/r glyphshow

103.842773 0.609375 moveto
/a glyphshow

113.034668 0.609375 moveto
/c glyphshow

121.281738 0.609375 moveto
/k glyphshow

129.968262 0.609375 moveto
/s glyphshow


grestore
3.000 setlinewidth
1 setlinejoin
[11.1 4.8] 0 setdash
0.000 0.000 1.000 setrgbcolor
gsave
128.86 220.365 m
158.86 220.365 l
stroke
grestore
1.000 setlinewidth
0 setlinejoin
[] 0 setdash
gsave
/o {
gsave
newpath
translate
1.0 setlinewidth
0 setlinejoin
0 setlinecap
0 10 m
-10 -10 l
10 -10 l
cl

gsave
grestore
stroke
grestore
} bind def
143.86 220.365 o
grestore
0.000 setgray
gsave
170.860000 215.115000 translate
0.000000 rotate
/DejaVuSans findfont
15.0 scalefont
setfont
0.000000 0.609375 moveto
/O glyphshow

11.806641 0.609375 moveto
/u glyphshow

21.313477 0.609375 moveto
/r glyphshow

27.480469 0.609375 moveto
/s glyphshow

35.295410 0.609375 moveto
/comma glyphshow

40.063477 0.609375 moveto
/space glyphshow

44.831543 0.609375 moveto
/three glyphshow

54.375000 0.609375 moveto
/zero glyphshow

/DejaVuSans-Oblique findfont
15.0 scalefont
setfont
63.918457 0.609375 moveto
/delta glyphshow

73.095703 0.609375 moveto
/t glyphshow

/DejaVuSans findfont
15.0 scalefont
setfont
78.977051 0.609375 moveto
/comma glyphshow

83.745117 0.609375 moveto
/space glyphshow

88.513184 0.609375 moveto
/P glyphshow

97.558594 0.609375 moveto
/a glyphshow

106.750488 0.609375 moveto
/r glyphshow

112.917480 0.609375 moveto
/t glyphshow

118.798828 0.609375 moveto
/i glyphshow

122.966309 0.609375 moveto
/c glyphshow

131.213379 0.609375 moveto
/l glyphshow

135.380859 0.609375 moveto
/e glyphshow

144.609375 0.609375 moveto
/s glyphshow


grestore

end
showpage
