%!PS-Adobe-3.0 EPSF-3.0
%%Title: /home/yin/010000_totalghost.eps
%%Creator: matplotlib version 3.1.0, http://matplotlib.org/
%%CreationDate: Mon Jan 13 15:49:08 2020
%%Orientation: portrait
%%BoundingBox: -126.0 72.0 738.0 720.0
%%EndComments
%%BeginProlog
/mpldict 9 dict def
mpldict begin
/m { moveto } bind def
/l { lineto } bind def
/r { rlineto } bind def
/c { curveto } bind def
/cl { closepath } bind def
/box {
m
1 index 0 r
0 exch r
neg 0 r
cl
} bind def
/clipbox {
box
clip
newpath
} bind def
%!PS-Adobe-3.0 Resource-Font
%%Title: DejaVu Sans
%%Copyright: Copyright (c) 2003 by Bitstream, Inc. All Rights Reserved. Copyright (c) 2006 by Tavmjong Bah. All Rights Reserved. DejaVu changes are in public domain 
%%Creator: Converted from TrueType to type 3 by PPR
25 dict begin
/_d{bind def}bind def
/_m{moveto}_d
/_l{lineto}_d
/_cl{closepath eofill}_d
/_c{curveto}_d
/_sc{7 -1 roll{setcachedevice}{pop pop pop pop pop pop}ifelse}_d
/_e{exec}_d
/FontName /DejaVuSans def
/PaintType 0 def
/FontMatrix[.001 0 0 .001 0 0]def
/FontBBox[-1021 -463 1793 1232]def
/FontType 3 def
/Encoding [ /space /comma /period /zero /one /two /three /four /five /seven /B /F /O /S /T /a /c /e /f /g /h /i /l /n /o /p /r /s /t /u /minus ] def
/FontInfo 10 dict dup begin
/FamilyName (DejaVu Sans) def
/FullName (DejaVu Sans) def
/Notice (Copyright (c) 2003 by Bitstream, Inc. All Rights Reserved. Copyright (c) 2006 by Tavmjong Bah. All Rights Reserved. DejaVu changes are in public domain ) def
/Weight (Book) def
/Version (Version 2.35) def
/ItalicAngle 0.0 def
/isFixedPitch false def
/UnderlinePosition -130 def
/UnderlineThickness 90 def
end readonly def
/CharStrings 32 dict dup begin
/.notdef 0 def
/space{318 0 0 0 0 0 _sc
}_d
/comma{318 0 77 -115 220 124 _sc
117 124 _m
220 124 _l
220 40 _l
140 -115 _l
77 -115 _l
117 40 _l
117 124 _l
_cl}_d
/period{318 0 107 0 210 124 _sc
107 124 _m
210 124 _l
210 0 _l
107 0 _l
107 124 _l
_cl}_d
/zero{636 0 66 -13 570 742 _sc
318 664 _m
267 664 229 639 203 589 _c
177 539 165 464 165 364 _c
165 264 177 189 203 139 _c
229 89 267 64 318 64 _c
369 64 407 89 433 139 _c
458 189 471 264 471 364 _c
471 464 458 539 433 589 _c
407 639 369 664 318 664 _c
318 742 _m
399 742 461 709 505 645 _c
548 580 570 486 570 364 _c
570 241 548 147 505 83 _c
461 19 399 -13 318 -13 _c
236 -13 173 19 130 83 _c
87 147 66 241 66 364 _c
66 486 87 580 130 645 _c
173 709 236 742 318 742 _c
_cl}_d
/one{636 0 110 0 544 729 _sc
124 83 _m
285 83 _l
285 639 _l
110 604 _l
110 694 _l
284 729 _l
383 729 _l
383 83 _l
544 83 _l
544 0 _l
124 0 _l
124 83 _l
_cl}_d
/two{{636 0 73 0 536 742 _sc
192 83 _m
536 83 _l
536 0 _l
73 0 _l
73 83 _l
110 121 161 173 226 239 _c
290 304 331 346 348 365 _c
380 400 402 430 414 455 _c
426 479 433 504 433 528 _c
433 566 419 598 392 622 _c
365 646 330 659 286 659 _c
255 659 222 653 188 643 _c
154 632 117 616 78 594 _c
78 694 _l
118 710 155 722 189 730 _c
223 738 255 742 284 742 _c
}_e{359 742 419 723 464 685 _c
509 647 532 597 532 534 _c
532 504 526 475 515 449 _c
504 422 484 390 454 354 _c
446 344 420 317 376 272 _c
332 227 271 164 192 83 _c
_cl}_e}_d
/three{{636 0 76 -13 556 742 _sc
406 393 _m
453 383 490 362 516 330 _c
542 298 556 258 556 212 _c
556 140 531 84 482 45 _c
432 6 362 -13 271 -13 _c
240 -13 208 -10 176 -4 _c
144 1 110 10 76 22 _c
76 117 _l
103 101 133 89 166 81 _c
198 73 232 69 268 69 _c
330 69 377 81 409 105 _c
441 129 458 165 458 212 _c
458 254 443 288 413 312 _c
383 336 341 349 287 349 _c
}_e{202 349 _l
202 430 _l
291 430 _l
339 430 376 439 402 459 _c
428 478 441 506 441 543 _c
441 580 427 609 401 629 _c
374 649 336 659 287 659 _c
260 659 231 656 200 650 _c
169 644 135 635 98 623 _c
98 711 _l
135 721 170 729 203 734 _c
235 739 266 742 296 742 _c
370 742 429 725 473 691 _c
517 657 539 611 539 553 _c
539 513 527 479 504 451 _c
481 423 448 403 406 393 _c
_cl}_e}_d
/four{636 0 49 0 580 729 _sc
378 643 _m
129 254 _l
378 254 _l
378 643 _l
352 729 _m
476 729 _l
476 254 _l
580 254 _l
580 172 _l
476 172 _l
476 0 _l
378 0 _l
378 172 _l
49 172 _l
49 267 _l
352 729 _l
_cl}_d
/five{{636 0 77 -13 549 729 _sc
108 729 _m
495 729 _l
495 646 _l
198 646 _l
198 467 _l
212 472 227 476 241 478 _c
255 480 270 482 284 482 _c
365 482 429 459 477 415 _c
525 370 549 310 549 234 _c
549 155 524 94 475 51 _c
426 8 357 -13 269 -13 _c
238 -13 207 -10 175 -6 _c
143 -1 111 6 77 17 _c
77 116 _l
106 100 136 88 168 80 _c
199 72 232 69 267 69 _c
}_e{323 69 368 83 401 113 _c
433 143 450 183 450 234 _c
450 284 433 324 401 354 _c
368 384 323 399 267 399 _c
241 399 214 396 188 390 _c
162 384 135 375 108 363 _c
108 729 _l
_cl}_e}_d
/seven{636 0 82 0 551 729 _sc
82 729 _m
551 729 _l
551 687 _l
286 0 _l
183 0 _l
432 646 _l
82 646 _l
82 729 _l
_cl}_d
/B{{686 0 98 0 615 729 _sc
197 348 _m
197 81 _l
355 81 _l
408 81 447 92 473 114 _c
498 136 511 169 511 215 _c
511 260 498 293 473 315 _c
447 337 408 348 355 348 _c
197 348 _l
197 648 _m
197 428 _l
343 428 _l
391 428 426 437 450 455 _c
474 473 486 500 486 538 _c
486 574 474 602 450 620 _c
426 638 391 648 343 648 _c
197 648 _l
98 729 _m
350 729 _l
}_e{425 729 483 713 524 682 _c
564 650 585 606 585 549 _c
585 504 574 468 553 442 _c
532 416 502 399 462 393 _c
510 382 548 360 575 327 _c
601 294 615 253 615 204 _c
615 138 592 88 548 53 _c
504 17 441 0 360 0 _c
98 0 _l
98 729 _l
_cl}_e}_d
/F{575 0 98 0 517 729 _sc
98 729 _m
517 729 _l
517 646 _l
197 646 _l
197 431 _l
486 431 _l
486 348 _l
197 348 _l
197 0 _l
98 0 _l
98 729 _l
_cl}_d
/O{787 0 56 -13 731 742 _sc
394 662 _m
322 662 265 635 223 582 _c
181 528 160 456 160 364 _c
160 272 181 199 223 146 _c
265 92 322 66 394 66 _c
465 66 522 92 564 146 _c
606 199 627 272 627 364 _c
627 456 606 528 564 582 _c
522 635 465 662 394 662 _c
394 742 _m
496 742 577 707 639 639 _c
700 571 731 479 731 364 _c
731 248 700 157 639 89 _c
577 21 496 -13 394 -13 _c
291 -13 209 21 148 89 _c
86 157 56 248 56 364 _c
56 479 86 571 148 639 _c
209 707 291 742 394 742 _c
_cl}_d
/S{{635 0 66 -13 579 742 _sc
535 705 _m
535 609 _l
497 627 462 640 429 649 _c
395 657 363 662 333 662 _c
279 662 237 651 208 631 _c
179 610 165 580 165 542 _c
165 510 174 485 194 469 _c
213 452 250 439 304 429 _c
364 417 _l
437 403 491 378 526 343 _c
561 307 579 260 579 201 _c
579 130 555 77 508 41 _c
460 5 391 -13 300 -13 _c
265 -13 228 -9 189 -2 _c
}_e{150 5 110 16 69 32 _c
69 134 _l
109 111 148 94 186 83 _c
224 71 262 66 300 66 _c
356 66 399 77 430 99 _c
460 121 476 152 476 194 _c
476 230 465 258 443 278 _c
421 298 385 313 335 323 _c
275 335 _l
201 349 148 372 115 404 _c
82 435 66 478 66 534 _c
66 598 88 649 134 686 _c
179 723 242 742 322 742 _c
356 742 390 739 426 733 _c
461 727 497 717 535 705 _c
}_e{_cl}_e}_d
/T{611 0 -2 0 614 729 _sc
-2 729 _m
614 729 _l
614 646 _l
355 646 _l
355 0 _l
256 0 _l
256 646 _l
-2 646 _l
-2 729 _l
_cl}_d
/a{{613 0 60 -13 522 560 _sc
343 275 _m
270 275 220 266 192 250 _c
164 233 150 205 150 165 _c
150 133 160 107 181 89 _c
202 70 231 61 267 61 _c
317 61 357 78 387 114 _c
417 149 432 196 432 255 _c
432 275 _l
343 275 _l
522 312 _m
522 0 _l
432 0 _l
432 83 _l
411 49 385 25 355 10 _c
325 -5 287 -13 243 -13 _c
187 -13 142 2 109 33 _c
76 64 60 106 60 159 _c
}_e{60 220 80 266 122 298 _c
163 329 224 345 306 345 _c
432 345 _l
432 354 _l
432 395 418 427 391 450 _c
364 472 326 484 277 484 _c
245 484 215 480 185 472 _c
155 464 127 453 100 439 _c
100 522 _l
132 534 164 544 195 550 _c
226 556 256 560 286 560 _c
365 560 424 539 463 498 _c
502 457 522 395 522 312 _c
_cl}_e}_d
/c{{550 0 55 -13 488 560 _sc
488 526 _m
488 442 _l
462 456 437 466 411 473 _c
385 480 360 484 334 484 _c
276 484 230 465 198 428 _c
166 391 150 339 150 273 _c
150 206 166 154 198 117 _c
230 80 276 62 334 62 _c
360 62 385 65 411 72 _c
437 79 462 90 488 104 _c
488 21 _l
462 9 436 0 410 -5 _c
383 -10 354 -13 324 -13 _c
242 -13 176 12 128 64 _c
}_e{79 115 55 185 55 273 _c
55 362 79 432 128 483 _c
177 534 244 560 330 560 _c
358 560 385 557 411 551 _c
437 545 463 537 488 526 _c
_cl}_e}_d
/e{{615 0 55 -13 562 560 _sc
562 296 _m
562 252 _l
149 252 _l
153 190 171 142 205 110 _c
238 78 284 62 344 62 _c
378 62 412 66 444 74 _c
476 82 509 95 541 113 _c
541 28 _l
509 14 476 3 442 -3 _c
408 -9 373 -13 339 -13 _c
251 -13 182 12 131 62 _c
80 112 55 181 55 268 _c
55 357 79 428 127 481 _c
175 533 241 560 323 560 _c
397 560 455 536 498 489 _c
}_e{540 441 562 377 562 296 _c
472 322 _m
471 371 457 410 431 440 _c
404 469 368 484 324 484 _c
274 484 234 469 204 441 _c
174 413 156 373 152 322 _c
472 322 _l
_cl}_e}_d
/f{352 0 23 0 371 760 _sc
371 760 _m
371 685 _l
285 685 _l
253 685 230 678 218 665 _c
205 652 199 629 199 595 _c
199 547 _l
347 547 _l
347 477 _l
199 477 _l
199 0 _l
109 0 _l
109 477 _l
23 477 _l
23 547 _l
109 547 _l
109 585 _l
109 645 123 690 151 718 _c
179 746 224 760 286 760 _c
371 760 _l
_cl}_d
/g{{635 0 55 -207 544 560 _sc
454 280 _m
454 344 440 395 414 431 _c
387 467 349 485 301 485 _c
253 485 215 467 188 431 _c
161 395 148 344 148 280 _c
148 215 161 165 188 129 _c
215 93 253 75 301 75 _c
349 75 387 93 414 129 _c
440 165 454 215 454 280 _c
544 68 _m
544 -24 523 -93 482 -139 _c
440 -184 377 -207 292 -207 _c
260 -207 231 -204 203 -200 _c
175 -195 147 -188 121 -178 _c
}_e{121 -91 _l
147 -105 173 -115 199 -122 _c
225 -129 251 -133 278 -133 _c
336 -133 380 -117 410 -87 _c
439 -56 454 -10 454 52 _c
454 96 _l
435 64 411 40 382 24 _c
353 8 319 0 279 0 _c
211 0 157 25 116 76 _c
75 127 55 195 55 280 _c
55 364 75 432 116 483 _c
157 534 211 560 279 560 _c
319 560 353 552 382 536 _c
411 520 435 496 454 464 _c
454 547 _l
544 547 _l
}_e{544 68 _l
_cl}_e}_d
/h{634 0 91 0 549 760 _sc
549 330 _m
549 0 _l
459 0 _l
459 327 _l
459 379 448 417 428 443 _c
408 469 378 482 338 482 _c
289 482 251 466 223 435 _c
195 404 181 362 181 309 _c
181 0 _l
91 0 _l
91 760 _l
181 760 _l
181 462 _l
202 494 227 519 257 535 _c
286 551 320 560 358 560 _c
420 560 468 540 500 501 _c
532 462 549 405 549 330 _c
_cl}_d
/i{278 0 94 0 184 760 _sc
94 547 _m
184 547 _l
184 0 _l
94 0 _l
94 547 _l
94 760 _m
184 760 _l
184 646 _l
94 646 _l
94 760 _l
_cl}_d
/l{278 0 94 0 184 760 _sc
94 760 _m
184 760 _l
184 0 _l
94 0 _l
94 760 _l
_cl}_d
/n{634 0 91 0 549 560 _sc
549 330 _m
549 0 _l
459 0 _l
459 327 _l
459 379 448 417 428 443 _c
408 469 378 482 338 482 _c
289 482 251 466 223 435 _c
195 404 181 362 181 309 _c
181 0 _l
91 0 _l
91 547 _l
181 547 _l
181 462 _l
202 494 227 519 257 535 _c
286 551 320 560 358 560 _c
420 560 468 540 500 501 _c
532 462 549 405 549 330 _c
_cl}_d
/o{612 0 55 -13 557 560 _sc
306 484 _m
258 484 220 465 192 427 _c
164 389 150 338 150 273 _c
150 207 163 156 191 118 _c
219 80 257 62 306 62 _c
354 62 392 80 420 118 _c
448 156 462 207 462 273 _c
462 337 448 389 420 427 _c
392 465 354 484 306 484 _c
306 560 _m
384 560 445 534 490 484 _c
534 433 557 363 557 273 _c
557 183 534 113 490 63 _c
445 12 384 -13 306 -13 _c
227 -13 165 12 121 63 _c
77 113 55 183 55 273 _c
55 363 77 433 121 484 _c
165 534 227 560 306 560 _c
_cl}_d
/p{{635 0 91 -207 580 560 _sc
181 82 _m
181 -207 _l
91 -207 _l
91 547 _l
181 547 _l
181 464 _l
199 496 223 520 252 536 _c
281 552 316 560 356 560 _c
422 560 476 533 518 481 _c
559 428 580 359 580 273 _c
580 187 559 117 518 65 _c
476 13 422 -13 356 -13 _c
316 -13 281 -5 252 10 _c
223 25 199 49 181 82 _c
487 273 _m
487 339 473 390 446 428 _c
418 466 381 485 334 485 _c
}_e{286 485 249 466 222 428 _c
194 390 181 339 181 273 _c
181 207 194 155 222 117 _c
249 79 286 61 334 61 _c
381 61 418 79 446 117 _c
473 155 487 207 487 273 _c
_cl}_e}_d
/r{411 0 91 0 411 560 _sc
411 463 _m
401 469 390 473 378 476 _c
366 478 353 480 339 480 _c
288 480 249 463 222 430 _c
194 397 181 350 181 288 _c
181 0 _l
91 0 _l
91 547 _l
181 547 _l
181 462 _l
199 495 224 520 254 536 _c
284 552 321 560 365 560 _c
371 560 378 559 386 559 _c
393 558 401 557 411 555 _c
411 463 _l
_cl}_d
/s{{521 0 54 -13 472 560 _sc
443 531 _m
443 446 _l
417 458 391 468 364 475 _c
336 481 308 485 279 485 _c
234 485 200 478 178 464 _c
156 450 145 430 145 403 _c
145 382 153 366 169 354 _c
185 342 217 330 265 320 _c
296 313 _l
360 299 405 279 432 255 _c
458 230 472 195 472 151 _c
472 100 452 60 412 31 _c
372 1 316 -13 246 -13 _c
216 -13 186 -10 154 -5 _c
}_e{122 0 89 8 54 20 _c
54 113 _l
87 95 120 82 152 74 _c
184 65 216 61 248 61 _c
290 61 323 68 346 82 _c
368 96 380 117 380 144 _c
380 168 371 187 355 200 _c
339 213 303 226 247 238 _c
216 245 _l
160 257 119 275 95 299 _c
70 323 58 356 58 399 _c
58 450 76 490 112 518 _c
148 546 200 560 268 560 _c
301 560 332 557 362 552 _c
391 547 418 540 443 531 _c
}_e{_cl}_e}_d
/t{392 0 27 0 368 702 _sc
183 702 _m
183 547 _l
368 547 _l
368 477 _l
183 477 _l
183 180 _l
183 135 189 106 201 94 _c
213 81 238 75 276 75 _c
368 75 _l
368 0 _l
276 0 _l
206 0 158 13 132 39 _c
106 65 93 112 93 180 _c
93 477 _l
27 477 _l
27 547 _l
93 547 _l
93 702 _l
183 702 _l
_cl}_d
/u{634 0 85 -13 543 560 _sc
85 216 _m
85 547 _l
175 547 _l
175 219 _l
175 167 185 129 205 103 _c
225 77 255 64 296 64 _c
344 64 383 79 411 110 _c
439 141 453 183 453 237 _c
453 547 _l
543 547 _l
543 0 _l
453 0 _l
453 84 _l
431 50 405 26 377 10 _c
348 -5 315 -13 277 -13 _c
214 -13 166 6 134 45 _c
101 83 85 140 85 216 _c
311 560 _m
311 560 _l
_cl}_d
/minus{838 0 106 272 732 355 _sc
106 355 _m
732 355 _l
732 272 _l
106 272 _l
106 355 _l
_cl}_d
end readonly def

/BuildGlyph
 {exch begin
 CharStrings exch
 2 copy known not{pop /.notdef}if
 true 3 1 roll get exec
 end}_d

/BuildChar {
 1 index /Encoding get exch get
 1 index /BuildGlyph get exec
}_d

FontName currentdict end definefont pop
%!PS-Adobe-3.0 Resource-Font
%%Title: DejaVu Sans Oblique
%%Copyright: Copyright (c) 2003 by Bitstream, Inc. All Rights Reserved. Copyright (c) 2006 by Tavmjong Bah. All Rights Reserved. DejaVu changes are in public domain 
%%Creator: Converted from TrueType to type 3 by PPR
25 dict begin
/_d{bind def}bind def
/_m{moveto}_d
/_l{lineto}_d
/_cl{closepath eofill}_d
/_c{curveto}_d
/_sc{7 -1 roll{setcachedevice}{pop pop pop pop pop pop}ifelse}_d
/_e{exec}_d
/FontName /DejaVuSans-Oblique def
/PaintType 0 def
/FontMatrix[.001 0 0 .001 0 0]def
/FontBBox[-1016 -350 1659 1068]def
/FontType 3 def
/Encoding [ /t /delta ] def
/FontInfo 10 dict dup begin
/FamilyName (DejaVu Sans) def
/FullName (DejaVu Sans Oblique) def
/Notice (Copyright (c) 2003 by Bitstream, Inc. All Rights Reserved. Copyright (c) 2006 by Tavmjong Bah. All Rights Reserved. DejaVu changes are in public domain ) def
/Weight (Oblique) def
/Version (Version 2.35) def
/ItalicAngle -11.0 def
/isFixedPitch false def
/UnderlinePosition -130 def
/UnderlineThickness 90 def
end readonly def
/CharStrings 3 dict dup begin
/.notdef 0 def
/t{{392 0 64 0 423 702 _sc
423 547 _m
409 477 _l
230 477 _l
172 180 _l
170 169 168 160 167 152 _c
166 144 166 139 166 135 _c
166 114 172 99 185 89 _c
197 79 217 75 245 75 _c
336 75 _l
321 0 _l
235 0 _l
181 0 141 10 115 31 _c
89 52 76 84 76 126 _c
76 133 76 141 77 150 _c
78 159 80 169 82 180 _c
140 477 _l
64 477 _l
78 547 _l
153 547 _l
183 702 _l
}_e{273 702 _l
243 547 _l
423 547 _l
_cl}_e}_d
/delta{{612 0 38 -13 557 742 _sc
542 633 _m
514 655 461 667 383 667 _c
300 667 255 648 248 610 _c
242 580 280 557 364 542 _c
428 530 476 505 508 469 _c
546 425 556 358 539 268 _c
521 182 486 113 432 63 _c
377 12 310 -13 232 -13 _c
154 -13 98 12 63 63 _c
28 113 20 183 38 273 _c
50 339 84 399 139 453 _c
160 473 184 490 211 502 _c
165 528 147 563 156 609 _c
}_e{173 697 253 742 397 742 _c
469 742 522 730 557 708 _c
542 633 _l
274 478 _m
250 468 226 451 204 428 _c
168 391 144 339 132 273 _c
119 207 123 155 144 118 _c
164 80 199 62 248 62 _c
295 62 336 81 372 119 _c
407 156 431 206 443 268 _c
455 332 450 380 427 412 _c
401 445 369 464 329 468 _c
308 470 290 473 274 478 _c
_cl}_e}_d
end readonly def

/BuildGlyph
 {exch begin
 CharStrings exch
 2 copy known not{pop /.notdef}if
 true 3 1 roll get exec
 end}_d

/BuildChar {
 1 index /Encoding get exch get
 1 index /BuildGlyph get exec
}_d

FontName currentdict end definefont pop
end
%%EndProlog
mpldict begin
-126 72 translate
864 648 0 0 clipbox
gsave
0 0 m
864 0 l
864 648 l
0 648 l
cl
1.000 setgray
fill
grestore
gsave
108 71.28 m
777.6 71.28 l
777.6 570.24 l
108 570.24 l
cl
1.000 setgray
fill
grestore
0.800 setlinewidth
1 setlinejoin
0 setlinecap
[] 0 setdash
0.000 setgray
gsave
/o {
gsave
newpath
translate
0.8 setlinewidth
1 setlinejoin
0 setlinecap
0 0 m
0 -3.5 l

gsave
0.000 setgray
fill
grestore
stroke
grestore
} bind def
108 71.28 o
grestore
/DejaVuSans findfont
24.000 scalefont
setfont
gsave
100.367188 46.045625 translate
0.000000 rotate
0.000000 0.000000 m /five glyphshow
grestore
gsave
/o {
gsave
newpath
translate
0.8 setlinewidth
1 setlinejoin
0 setlinecap
0 0 m
0 -3.5 l

gsave
0.000 setgray
fill
grestore
stroke
grestore
} bind def
185.86 71.28 o
grestore
gsave
170.594840 46.045625 translate
0.000000 rotate
0.000000 0.000000 m /one glyphshow
15.269531 0.000000 m /zero glyphshow
grestore
gsave
/o {
gsave
newpath
translate
0.8 setlinewidth
1 setlinejoin
0 setlinecap
0 0 m
0 -3.5 l

gsave
0.000 setgray
fill
grestore
stroke
grestore
} bind def
263.721 71.28 o
grestore
gsave
248.455305 46.045625 translate
0.000000 rotate
0.000000 0.000000 m /one glyphshow
15.269531 0.000000 m /five glyphshow
grestore
gsave
/o {
gsave
newpath
translate
0.8 setlinewidth
1 setlinejoin
0 setlinecap
0 0 m
0 -3.5 l

gsave
0.000 setgray
fill
grestore
stroke
grestore
} bind def
341.581 71.28 o
grestore
gsave
326.315770 46.045625 translate
0.000000 rotate
0.000000 0.000000 m /two glyphshow
15.269531 0.000000 m /zero glyphshow
grestore
gsave
/o {
gsave
newpath
translate
0.8 setlinewidth
1 setlinejoin
0 setlinecap
0 0 m
0 -3.5 l

gsave
0.000 setgray
fill
grestore
stroke
grestore
} bind def
419.442 71.28 o
grestore
gsave
404.176235 46.045625 translate
0.000000 rotate
0.000000 0.000000 m /two glyphshow
15.269531 0.000000 m /five glyphshow
grestore
gsave
/o {
gsave
newpath
translate
0.8 setlinewidth
1 setlinejoin
0 setlinecap
0 0 m
0 -3.5 l

gsave
0.000 setgray
fill
grestore
stroke
grestore
} bind def
497.302 71.28 o
grestore
gsave
482.036701 46.045625 translate
0.000000 rotate
0.000000 0.000000 m /three glyphshow
15.269531 0.000000 m /zero glyphshow
grestore
gsave
/o {
gsave
newpath
translate
0.8 setlinewidth
1 setlinejoin
0 setlinecap
0 0 m
0 -3.5 l

gsave
0.000 setgray
fill
grestore
stroke
grestore
} bind def
575.163 71.28 o
grestore
gsave
559.897166 46.045625 translate
0.000000 rotate
0.000000 0.000000 m /three glyphshow
15.269531 0.000000 m /five glyphshow
grestore
gsave
/o {
gsave
newpath
translate
0.8 setlinewidth
1 setlinejoin
0 setlinecap
0 0 m
0 -3.5 l

gsave
0.000 setgray
fill
grestore
stroke
grestore
} bind def
653.023 71.28 o
grestore
gsave
637.757631 46.045625 translate
0.000000 rotate
0.000000 0.000000 m /four glyphshow
15.269531 0.000000 m /zero glyphshow
grestore
gsave
/o {
gsave
newpath
translate
0.8 setlinewidth
1 setlinejoin
0 setlinecap
0 0 m
0 -3.5 l

gsave
0.000 setgray
fill
grestore
stroke
grestore
} bind def
730.884 71.28 o
grestore
gsave
715.618096 46.045625 translate
0.000000 rotate
0.000000 0.000000 m /four glyphshow
15.269531 0.000000 m /five glyphshow
grestore
gsave
380.448438 18.811250 translate
0.000000 rotate
0.000000 0.000000 m /S glyphshow
15.234375 0.000000 m /n glyphshow
30.445312 0.000000 m /a glyphshow
45.152344 0.000000 m /p glyphshow
60.386719 0.000000 m /s glyphshow
72.890625 0.000000 m /h glyphshow
88.101562 0.000000 m /o glyphshow
102.785156 0.000000 m /t glyphshow
112.195312 0.000000 m /s glyphshow
grestore
gsave
/o {
gsave
newpath
translate
0.8 setlinewidth
1 setlinejoin
0 setlinecap
0 0 m
-3.5 0 l

gsave
0.000 setgray
fill
grestore
stroke
grestore
} bind def
108 93.96 o
grestore
gsave
44.000000 84.842813 translate
0.000000 rotate
/DejaVuSans findfont
24.0 scalefont
setfont
0.000000 0.562500 moveto
/one glyphshow

15.269531 0.562500 moveto
/zero glyphshow

/DejaVuSans findfont
16.799999999999997 scalefont
setfont
30.768750 9.750000 moveto
/minus glyphshow

44.845312 9.750000 moveto
/four glyphshow


grestore
gsave
/o {
gsave
newpath
translate
0.8 setlinewidth
1 setlinejoin
0 setlinecap
0 0 m
-3.5 0 l

gsave
0.000 setgray
fill
grestore
stroke
grestore
} bind def
108 233.564 o
grestore
gsave
44.000000 224.446478 translate
0.000000 rotate
/DejaVuSans findfont
24.0 scalefont
setfont
0.000000 0.343750 moveto
/one glyphshow

15.269531 0.343750 moveto
/zero glyphshow

/DejaVuSans findfont
16.799999999999997 scalefont
setfont
30.768750 9.531250 moveto
/minus glyphshow

44.845312 9.531250 moveto
/three glyphshow


grestore
gsave
/o {
gsave
newpath
translate
0.8 setlinewidth
1 setlinejoin
0 setlinecap
0 0 m
-3.5 0 l

gsave
0.000 setgray
fill
grestore
stroke
grestore
} bind def
108 373.167 o
grestore
gsave
44.000000 364.050143 translate
0.000000 rotate
/DejaVuSans findfont
24.0 scalefont
setfont
0.000000 0.343750 moveto
/one glyphshow

15.269531 0.343750 moveto
/zero glyphshow

/DejaVuSans findfont
16.799999999999997 scalefont
setfont
30.768750 9.531250 moveto
/minus glyphshow

44.845312 9.531250 moveto
/two glyphshow


grestore
gsave
/o {
gsave
newpath
translate
0.8 setlinewidth
1 setlinejoin
0 setlinecap
0 0 m
-3.5 0 l

gsave
0.000 setgray
fill
grestore
stroke
grestore
} bind def
108 512.771 o
grestore
gsave
44.000000 503.653808 translate
0.000000 rotate
/DejaVuSans findfont
24.0 scalefont
setfont
0.000000 0.562500 moveto
/one glyphshow

15.269531 0.562500 moveto
/zero glyphshow

/DejaVuSans findfont
16.799999999999997 scalefont
setfont
30.768750 9.750000 moveto
/minus glyphshow

44.845312 9.750000 moveto
/one glyphshow


grestore
0.600 setlinewidth
gsave
/o {
gsave
newpath
translate
0.6 setlinewidth
1 setlinejoin
0 setlinecap
0 0 m
-2 0 l

gsave
0.000 setgray
fill
grestore
stroke
grestore
} bind def
108 72.3351 o
grestore
gsave
/o {
gsave
newpath
translate
0.6 setlinewidth
1 setlinejoin
0 setlinecap
0 0 m
-2 0 l

gsave
0.000 setgray
fill
grestore
stroke
grestore
} bind def
108 80.431 o
grestore
gsave
/o {
gsave
newpath
translate
0.6 setlinewidth
1 setlinejoin
0 setlinecap
0 0 m
-2 0 l

gsave
0.000 setgray
fill
grestore
stroke
grestore
} bind def
108 87.5721 o
grestore
gsave
/o {
gsave
newpath
translate
0.6 setlinewidth
1 setlinejoin
0 setlinecap
0 0 m
-2 0 l

gsave
0.000 setgray
fill
grestore
stroke
grestore
} bind def
108 135.985 o
grestore
gsave
/o {
gsave
newpath
translate
0.6 setlinewidth
1 setlinejoin
0 setlinecap
0 0 m
-2 0 l

gsave
0.000 setgray
fill
grestore
stroke
grestore
} bind def
108 160.568 o
grestore
gsave
/o {
gsave
newpath
translate
0.6 setlinewidth
1 setlinejoin
0 setlinecap
0 0 m
-2 0 l

gsave
0.000 setgray
fill
grestore
stroke
grestore
} bind def
108 178.01 o
grestore
gsave
/o {
gsave
newpath
translate
0.6 setlinewidth
1 setlinejoin
0 setlinecap
0 0 m
-2 0 l

gsave
0.000 setgray
fill
grestore
stroke
grestore
} bind def
108 191.539 o
grestore
gsave
/o {
gsave
newpath
translate
0.6 setlinewidth
1 setlinejoin
0 setlinecap
0 0 m
-2 0 l

gsave
0.000 setgray
fill
grestore
stroke
grestore
} bind def
108 202.593 o
grestore
gsave
/o {
gsave
newpath
translate
0.6 setlinewidth
1 setlinejoin
0 setlinecap
0 0 m
-2 0 l

gsave
0.000 setgray
fill
grestore
stroke
grestore
} bind def
108 211.939 o
grestore
gsave
/o {
gsave
newpath
translate
0.6 setlinewidth
1 setlinejoin
0 setlinecap
0 0 m
-2 0 l

gsave
0.000 setgray
fill
grestore
stroke
grestore
} bind def
108 220.035 o
grestore
gsave
/o {
gsave
newpath
translate
0.6 setlinewidth
1 setlinejoin
0 setlinecap
0 0 m
-2 0 l

gsave
0.000 setgray
fill
grestore
stroke
grestore
} bind def
108 227.176 o
grestore
gsave
/o {
gsave
newpath
translate
0.6 setlinewidth
1 setlinejoin
0 setlinecap
0 0 m
-2 0 l

gsave
0.000 setgray
fill
grestore
stroke
grestore
} bind def
108 275.589 o
grestore
gsave
/o {
gsave
newpath
translate
0.6 setlinewidth
1 setlinejoin
0 setlinecap
0 0 m
-2 0 l

gsave
0.000 setgray
fill
grestore
stroke
grestore
} bind def
108 300.172 o
grestore
gsave
/o {
gsave
newpath
translate
0.6 setlinewidth
1 setlinejoin
0 setlinecap
0 0 m
-2 0 l

gsave
0.000 setgray
fill
grestore
stroke
grestore
} bind def
108 317.613 o
grestore
gsave
/o {
gsave
newpath
translate
0.6 setlinewidth
1 setlinejoin
0 setlinecap
0 0 m
-2 0 l

gsave
0.000 setgray
fill
grestore
stroke
grestore
} bind def
108 331.142 o
grestore
gsave
/o {
gsave
newpath
translate
0.6 setlinewidth
1 setlinejoin
0 setlinecap
0 0 m
-2 0 l

gsave
0.000 setgray
fill
grestore
stroke
grestore
} bind def
108 342.196 o
grestore
gsave
/o {
gsave
newpath
translate
0.6 setlinewidth
1 setlinejoin
0 setlinecap
0 0 m
-2 0 l

gsave
0.000 setgray
fill
grestore
stroke
grestore
} bind def
108 351.542 o
grestore
gsave
/o {
gsave
newpath
translate
0.6 setlinewidth
1 setlinejoin
0 setlinecap
0 0 m
-2 0 l

gsave
0.000 setgray
fill
grestore
stroke
grestore
} bind def
108 359.638 o
grestore
gsave
/o {
gsave
newpath
translate
0.6 setlinewidth
1 setlinejoin
0 setlinecap
0 0 m
-2 0 l

gsave
0.000 setgray
fill
grestore
stroke
grestore
} bind def
108 366.779 o
grestore
gsave
/o {
gsave
newpath
translate
0.6 setlinewidth
1 setlinejoin
0 setlinecap
0 0 m
-2 0 l

gsave
0.000 setgray
fill
grestore
stroke
grestore
} bind def
108 415.192 o
grestore
gsave
/o {
gsave
newpath
translate
0.6 setlinewidth
1 setlinejoin
0 setlinecap
0 0 m
-2 0 l

gsave
0.000 setgray
fill
grestore
stroke
grestore
} bind def
108 439.775 o
grestore
gsave
/o {
gsave
newpath
translate
0.6 setlinewidth
1 setlinejoin
0 setlinecap
0 0 m
-2 0 l

gsave
0.000 setgray
fill
grestore
stroke
grestore
} bind def
108 457.217 o
grestore
gsave
/o {
gsave
newpath
translate
0.6 setlinewidth
1 setlinejoin
0 setlinecap
0 0 m
-2 0 l

gsave
0.000 setgray
fill
grestore
stroke
grestore
} bind def
108 470.746 o
grestore
gsave
/o {
gsave
newpath
translate
0.6 setlinewidth
1 setlinejoin
0 setlinecap
0 0 m
-2 0 l

gsave
0.000 setgray
fill
grestore
stroke
grestore
} bind def
108 481.8 o
grestore
gsave
/o {
gsave
newpath
translate
0.6 setlinewidth
1 setlinejoin
0 setlinecap
0 0 m
-2 0 l

gsave
0.000 setgray
fill
grestore
stroke
grestore
} bind def
108 491.146 o
grestore
gsave
/o {
gsave
newpath
translate
0.6 setlinewidth
1 setlinejoin
0 setlinecap
0 0 m
-2 0 l

gsave
0.000 setgray
fill
grestore
stroke
grestore
} bind def
108 499.242 o
grestore
gsave
/o {
gsave
newpath
translate
0.6 setlinewidth
1 setlinejoin
0 setlinecap
0 0 m
-2 0 l

gsave
0.000 setgray
fill
grestore
stroke
grestore
} bind def
108 506.383 o
grestore
gsave
/o {
gsave
newpath
translate
0.6 setlinewidth
1 setlinejoin
0 setlinecap
0 0 m
-2 0 l

gsave
0.000 setgray
fill
grestore
stroke
grestore
} bind def
108 554.796 o
grestore
gsave
35.000000 271.978750 translate
90.000000 rotate
0.000000 0.000000 m /F glyphshow
13.789062 0.000000 m /r glyphshow
23.656250 0.000000 m /a glyphshow
38.363281 0.000000 m /c glyphshow
51.558594 0.000000 m /t glyphshow
60.968750 0.000000 m /i glyphshow
67.636719 0.000000 m /o glyphshow
82.320312 0.000000 m /n glyphshow
grestore
3.000 setlinewidth
2 setlinecap
1.000 0.000 0.000 setrgbcolor
gsave
669.6 499 108 71.28 clipbox
108 191.538775 m
123.572093 202.592767 l
139.144186 191.538775 l
154.716279 191.538775 l
170.288372 191.538775 l
185.860465 191.538775 l
201.432558 191.538775 l
217.004651 191.538775 l
232.576744 191.538775 l
248.148837 191.538775 l
263.72093 191.538775 l
279.293023 191.538775 l
294.865116 191.538775 l
310.437209 191.538775 l
326.009302 191.538775 l
341.581395 202.592767 l
357.153488 202.592767 l
372.725581 191.538775 l
388.297674 191.538775 l
403.869767 191.538775 l
419.44186 191.538775 l
435.013953 191.538775 l
450.586047 202.592767 l
466.15814 191.538775 l
481.730233 202.592767 l
497.302326 191.538775 l
512.874419 191.538775 l
528.446512 202.592767 l
544.018605 220.034672 l
559.590698 191.538775 l
575.162791 191.538775 l
590.734884 191.538775 l
606.306977 191.538775 l
621.87907 202.592767 l
637.451163 211.938784 l
653.023256 191.538775 l
668.595349 202.592767 l
684.167442 191.538775 l
699.739535 202.592767 l
715.311628 191.538775 l
730.883721 202.592767 l
746.455814 202.592767 l
762.027907 211.938784 l
777.6 191.538775 l
stroke
grestore
0.000 0.000 1.000 setrgbcolor
gsave
669.6 499 108 71.28 clipbox
108 239.342236 m
123.572093 227.175752 l
139.144186 227.175752 l
154.716279 227.175752 l
170.288372 227.175752 l
185.860465 220.034672 l
201.432558 220.034672 l
217.004651 220.034672 l
232.576744 220.034672 l
248.148837 220.034672 l
263.72093 220.034672 l
279.293023 220.034672 l
294.865116 211.938784 l
310.437209 211.938784 l
326.009302 211.938784 l
341.581395 220.034672 l
357.153488 220.034672 l
372.725581 220.034672 l
388.297674 202.592767 l
403.869767 202.592767 l
419.44186 191.538775 l
435.013953 178.009782 l
450.586047 178.009782 l
466.15814 160.567876 l
481.730233 178.009782 l
497.302326 160.567876 l
512.874419 160.567876 l
528.446512 160.567876 l
544.018605 178.009782 l
559.590698 160.567876 l
575.162791 191.538775 l
590.734884 160.567876 l
606.306977 191.538775 l
621.87907 178.009782 l
637.451163 160.567876 l
653.023256 178.009782 l
668.595349 160.567876 l
684.167442 160.567876 l
699.739535 160.567876 l
715.311628 160.567876 l
730.883721 160.567876 l
746.455814 160.567876 l
762.027907 160.567876 l
777.6 160.567876 l
stroke
grestore
1.000 0.000 0.000 setrgbcolor
gsave
669.6 499 108 71.28 clipbox
108 160.567876 m
123.572093 160.567876 l
139.144186 160.567876 l
154.716279 178.009782 l
170.288372 191.538775 l
185.860465 191.538775 l
201.432558 191.538775 l
217.004651 178.009782 l
232.576744 178.009782 l
248.148837 160.567876 l
263.72093 178.009782 l
279.293023 178.009782 l
294.865116 178.009782 l
310.437209 160.567876 l
326.009302 191.538775 l
341.581395 160.567876 l
357.153488 178.009782 l
372.725581 160.567876 l
388.297674 178.009782 l
403.869767 178.009782 l
419.44186 178.009782 l
435.013953 191.538775 l
450.586047 160.567876 l
466.15814 160.567876 l
481.730233 160.567876 l
497.302326 178.009782 l
512.874419 160.567876 l
528.446512 178.009782 l
544.018605 178.009782 l
559.590698 202.592767 l
575.162791 191.538775 l
590.734884 178.009782 l
606.306977 160.567876 l
621.87907 160.567876 l
637.451163 178.009782 l
653.023256 191.538775 l
668.595349 178.009782 l
684.167442 191.538775 l
699.739535 191.538775 l
715.311628 191.538775 l
730.883721 178.009782 l
746.455814 191.538775 l
762.027907 178.009782 l
777.6 191.538775 l
stroke
grestore
1.000 setlinewidth
0 setlinejoin
0 setlinecap
gsave
669.6 499 108 71.28 clipbox
/o {
gsave
newpath
translate
1.0 setlinewidth
0 setlinejoin
0 setlinecap
-10 -10 m
10 -10 l
10 10 l
-10 10 l
cl

gsave
grestore
stroke
grestore
} bind def
108 160.568 o
123.572 160.568 o
139.144 160.568 o
154.716 178.01 o
170.288 191.539 o
185.86 191.539 o
201.433 191.539 o
217.005 178.01 o
232.577 178.01 o
248.149 160.568 o
263.721 178.01 o
279.293 178.01 o
294.865 178.01 o
310.437 160.568 o
326.009 191.539 o
341.581 160.568 o
357.153 178.01 o
372.726 160.568 o
388.298 178.01 o
403.87 178.01 o
419.442 178.01 o
435.014 191.539 o
450.586 160.568 o
466.158 160.568 o
481.73 160.568 o
497.302 178.01 o
512.874 160.568 o
528.447 178.01 o
544.019 178.01 o
559.591 202.593 o
575.163 191.539 o
590.735 178.01 o
606.307 160.568 o
621.879 160.568 o
637.451 178.01 o
653.023 191.539 o
668.595 178.01 o
684.167 191.539 o
699.74 191.539 o
715.312 191.539 o
730.884 178.01 o
746.456 191.539 o
762.028 178.01 o
777.6 191.539 o
grestore
3.000 setlinewidth
1 setlinejoin
2 setlinecap
0.000 0.000 1.000 setrgbcolor
gsave
669.6 499 108 71.28 clipbox
108 178.009782 m
123.572093 178.009782 l
139.144186 191.538775 l
154.716279 202.592767 l
170.288372 202.592767 l
185.860465 178.009782 l
201.432558 191.538775 l
217.004651 191.538775 l
232.576744 160.567876 l
248.148837 202.592767 l
263.72093 202.592767 l
279.293023 191.538775 l
294.865116 160.567876 l
310.437209 178.009782 l
326.009302 135.984891 l
341.581395 135.984891 l
357.153488 135.984891 l
372.725581 135.984891 l
388.297674 135.984891 l
403.869767 93.96 l
419.44186 93.96 l
435.013953 160.567876 l
450.586047 160.567876 l
466.15814 135.984891 l
481.730233 135.984891 l
497.302326 93.96 l
512.874419 135.984891 l
528.446512 160.567876 l
544.018605 160.567876 l
559.590698 135.984891 l
575.162791 93.96 l
590.734884 93.96 l
606.306977 135.984891 l
621.87907 160.567876 l
637.451163 93.96 l
653.023256 135.984891 l
668.595349 135.984891 l
684.167442 160.567876 l
699.739535 93.96 l
715.311628 93.96 l
730.883721 93.96 l
730.894356 -1 l
762.007871 -1 m
762.027907 178.009782 l
777.6 135.984891 l
stroke
grestore
1.000 setlinewidth
0 setlinejoin
0 setlinecap
gsave
669.6 499 108 71.28 clipbox
/o {
gsave
newpath
translate
1.0 setlinewidth
0 setlinejoin
0 setlinecap
-10 -10 m
10 -10 l
10 10 l
-10 10 l
cl

gsave
grestore
stroke
grestore
} bind def
108 178.01 o
123.572 178.01 o
139.144 191.539 o
154.716 202.593 o
170.288 202.593 o
185.86 178.01 o
201.433 191.539 o
217.005 191.539 o
232.577 160.568 o
248.149 202.593 o
263.721 202.593 o
279.293 191.539 o
294.865 160.568 o
310.437 178.01 o
326.009 135.985 o
341.581 135.985 o
357.153 135.985 o
372.726 135.985 o
388.298 135.985 o
403.87 93.96 o
419.442 93.96 o
435.014 160.568 o
450.586 160.568 o
466.158 135.985 o
481.73 135.985 o
497.302 93.96 o
512.874 135.985 o
528.447 160.568 o
544.019 160.568 o
559.591 135.985 o
575.163 93.96 o
590.735 93.96 o
606.307 135.985 o
621.879 160.568 o
637.451 93.96 o
653.023 135.985 o
668.595 135.985 o
684.167 160.568 o
699.74 93.96 o
715.312 93.96 o
730.884 93.96 o
730.894 -1 o
762.008 -1 o
762.028 178.01 o
777.6 135.985 o
grestore
3.000 setlinewidth
1 setlinejoin
2 setlinecap
1.000 0.000 0.000 setrgbcolor
gsave
669.6 499 108 71.28 clipbox
108 135.984891 m
123.572093 160.567876 l
139.144186 211.938784 l
154.716279 239.342236 l
170.288372 253.963675 l
185.860465 202.592767 l
201.432558 211.938784 l
217.004651 202.592767 l
232.576744 191.538775 l
248.148837 211.938784 l
263.72093 178.009782 l
279.293023 211.938784 l
294.865116 227.175752 l
310.437209 202.592767 l
326.009302 227.175752 l
341.581395 191.538775 l
357.153488 202.592767 l
372.725581 211.938784 l
388.297674 202.592767 l
403.869767 233.563665 l
419.44186 244.617657 l
435.013953 202.592767 l
450.586047 233.563665 l
466.15814 191.538775 l
481.730233 202.592767 l
497.302326 211.938784 l
512.874419 160.567876 l
528.446512 160.567876 l
544.018605 220.034672 l
559.590698 244.617657 l
575.162791 220.034672 l
590.734884 262.059563 l
606.306977 249.470575 l
621.87907 249.470575 l
637.451163 160.567876 l
653.023256 233.563665 l
668.595349 249.470575 l
684.167442 244.617657 l
699.739535 202.592767 l
715.311628 227.175752 l
730.883721 253.963675 l
746.455814 249.470575 l
762.027907 191.538775 l
777.6 220.034672 l
stroke
grestore
1.000 setlinewidth
0 setlinecap
gsave
669.6 499 108 71.28 clipbox
/o {
gsave
newpath
translate
1.0 setlinewidth
1 setlinejoin
0 setlinecap
0 -10 m
2.652031 -10 5.195799 -8.946337 7.071068 -7.071068 c
8.946337 -5.195799 10 -2.652031 10 0 c
10 2.652031 8.946337 5.195799 7.071068 7.071068 c
5.195799 8.946337 2.652031 10 0 10 c
-2.652031 10 -5.195799 8.946337 -7.071068 7.071068 c
-8.946337 5.195799 -10 2.652031 -10 0 c
-10 -2.652031 -8.946337 -5.195799 -7.071068 -7.071068 c
-5.195799 -8.946337 -2.652031 -10 0 -10 c
cl

gsave
grestore
stroke
grestore
} bind def
108 135.985 o
123.572 160.568 o
139.144 211.939 o
154.716 239.342 o
170.288 253.964 o
185.86 202.593 o
201.433 211.939 o
217.005 202.593 o
232.577 191.539 o
248.149 211.939 o
263.721 178.01 o
279.293 211.939 o
294.865 227.176 o
310.437 202.593 o
326.009 227.176 o
341.581 191.539 o
357.153 202.593 o
372.726 211.939 o
388.298 202.593 o
403.87 233.564 o
419.442 244.618 o
435.014 202.593 o
450.586 233.564 o
466.158 191.539 o
481.73 202.593 o
497.302 211.939 o
512.874 160.568 o
528.447 160.568 o
544.019 220.035 o
559.591 244.618 o
575.163 220.035 o
590.735 262.06 o
606.307 249.471 o
621.879 249.471 o
637.451 160.568 o
653.023 233.564 o
668.595 249.471 o
684.167 244.618 o
699.74 202.593 o
715.312 227.176 o
730.884 253.964 o
746.456 249.471 o
762.028 191.539 o
777.6 220.035 o
grestore
3.000 setlinewidth
2 setlinecap
0.000 0.000 1.000 setrgbcolor
gsave
669.6 499 108 71.28 clipbox
108 227.175752 m
123.572093 220.034672 l
139.144186 211.938784 l
154.716279 227.175752 l
170.288372 244.617657 l
185.860465 191.538775 l
201.432558 233.563665 l
217.004651 244.617657 l
232.576744 211.938784 l
248.148837 233.563665 l
263.72093 265.735179 l
279.293023 244.617657 l
294.865116 262.059563 l
310.437209 220.034672 l
326.009302 244.617657 l
341.581395 220.034672 l
357.153488 220.034672 l
372.725581 278.54666 l
388.297674 239.342236 l
403.869767 265.735179 l
419.44186 258.14665 l
435.013953 262.059563 l
450.586047 262.059563 l
466.15814 233.563665 l
481.730233 244.617657 l
497.302326 253.963675 l
512.874419 249.470575 l
528.446512 227.175752 l
544.018605 269.200643 l
559.590698 275.588556 l
575.162791 244.617657 l
590.734884 269.200643 l
606.306977 258.14665 l
621.87907 258.14665 l
637.451163 272.47869 l
653.023256 239.342236 l
668.595349 233.563665 l
684.167442 258.14665 l
699.739535 244.617657 l
715.311628 258.14665 l
730.883721 272.47869 l
746.455814 227.175752 l
762.027907 244.617657 l
777.6 233.563665 l
stroke
grestore
1.000 setlinewidth
0 setlinecap
gsave
669.6 499 108 71.28 clipbox
/o {
gsave
newpath
translate
1.0 setlinewidth
1 setlinejoin
0 setlinecap
0 -10 m
2.652031 -10 5.195799 -8.946337 7.071068 -7.071068 c
8.946337 -5.195799 10 -2.652031 10 0 c
10 2.652031 8.946337 5.195799 7.071068 7.071068 c
5.195799 8.946337 2.652031 10 0 10 c
-2.652031 10 -5.195799 8.946337 -7.071068 7.071068 c
-8.946337 5.195799 -10 2.652031 -10 0 c
-10 -2.652031 -8.946337 -5.195799 -7.071068 -7.071068 c
-5.195799 -8.946337 -2.652031 -10 0 -10 c
cl

gsave
grestore
stroke
grestore
} bind def
108 227.176 o
123.572 220.035 o
139.144 211.939 o
154.716 227.176 o
170.288 244.618 o
185.86 191.539 o
201.433 233.564 o
217.005 244.618 o
232.577 211.939 o
248.149 233.564 o
263.721 265.735 o
279.293 244.618 o
294.865 262.06 o
310.437 220.035 o
326.009 244.618 o
341.581 220.035 o
357.153 220.035 o
372.726 278.547 o
388.298 239.342 o
403.87 265.735 o
419.442 258.147 o
435.014 262.06 o
450.586 262.06 o
466.158 233.564 o
481.73 244.618 o
497.302 253.964 o
512.874 249.471 o
528.447 227.176 o
544.019 269.201 o
559.591 275.589 o
575.163 244.618 o
590.735 269.201 o
606.307 258.147 o
621.879 258.147 o
637.451 272.479 o
653.023 239.342 o
668.595 233.564 o
684.167 258.147 o
699.74 244.618 o
715.312 258.147 o
730.884 272.479 o
746.456 227.176 o
762.028 244.618 o
777.6 233.564 o
grestore
3.000 setlinewidth
2 setlinecap
1.000 0.000 0.000 setrgbcolor
gsave
669.6 499 108 71.28 clipbox
108 495.972376 m
123.572093 495.086088 l
139.144186 494.104218 l
154.716279 494.678906 l
170.288372 493.856246 l
185.860465 493.189986 l
201.432558 493.189986 l
217.004651 495.812193 l
232.576744 500.293835 l
248.148837 499.845283 l
263.72093 508.566363 l
279.293023 512.588835 l
294.865116 508.760999 l
310.437209 512.3451 l
326.009302 515.090587 l
341.581395 513.554095 l
357.153488 515.323552 l
372.725581 519.696121 l
388.297674 520.44862 l
403.869767 520.234572 l
419.44186 524.677873 l
435.013953 528.537831 l
450.586047 531.901927 l
466.15814 531.990308 l
481.730233 535.29856 l
497.302326 531.145444 l
512.874419 536.417134 l
528.446512 536.581107 l
544.018605 536.989111 l
559.590698 534.836862 l
575.162791 531.36892 l
590.734884 531.636009 l
606.306977 529.096199 l
621.87907 531.636009 l
637.451163 533.602531 l
653.023256 537.151547 l
668.595349 535.29856 l
684.167442 539.69302 l
699.739535 542.467509 l
715.311628 540.465868 l
730.883721 542.467509 l
746.455814 546.387387 l
762.027907 547.491647 l
777.6 547.56 l
stroke
grestore
1.000 setlinewidth
0 setlinejoin
0 setlinecap
gsave
669.6 499 108 71.28 clipbox
/o {
gsave
newpath
translate
1.0 setlinewidth
0 setlinejoin
0 setlinecap
0 10 m
-10 -10 l
10 -10 l
cl

gsave
grestore
stroke
grestore
} bind def
108 495.972 o
123.572 495.086 o
139.144 494.104 o
154.716 494.679 o
170.288 493.856 o
185.86 493.19 o
201.433 493.19 o
217.005 495.812 o
232.577 500.294 o
248.149 499.845 o
263.721 508.566 o
279.293 512.589 o
294.865 508.761 o
310.437 512.345 o
326.009 515.091 o
341.581 513.554 o
357.153 515.324 o
372.726 519.696 o
388.298 520.449 o
403.87 520.235 o
419.442 524.678 o
435.014 528.538 o
450.586 531.902 o
466.158 531.99 o
481.73 535.299 o
497.302 531.145 o
512.874 536.417 o
528.447 536.581 o
544.019 536.989 o
559.591 534.837 o
575.163 531.369 o
590.735 531.636 o
606.307 529.096 o
621.879 531.636 o
637.451 533.603 o
653.023 537.152 o
668.595 535.299 o
684.167 539.693 o
699.74 542.468 o
715.312 540.466 o
730.884 542.468 o
746.456 546.387 o
762.028 547.492 o
777.6 547.56 o
grestore
3.000 setlinewidth
1 setlinejoin
2 setlinecap
0.000 0.000 1.000 setrgbcolor
gsave
669.6 499 108 71.28 clipbox
108 432.254006 m
123.572093 414.888315 l
139.144186 412.082355 l
154.716279 434.057235 l
170.288372 426.99938 l
185.860465 429.444433 l
201.432558 431.563724 l
217.004651 432.936517 l
232.576744 430.159126 l
248.148837 435.808378 l
263.72093 436.023756 l
279.293023 435.375311 l
294.865116 428.234231 l
310.437209 436.66534 l
326.009302 440.178059 l
341.581395 438.756206 l
357.153488 444.814389 l
372.725581 436.452232 l
388.297674 445.18521 l
403.869767 442.153123 l
419.44186 447.185152 l
435.013953 454.107246 l
450.586047 449.46669 l
466.15814 442.73331 l
481.730233 439.369659 l
497.302326 446.646223 l
512.874419 444.814389 l
528.446512 446.284257 l
544.018605 441.173633 l
559.590698 441.56733 l
575.162791 442.153123 l
590.734884 437.089322 l
606.306977 436.452232 l
621.87907 442.347136 l
637.451163 445.369774 l
653.023256 434.499785 l
668.595349 441.958487 l
684.167442 446.102461 l
699.739535 448.773778 l
715.311628 440.975822 l
730.883721 448.94775 l
746.455814 456.913206 l
762.027907 451.332348 l
777.6 456.607769 l
stroke
grestore
1.000 setlinewidth
0 setlinejoin
0 setlinecap
gsave
669.6 499 108 71.28 clipbox
/o {
gsave
newpath
translate
1.0 setlinewidth
0 setlinejoin
0 setlinecap
0 10 m
-10 -10 l
10 -10 l
cl

gsave
grestore
stroke
grestore
} bind def
108 432.254 o
123.572 414.888 o
139.144 412.082 o
154.716 434.057 o
170.288 426.999 o
185.86 429.444 o
201.433 431.564 o
217.005 432.937 o
232.577 430.159 o
248.149 435.808 o
263.721 436.024 o
279.293 435.375 o
294.865 428.234 o
310.437 436.665 o
326.009 440.178 o
341.581 438.756 o
357.153 444.814 o
372.726 436.452 o
388.298 445.185 o
403.87 442.153 o
419.442 447.185 o
435.014 454.107 o
450.586 449.467 o
466.158 442.733 o
481.73 439.37 o
497.302 446.646 o
512.874 444.814 o
528.447 446.284 o
544.019 441.174 o
559.591 441.567 o
575.163 442.153 o
590.735 437.089 o
606.307 436.452 o
621.879 442.347 o
637.451 445.37 o
653.023 434.5 o
668.595 441.958 o
684.167 446.102 o
699.74 448.774 o
715.312 440.976 o
730.884 448.948 o
746.456 456.913 o
762.028 451.332 o
777.6 456.608 o
grestore
0.800 setlinewidth
2 setlinecap
[] 0 setdash
0.000 setgray
gsave
108 71.28 m
108 570.24 l
stroke
grestore
gsave
777.6 71.28 m
777.6 570.24 l
stroke
grestore
gsave
108 71.28 m
777.6 71.28 l
stroke
grestore
gsave
108 570.24 m
777.6 570.24 l
stroke
grestore
gsave
210.151563 576.240000 translate
0.000000 rotate
0.000000 0.000000 m /F glyphshow
13.789062 0.000000 m /r glyphshow
23.656250 0.000000 m /a glyphshow
38.363281 0.000000 m /c glyphshow
51.558594 0.000000 m /t glyphshow
60.968750 0.000000 m /i glyphshow
67.636719 0.000000 m /o glyphshow
82.320312 0.000000 m /n glyphshow
97.531250 0.000000 m /space glyphshow
105.160156 0.000000 m /o glyphshow
119.843750 0.000000 m /f glyphshow
128.292969 0.000000 m /space glyphshow
135.921875 0.000000 m /T glyphshow
150.519531 0.000000 m /o glyphshow
165.203125 0.000000 m /t glyphshow
174.613281 0.000000 m /a glyphshow
189.320312 0.000000 m /l glyphshow
195.988281 0.000000 m /space glyphshow
203.617188 0.000000 m /g glyphshow
218.851562 0.000000 m /h glyphshow
234.062500 0.000000 m /o glyphshow
248.746094 0.000000 m /s glyphshow
261.250000 0.000000 m /t glyphshow
270.660156 0.000000 m /space glyphshow
278.289062 0.000000 m /p glyphshow
293.523438 0.000000 m /a glyphshow
308.230469 0.000000 m /r glyphshow
318.097656 0.000000 m /t glyphshow
327.507812 0.000000 m /i glyphshow
334.175781 0.000000 m /c glyphshow
347.371094 0.000000 m /l glyphshow
354.039062 0.000000 m /e glyphshow
368.804688 0.000000 m /s glyphshow
381.308594 0.000000 m /space glyphshow
388.937500 0.000000 m /one glyphshow
404.207031 0.000000 m /zero glyphshow
419.476562 0.000000 m /zero glyphshow
434.746094 0.000000 m /zero glyphshow
450.015625 0.000000 m /zero glyphshow
grestore
1.000 setlinewidth
0 setlinecap
0.800 setgray
gsave
635.1 282.323 m
767.1 282.323 l
769.1 282.323 770.1 283.323 770.1 285.323 c
770.1 459.948 l
770.1 461.948 769.1 462.948 767.1 462.948 c
635.1 462.948 l
633.1 462.948 632.1 461.948 632.1 459.948 c
632.1 285.323 l
632.1 283.323 633.1 282.323 635.1 282.323 c
cl
gsave
1.000 setgray
fill
grestore
stroke
grestore
3.000 setlinewidth
1 setlinejoin
2 setlinecap
[] 0 setdash
1.000 0.000 0.000 setrgbcolor
gsave
638.1 450.807375 m
668.1 450.807375 l
stroke
grestore
0.000 setgray
gsave
680.100000 445.557375 translate
0.000000 rotate
/DejaVuSans findfont
15.0 scalefont
setfont
0.000000 0.859375 moveto
/S glyphshow

9.521484 0.859375 moveto
/T glyphshow

18.684082 0.859375 moveto
/B glyphshow

28.974609 0.859375 moveto
/comma glyphshow

33.742676 0.859375 moveto
/space glyphshow

38.510742 0.859375 moveto
/three glyphshow

/DejaVuSans-Oblique findfont
15.0 scalefont
setfont
48.054199 0.859375 moveto
/delta glyphshow

57.231445 0.859375 moveto
/t glyphshow


grestore
0.000 0.000 1.000 setrgbcolor
gsave
638.1 428.79175 m
668.1 428.79175 l
stroke
grestore
0.000 setgray
gsave
680.100000 423.541750 translate
0.000000 rotate
/DejaVuSans findfont
15.0 scalefont
setfont
0.000000 0.859375 moveto
/O glyphshow

11.806641 0.859375 moveto
/u glyphshow

21.313477 0.859375 moveto
/r glyphshow

27.480469 0.859375 moveto
/s glyphshow

35.295410 0.859375 moveto
/comma glyphshow

40.063477 0.859375 moveto
/space glyphshow

44.831543 0.859375 moveto
/three glyphshow

/DejaVuSans-Oblique findfont
15.0 scalefont
setfont
54.375000 0.859375 moveto
/delta glyphshow

63.552246 0.859375 moveto
/t glyphshow


grestore
1.000 0.000 0.000 setrgbcolor
gsave
638.1 406.776125 m
668.1 406.776125 l
stroke
grestore
1.000 setlinewidth
0 setlinejoin
0 setlinecap
gsave
/o {
gsave
newpath
translate
1.0 setlinewidth
0 setlinejoin
0 setlinecap
-10 -10 m
10 -10 l
10 10 l
-10 10 l
cl

gsave
grestore
stroke
grestore
} bind def
653.1 406.776 o
grestore
0.000 setgray
gsave
680.100000 401.526125 translate
0.000000 rotate
/DejaVuSans findfont
15.0 scalefont
setfont
0.000000 0.859375 moveto
/S glyphshow

9.521484 0.859375 moveto
/T glyphshow

18.684082 0.859375 moveto
/B glyphshow

28.974609 0.859375 moveto
/comma glyphshow

33.742676 0.859375 moveto
/space glyphshow

38.510742 0.859375 moveto
/seven glyphshow

48.054199 0.859375 moveto
/period glyphshow

52.822266 0.859375 moveto
/five glyphshow

/DejaVuSans-Oblique findfont
15.0 scalefont
setfont
62.365723 0.859375 moveto
/delta glyphshow

71.542969 0.859375 moveto
/t glyphshow


grestore
3.000 setlinewidth
1 setlinejoin
2 setlinecap
0.000 0.000 1.000 setrgbcolor
gsave
638.1 384.7605 m
668.1 384.7605 l
stroke
grestore
1.000 setlinewidth
0 setlinejoin
0 setlinecap
gsave
/o {
gsave
newpath
translate
1.0 setlinewidth
0 setlinejoin
0 setlinecap
-10 -10 m
10 -10 l
10 10 l
-10 10 l
cl

gsave
grestore
stroke
grestore
} bind def
653.1 384.761 o
grestore
0.000 setgray
gsave
680.100000 379.510500 translate
0.000000 rotate
/DejaVuSans findfont
15.0 scalefont
setfont
0.000000 0.859375 moveto
/O glyphshow

11.806641 0.859375 moveto
/u glyphshow

21.313477 0.859375 moveto
/r glyphshow

27.480469 0.859375 moveto
/s glyphshow

35.295410 0.859375 moveto
/comma glyphshow

40.063477 0.859375 moveto
/space glyphshow

44.831543 0.859375 moveto
/seven glyphshow

54.375000 0.859375 moveto
/period glyphshow

59.143066 0.859375 moveto
/five glyphshow

/DejaVuSans-Oblique findfont
15.0 scalefont
setfont
68.686523 0.859375 moveto
/delta glyphshow

77.863770 0.859375 moveto
/t glyphshow


grestore
3.000 setlinewidth
1 setlinejoin
2 setlinecap
1.000 0.000 0.000 setrgbcolor
gsave
638.1 362.744875 m
668.1 362.744875 l
stroke
grestore
1.000 setlinewidth
0 setlinecap
gsave
/o {
gsave
newpath
translate
1.0 setlinewidth
1 setlinejoin
0 setlinecap
0 -10 m
2.652031 -10 5.195799 -8.946337 7.071068 -7.071068 c
8.946337 -5.195799 10 -2.652031 10 0 c
10 2.652031 8.946337 5.195799 7.071068 7.071068 c
5.195799 8.946337 2.652031 10 0 10 c
-2.652031 10 -5.195799 8.946337 -7.071068 7.071068 c
-8.946337 5.195799 -10 2.652031 -10 0 c
-10 -2.652031 -8.946337 -5.195799 -7.071068 -7.071068 c
-5.195799 -8.946337 -2.652031 -10 0 -10 c
cl

gsave
grestore
stroke
grestore
} bind def
653.1 362.745 o
grestore
0.000 setgray
gsave
680.100000 357.494875 translate
0.000000 rotate
/DejaVuSans findfont
15.0 scalefont
setfont
0.000000 0.859375 moveto
/S glyphshow

9.521484 0.859375 moveto
/T glyphshow

18.684082 0.859375 moveto
/B glyphshow

28.974609 0.859375 moveto
/comma glyphshow

33.742676 0.859375 moveto
/space glyphshow

38.510742 0.859375 moveto
/one glyphshow

48.054199 0.859375 moveto
/five glyphshow

/DejaVuSans-Oblique findfont
15.0 scalefont
setfont
57.597656 0.859375 moveto
/delta glyphshow

66.774902 0.859375 moveto
/t glyphshow


grestore
3.000 setlinewidth
2 setlinecap
0.000 0.000 1.000 setrgbcolor
gsave
638.1 340.72925 m
668.1 340.72925 l
stroke
grestore
1.000 setlinewidth
0 setlinecap
gsave
/o {
gsave
newpath
translate
1.0 setlinewidth
1 setlinejoin
0 setlinecap
0 -10 m
2.652031 -10 5.195799 -8.946337 7.071068 -7.071068 c
8.946337 -5.195799 10 -2.652031 10 0 c
10 2.652031 8.946337 5.195799 7.071068 7.071068 c
5.195799 8.946337 2.652031 10 0 10 c
-2.652031 10 -5.195799 8.946337 -7.071068 7.071068 c
-8.946337 5.195799 -10 2.652031 -10 0 c
-10 -2.652031 -8.946337 -5.195799 -7.071068 -7.071068 c
-5.195799 -8.946337 -2.652031 -10 0 -10 c
cl

gsave
grestore
stroke
grestore
} bind def
653.1 340.729 o
grestore
0.000 setgray
gsave
680.100000 335.479250 translate
0.000000 rotate
/DejaVuSans findfont
15.0 scalefont
setfont
0.000000 0.859375 moveto
/O glyphshow

11.806641 0.859375 moveto
/u glyphshow

21.313477 0.859375 moveto
/r glyphshow

27.480469 0.859375 moveto
/s glyphshow

35.295410 0.859375 moveto
/comma glyphshow

40.063477 0.859375 moveto
/space glyphshow

44.831543 0.859375 moveto
/one glyphshow

54.375000 0.859375 moveto
/five glyphshow

/DejaVuSans-Oblique findfont
15.0 scalefont
setfont
63.918457 0.859375 moveto
/delta glyphshow

73.095703 0.859375 moveto
/t glyphshow


grestore
3.000 setlinewidth
2 setlinecap
1.000 0.000 0.000 setrgbcolor
gsave
638.1 318.713625 m
668.1 318.713625 l
stroke
grestore
1.000 setlinewidth
0 setlinejoin
0 setlinecap
gsave
/o {
gsave
newpath
translate
1.0 setlinewidth
0 setlinejoin
0 setlinecap
0 10 m
-10 -10 l
10 -10 l
cl

gsave
grestore
stroke
grestore
} bind def
653.1 318.714 o
grestore
0.000 setgray
gsave
680.100000 313.463625 translate
0.000000 rotate
/DejaVuSans findfont
15.0 scalefont
setfont
0.000000 0.859375 moveto
/S glyphshow

9.521484 0.859375 moveto
/T glyphshow

18.684082 0.859375 moveto
/B glyphshow

28.974609 0.859375 moveto
/comma glyphshow

33.742676 0.859375 moveto
/space glyphshow

38.510742 0.859375 moveto
/three glyphshow

48.054199 0.859375 moveto
/zero glyphshow

/DejaVuSans-Oblique findfont
15.0 scalefont
setfont
57.597656 0.859375 moveto
/delta glyphshow

66.774902 0.859375 moveto
/t glyphshow


grestore
3.000 setlinewidth
1 setlinejoin
2 setlinecap
0.000 0.000 1.000 setrgbcolor
gsave
638.1 296.698 m
668.1 296.698 l
stroke
grestore
1.000 setlinewidth
0 setlinejoin
0 setlinecap
gsave
/o {
gsave
newpath
translate
1.0 setlinewidth
0 setlinejoin
0 setlinecap
0 10 m
-10 -10 l
10 -10 l
cl

gsave
grestore
stroke
grestore
} bind def
653.1 296.698 o
grestore
0.000 setgray
gsave
680.100000 291.448000 translate
0.000000 rotate
/DejaVuSans findfont
15.0 scalefont
setfont
0.000000 0.859375 moveto
/O glyphshow

11.806641 0.859375 moveto
/u glyphshow

21.313477 0.859375 moveto
/r glyphshow

27.480469 0.859375 moveto
/s glyphshow

35.295410 0.859375 moveto
/comma glyphshow

40.063477 0.859375 moveto
/space glyphshow

44.831543 0.859375 moveto
/three glyphshow

54.375000 0.859375 moveto
/zero glyphshow

/DejaVuSans-Oblique findfont
15.0 scalefont
setfont
63.918457 0.859375 moveto
/delta glyphshow

73.095703 0.859375 moveto
/t glyphshow


grestore

end
showpage
