%!PS-Adobe-3.0 EPSF-3.0
%%Title: /home/yin/020000_undetected.eps
%%Creator: matplotlib version 3.1.0, http://matplotlib.org/
%%CreationDate: Mon Jan 13 14:56:12 2020
%%Orientation: portrait
%%BoundingBox: -126.0 72.0 738.0 720.0
%%EndComments
%%BeginProlog
/mpldict 9 dict def
mpldict begin
/m { moveto } bind def
/l { lineto } bind def
/r { rlineto } bind def
/c { curveto } bind def
/cl { closepath } bind def
/box {
m
1 index 0 r
0 exch r
neg 0 r
cl
} bind def
/clipbox {
box
clip
newpath
} bind def
%!PS-Adobe-3.0 Resource-Font
%%Title: DejaVu Sans
%%Copyright: Copyright (c) 2003 by Bitstream, Inc. All Rights Reserved. Copyright (c) 2006 by Tavmjong Bah. All Rights Reserved. DejaVu changes are in public domain 
%%Creator: Converted from TrueType to type 3 by PPR
25 dict begin
/_d{bind def}bind def
/_m{moveto}_d
/_l{lineto}_d
/_cl{closepath eofill}_d
/_c{curveto}_d
/_sc{7 -1 roll{setcachedevice}{pop pop pop pop pop pop}ifelse}_d
/_e{exec}_d
/FontName /DejaVuSans def
/PaintType 0 def
/FontMatrix[.001 0 0 .001 0 0]def
/FontBBox[-1021 -463 1793 1232]def
/FontType 3 def
/Encoding [ /space /comma /period /slash /zero /one /two /three /four /five /six /seven /eight /B /F /O /P /S /T /U /a /c /d /e /f /h /i /k /l /n /o /p /r /s /t /u ] def
/FontInfo 10 dict dup begin
/FamilyName (DejaVu Sans) def
/FullName (DejaVu Sans) def
/Notice (Copyright (c) 2003 by Bitstream, Inc. All Rights Reserved. Copyright (c) 2006 by Tavmjong Bah. All Rights Reserved. DejaVu changes are in public domain ) def
/Weight (Book) def
/Version (Version 2.35) def
/ItalicAngle 0.0 def
/isFixedPitch false def
/UnderlinePosition -130 def
/UnderlineThickness 90 def
end readonly def
/CharStrings 37 dict dup begin
/.notdef 0 def
/space{318 0 0 0 0 0 _sc
}_d
/comma{318 0 77 -115 220 124 _sc
117 124 _m
220 124 _l
220 40 _l
140 -115 _l
77 -115 _l
117 40 _l
117 124 _l
_cl}_d
/period{318 0 107 0 210 124 _sc
107 124 _m
210 124 _l
210 0 _l
107 0 _l
107 124 _l
_cl}_d
/slash{337 0 0 -92 337 729 _sc
254 729 _m
337 729 _l
83 -92 _l
0 -92 _l
254 729 _l
_cl}_d
/zero{636 0 66 -13 570 742 _sc
318 664 _m
267 664 229 639 203 589 _c
177 539 165 464 165 364 _c
165 264 177 189 203 139 _c
229 89 267 64 318 64 _c
369 64 407 89 433 139 _c
458 189 471 264 471 364 _c
471 464 458 539 433 589 _c
407 639 369 664 318 664 _c
318 742 _m
399 742 461 709 505 645 _c
548 580 570 486 570 364 _c
570 241 548 147 505 83 _c
461 19 399 -13 318 -13 _c
236 -13 173 19 130 83 _c
87 147 66 241 66 364 _c
66 486 87 580 130 645 _c
173 709 236 742 318 742 _c
_cl}_d
/one{636 0 110 0 544 729 _sc
124 83 _m
285 83 _l
285 639 _l
110 604 _l
110 694 _l
284 729 _l
383 729 _l
383 83 _l
544 83 _l
544 0 _l
124 0 _l
124 83 _l
_cl}_d
/two{{636 0 73 0 536 742 _sc
192 83 _m
536 83 _l
536 0 _l
73 0 _l
73 83 _l
110 121 161 173 226 239 _c
290 304 331 346 348 365 _c
380 400 402 430 414 455 _c
426 479 433 504 433 528 _c
433 566 419 598 392 622 _c
365 646 330 659 286 659 _c
255 659 222 653 188 643 _c
154 632 117 616 78 594 _c
78 694 _l
118 710 155 722 189 730 _c
223 738 255 742 284 742 _c
}_e{359 742 419 723 464 685 _c
509 647 532 597 532 534 _c
532 504 526 475 515 449 _c
504 422 484 390 454 354 _c
446 344 420 317 376 272 _c
332 227 271 164 192 83 _c
_cl}_e}_d
/three{{636 0 76 -13 556 742 _sc
406 393 _m
453 383 490 362 516 330 _c
542 298 556 258 556 212 _c
556 140 531 84 482 45 _c
432 6 362 -13 271 -13 _c
240 -13 208 -10 176 -4 _c
144 1 110 10 76 22 _c
76 117 _l
103 101 133 89 166 81 _c
198 73 232 69 268 69 _c
330 69 377 81 409 105 _c
441 129 458 165 458 212 _c
458 254 443 288 413 312 _c
383 336 341 349 287 349 _c
}_e{202 349 _l
202 430 _l
291 430 _l
339 430 376 439 402 459 _c
428 478 441 506 441 543 _c
441 580 427 609 401 629 _c
374 649 336 659 287 659 _c
260 659 231 656 200 650 _c
169 644 135 635 98 623 _c
98 711 _l
135 721 170 729 203 734 _c
235 739 266 742 296 742 _c
370 742 429 725 473 691 _c
517 657 539 611 539 553 _c
539 513 527 479 504 451 _c
481 423 448 403 406 393 _c
_cl}_e}_d
/four{636 0 49 0 580 729 _sc
378 643 _m
129 254 _l
378 254 _l
378 643 _l
352 729 _m
476 729 _l
476 254 _l
580 254 _l
580 172 _l
476 172 _l
476 0 _l
378 0 _l
378 172 _l
49 172 _l
49 267 _l
352 729 _l
_cl}_d
/five{{636 0 77 -13 549 729 _sc
108 729 _m
495 729 _l
495 646 _l
198 646 _l
198 467 _l
212 472 227 476 241 478 _c
255 480 270 482 284 482 _c
365 482 429 459 477 415 _c
525 370 549 310 549 234 _c
549 155 524 94 475 51 _c
426 8 357 -13 269 -13 _c
238 -13 207 -10 175 -6 _c
143 -1 111 6 77 17 _c
77 116 _l
106 100 136 88 168 80 _c
199 72 232 69 267 69 _c
}_e{323 69 368 83 401 113 _c
433 143 450 183 450 234 _c
450 284 433 324 401 354 _c
368 384 323 399 267 399 _c
241 399 214 396 188 390 _c
162 384 135 375 108 363 _c
108 729 _l
_cl}_e}_d
/six{{636 0 70 -13 573 742 _sc
330 404 _m
286 404 251 388 225 358 _c
199 328 186 286 186 234 _c
186 181 199 139 225 109 _c
251 79 286 64 330 64 _c
374 64 409 79 435 109 _c
461 139 474 181 474 234 _c
474 286 461 328 435 358 _c
409 388 374 404 330 404 _c
526 713 _m
526 623 _l
501 635 476 644 451 650 _c
425 656 400 659 376 659 _c
310 659 260 637 226 593 _c
}_e{192 549 172 482 168 394 _c
187 422 211 444 240 459 _c
269 474 301 482 336 482 _c
409 482 467 459 509 415 _c
551 371 573 310 573 234 _c
573 159 550 99 506 54 _c
462 9 403 -13 330 -13 _c
246 -13 181 19 137 83 _c
92 147 70 241 70 364 _c
70 479 97 571 152 639 _c
206 707 280 742 372 742 _c
396 742 421 739 447 735 _c
472 730 498 723 526 713 _c
_cl}_e}_d
/seven{636 0 82 0 551 729 _sc
82 729 _m
551 729 _l
551 687 _l
286 0 _l
183 0 _l
432 646 _l
82 646 _l
82 729 _l
_cl}_d
/eight{{636 0 68 -13 568 742 _sc
318 346 _m
271 346 234 333 207 308 _c
180 283 167 249 167 205 _c
167 161 180 126 207 101 _c
234 76 271 64 318 64 _c
364 64 401 76 428 102 _c
455 127 469 161 469 205 _c
469 249 455 283 429 308 _c
402 333 365 346 318 346 _c
219 388 _m
177 398 144 418 120 447 _c
96 476 85 511 85 553 _c
85 611 105 657 147 691 _c
188 725 245 742 318 742 _c
}_e{390 742 447 725 489 691 _c
530 657 551 611 551 553 _c
551 511 539 476 515 447 _c
491 418 459 398 417 388 _c
464 377 501 355 528 323 _c
554 291 568 251 568 205 _c
568 134 546 80 503 43 _c
459 5 398 -13 318 -13 _c
237 -13 175 5 132 43 _c
89 80 68 134 68 205 _c
68 251 81 291 108 323 _c
134 355 171 377 219 388 _c
183 544 _m
183 506 194 476 218 455 _c
}_e{242 434 275 424 318 424 _c
360 424 393 434 417 455 _c
441 476 453 506 453 544 _c
453 582 441 611 417 632 _c
393 653 360 664 318 664 _c
275 664 242 653 218 632 _c
194 611 183 582 183 544 _c
_cl}_e}_d
/B{{686 0 98 0 615 729 _sc
197 348 _m
197 81 _l
355 81 _l
408 81 447 92 473 114 _c
498 136 511 169 511 215 _c
511 260 498 293 473 315 _c
447 337 408 348 355 348 _c
197 348 _l
197 648 _m
197 428 _l
343 428 _l
391 428 426 437 450 455 _c
474 473 486 500 486 538 _c
486 574 474 602 450 620 _c
426 638 391 648 343 648 _c
197 648 _l
98 729 _m
350 729 _l
}_e{425 729 483 713 524 682 _c
564 650 585 606 585 549 _c
585 504 574 468 553 442 _c
532 416 502 399 462 393 _c
510 382 548 360 575 327 _c
601 294 615 253 615 204 _c
615 138 592 88 548 53 _c
504 17 441 0 360 0 _c
98 0 _l
98 729 _l
_cl}_e}_d
/F{575 0 98 0 517 729 _sc
98 729 _m
517 729 _l
517 646 _l
197 646 _l
197 431 _l
486 431 _l
486 348 _l
197 348 _l
197 0 _l
98 0 _l
98 729 _l
_cl}_d
/O{787 0 56 -13 731 742 _sc
394 662 _m
322 662 265 635 223 582 _c
181 528 160 456 160 364 _c
160 272 181 199 223 146 _c
265 92 322 66 394 66 _c
465 66 522 92 564 146 _c
606 199 627 272 627 364 _c
627 456 606 528 564 582 _c
522 635 465 662 394 662 _c
394 742 _m
496 742 577 707 639 639 _c
700 571 731 479 731 364 _c
731 248 700 157 639 89 _c
577 21 496 -13 394 -13 _c
291 -13 209 21 148 89 _c
86 157 56 248 56 364 _c
56 479 86 571 148 639 _c
209 707 291 742 394 742 _c
_cl}_d
/P{603 0 98 0 569 729 _sc
197 648 _m
197 374 _l
321 374 _l
367 374 402 385 427 409 _c
452 433 465 467 465 511 _c
465 555 452 588 427 612 _c
402 636 367 648 321 648 _c
197 648 _l
98 729 _m
321 729 _l
402 729 464 710 506 673 _c
548 636 569 582 569 511 _c
569 439 548 384 506 348 _c
464 311 402 293 321 293 _c
197 293 _l
197 0 _l
98 0 _l
98 729 _l
_cl}_d
/S{{635 0 66 -13 579 742 _sc
535 705 _m
535 609 _l
497 627 462 640 429 649 _c
395 657 363 662 333 662 _c
279 662 237 651 208 631 _c
179 610 165 580 165 542 _c
165 510 174 485 194 469 _c
213 452 250 439 304 429 _c
364 417 _l
437 403 491 378 526 343 _c
561 307 579 260 579 201 _c
579 130 555 77 508 41 _c
460 5 391 -13 300 -13 _c
265 -13 228 -9 189 -2 _c
}_e{150 5 110 16 69 32 _c
69 134 _l
109 111 148 94 186 83 _c
224 71 262 66 300 66 _c
356 66 399 77 430 99 _c
460 121 476 152 476 194 _c
476 230 465 258 443 278 _c
421 298 385 313 335 323 _c
275 335 _l
201 349 148 372 115 404 _c
82 435 66 478 66 534 _c
66 598 88 649 134 686 _c
179 723 242 742 322 742 _c
356 742 390 739 426 733 _c
461 727 497 717 535 705 _c
}_e{_cl}_e}_d
/T{611 0 -2 0 614 729 _sc
-2 729 _m
614 729 _l
614 646 _l
355 646 _l
355 0 _l
256 0 _l
256 646 _l
-2 646 _l
-2 729 _l
_cl}_d
/U{732 0 87 -13 645 729 _sc
87 729 _m
186 729 _l
186 286 _l
186 208 200 151 228 117 _c
256 83 302 66 366 66 _c
429 66 475 83 503 117 _c
531 151 546 208 546 286 _c
546 729 _l
645 729 _l
645 274 _l
645 178 621 107 574 59 _c
527 11 458 -13 366 -13 _c
274 -13 204 11 157 59 _c
110 107 87 178 87 274 _c
87 729 _l
_cl}_d
/a{{613 0 60 -13 522 560 _sc
343 275 _m
270 275 220 266 192 250 _c
164 233 150 205 150 165 _c
150 133 160 107 181 89 _c
202 70 231 61 267 61 _c
317 61 357 78 387 114 _c
417 149 432 196 432 255 _c
432 275 _l
343 275 _l
522 312 _m
522 0 _l
432 0 _l
432 83 _l
411 49 385 25 355 10 _c
325 -5 287 -13 243 -13 _c
187 -13 142 2 109 33 _c
76 64 60 106 60 159 _c
}_e{60 220 80 266 122 298 _c
163 329 224 345 306 345 _c
432 345 _l
432 354 _l
432 395 418 427 391 450 _c
364 472 326 484 277 484 _c
245 484 215 480 185 472 _c
155 464 127 453 100 439 _c
100 522 _l
132 534 164 544 195 550 _c
226 556 256 560 286 560 _c
365 560 424 539 463 498 _c
502 457 522 395 522 312 _c
_cl}_e}_d
/c{{550 0 55 -13 488 560 _sc
488 526 _m
488 442 _l
462 456 437 466 411 473 _c
385 480 360 484 334 484 _c
276 484 230 465 198 428 _c
166 391 150 339 150 273 _c
150 206 166 154 198 117 _c
230 80 276 62 334 62 _c
360 62 385 65 411 72 _c
437 79 462 90 488 104 _c
488 21 _l
462 9 436 0 410 -5 _c
383 -10 354 -13 324 -13 _c
242 -13 176 12 128 64 _c
}_e{79 115 55 185 55 273 _c
55 362 79 432 128 483 _c
177 534 244 560 330 560 _c
358 560 385 557 411 551 _c
437 545 463 537 488 526 _c
_cl}_e}_d
/d{{635 0 55 -13 544 760 _sc
454 464 _m
454 760 _l
544 760 _l
544 0 _l
454 0 _l
454 82 _l
435 49 411 25 382 10 _c
353 -5 319 -13 279 -13 _c
213 -13 159 13 117 65 _c
75 117 55 187 55 273 _c
55 359 75 428 117 481 _c
159 533 213 560 279 560 _c
319 560 353 552 382 536 _c
411 520 435 496 454 464 _c
148 273 _m
148 207 161 155 188 117 _c
215 79 253 61 301 61 _c
}_e{348 61 385 79 413 117 _c
440 155 454 207 454 273 _c
454 339 440 390 413 428 _c
385 466 348 485 301 485 _c
253 485 215 466 188 428 _c
161 390 148 339 148 273 _c
_cl}_e}_d
/e{{615 0 55 -13 562 560 _sc
562 296 _m
562 252 _l
149 252 _l
153 190 171 142 205 110 _c
238 78 284 62 344 62 _c
378 62 412 66 444 74 _c
476 82 509 95 541 113 _c
541 28 _l
509 14 476 3 442 -3 _c
408 -9 373 -13 339 -13 _c
251 -13 182 12 131 62 _c
80 112 55 181 55 268 _c
55 357 79 428 127 481 _c
175 533 241 560 323 560 _c
397 560 455 536 498 489 _c
}_e{540 441 562 377 562 296 _c
472 322 _m
471 371 457 410 431 440 _c
404 469 368 484 324 484 _c
274 484 234 469 204 441 _c
174 413 156 373 152 322 _c
472 322 _l
_cl}_e}_d
/f{352 0 23 0 371 760 _sc
371 760 _m
371 685 _l
285 685 _l
253 685 230 678 218 665 _c
205 652 199 629 199 595 _c
199 547 _l
347 547 _l
347 477 _l
199 477 _l
199 0 _l
109 0 _l
109 477 _l
23 477 _l
23 547 _l
109 547 _l
109 585 _l
109 645 123 690 151 718 _c
179 746 224 760 286 760 _c
371 760 _l
_cl}_d
/h{634 0 91 0 549 760 _sc
549 330 _m
549 0 _l
459 0 _l
459 327 _l
459 379 448 417 428 443 _c
408 469 378 482 338 482 _c
289 482 251 466 223 435 _c
195 404 181 362 181 309 _c
181 0 _l
91 0 _l
91 760 _l
181 760 _l
181 462 _l
202 494 227 519 257 535 _c
286 551 320 560 358 560 _c
420 560 468 540 500 501 _c
532 462 549 405 549 330 _c
_cl}_d
/i{278 0 94 0 184 760 _sc
94 547 _m
184 547 _l
184 0 _l
94 0 _l
94 547 _l
94 760 _m
184 760 _l
184 646 _l
94 646 _l
94 760 _l
_cl}_d
/k{579 0 91 0 576 760 _sc
91 760 _m
181 760 _l
181 311 _l
449 547 _l
564 547 _l
274 291 _l
576 0 _l
459 0 _l
181 267 _l
181 0 _l
91 0 _l
91 760 _l
_cl}_d
/l{278 0 94 0 184 760 _sc
94 760 _m
184 760 _l
184 0 _l
94 0 _l
94 760 _l
_cl}_d
/n{634 0 91 0 549 560 _sc
549 330 _m
549 0 _l
459 0 _l
459 327 _l
459 379 448 417 428 443 _c
408 469 378 482 338 482 _c
289 482 251 466 223 435 _c
195 404 181 362 181 309 _c
181 0 _l
91 0 _l
91 547 _l
181 547 _l
181 462 _l
202 494 227 519 257 535 _c
286 551 320 560 358 560 _c
420 560 468 540 500 501 _c
532 462 549 405 549 330 _c
_cl}_d
/o{612 0 55 -13 557 560 _sc
306 484 _m
258 484 220 465 192 427 _c
164 389 150 338 150 273 _c
150 207 163 156 191 118 _c
219 80 257 62 306 62 _c
354 62 392 80 420 118 _c
448 156 462 207 462 273 _c
462 337 448 389 420 427 _c
392 465 354 484 306 484 _c
306 560 _m
384 560 445 534 490 484 _c
534 433 557 363 557 273 _c
557 183 534 113 490 63 _c
445 12 384 -13 306 -13 _c
227 -13 165 12 121 63 _c
77 113 55 183 55 273 _c
55 363 77 433 121 484 _c
165 534 227 560 306 560 _c
_cl}_d
/p{{635 0 91 -207 580 560 _sc
181 82 _m
181 -207 _l
91 -207 _l
91 547 _l
181 547 _l
181 464 _l
199 496 223 520 252 536 _c
281 552 316 560 356 560 _c
422 560 476 533 518 481 _c
559 428 580 359 580 273 _c
580 187 559 117 518 65 _c
476 13 422 -13 356 -13 _c
316 -13 281 -5 252 10 _c
223 25 199 49 181 82 _c
487 273 _m
487 339 473 390 446 428 _c
418 466 381 485 334 485 _c
}_e{286 485 249 466 222 428 _c
194 390 181 339 181 273 _c
181 207 194 155 222 117 _c
249 79 286 61 334 61 _c
381 61 418 79 446 117 _c
473 155 487 207 487 273 _c
_cl}_e}_d
/r{411 0 91 0 411 560 _sc
411 463 _m
401 469 390 473 378 476 _c
366 478 353 480 339 480 _c
288 480 249 463 222 430 _c
194 397 181 350 181 288 _c
181 0 _l
91 0 _l
91 547 _l
181 547 _l
181 462 _l
199 495 224 520 254 536 _c
284 552 321 560 365 560 _c
371 560 378 559 386 559 _c
393 558 401 557 411 555 _c
411 463 _l
_cl}_d
/s{{521 0 54 -13 472 560 _sc
443 531 _m
443 446 _l
417 458 391 468 364 475 _c
336 481 308 485 279 485 _c
234 485 200 478 178 464 _c
156 450 145 430 145 403 _c
145 382 153 366 169 354 _c
185 342 217 330 265 320 _c
296 313 _l
360 299 405 279 432 255 _c
458 230 472 195 472 151 _c
472 100 452 60 412 31 _c
372 1 316 -13 246 -13 _c
216 -13 186 -10 154 -5 _c
}_e{122 0 89 8 54 20 _c
54 113 _l
87 95 120 82 152 74 _c
184 65 216 61 248 61 _c
290 61 323 68 346 82 _c
368 96 380 117 380 144 _c
380 168 371 187 355 200 _c
339 213 303 226 247 238 _c
216 245 _l
160 257 119 275 95 299 _c
70 323 58 356 58 399 _c
58 450 76 490 112 518 _c
148 546 200 560 268 560 _c
301 560 332 557 362 552 _c
391 547 418 540 443 531 _c
}_e{_cl}_e}_d
/t{392 0 27 0 368 702 _sc
183 702 _m
183 547 _l
368 547 _l
368 477 _l
183 477 _l
183 180 _l
183 135 189 106 201 94 _c
213 81 238 75 276 75 _c
368 75 _l
368 0 _l
276 0 _l
206 0 158 13 132 39 _c
106 65 93 112 93 180 _c
93 477 _l
27 477 _l
27 547 _l
93 547 _l
93 702 _l
183 702 _l
_cl}_d
/u{634 0 85 -13 543 560 _sc
85 216 _m
85 547 _l
175 547 _l
175 219 _l
175 167 185 129 205 103 _c
225 77 255 64 296 64 _c
344 64 383 79 411 110 _c
439 141 453 183 453 237 _c
453 547 _l
543 547 _l
543 0 _l
453 0 _l
453 84 _l
431 50 405 26 377 10 _c
348 -5 315 -13 277 -13 _c
214 -13 166 6 134 45 _c
101 83 85 140 85 216 _c
311 560 _m
311 560 _l
_cl}_d
end readonly def

/BuildGlyph
 {exch begin
 CharStrings exch
 2 copy known not{pop /.notdef}if
 true 3 1 roll get exec
 end}_d

/BuildChar {
 1 index /Encoding get exch get
 1 index /BuildGlyph get exec
}_d

FontName currentdict end definefont pop
%!PS-Adobe-3.0 Resource-Font
%%Title: DejaVu Sans Oblique
%%Copyright: Copyright (c) 2003 by Bitstream, Inc. All Rights Reserved. Copyright (c) 2006 by Tavmjong Bah. All Rights Reserved. DejaVu changes are in public domain 
%%Creator: Converted from TrueType to type 3 by PPR
25 dict begin
/_d{bind def}bind def
/_m{moveto}_d
/_l{lineto}_d
/_cl{closepath eofill}_d
/_c{curveto}_d
/_sc{7 -1 roll{setcachedevice}{pop pop pop pop pop pop}ifelse}_d
/_e{exec}_d
/FontName /DejaVuSans-Oblique def
/PaintType 0 def
/FontMatrix[.001 0 0 .001 0 0]def
/FontBBox[-1016 -350 1659 1068]def
/FontType 3 def
/Encoding [ /t /delta ] def
/FontInfo 10 dict dup begin
/FamilyName (DejaVu Sans) def
/FullName (DejaVu Sans Oblique) def
/Notice (Copyright (c) 2003 by Bitstream, Inc. All Rights Reserved. Copyright (c) 2006 by Tavmjong Bah. All Rights Reserved. DejaVu changes are in public domain ) def
/Weight (Oblique) def
/Version (Version 2.35) def
/ItalicAngle -11.0 def
/isFixedPitch false def
/UnderlinePosition -130 def
/UnderlineThickness 90 def
end readonly def
/CharStrings 3 dict dup begin
/.notdef 0 def
/t{{392 0 64 0 423 702 _sc
423 547 _m
409 477 _l
230 477 _l
172 180 _l
170 169 168 160 167 152 _c
166 144 166 139 166 135 _c
166 114 172 99 185 89 _c
197 79 217 75 245 75 _c
336 75 _l
321 0 _l
235 0 _l
181 0 141 10 115 31 _c
89 52 76 84 76 126 _c
76 133 76 141 77 150 _c
78 159 80 169 82 180 _c
140 477 _l
64 477 _l
78 547 _l
153 547 _l
183 702 _l
}_e{273 702 _l
243 547 _l
423 547 _l
_cl}_e}_d
/delta{{612 0 38 -13 557 742 _sc
542 633 _m
514 655 461 667 383 667 _c
300 667 255 648 248 610 _c
242 580 280 557 364 542 _c
428 530 476 505 508 469 _c
546 425 556 358 539 268 _c
521 182 486 113 432 63 _c
377 12 310 -13 232 -13 _c
154 -13 98 12 63 63 _c
28 113 20 183 38 273 _c
50 339 84 399 139 453 _c
160 473 184 490 211 502 _c
165 528 147 563 156 609 _c
}_e{173 697 253 742 397 742 _c
469 742 522 730 557 708 _c
542 633 _l
274 478 _m
250 468 226 451 204 428 _c
168 391 144 339 132 273 _c
119 207 123 155 144 118 _c
164 80 199 62 248 62 _c
295 62 336 81 372 119 _c
407 156 431 206 443 268 _c
455 332 450 380 427 412 _c
401 445 369 464 329 468 _c
308 470 290 473 274 478 _c
_cl}_e}_d
end readonly def

/BuildGlyph
 {exch begin
 CharStrings exch
 2 copy known not{pop /.notdef}if
 true 3 1 roll get exec
 end}_d

/BuildChar {
 1 index /Encoding get exch get
 1 index /BuildGlyph get exec
}_d

FontName currentdict end definefont pop
end
%%EndProlog
mpldict begin
-126 72 translate
864 648 0 0 clipbox
gsave
0 0 m
864 0 l
864 648 l
0 648 l
cl
1.000 setgray
fill
grestore
gsave
108 71.28 m
777.6 71.28 l
777.6 570.24 l
108 570.24 l
cl
1.000 setgray
fill
grestore
0.800 setlinewidth
1 setlinejoin
0 setlinecap
[] 0 setdash
0.000 setgray
gsave
/o {
gsave
newpath
translate
0.8 setlinewidth
1 setlinejoin
0 setlinecap
0 0 m
0 -3.5 l

gsave
0.000 setgray
fill
grestore
stroke
grestore
} bind def
108 71.28 o
grestore
/DejaVuSans findfont
24.000 scalefont
setfont
gsave
100.367188 46.045625 translate
0.000000 rotate
0.000000 0.000000 m /five glyphshow
grestore
gsave
/o {
gsave
newpath
translate
0.8 setlinewidth
1 setlinejoin
0 setlinecap
0 0 m
0 -3.5 l

gsave
0.000 setgray
fill
grestore
stroke
grestore
} bind def
185.86 71.28 o
grestore
gsave
170.594840 46.045625 translate
0.000000 rotate
0.000000 0.000000 m /one glyphshow
15.269531 0.000000 m /zero glyphshow
grestore
gsave
/o {
gsave
newpath
translate
0.8 setlinewidth
1 setlinejoin
0 setlinecap
0 0 m
0 -3.5 l

gsave
0.000 setgray
fill
grestore
stroke
grestore
} bind def
263.721 71.28 o
grestore
gsave
248.455305 46.045625 translate
0.000000 rotate
0.000000 0.000000 m /one glyphshow
15.269531 0.000000 m /five glyphshow
grestore
gsave
/o {
gsave
newpath
translate
0.8 setlinewidth
1 setlinejoin
0 setlinecap
0 0 m
0 -3.5 l

gsave
0.000 setgray
fill
grestore
stroke
grestore
} bind def
341.581 71.28 o
grestore
gsave
326.315770 46.045625 translate
0.000000 rotate
0.000000 0.000000 m /two glyphshow
15.269531 0.000000 m /zero glyphshow
grestore
gsave
/o {
gsave
newpath
translate
0.8 setlinewidth
1 setlinejoin
0 setlinecap
0 0 m
0 -3.5 l

gsave
0.000 setgray
fill
grestore
stroke
grestore
} bind def
419.442 71.28 o
grestore
gsave
404.176235 46.045625 translate
0.000000 rotate
0.000000 0.000000 m /two glyphshow
15.269531 0.000000 m /five glyphshow
grestore
gsave
/o {
gsave
newpath
translate
0.8 setlinewidth
1 setlinejoin
0 setlinecap
0 0 m
0 -3.5 l

gsave
0.000 setgray
fill
grestore
stroke
grestore
} bind def
497.302 71.28 o
grestore
gsave
482.036701 46.045625 translate
0.000000 rotate
0.000000 0.000000 m /three glyphshow
15.269531 0.000000 m /zero glyphshow
grestore
gsave
/o {
gsave
newpath
translate
0.8 setlinewidth
1 setlinejoin
0 setlinecap
0 0 m
0 -3.5 l

gsave
0.000 setgray
fill
grestore
stroke
grestore
} bind def
575.163 71.28 o
grestore
gsave
559.897166 46.045625 translate
0.000000 rotate
0.000000 0.000000 m /three glyphshow
15.269531 0.000000 m /five glyphshow
grestore
gsave
/o {
gsave
newpath
translate
0.8 setlinewidth
1 setlinejoin
0 setlinecap
0 0 m
0 -3.5 l

gsave
0.000 setgray
fill
grestore
stroke
grestore
} bind def
653.023 71.28 o
grestore
gsave
637.757631 46.045625 translate
0.000000 rotate
0.000000 0.000000 m /four glyphshow
15.269531 0.000000 m /zero glyphshow
grestore
gsave
/o {
gsave
newpath
translate
0.8 setlinewidth
1 setlinejoin
0 setlinecap
0 0 m
0 -3.5 l

gsave
0.000 setgray
fill
grestore
stroke
grestore
} bind def
730.884 71.28 o
grestore
gsave
715.618096 46.045625 translate
0.000000 rotate
0.000000 0.000000 m /four glyphshow
15.269531 0.000000 m /five glyphshow
grestore
gsave
380.448438 18.811250 translate
0.000000 rotate
0.000000 0.000000 m /S glyphshow
15.234375 0.000000 m /n glyphshow
30.445312 0.000000 m /a glyphshow
45.152344 0.000000 m /p glyphshow
60.386719 0.000000 m /s glyphshow
72.890625 0.000000 m /h glyphshow
88.101562 0.000000 m /o glyphshow
102.785156 0.000000 m /t glyphshow
112.195312 0.000000 m /s glyphshow
grestore
gsave
/o {
gsave
newpath
translate
0.8 setlinewidth
1 setlinejoin
0 setlinecap
0 0 m
-3.5 0 l

gsave
0.000 setgray
fill
grestore
stroke
grestore
} bind def
108 93.5278 o
grestore
gsave
47.578125 84.410607 translate
0.000000 rotate
0.000000 0.000000 m /zero glyphshow
15.269531 0.000000 m /period glyphshow
22.898438 0.000000 m /zero glyphshow
38.167969 0.000000 m /zero glyphshow
grestore
gsave
/o {
gsave
newpath
translate
0.8 setlinewidth
1 setlinejoin
0 setlinecap
0 0 m
-3.5 0 l

gsave
0.000 setgray
fill
grestore
stroke
grestore
} bind def
108 179.969 o
grestore
gsave
47.578125 170.851769 translate
0.000000 rotate
0.000000 0.000000 m /zero glyphshow
15.269531 0.000000 m /period glyphshow
22.898438 0.000000 m /zero glyphshow
38.167969 0.000000 m /two glyphshow
grestore
gsave
/o {
gsave
newpath
translate
0.8 setlinewidth
1 setlinejoin
0 setlinecap
0 0 m
-3.5 0 l

gsave
0.000 setgray
fill
grestore
stroke
grestore
} bind def
108 266.41 o
grestore
gsave
47.578125 257.292932 translate
0.000000 rotate
0.000000 0.000000 m /zero glyphshow
15.269531 0.000000 m /period glyphshow
22.898438 0.000000 m /zero glyphshow
38.167969 0.000000 m /four glyphshow
grestore
gsave
/o {
gsave
newpath
translate
0.8 setlinewidth
1 setlinejoin
0 setlinecap
0 0 m
-3.5 0 l

gsave
0.000 setgray
fill
grestore
stroke
grestore
} bind def
108 352.851 o
grestore
gsave
47.578125 343.734094 translate
0.000000 rotate
0.000000 0.000000 m /zero glyphshow
15.269531 0.000000 m /period glyphshow
22.898438 0.000000 m /zero glyphshow
38.167969 0.000000 m /six glyphshow
grestore
gsave
/o {
gsave
newpath
translate
0.8 setlinewidth
1 setlinejoin
0 setlinecap
0 0 m
-3.5 0 l

gsave
0.000 setgray
fill
grestore
stroke
grestore
} bind def
108 439.292 o
grestore
gsave
47.578125 430.175257 translate
0.000000 rotate
0.000000 0.000000 m /zero glyphshow
15.269531 0.000000 m /period glyphshow
22.898438 0.000000 m /zero glyphshow
38.167969 0.000000 m /eight glyphshow
grestore
gsave
/o {
gsave
newpath
translate
0.8 setlinewidth
1 setlinejoin
0 setlinecap
0 0 m
-3.5 0 l

gsave
0.000 setgray
fill
grestore
stroke
grestore
} bind def
108 525.734 o
grestore
gsave
47.578125 516.616419 translate
0.000000 rotate
0.000000 0.000000 m /zero glyphshow
15.269531 0.000000 m /period glyphshow
22.898438 0.000000 m /one glyphshow
38.167969 0.000000 m /zero glyphshow
grestore
gsave
38.578125 271.978750 translate
90.000000 rotate
0.000000 0.000000 m /F glyphshow
13.789062 0.000000 m /r glyphshow
23.656250 0.000000 m /a glyphshow
38.363281 0.000000 m /c glyphshow
51.558594 0.000000 m /t glyphshow
60.968750 0.000000 m /i glyphshow
67.636719 0.000000 m /o glyphshow
82.320312 0.000000 m /n glyphshow
grestore
3.000 setlinewidth
2 setlinecap
1.000 0.000 0.000 setrgbcolor
gsave
669.6 499 108 71.28 clipbox
108 123.566098 m
123.572093 111.680438 l
139.144186 96.121029 l
154.716279 96.121029 l
170.288372 96.337132 l
185.860465 97.201544 l
201.432558 97.201544 l
217.004651 96.337132 l
232.576744 96.985441 l
248.148837 96.985441 l
263.72093 96.769338 l
279.293023 96.121029 l
294.865116 96.769338 l
310.437209 97.849852 l
326.009302 99.578676 l
341.581395 98.930367 l
357.153488 98.282058 l
372.725581 98.714264 l
388.297674 97.849852 l
403.869767 97.849852 l
419.44186 99.362573 l
435.013953 98.930367 l
450.586047 98.930367 l
466.15814 100.443087 l
481.730233 100.010881 l
497.302326 100.65919 l
512.874419 101.523602 l
528.446512 100.226984 l
544.018605 101.091396 l
559.590698 102.17191 l
575.162791 102.17191 l
590.734884 102.17191 l
606.306977 100.65919 l
621.87907 101.091396 l
637.451163 102.17191 l
653.023256 103.684631 l
668.595349 103.468528 l
684.167442 104.549042 l
699.739535 103.468528 l
715.311628 105.413454 l
730.883721 104.549042 l
746.455814 104.549042 l
762.027907 102.820219 l
777.6 103.684631 l
stroke
grestore
0 setlinecap
[11.1 4.8] 0 setdash
gsave
669.6 499 108 71.28 clipbox
108 95.904926 m
123.572093 95.47272 l
139.144186 95.47272 l
154.716279 94.824412 l
170.288372 94.608309 l
185.860465 95.47272 l
201.432558 95.904926 l
217.004651 94.824412 l
232.576744 94.824412 l
248.148837 95.040515 l
263.72093 96.121029 l
279.293023 94.824412 l
294.865116 95.040515 l
310.437209 96.337132 l
326.009302 97.201544 l
341.581395 96.769338 l
357.153488 96.121029 l
372.725581 96.337132 l
388.297674 95.688823 l
403.869767 94.608309 l
419.44186 96.337132 l
435.013953 95.688823 l
450.586047 96.337132 l
466.15814 96.985441 l
481.730233 96.553235 l
497.302326 96.985441 l
512.874419 97.417646 l
528.446512 97.201544 l
544.018605 97.633749 l
559.590698 98.714264 l
575.162791 98.714264 l
590.734884 98.930367 l
606.306977 97.633749 l
621.87907 97.633749 l
637.451163 98.282058 l
653.023256 99.14647 l
668.595349 98.714264 l
684.167442 98.930367 l
699.739535 98.930367 l
715.311628 99.794778 l
730.883721 98.714264 l
746.455814 99.14647 l
762.027907 98.498161 l
777.6 98.282058 l
stroke
grestore
2 setlinecap
[] 0 setdash
0.000 0.000 1.000 setrgbcolor
gsave
669.6 499 108 71.28 clipbox
108 123.349995 m
123.572093 111.03213 l
139.144186 95.040515 l
154.716279 94.824412 l
170.288372 94.824412 l
185.860465 95.688823 l
201.432558 96.769338 l
217.004651 95.256617 l
232.576744 96.985441 l
248.148837 96.121029 l
263.72093 95.688823 l
279.293023 95.904926 l
294.865116 95.47272 l
310.437209 96.121029 l
326.009302 98.282058 l
341.581395 97.201544 l
357.153488 96.553235 l
372.725581 97.417646 l
388.297674 97.417646 l
403.869767 97.201544 l
419.44186 98.065955 l
435.013953 97.633749 l
450.586047 97.201544 l
466.15814 97.849852 l
481.730233 98.065955 l
497.302326 97.633749 l
512.874419 98.498161 l
528.446512 98.714264 l
544.018605 98.714264 l
559.590698 100.226984 l
575.162791 100.010881 l
590.734884 100.443087 l
606.306977 98.282058 l
621.87907 98.498161 l
637.451163 98.498161 l
653.023256 100.226984 l
668.595349 100.65919 l
684.167442 101.091396 l
699.739535 98.714264 l
715.311628 101.307499 l
730.883721 100.443087 l
746.455814 100.65919 l
762.027907 100.010881 l
777.6 100.010881 l
stroke
grestore
0 setlinecap
[11.1 4.8] 0 setdash
gsave
669.6 499 108 71.28 clipbox
108 95.256617 m
123.572093 95.040515 l
139.144186 94.392206 l
154.716279 94.176103 l
170.288372 94.176103 l
185.860465 94.608309 l
201.432558 95.47272 l
217.004651 93.96 l
232.576744 94.824412 l
248.148837 94.392206 l
263.72093 94.392206 l
279.293023 94.392206 l
294.865116 94.176103 l
310.437209 94.392206 l
326.009302 96.121029 l
341.581395 94.824412 l
357.153488 94.392206 l
372.725581 95.040515 l
388.297674 94.608309 l
403.869767 94.392206 l
419.44186 95.688823 l
435.013953 95.040515 l
450.586047 95.256617 l
466.15814 95.47272 l
481.730233 95.688823 l
497.302326 95.688823 l
512.874419 95.256617 l
528.446512 96.553235 l
544.018605 96.337132 l
559.590698 97.633749 l
575.162791 97.201544 l
590.734884 96.769338 l
606.306977 96.553235 l
621.87907 96.121029 l
637.451163 95.904926 l
653.023256 96.769338 l
668.595349 97.849852 l
684.167442 97.417646 l
699.739535 96.121029 l
715.311628 97.417646 l
730.883721 97.633749 l
746.455814 97.633749 l
762.027907 96.769338 l
777.6 96.553235 l
stroke
grestore
2 setlinecap
[] 0 setdash
1.000 0.000 0.000 setrgbcolor
gsave
669.6 499 108 71.28 clipbox
108 171.540943 m
123.572093 131.345803 l
139.144186 100.443087 l
154.716279 100.226984 l
170.288372 101.307499 l
185.860465 101.523602 l
201.432558 101.955808 l
217.004651 102.604116 l
232.576744 104.549042 l
248.148837 104.765145 l
263.72093 104.549042 l
279.293023 104.332939 l
294.865116 103.252425 l
310.437209 105.629557 l
326.009302 104.981248 l
341.581395 104.765145 l
357.153488 105.84566 l
372.725581 104.981248 l
388.297674 104.765145 l
403.869767 106.710071 l
419.44186 107.35838 l
435.013953 106.493969 l
450.586047 106.710071 l
466.15814 109.087203 l
481.730233 111.248232 l
497.302326 112.760953 l
512.874419 111.248232 l
528.446512 113.625364 l
544.018605 111.464335 l
559.590698 112.112644 l
575.162791 111.464335 l
590.734884 109.735512 l
606.306977 112.977056 l
621.87907 114.05757 l
637.451163 112.328747 l
653.023256 112.328747 l
668.595349 115.570291 l
684.167442 115.138085 l
699.739535 116.650805 l
715.311628 118.163525 l
730.883721 117.299114 l
746.455814 117.947423 l
762.027907 120.324555 l
777.6 117.515217 l
stroke
grestore
1.000 setlinewidth
0 setlinejoin
0 setlinecap
gsave
669.6 499 108 71.28 clipbox
/o {
gsave
newpath
translate
1.0 setlinewidth
0 setlinejoin
0 setlinecap
-10 -10 m
10 -10 l
10 10 l
-10 10 l
cl

gsave
grestore
stroke
grestore
} bind def
108 171.541 o
123.572 131.346 o
139.144 100.443 o
154.716 100.227 o
170.288 101.307 o
185.86 101.524 o
201.433 101.956 o
217.005 102.604 o
232.577 104.549 o
248.149 104.765 o
263.721 104.549 o
279.293 104.333 o
294.865 103.252 o
310.437 105.63 o
326.009 104.981 o
341.581 104.765 o
357.153 105.846 o
372.726 104.981 o
388.298 104.765 o
403.87 106.71 o
419.442 107.358 o
435.014 106.494 o
450.586 106.71 o
466.158 109.087 o
481.73 111.248 o
497.302 112.761 o
512.874 111.248 o
528.447 113.625 o
544.019 111.464 o
559.591 112.113 o
575.163 111.464 o
590.735 109.736 o
606.307 112.977 o
621.879 114.058 o
637.451 112.329 o
653.023 112.329 o
668.595 115.57 o
684.167 115.138 o
699.74 116.651 o
715.312 118.164 o
730.884 117.299 o
746.456 117.947 o
762.028 120.325 o
777.6 117.515 o
grestore
3.000 setlinewidth
1 setlinejoin
[11.1 4.8] 0 setdash
gsave
669.6 499 108 71.28 clipbox
108 95.688823 m
123.572093 95.688823 l
139.144186 97.417646 l
154.716279 96.121029 l
170.288372 96.985441 l
185.860465 97.417646 l
201.432558 96.769338 l
217.004651 96.985441 l
232.576744 97.849852 l
248.148837 97.849852 l
263.72093 98.498161 l
279.293023 97.849852 l
294.865116 98.065955 l
310.437209 98.930367 l
326.009302 97.633749 l
341.581395 98.282058 l
357.153488 98.498161 l
372.725581 98.498161 l
388.297674 97.417646 l
403.869767 100.226984 l
419.44186 99.578676 l
435.013953 97.417646 l
450.586047 98.498161 l
466.15814 99.14647 l
481.730233 100.010881 l
497.302326 99.14647 l
512.874419 98.498161 l
528.446512 98.498161 l
544.018605 99.578676 l
559.590698 99.578676 l
575.162791 99.578676 l
590.734884 98.714264 l
606.306977 99.794778 l
621.87907 98.930367 l
637.451163 98.498161 l
653.023256 98.714264 l
668.595349 99.14647 l
684.167442 100.226984 l
699.739535 101.091396 l
715.311628 100.65919 l
730.883721 101.091396 l
746.455814 101.955808 l
762.027907 102.820219 l
777.6 100.65919 l
stroke
grestore
1.000 setlinewidth
0 setlinejoin
[] 0 setdash
gsave
669.6 499 108 71.28 clipbox
/o {
gsave
newpath
translate
1.0 setlinewidth
0 setlinejoin
0 setlinecap
-10 -10 m
10 -10 l
10 10 l
-10 10 l
cl

gsave
grestore
stroke
grestore
} bind def
108 95.6888 o
123.572 95.6888 o
139.144 97.4176 o
154.716 96.121 o
170.288 96.9854 o
185.86 97.4176 o
201.433 96.7693 o
217.005 96.9854 o
232.577 97.8499 o
248.149 97.8499 o
263.721 98.4982 o
279.293 97.8499 o
294.865 98.066 o
310.437 98.9304 o
326.009 97.6337 o
341.581 98.2821 o
357.153 98.4982 o
372.726 98.4982 o
388.298 97.4176 o
403.87 100.227 o
419.442 99.5787 o
435.014 97.4176 o
450.586 98.4982 o
466.158 99.1465 o
481.73 100.011 o
497.302 99.1465 o
512.874 98.4982 o
528.447 98.4982 o
544.019 99.5787 o
559.591 99.5787 o
575.163 99.5787 o
590.735 98.7143 o
606.307 99.7948 o
621.879 98.9304 o
637.451 98.4982 o
653.023 98.7143 o
668.595 99.1465 o
684.167 100.227 o
699.74 101.091 o
715.312 100.659 o
730.884 101.091 o
746.456 101.956 o
762.028 102.82 o
777.6 100.659 o
grestore
3.000 setlinewidth
1 setlinejoin
2 setlinecap
0.000 0.000 1.000 setrgbcolor
gsave
669.6 499 108 71.28 clipbox
108 172.405355 m
123.572093 132.210214 l
139.144186 100.65919 l
154.716279 100.875293 l
170.288372 101.739705 l
185.860465 101.739705 l
201.432558 102.17191 l
217.004651 103.468528 l
232.576744 104.981248 l
248.148837 104.981248 l
263.72093 105.629557 l
279.293023 105.413454 l
294.865116 103.900734 l
310.437209 105.413454 l
326.009302 106.277866 l
341.581395 106.277866 l
357.153488 108.006689 l
372.725581 106.493969 l
388.297674 106.277866 l
403.869767 107.790586 l
419.44186 108.654998 l
435.013953 108.438895 l
450.586047 109.735512 l
466.15814 111.03213 l
481.730233 111.03213 l
497.302326 112.760953 l
512.874419 113.193159 l
528.446512 113.625364 l
544.018605 112.112644 l
559.590698 113.193159 l
575.162791 113.409262 l
590.734884 112.760953 l
606.306977 115.354188 l
621.87907 116.434702 l
637.451163 112.977056 l
653.023256 112.328747 l
668.595349 113.193159 l
684.167442 113.841467 l
699.739535 115.138085 l
715.311628 118.811834 l
730.883721 118.379628 l
746.455814 119.027937 l
762.027907 119.24404 l
777.6 117.083011 l
stroke
grestore
1.000 setlinewidth
0 setlinejoin
0 setlinecap
gsave
669.6 499 108 71.28 clipbox
/o {
gsave
newpath
translate
1.0 setlinewidth
0 setlinejoin
0 setlinecap
-10 -10 m
10 -10 l
10 10 l
-10 10 l
cl

gsave
grestore
stroke
grestore
} bind def
108 172.405 o
123.572 132.21 o
139.144 100.659 o
154.716 100.875 o
170.288 101.74 o
185.86 101.74 o
201.433 102.172 o
217.005 103.469 o
232.577 104.981 o
248.149 104.981 o
263.721 105.63 o
279.293 105.413 o
294.865 103.901 o
310.437 105.413 o
326.009 106.278 o
341.581 106.278 o
357.153 108.007 o
372.726 106.494 o
388.298 106.278 o
403.87 107.791 o
419.442 108.655 o
435.014 108.439 o
450.586 109.736 o
466.158 111.032 o
481.73 111.032 o
497.302 112.761 o
512.874 113.193 o
528.447 113.625 o
544.019 112.113 o
559.591 113.193 o
575.163 113.409 o
590.735 112.761 o
606.307 115.354 o
621.879 116.435 o
637.451 112.977 o
653.023 112.329 o
668.595 113.193 o
684.167 113.841 o
699.74 115.138 o
715.312 118.812 o
730.884 118.38 o
746.456 119.028 o
762.028 119.244 o
777.6 117.083 o
grestore
3.000 setlinewidth
1 setlinejoin
[11.1 4.8] 0 setdash
gsave
669.6 499 108 71.28 clipbox
108 95.688823 m
123.572093 96.337132 l
139.144186 97.201544 l
154.716279 95.688823 l
170.288372 96.985441 l
185.860465 96.985441 l
201.432558 96.553235 l
217.004651 96.337132 l
232.576744 96.985441 l
248.148837 97.849852 l
263.72093 97.849852 l
279.293023 98.065955 l
294.865116 96.985441 l
310.437209 97.849852 l
326.009302 96.769338 l
341.581395 97.633749 l
357.153488 97.633749 l
372.725581 97.849852 l
388.297674 97.417646 l
403.869767 98.930367 l
419.44186 98.282058 l
435.013953 96.769338 l
450.586047 98.498161 l
466.15814 98.282058 l
481.730233 98.065955 l
497.302326 98.498161 l
512.874419 97.633749 l
528.446512 98.282058 l
544.018605 98.065955 l
559.590698 99.14647 l
575.162791 98.065955 l
590.734884 97.849852 l
606.306977 98.498161 l
621.87907 97.633749 l
637.451163 96.985441 l
653.023256 96.985441 l
668.595349 97.201544 l
684.167442 98.714264 l
699.739535 98.930367 l
715.311628 99.794778 l
730.883721 99.362573 l
746.455814 100.226984 l
762.027907 99.794778 l
777.6 99.578676 l
stroke
grestore
1.000 setlinewidth
0 setlinejoin
[] 0 setdash
gsave
669.6 499 108 71.28 clipbox
/o {
gsave
newpath
translate
1.0 setlinewidth
0 setlinejoin
0 setlinecap
-10 -10 m
10 -10 l
10 10 l
-10 10 l
cl

gsave
grestore
stroke
grestore
} bind def
108 95.6888 o
123.572 96.3371 o
139.144 97.2015 o
154.716 95.6888 o
170.288 96.9854 o
185.86 96.9854 o
201.433 96.5532 o
217.005 96.3371 o
232.577 96.9854 o
248.149 97.8499 o
263.721 97.8499 o
279.293 98.066 o
294.865 96.9854 o
310.437 97.8499 o
326.009 96.7693 o
341.581 97.6337 o
357.153 97.6337 o
372.726 97.8499 o
388.298 97.4176 o
403.87 98.9304 o
419.442 98.2821 o
435.014 96.7693 o
450.586 98.4982 o
466.158 98.2821 o
481.73 98.066 o
497.302 98.4982 o
512.874 97.6337 o
528.447 98.2821 o
544.019 98.066 o
559.591 99.1465 o
575.163 98.066 o
590.735 97.8499 o
606.307 98.4982 o
621.879 97.6337 o
637.451 96.9854 o
653.023 96.9854 o
668.595 97.2015 o
684.167 98.7143 o
699.74 98.9304 o
715.312 99.7948 o
730.884 99.3626 o
746.456 100.227 o
762.028 99.7948 o
777.6 99.5787 o
grestore
3.000 setlinewidth
1 setlinejoin
2 setlinecap
1.000 0.000 0.000 setrgbcolor
gsave
669.6 499 108 71.28 clipbox
108 252.795636 m
123.572093 180.833368 l
139.144186 116.866908 l
154.716279 122.269481 l
170.288372 126.159333 l
185.860465 127.888156 l
201.432558 133.722935 l
217.004651 140.638228 l
232.576744 145.176389 l
248.148837 143.663668 l
263.72093 150.578961 l
279.293023 155.765431 l
294.865116 156.845946 l
310.437209 159.223078 l
326.009302 162.680724 l
341.581395 168.947708 l
357.153488 175.863001 l
372.725581 178.02403 l
388.297674 184.074912 l
403.869767 192.935131 l
419.44186 201.363144 l
435.013953 203.956379 l
450.586047 208.49454 l
466.15814 214.545422 l
481.730233 224.918361 l
497.302326 231.617551 l
512.874419 248.689681 l
528.446512 254.740562 l
544.018605 261.007546 l
559.590698 277.431367 l
575.162791 291.261953 l
590.734884 301.202687 l
606.306977 318.058714 l
621.87907 332.321505 l
637.451163 352.202973 l
653.023256 367.546279 l
668.595349 383.537894 l
684.167442 403.851567 l
699.739535 428.487299 l
715.311628 448.152663 l
730.883721 472.356189 l
746.455814 495.695303 l
762.027907 523.140372 l
777.6 547.56 l
stroke
grestore
1.000 setlinewidth
0 setlinecap
gsave
669.6 499 108 71.28 clipbox
/o {
gsave
newpath
translate
1.0 setlinewidth
1 setlinejoin
0 setlinecap
0 -10 m
2.652031 -10 5.195799 -8.946337 7.071068 -7.071068 c
8.946337 -5.195799 10 -2.652031 10 0 c
10 2.652031 8.946337 5.195799 7.071068 7.071068 c
5.195799 8.946337 2.652031 10 0 10 c
-2.652031 10 -5.195799 8.946337 -7.071068 7.071068 c
-8.946337 5.195799 -10 2.652031 -10 0 c
-10 -2.652031 -8.946337 -5.195799 -7.071068 -7.071068 c
-5.195799 -8.946337 -2.652031 -10 0 -10 c
cl

gsave
grestore
stroke
grestore
} bind def
108 252.796 o
123.572 180.833 o
139.144 116.867 o
154.716 122.269 o
170.288 126.159 o
185.86 127.888 o
201.433 133.723 o
217.005 140.638 o
232.577 145.176 o
248.149 143.664 o
263.721 150.579 o
279.293 155.765 o
294.865 156.846 o
310.437 159.223 o
326.009 162.681 o
341.581 168.948 o
357.153 175.863 o
372.726 178.024 o
388.298 184.075 o
403.87 192.935 o
419.442 201.363 o
435.014 203.956 o
450.586 208.495 o
466.158 214.545 o
481.73 224.918 o
497.302 231.618 o
512.874 248.69 o
528.447 254.741 o
544.019 261.008 o
559.591 277.431 o
575.163 291.262 o
590.735 301.203 o
606.307 318.059 o
621.879 332.322 o
637.451 352.203 o
653.023 367.546 o
668.595 383.538 o
684.167 403.852 o
699.74 428.487 o
715.312 448.153 o
730.884 472.356 o
746.456 495.695 o
762.028 523.14 o
777.6 547.56 o
grestore
3.000 setlinewidth
[11.1 4.8] 0 setdash
gsave
669.6 499 108 71.28 clipbox
108 97.201544 m
123.572093 98.282058 l
139.144186 98.714264 l
154.716279 101.091396 l
170.288372 98.930367 l
185.860465 99.794778 l
201.432558 99.362573 l
217.004651 102.604116 l
232.576744 102.17191 l
248.148837 103.252425 l
263.72093 103.036322 l
279.293023 104.116837 l
294.865116 103.684631 l
310.437209 106.061763 l
326.009302 104.116837 l
341.581395 109.951615 l
357.153488 109.303306 l
372.725581 112.328747 l
388.297674 113.841467 l
403.869767 119.24404 l
419.44186 119.027937 l
435.013953 119.892349 l
450.586047 120.972863 l
466.15814 119.027937 l
481.730233 128.320362 l
497.302326 129.184774 l
512.874419 143.231463 l
528.446512 141.934845 l
544.018605 149.930653 l
559.590698 156.41374 l
575.162791 166.354474 l
590.734884 171.973149 l
606.306977 182.129986 l
621.87907 188.613073 l
637.451163 200.066527 l
653.023256 212.816598 l
668.595349 230.537037 l
684.167442 244.367623 l
699.739535 256.253283 l
715.311628 277.215264 l
730.883721 293.639085 l
746.455814 310.495112 l
762.027907 334.266432 l
777.6 348.097018 l
stroke
grestore
1.000 setlinewidth
[] 0 setdash
gsave
669.6 499 108 71.28 clipbox
/o {
gsave
newpath
translate
1.0 setlinewidth
1 setlinejoin
0 setlinecap
0 -10 m
2.652031 -10 5.195799 -8.946337 7.071068 -7.071068 c
8.946337 -5.195799 10 -2.652031 10 0 c
10 2.652031 8.946337 5.195799 7.071068 7.071068 c
5.195799 8.946337 2.652031 10 0 10 c
-2.652031 10 -5.195799 8.946337 -7.071068 7.071068 c
-8.946337 5.195799 -10 2.652031 -10 0 c
-10 -2.652031 -8.946337 -5.195799 -7.071068 -7.071068 c
-5.195799 -8.946337 -2.652031 -10 0 -10 c
cl

gsave
grestore
stroke
grestore
} bind def
108 97.2015 o
123.572 98.2821 o
139.144 98.7143 o
154.716 101.091 o
170.288 98.9304 o
185.86 99.7948 o
201.433 99.3626 o
217.005 102.604 o
232.577 102.172 o
248.149 103.252 o
263.721 103.036 o
279.293 104.117 o
294.865 103.685 o
310.437 106.062 o
326.009 104.117 o
341.581 109.952 o
357.153 109.303 o
372.726 112.329 o
388.298 113.841 o
403.87 119.244 o
419.442 119.028 o
435.014 119.892 o
450.586 120.973 o
466.158 119.028 o
481.73 128.32 o
497.302 129.185 o
512.874 143.231 o
528.447 141.935 o
544.019 149.931 o
559.591 156.414 o
575.163 166.354 o
590.735 171.973 o
606.307 182.13 o
621.879 188.613 o
637.451 200.067 o
653.023 212.817 o
668.595 230.537 o
684.167 244.368 o
699.74 256.253 o
715.312 277.215 o
730.884 293.639 o
746.456 310.495 o
762.028 334.266 o
777.6 348.097 o
grestore
3.000 setlinewidth
2 setlinecap
0.000 0.000 1.000 setrgbcolor
gsave
669.6 499 108 71.28 clipbox
108 261.871958 m
123.572093 185.803735 l
139.144186 115.138085 l
154.716279 119.24404 l
170.288372 121.405069 l
185.860465 122.053378 l
201.432558 125.294921 l
217.004651 130.265288 l
232.576744 135.883964 l
248.148837 133.722935 l
263.72093 137.612787 l
279.293023 143.879771 l
294.865116 140.422125 l
310.437209 143.231463 l
326.009302 142.799257 l
341.581395 147.985727 l
357.153488 155.549328 l
372.725581 156.41374 l
388.297674 159.871386 l
403.869767 163.977342 l
419.44186 169.596017 l
435.013953 170.892635 l
450.586047 169.379914 l
466.15814 167.867194 l
481.730233 171.757046 l
497.302326 170.244326 l
512.874419 178.672339 l
528.446512 182.129986 l
544.018605 179.752854 l
559.590698 184.723221 l
575.162791 185.587632 l
590.734884 186.88425 l
606.306977 187.532558 l
621.87907 191.638514 l
637.451163 195.744469 l
653.023256 196.60888 l
668.595349 195.744469 l
684.167442 198.553807 l
699.739535 200.498733 l
715.311628 200.930939 l
730.883721 202.443659 l
746.455814 202.443659 l
762.027907 203.091968 l
777.6 203.956379 l
stroke
grestore
1.000 setlinewidth
0 setlinecap
gsave
669.6 499 108 71.28 clipbox
/o {
gsave
newpath
translate
1.0 setlinewidth
1 setlinejoin
0 setlinecap
0 -10 m
2.652031 -10 5.195799 -8.946337 7.071068 -7.071068 c
8.946337 -5.195799 10 -2.652031 10 0 c
10 2.652031 8.946337 5.195799 7.071068 7.071068 c
5.195799 8.946337 2.652031 10 0 10 c
-2.652031 10 -5.195799 8.946337 -7.071068 7.071068 c
-8.946337 5.195799 -10 2.652031 -10 0 c
-10 -2.652031 -8.946337 -5.195799 -7.071068 -7.071068 c
-5.195799 -8.946337 -2.652031 -10 0 -10 c
cl

gsave
grestore
stroke
grestore
} bind def
108 261.872 o
123.572 185.804 o
139.144 115.138 o
154.716 119.244 o
170.288 121.405 o
185.86 122.053 o
201.433 125.295 o
217.005 130.265 o
232.577 135.884 o
248.149 133.723 o
263.721 137.613 o
279.293 143.88 o
294.865 140.422 o
310.437 143.231 o
326.009 142.799 o
341.581 147.986 o
357.153 155.549 o
372.726 156.414 o
388.298 159.871 o
403.87 163.977 o
419.442 169.596 o
435.014 170.893 o
450.586 169.38 o
466.158 167.867 o
481.73 171.757 o
497.302 170.244 o
512.874 178.672 o
528.447 182.13 o
544.019 179.753 o
559.591 184.723 o
575.163 185.588 o
590.735 186.884 o
606.307 187.533 o
621.879 191.639 o
637.451 195.744 o
653.023 196.609 o
668.595 195.744 o
684.167 198.554 o
699.74 200.499 o
715.312 200.931 o
730.884 202.444 o
746.456 202.444 o
762.028 203.092 o
777.6 203.956 o
grestore
3.000 setlinewidth
[11.1 4.8] 0 setdash
gsave
669.6 499 108 71.28 clipbox
108 96.121029 m
123.572093 98.498161 l
139.144186 96.985441 l
154.716279 98.282058 l
170.288372 98.282058 l
185.860465 98.714264 l
201.432558 98.714264 l
217.004651 100.226984 l
232.576744 99.794778 l
248.148837 97.417646 l
263.72093 98.498161 l
279.293023 101.955808 l
294.865116 99.578676 l
310.437209 102.820219 l
326.009302 99.362573 l
341.581395 101.523602 l
357.153488 101.307499 l
372.725581 102.604116 l
388.297674 101.307499 l
403.869767 104.549042 l
419.44186 104.116837 l
435.013953 104.981248 l
450.586047 103.900734 l
466.15814 102.604116 l
481.730233 103.468528 l
497.302326 101.091396 l
512.874419 104.116837 l
528.446512 105.84566 l
544.018605 103.684631 l
559.590698 102.17191 l
575.162791 103.468528 l
590.734884 104.981248 l
606.306977 105.629557 l
621.87907 105.84566 l
637.451163 107.35838 l
653.023256 108.438895 l
668.595349 105.84566 l
684.167442 104.332939 l
699.739535 108.222792 l
715.311628 108.654998 l
730.883721 108.438895 l
746.455814 110.167718 l
762.027907 110.167718 l
777.6 111.248232 l
stroke
grestore
1.000 setlinewidth
[] 0 setdash
gsave
669.6 499 108 71.28 clipbox
/o {
gsave
newpath
translate
1.0 setlinewidth
1 setlinejoin
0 setlinecap
0 -10 m
2.652031 -10 5.195799 -8.946337 7.071068 -7.071068 c
8.946337 -5.195799 10 -2.652031 10 0 c
10 2.652031 8.946337 5.195799 7.071068 7.071068 c
5.195799 8.946337 2.652031 10 0 10 c
-2.652031 10 -5.195799 8.946337 -7.071068 7.071068 c
-8.946337 5.195799 -10 2.652031 -10 0 c
-10 -2.652031 -8.946337 -5.195799 -7.071068 -7.071068 c
-5.195799 -8.946337 -2.652031 -10 0 -10 c
cl

gsave
grestore
stroke
grestore
} bind def
108 96.121 o
123.572 98.4982 o
139.144 96.9854 o
154.716 98.2821 o
170.288 98.2821 o
185.86 98.7143 o
201.433 98.7143 o
217.005 100.227 o
232.577 99.7948 o
248.149 97.4176 o
263.721 98.4982 o
279.293 101.956 o
294.865 99.5787 o
310.437 102.82 o
326.009 99.3626 o
341.581 101.524 o
357.153 101.307 o
372.726 102.604 o
388.298 101.307 o
403.87 104.549 o
419.442 104.117 o
435.014 104.981 o
450.586 103.901 o
466.158 102.604 o
481.73 103.469 o
497.302 101.091 o
512.874 104.117 o
528.447 105.846 o
544.019 103.685 o
559.591 102.172 o
575.163 103.469 o
590.735 104.981 o
606.307 105.63 o
621.879 105.846 o
637.451 107.358 o
653.023 108.439 o
668.595 105.846 o
684.167 104.333 o
699.74 108.223 o
715.312 108.655 o
730.884 108.439 o
746.456 110.168 o
762.028 110.168 o
777.6 111.248 o
grestore
0.800 setlinewidth
0 setlinejoin
2 setlinecap
[] 0 setdash
0.000 setgray
gsave
108 71.28 m
108 570.24 l
stroke
grestore
gsave
777.6 71.28 m
777.6 570.24 l
stroke
grestore
gsave
108 71.28 m
777.6 71.28 l
stroke
grestore
gsave
108 570.24 m
777.6 570.24 l
stroke
grestore
gsave
160.870313 576.240000 translate
0.000000 rotate
0.000000 0.000000 m /F glyphshow
13.789062 0.000000 m /r glyphshow
23.656250 0.000000 m /a glyphshow
38.363281 0.000000 m /c glyphshow
51.558594 0.000000 m /t glyphshow
60.968750 0.000000 m /i glyphshow
67.636719 0.000000 m /o glyphshow
82.320312 0.000000 m /n glyphshow
97.531250 0.000000 m /space glyphshow
105.160156 0.000000 m /o glyphshow
119.843750 0.000000 m /f glyphshow
128.292969 0.000000 m /space glyphshow
135.921875 0.000000 m /U glyphshow
153.488281 0.000000 m /n glyphshow
168.699219 0.000000 m /d glyphshow
183.933594 0.000000 m /e glyphshow
198.699219 0.000000 m /t glyphshow
208.109375 0.000000 m /e glyphshow
222.875000 0.000000 m /c glyphshow
236.070312 0.000000 m /t glyphshow
245.480469 0.000000 m /e glyphshow
260.246094 0.000000 m /d glyphshow
275.480469 0.000000 m /space glyphshow
283.109375 0.000000 m /T glyphshow
297.722656 0.000000 m /r glyphshow
307.589844 0.000000 m /a glyphshow
322.296875 0.000000 m /c glyphshow
335.492188 0.000000 m /k glyphshow
349.390625 0.000000 m /s glyphshow
361.894531 0.000000 m /slash glyphshow
369.980469 0.000000 m /P glyphshow
384.437500 0.000000 m /a glyphshow
399.144531 0.000000 m /r glyphshow
409.011719 0.000000 m /t glyphshow
418.421875 0.000000 m /i glyphshow
425.089844 0.000000 m /c glyphshow
438.285156 0.000000 m /l glyphshow
444.953125 0.000000 m /e glyphshow
459.718750 0.000000 m /s glyphshow
472.222656 0.000000 m /comma glyphshow
479.851562 0.000000 m /space glyphshow
487.480469 0.000000 m /two glyphshow
502.750000 0.000000 m /zero glyphshow
518.019531 0.000000 m /zero glyphshow
533.289062 0.000000 m /zero glyphshow
548.558594 0.000000 m /zero glyphshow
grestore
1.000 setlinewidth
0 setlinecap
0.800 setgray
gsave
125.86 294.0525 m
331.86 294.0525 l
333.86 294.0525 334.86 295.0525 334.86 297.0525 c
334.86 559.74 l
334.86 561.74 333.86 562.74 331.86 562.74 c
125.86 562.74 l
123.86 562.74 122.86 561.74 122.86 559.74 c
122.86 297.0525 l
122.86 295.0525 123.86 294.0525 125.86 294.0525 c
cl
gsave
1.000 setgray
fill
grestore
stroke
grestore
3.000 setlinewidth
1 setlinejoin
2 setlinecap
[] 0 setdash
1.000 0.000 0.000 setrgbcolor
gsave
128.86 550.599375 m
158.86 550.599375 l
stroke
grestore
0.000 setgray
gsave
170.860000 545.349375 translate
0.000000 rotate
/DejaVuSans findfont
15.0 scalefont
setfont
0.000000 0.609375 moveto
/S glyphshow

9.521484 0.609375 moveto
/T glyphshow

18.684082 0.609375 moveto
/B glyphshow

28.974609 0.609375 moveto
/comma glyphshow

33.742676 0.609375 moveto
/space glyphshow

38.510742 0.609375 moveto
/three glyphshow

/DejaVuSans-Oblique findfont
15.0 scalefont
setfont
48.054199 0.609375 moveto
/delta glyphshow

57.231445 0.609375 moveto
/t glyphshow

/DejaVuSans findfont
15.0 scalefont
setfont
63.112793 0.609375 moveto
/comma glyphshow

67.880859 0.609375 moveto
/space glyphshow

72.648926 0.609375 moveto
/T glyphshow

81.811523 0.609375 moveto
/r glyphshow

87.978516 0.609375 moveto
/a glyphshow

97.170410 0.609375 moveto
/c glyphshow

105.417480 0.609375 moveto
/k glyphshow

114.104004 0.609375 moveto
/s glyphshow


grestore
0 setlinecap
[11.1 4.8] 0 setdash
1.000 0.000 0.000 setrgbcolor
gsave
128.86 528.58375 m
158.86 528.58375 l
stroke
grestore
0.000 setgray
gsave
170.860000 523.333750 translate
0.000000 rotate
/DejaVuSans findfont
15.0 scalefont
setfont
0.000000 0.609375 moveto
/S glyphshow

9.521484 0.609375 moveto
/T glyphshow

18.684082 0.609375 moveto
/B glyphshow

28.974609 0.609375 moveto
/comma glyphshow

33.742676 0.609375 moveto
/space glyphshow

38.510742 0.609375 moveto
/three glyphshow

/DejaVuSans-Oblique findfont
15.0 scalefont
setfont
48.054199 0.609375 moveto
/delta glyphshow

57.231445 0.609375 moveto
/t glyphshow

/DejaVuSans findfont
15.0 scalefont
setfont
63.112793 0.609375 moveto
/comma glyphshow

67.880859 0.609375 moveto
/space glyphshow

72.648926 0.609375 moveto
/P glyphshow

81.694336 0.609375 moveto
/a glyphshow

90.886230 0.609375 moveto
/r glyphshow

97.053223 0.609375 moveto
/t glyphshow

102.934570 0.609375 moveto
/i glyphshow

107.102051 0.609375 moveto
/c glyphshow

115.349121 0.609375 moveto
/l glyphshow

119.516602 0.609375 moveto
/e glyphshow

128.745117 0.609375 moveto
/s glyphshow


grestore
2 setlinecap
[] 0 setdash
0.000 0.000 1.000 setrgbcolor
gsave
128.86 506.568125 m
158.86 506.568125 l
stroke
grestore
0.000 setgray
gsave
170.860000 501.318125 translate
0.000000 rotate
/DejaVuSans findfont
15.0 scalefont
setfont
0.000000 0.609375 moveto
/O glyphshow

11.806641 0.609375 moveto
/u glyphshow

21.313477 0.609375 moveto
/r glyphshow

27.480469 0.609375 moveto
/s glyphshow

35.295410 0.609375 moveto
/comma glyphshow

40.063477 0.609375 moveto
/space glyphshow

44.831543 0.609375 moveto
/three glyphshow

/DejaVuSans-Oblique findfont
15.0 scalefont
setfont
54.375000 0.609375 moveto
/delta glyphshow

63.552246 0.609375 moveto
/t glyphshow

/DejaVuSans findfont
15.0 scalefont
setfont
69.433594 0.609375 moveto
/comma glyphshow

74.201660 0.609375 moveto
/space glyphshow

78.969727 0.609375 moveto
/T glyphshow

88.132324 0.609375 moveto
/r glyphshow

94.299316 0.609375 moveto
/a glyphshow

103.491211 0.609375 moveto
/c glyphshow

111.738281 0.609375 moveto
/k glyphshow

120.424805 0.609375 moveto
/s glyphshow


grestore
0 setlinecap
[11.1 4.8] 0 setdash
0.000 0.000 1.000 setrgbcolor
gsave
128.86 484.5525 m
158.86 484.5525 l
stroke
grestore
0.000 setgray
gsave
170.860000 479.302500 translate
0.000000 rotate
/DejaVuSans findfont
15.0 scalefont
setfont
0.000000 0.609375 moveto
/O glyphshow

11.806641 0.609375 moveto
/u glyphshow

21.313477 0.609375 moveto
/r glyphshow

27.480469 0.609375 moveto
/s glyphshow

35.295410 0.609375 moveto
/comma glyphshow

40.063477 0.609375 moveto
/space glyphshow

44.831543 0.609375 moveto
/three glyphshow

/DejaVuSans-Oblique findfont
15.0 scalefont
setfont
54.375000 0.609375 moveto
/delta glyphshow

63.552246 0.609375 moveto
/t glyphshow

/DejaVuSans findfont
15.0 scalefont
setfont
69.433594 0.609375 moveto
/comma glyphshow

74.201660 0.609375 moveto
/space glyphshow

78.969727 0.609375 moveto
/P glyphshow

88.015137 0.609375 moveto
/a glyphshow

97.207031 0.609375 moveto
/r glyphshow

103.374023 0.609375 moveto
/t glyphshow

109.255371 0.609375 moveto
/i glyphshow

113.422852 0.609375 moveto
/c glyphshow

121.669922 0.609375 moveto
/l glyphshow

125.837402 0.609375 moveto
/e glyphshow

135.065918 0.609375 moveto
/s glyphshow


grestore
2 setlinecap
[] 0 setdash
1.000 0.000 0.000 setrgbcolor
gsave
128.86 462.536875 m
158.86 462.536875 l
stroke
grestore
1.000 setlinewidth
0 setlinejoin
0 setlinecap
gsave
/o {
gsave
newpath
translate
1.0 setlinewidth
0 setlinejoin
0 setlinecap
-10 -10 m
10 -10 l
10 10 l
-10 10 l
cl

gsave
grestore
stroke
grestore
} bind def
143.86 462.537 o
grestore
0.000 setgray
gsave
170.860000 457.286875 translate
0.000000 rotate
/DejaVuSans findfont
15.0 scalefont
setfont
0.000000 0.609375 moveto
/S glyphshow

9.521484 0.609375 moveto
/T glyphshow

18.684082 0.609375 moveto
/B glyphshow

28.974609 0.609375 moveto
/comma glyphshow

33.742676 0.609375 moveto
/space glyphshow

38.510742 0.609375 moveto
/seven glyphshow

48.054199 0.609375 moveto
/period glyphshow

52.822266 0.609375 moveto
/five glyphshow

/DejaVuSans-Oblique findfont
15.0 scalefont
setfont
62.365723 0.609375 moveto
/delta glyphshow

71.542969 0.609375 moveto
/t glyphshow

/DejaVuSans findfont
15.0 scalefont
setfont
77.424316 0.609375 moveto
/comma glyphshow

82.192383 0.609375 moveto
/space glyphshow

86.960449 0.609375 moveto
/T glyphshow

96.123047 0.609375 moveto
/r glyphshow

102.290039 0.609375 moveto
/a glyphshow

111.481934 0.609375 moveto
/c glyphshow

119.729004 0.609375 moveto
/k glyphshow

128.415527 0.609375 moveto
/s glyphshow


grestore
3.000 setlinewidth
1 setlinejoin
[11.1 4.8] 0 setdash
1.000 0.000 0.000 setrgbcolor
gsave
128.86 440.52125 m
158.86 440.52125 l
stroke
grestore
1.000 setlinewidth
0 setlinejoin
[] 0 setdash
gsave
/o {
gsave
newpath
translate
1.0 setlinewidth
0 setlinejoin
0 setlinecap
-10 -10 m
10 -10 l
10 10 l
-10 10 l
cl

gsave
grestore
stroke
grestore
} bind def
143.86 440.521 o
grestore
0.000 setgray
gsave
170.860000 435.271250 translate
0.000000 rotate
/DejaVuSans findfont
15.0 scalefont
setfont
0.000000 0.609375 moveto
/S glyphshow

9.521484 0.609375 moveto
/T glyphshow

18.684082 0.609375 moveto
/B glyphshow

28.974609 0.609375 moveto
/comma glyphshow

33.742676 0.609375 moveto
/space glyphshow

38.510742 0.609375 moveto
/seven glyphshow

48.054199 0.609375 moveto
/period glyphshow

52.822266 0.609375 moveto
/five glyphshow

/DejaVuSans-Oblique findfont
15.0 scalefont
setfont
62.365723 0.609375 moveto
/delta glyphshow

71.542969 0.609375 moveto
/t glyphshow

/DejaVuSans findfont
15.0 scalefont
setfont
77.424316 0.609375 moveto
/comma glyphshow

82.192383 0.609375 moveto
/space glyphshow

86.960449 0.609375 moveto
/P glyphshow

96.005859 0.609375 moveto
/a glyphshow

105.197754 0.609375 moveto
/r glyphshow

111.364746 0.609375 moveto
/t glyphshow

117.246094 0.609375 moveto
/i glyphshow

121.413574 0.609375 moveto
/c glyphshow

129.660645 0.609375 moveto
/l glyphshow

133.828125 0.609375 moveto
/e glyphshow

143.056641 0.609375 moveto
/s glyphshow


grestore
3.000 setlinewidth
1 setlinejoin
2 setlinecap
0.000 0.000 1.000 setrgbcolor
gsave
128.86 418.505625 m
158.86 418.505625 l
stroke
grestore
1.000 setlinewidth
0 setlinejoin
0 setlinecap
gsave
/o {
gsave
newpath
translate
1.0 setlinewidth
0 setlinejoin
0 setlinecap
-10 -10 m
10 -10 l
10 10 l
-10 10 l
cl

gsave
grestore
stroke
grestore
} bind def
143.86 418.506 o
grestore
0.000 setgray
gsave
170.860000 413.255625 translate
0.000000 rotate
/DejaVuSans findfont
15.0 scalefont
setfont
0.000000 0.609375 moveto
/O glyphshow

11.806641 0.609375 moveto
/u glyphshow

21.313477 0.609375 moveto
/r glyphshow

27.480469 0.609375 moveto
/s glyphshow

35.295410 0.609375 moveto
/comma glyphshow

40.063477 0.609375 moveto
/space glyphshow

44.831543 0.609375 moveto
/seven glyphshow

54.375000 0.609375 moveto
/period glyphshow

59.143066 0.609375 moveto
/five glyphshow

/DejaVuSans-Oblique findfont
15.0 scalefont
setfont
68.686523 0.609375 moveto
/delta glyphshow

77.863770 0.609375 moveto
/t glyphshow

/DejaVuSans findfont
15.0 scalefont
setfont
83.745117 0.609375 moveto
/comma glyphshow

88.513184 0.609375 moveto
/space glyphshow

93.281250 0.609375 moveto
/T glyphshow

102.443848 0.609375 moveto
/r glyphshow

108.610840 0.609375 moveto
/a glyphshow

117.802734 0.609375 moveto
/c glyphshow

126.049805 0.609375 moveto
/k glyphshow

134.736328 0.609375 moveto
/s glyphshow


grestore
3.000 setlinewidth
1 setlinejoin
[11.1 4.8] 0 setdash
0.000 0.000 1.000 setrgbcolor
gsave
128.86 396.49 m
158.86 396.49 l
stroke
grestore
1.000 setlinewidth
0 setlinejoin
[] 0 setdash
gsave
/o {
gsave
newpath
translate
1.0 setlinewidth
0 setlinejoin
0 setlinecap
-10 -10 m
10 -10 l
10 10 l
-10 10 l
cl

gsave
grestore
stroke
grestore
} bind def
143.86 396.49 o
grestore
0.000 setgray
gsave
170.860000 391.240000 translate
0.000000 rotate
/DejaVuSans findfont
15.0 scalefont
setfont
0.000000 0.609375 moveto
/O glyphshow

11.806641 0.609375 moveto
/u glyphshow

21.313477 0.609375 moveto
/r glyphshow

27.480469 0.609375 moveto
/s glyphshow

35.295410 0.609375 moveto
/comma glyphshow

40.063477 0.609375 moveto
/space glyphshow

44.831543 0.609375 moveto
/seven glyphshow

54.375000 0.609375 moveto
/period glyphshow

59.143066 0.609375 moveto
/five glyphshow

/DejaVuSans-Oblique findfont
15.0 scalefont
setfont
68.686523 0.609375 moveto
/delta glyphshow

77.863770 0.609375 moveto
/t glyphshow

/DejaVuSans findfont
15.0 scalefont
setfont
83.745117 0.609375 moveto
/comma glyphshow

88.513184 0.609375 moveto
/space glyphshow

93.281250 0.609375 moveto
/P glyphshow

102.326660 0.609375 moveto
/a glyphshow

111.518555 0.609375 moveto
/r glyphshow

117.685547 0.609375 moveto
/t glyphshow

123.566895 0.609375 moveto
/i glyphshow

127.734375 0.609375 moveto
/c glyphshow

135.981445 0.609375 moveto
/l glyphshow

140.148926 0.609375 moveto
/e glyphshow

149.377441 0.609375 moveto
/s glyphshow


grestore
3.000 setlinewidth
1 setlinejoin
2 setlinecap
1.000 0.000 0.000 setrgbcolor
gsave
128.86 374.474375 m
158.86 374.474375 l
stroke
grestore
1.000 setlinewidth
0 setlinecap
gsave
/o {
gsave
newpath
translate
1.0 setlinewidth
1 setlinejoin
0 setlinecap
0 -10 m
2.652031 -10 5.195799 -8.946337 7.071068 -7.071068 c
8.946337 -5.195799 10 -2.652031 10 0 c
10 2.652031 8.946337 5.195799 7.071068 7.071068 c
5.195799 8.946337 2.652031 10 0 10 c
-2.652031 10 -5.195799 8.946337 -7.071068 7.071068 c
-8.946337 5.195799 -10 2.652031 -10 0 c
-10 -2.652031 -8.946337 -5.195799 -7.071068 -7.071068 c
-5.195799 -8.946337 -2.652031 -10 0 -10 c
cl

gsave
grestore
stroke
grestore
} bind def
143.86 374.474 o
grestore
0.000 setgray
gsave
170.860000 369.224375 translate
0.000000 rotate
/DejaVuSans findfont
15.0 scalefont
setfont
0.000000 0.609375 moveto
/S glyphshow

9.521484 0.609375 moveto
/T glyphshow

18.684082 0.609375 moveto
/B glyphshow

28.974609 0.609375 moveto
/comma glyphshow

33.742676 0.609375 moveto
/space glyphshow

38.510742 0.609375 moveto
/one glyphshow

48.054199 0.609375 moveto
/five glyphshow

/DejaVuSans-Oblique findfont
15.0 scalefont
setfont
57.597656 0.609375 moveto
/delta glyphshow

66.774902 0.609375 moveto
/t glyphshow

/DejaVuSans findfont
15.0 scalefont
setfont
72.656250 0.609375 moveto
/comma glyphshow

77.424316 0.609375 moveto
/space glyphshow

82.192383 0.609375 moveto
/T glyphshow

91.354980 0.609375 moveto
/r glyphshow

97.521973 0.609375 moveto
/a glyphshow

106.713867 0.609375 moveto
/c glyphshow

114.960938 0.609375 moveto
/k glyphshow

123.647461 0.609375 moveto
/s glyphshow


grestore
3.000 setlinewidth
[11.1 4.8] 0 setdash
1.000 0.000 0.000 setrgbcolor
gsave
128.86 352.45875 m
158.86 352.45875 l
stroke
grestore
1.000 setlinewidth
[] 0 setdash
gsave
/o {
gsave
newpath
translate
1.0 setlinewidth
1 setlinejoin
0 setlinecap
0 -10 m
2.652031 -10 5.195799 -8.946337 7.071068 -7.071068 c
8.946337 -5.195799 10 -2.652031 10 0 c
10 2.652031 8.946337 5.195799 7.071068 7.071068 c
5.195799 8.946337 2.652031 10 0 10 c
-2.652031 10 -5.195799 8.946337 -7.071068 7.071068 c
-8.946337 5.195799 -10 2.652031 -10 0 c
-10 -2.652031 -8.946337 -5.195799 -7.071068 -7.071068 c
-5.195799 -8.946337 -2.652031 -10 0 -10 c
cl

gsave
grestore
stroke
grestore
} bind def
143.86 352.459 o
grestore
0.000 setgray
gsave
170.860000 347.208750 translate
0.000000 rotate
/DejaVuSans findfont
15.0 scalefont
setfont
0.000000 0.609375 moveto
/S glyphshow

9.521484 0.609375 moveto
/T glyphshow

18.684082 0.609375 moveto
/B glyphshow

28.974609 0.609375 moveto
/comma glyphshow

33.742676 0.609375 moveto
/space glyphshow

38.510742 0.609375 moveto
/one glyphshow

48.054199 0.609375 moveto
/five glyphshow

/DejaVuSans-Oblique findfont
15.0 scalefont
setfont
57.597656 0.609375 moveto
/delta glyphshow

66.774902 0.609375 moveto
/t glyphshow

/DejaVuSans findfont
15.0 scalefont
setfont
72.656250 0.609375 moveto
/comma glyphshow

77.424316 0.609375 moveto
/space glyphshow

82.192383 0.609375 moveto
/P glyphshow

91.237793 0.609375 moveto
/a glyphshow

100.429688 0.609375 moveto
/r glyphshow

106.596680 0.609375 moveto
/t glyphshow

112.478027 0.609375 moveto
/i glyphshow

116.645508 0.609375 moveto
/c glyphshow

124.892578 0.609375 moveto
/l glyphshow

129.060059 0.609375 moveto
/e glyphshow

138.288574 0.609375 moveto
/s glyphshow


grestore
3.000 setlinewidth
2 setlinecap
0.000 0.000 1.000 setrgbcolor
gsave
128.86 330.443125 m
158.86 330.443125 l
stroke
grestore
1.000 setlinewidth
0 setlinecap
gsave
/o {
gsave
newpath
translate
1.0 setlinewidth
1 setlinejoin
0 setlinecap
0 -10 m
2.652031 -10 5.195799 -8.946337 7.071068 -7.071068 c
8.946337 -5.195799 10 -2.652031 10 0 c
10 2.652031 8.946337 5.195799 7.071068 7.071068 c
5.195799 8.946337 2.652031 10 0 10 c
-2.652031 10 -5.195799 8.946337 -7.071068 7.071068 c
-8.946337 5.195799 -10 2.652031 -10 0 c
-10 -2.652031 -8.946337 -5.195799 -7.071068 -7.071068 c
-5.195799 -8.946337 -2.652031 -10 0 -10 c
cl

gsave
grestore
stroke
grestore
} bind def
143.86 330.443 o
grestore
0.000 setgray
gsave
170.860000 325.193125 translate
0.000000 rotate
/DejaVuSans findfont
15.0 scalefont
setfont
0.000000 0.609375 moveto
/O glyphshow

11.806641 0.609375 moveto
/u glyphshow

21.313477 0.609375 moveto
/r glyphshow

27.480469 0.609375 moveto
/s glyphshow

35.295410 0.609375 moveto
/comma glyphshow

40.063477 0.609375 moveto
/space glyphshow

44.831543 0.609375 moveto
/one glyphshow

54.375000 0.609375 moveto
/five glyphshow

/DejaVuSans-Oblique findfont
15.0 scalefont
setfont
63.918457 0.609375 moveto
/delta glyphshow

73.095703 0.609375 moveto
/t glyphshow

/DejaVuSans findfont
15.0 scalefont
setfont
78.977051 0.609375 moveto
/comma glyphshow

83.745117 0.609375 moveto
/space glyphshow

88.513184 0.609375 moveto
/T glyphshow

97.675781 0.609375 moveto
/r glyphshow

103.842773 0.609375 moveto
/a glyphshow

113.034668 0.609375 moveto
/c glyphshow

121.281738 0.609375 moveto
/k glyphshow

129.968262 0.609375 moveto
/s glyphshow


grestore
3.000 setlinewidth
[11.1 4.8] 0 setdash
0.000 0.000 1.000 setrgbcolor
gsave
128.86 308.4275 m
158.86 308.4275 l
stroke
grestore
1.000 setlinewidth
[] 0 setdash
gsave
/o {
gsave
newpath
translate
1.0 setlinewidth
1 setlinejoin
0 setlinecap
0 -10 m
2.652031 -10 5.195799 -8.946337 7.071068 -7.071068 c
8.946337 -5.195799 10 -2.652031 10 0 c
10 2.652031 8.946337 5.195799 7.071068 7.071068 c
5.195799 8.946337 2.652031 10 0 10 c
-2.652031 10 -5.195799 8.946337 -7.071068 7.071068 c
-8.946337 5.195799 -10 2.652031 -10 0 c
-10 -2.652031 -8.946337 -5.195799 -7.071068 -7.071068 c
-5.195799 -8.946337 -2.652031 -10 0 -10 c
cl

gsave
grestore
stroke
grestore
} bind def
143.86 308.428 o
grestore
0.000 setgray
gsave
170.860000 303.177500 translate
0.000000 rotate
/DejaVuSans findfont
15.0 scalefont
setfont
0.000000 0.609375 moveto
/O glyphshow

11.806641 0.609375 moveto
/u glyphshow

21.313477 0.609375 moveto
/r glyphshow

27.480469 0.609375 moveto
/s glyphshow

35.295410 0.609375 moveto
/comma glyphshow

40.063477 0.609375 moveto
/space glyphshow

44.831543 0.609375 moveto
/one glyphshow

54.375000 0.609375 moveto
/five glyphshow

/DejaVuSans-Oblique findfont
15.0 scalefont
setfont
63.918457 0.609375 moveto
/delta glyphshow

73.095703 0.609375 moveto
/t glyphshow

/DejaVuSans findfont
15.0 scalefont
setfont
78.977051 0.609375 moveto
/comma glyphshow

83.745117 0.609375 moveto
/space glyphshow

88.513184 0.609375 moveto
/P glyphshow

97.558594 0.609375 moveto
/a glyphshow

106.750488 0.609375 moveto
/r glyphshow

112.917480 0.609375 moveto
/t glyphshow

118.798828 0.609375 moveto
/i glyphshow

122.966309 0.609375 moveto
/c glyphshow

131.213379 0.609375 moveto
/l glyphshow

135.380859 0.609375 moveto
/e glyphshow

144.609375 0.609375 moveto
/s glyphshow


grestore

end
showpage
