%!PS-Adobe-3.0 EPSF-3.0
%%Title: /home/yin/020000_trackedghost.eps
%%Creator: matplotlib version 3.1.0, http://matplotlib.org/
%%CreationDate: Mon Jan 13 14:56:25 2020
%%Orientation: portrait
%%BoundingBox: -126.0 72.0 738.0 720.0
%%EndComments
%%BeginProlog
/mpldict 9 dict def
mpldict begin
/m { moveto } bind def
/l { lineto } bind def
/r { rlineto } bind def
/c { curveto } bind def
/cl { closepath } bind def
/box {
m
1 index 0 r
0 exch r
neg 0 r
cl
} bind def
/clipbox {
box
clip
newpath
} bind def
%!PS-Adobe-3.0 Resource-Font
%%Title: DejaVu Sans
%%Copyright: Copyright (c) 2003 by Bitstream, Inc. All Rights Reserved. Copyright (c) 2006 by Tavmjong Bah. All Rights Reserved. DejaVu changes are in public domain 
%%Creator: Converted from TrueType to type 3 by PPR
25 dict begin
/_d{bind def}bind def
/_m{moveto}_d
/_l{lineto}_d
/_cl{closepath eofill}_d
/_c{curveto}_d
/_sc{7 -1 roll{setcachedevice}{pop pop pop pop pop pop}ifelse}_d
/_e{exec}_d
/FontName /DejaVuSans def
/PaintType 0 def
/FontMatrix[.001 0 0 .001 0 0]def
/FontBBox[-1021 -463 1793 1232]def
/FontType 3 def
/Encoding [ /space /comma /period /zero /one /two /three /four /five /seven /B /F /O /S /T /a /c /d /e /f /g /h /i /k /l /n /o /p /r /s /t /u ] def
/FontInfo 10 dict dup begin
/FamilyName (DejaVu Sans) def
/FullName (DejaVu Sans) def
/Notice (Copyright (c) 2003 by Bitstream, Inc. All Rights Reserved. Copyright (c) 2006 by Tavmjong Bah. All Rights Reserved. DejaVu changes are in public domain ) def
/Weight (Book) def
/Version (Version 2.35) def
/ItalicAngle 0.0 def
/isFixedPitch false def
/UnderlinePosition -130 def
/UnderlineThickness 90 def
end readonly def
/CharStrings 33 dict dup begin
/.notdef 0 def
/space{318 0 0 0 0 0 _sc
}_d
/comma{318 0 77 -115 220 124 _sc
117 124 _m
220 124 _l
220 40 _l
140 -115 _l
77 -115 _l
117 40 _l
117 124 _l
_cl}_d
/period{318 0 107 0 210 124 _sc
107 124 _m
210 124 _l
210 0 _l
107 0 _l
107 124 _l
_cl}_d
/zero{636 0 66 -13 570 742 _sc
318 664 _m
267 664 229 639 203 589 _c
177 539 165 464 165 364 _c
165 264 177 189 203 139 _c
229 89 267 64 318 64 _c
369 64 407 89 433 139 _c
458 189 471 264 471 364 _c
471 464 458 539 433 589 _c
407 639 369 664 318 664 _c
318 742 _m
399 742 461 709 505 645 _c
548 580 570 486 570 364 _c
570 241 548 147 505 83 _c
461 19 399 -13 318 -13 _c
236 -13 173 19 130 83 _c
87 147 66 241 66 364 _c
66 486 87 580 130 645 _c
173 709 236 742 318 742 _c
_cl}_d
/one{636 0 110 0 544 729 _sc
124 83 _m
285 83 _l
285 639 _l
110 604 _l
110 694 _l
284 729 _l
383 729 _l
383 83 _l
544 83 _l
544 0 _l
124 0 _l
124 83 _l
_cl}_d
/two{{636 0 73 0 536 742 _sc
192 83 _m
536 83 _l
536 0 _l
73 0 _l
73 83 _l
110 121 161 173 226 239 _c
290 304 331 346 348 365 _c
380 400 402 430 414 455 _c
426 479 433 504 433 528 _c
433 566 419 598 392 622 _c
365 646 330 659 286 659 _c
255 659 222 653 188 643 _c
154 632 117 616 78 594 _c
78 694 _l
118 710 155 722 189 730 _c
223 738 255 742 284 742 _c
}_e{359 742 419 723 464 685 _c
509 647 532 597 532 534 _c
532 504 526 475 515 449 _c
504 422 484 390 454 354 _c
446 344 420 317 376 272 _c
332 227 271 164 192 83 _c
_cl}_e}_d
/three{{636 0 76 -13 556 742 _sc
406 393 _m
453 383 490 362 516 330 _c
542 298 556 258 556 212 _c
556 140 531 84 482 45 _c
432 6 362 -13 271 -13 _c
240 -13 208 -10 176 -4 _c
144 1 110 10 76 22 _c
76 117 _l
103 101 133 89 166 81 _c
198 73 232 69 268 69 _c
330 69 377 81 409 105 _c
441 129 458 165 458 212 _c
458 254 443 288 413 312 _c
383 336 341 349 287 349 _c
}_e{202 349 _l
202 430 _l
291 430 _l
339 430 376 439 402 459 _c
428 478 441 506 441 543 _c
441 580 427 609 401 629 _c
374 649 336 659 287 659 _c
260 659 231 656 200 650 _c
169 644 135 635 98 623 _c
98 711 _l
135 721 170 729 203 734 _c
235 739 266 742 296 742 _c
370 742 429 725 473 691 _c
517 657 539 611 539 553 _c
539 513 527 479 504 451 _c
481 423 448 403 406 393 _c
_cl}_e}_d
/four{636 0 49 0 580 729 _sc
378 643 _m
129 254 _l
378 254 _l
378 643 _l
352 729 _m
476 729 _l
476 254 _l
580 254 _l
580 172 _l
476 172 _l
476 0 _l
378 0 _l
378 172 _l
49 172 _l
49 267 _l
352 729 _l
_cl}_d
/five{{636 0 77 -13 549 729 _sc
108 729 _m
495 729 _l
495 646 _l
198 646 _l
198 467 _l
212 472 227 476 241 478 _c
255 480 270 482 284 482 _c
365 482 429 459 477 415 _c
525 370 549 310 549 234 _c
549 155 524 94 475 51 _c
426 8 357 -13 269 -13 _c
238 -13 207 -10 175 -6 _c
143 -1 111 6 77 17 _c
77 116 _l
106 100 136 88 168 80 _c
199 72 232 69 267 69 _c
}_e{323 69 368 83 401 113 _c
433 143 450 183 450 234 _c
450 284 433 324 401 354 _c
368 384 323 399 267 399 _c
241 399 214 396 188 390 _c
162 384 135 375 108 363 _c
108 729 _l
_cl}_e}_d
/seven{636 0 82 0 551 729 _sc
82 729 _m
551 729 _l
551 687 _l
286 0 _l
183 0 _l
432 646 _l
82 646 _l
82 729 _l
_cl}_d
/B{{686 0 98 0 615 729 _sc
197 348 _m
197 81 _l
355 81 _l
408 81 447 92 473 114 _c
498 136 511 169 511 215 _c
511 260 498 293 473 315 _c
447 337 408 348 355 348 _c
197 348 _l
197 648 _m
197 428 _l
343 428 _l
391 428 426 437 450 455 _c
474 473 486 500 486 538 _c
486 574 474 602 450 620 _c
426 638 391 648 343 648 _c
197 648 _l
98 729 _m
350 729 _l
}_e{425 729 483 713 524 682 _c
564 650 585 606 585 549 _c
585 504 574 468 553 442 _c
532 416 502 399 462 393 _c
510 382 548 360 575 327 _c
601 294 615 253 615 204 _c
615 138 592 88 548 53 _c
504 17 441 0 360 0 _c
98 0 _l
98 729 _l
_cl}_e}_d
/F{575 0 98 0 517 729 _sc
98 729 _m
517 729 _l
517 646 _l
197 646 _l
197 431 _l
486 431 _l
486 348 _l
197 348 _l
197 0 _l
98 0 _l
98 729 _l
_cl}_d
/O{787 0 56 -13 731 742 _sc
394 662 _m
322 662 265 635 223 582 _c
181 528 160 456 160 364 _c
160 272 181 199 223 146 _c
265 92 322 66 394 66 _c
465 66 522 92 564 146 _c
606 199 627 272 627 364 _c
627 456 606 528 564 582 _c
522 635 465 662 394 662 _c
394 742 _m
496 742 577 707 639 639 _c
700 571 731 479 731 364 _c
731 248 700 157 639 89 _c
577 21 496 -13 394 -13 _c
291 -13 209 21 148 89 _c
86 157 56 248 56 364 _c
56 479 86 571 148 639 _c
209 707 291 742 394 742 _c
_cl}_d
/S{{635 0 66 -13 579 742 _sc
535 705 _m
535 609 _l
497 627 462 640 429 649 _c
395 657 363 662 333 662 _c
279 662 237 651 208 631 _c
179 610 165 580 165 542 _c
165 510 174 485 194 469 _c
213 452 250 439 304 429 _c
364 417 _l
437 403 491 378 526 343 _c
561 307 579 260 579 201 _c
579 130 555 77 508 41 _c
460 5 391 -13 300 -13 _c
265 -13 228 -9 189 -2 _c
}_e{150 5 110 16 69 32 _c
69 134 _l
109 111 148 94 186 83 _c
224 71 262 66 300 66 _c
356 66 399 77 430 99 _c
460 121 476 152 476 194 _c
476 230 465 258 443 278 _c
421 298 385 313 335 323 _c
275 335 _l
201 349 148 372 115 404 _c
82 435 66 478 66 534 _c
66 598 88 649 134 686 _c
179 723 242 742 322 742 _c
356 742 390 739 426 733 _c
461 727 497 717 535 705 _c
}_e{_cl}_e}_d
/T{611 0 -2 0 614 729 _sc
-2 729 _m
614 729 _l
614 646 _l
355 646 _l
355 0 _l
256 0 _l
256 646 _l
-2 646 _l
-2 729 _l
_cl}_d
/a{{613 0 60 -13 522 560 _sc
343 275 _m
270 275 220 266 192 250 _c
164 233 150 205 150 165 _c
150 133 160 107 181 89 _c
202 70 231 61 267 61 _c
317 61 357 78 387 114 _c
417 149 432 196 432 255 _c
432 275 _l
343 275 _l
522 312 _m
522 0 _l
432 0 _l
432 83 _l
411 49 385 25 355 10 _c
325 -5 287 -13 243 -13 _c
187 -13 142 2 109 33 _c
76 64 60 106 60 159 _c
}_e{60 220 80 266 122 298 _c
163 329 224 345 306 345 _c
432 345 _l
432 354 _l
432 395 418 427 391 450 _c
364 472 326 484 277 484 _c
245 484 215 480 185 472 _c
155 464 127 453 100 439 _c
100 522 _l
132 534 164 544 195 550 _c
226 556 256 560 286 560 _c
365 560 424 539 463 498 _c
502 457 522 395 522 312 _c
_cl}_e}_d
/c{{550 0 55 -13 488 560 _sc
488 526 _m
488 442 _l
462 456 437 466 411 473 _c
385 480 360 484 334 484 _c
276 484 230 465 198 428 _c
166 391 150 339 150 273 _c
150 206 166 154 198 117 _c
230 80 276 62 334 62 _c
360 62 385 65 411 72 _c
437 79 462 90 488 104 _c
488 21 _l
462 9 436 0 410 -5 _c
383 -10 354 -13 324 -13 _c
242 -13 176 12 128 64 _c
}_e{79 115 55 185 55 273 _c
55 362 79 432 128 483 _c
177 534 244 560 330 560 _c
358 560 385 557 411 551 _c
437 545 463 537 488 526 _c
_cl}_e}_d
/d{{635 0 55 -13 544 760 _sc
454 464 _m
454 760 _l
544 760 _l
544 0 _l
454 0 _l
454 82 _l
435 49 411 25 382 10 _c
353 -5 319 -13 279 -13 _c
213 -13 159 13 117 65 _c
75 117 55 187 55 273 _c
55 359 75 428 117 481 _c
159 533 213 560 279 560 _c
319 560 353 552 382 536 _c
411 520 435 496 454 464 _c
148 273 _m
148 207 161 155 188 117 _c
215 79 253 61 301 61 _c
}_e{348 61 385 79 413 117 _c
440 155 454 207 454 273 _c
454 339 440 390 413 428 _c
385 466 348 485 301 485 _c
253 485 215 466 188 428 _c
161 390 148 339 148 273 _c
_cl}_e}_d
/e{{615 0 55 -13 562 560 _sc
562 296 _m
562 252 _l
149 252 _l
153 190 171 142 205 110 _c
238 78 284 62 344 62 _c
378 62 412 66 444 74 _c
476 82 509 95 541 113 _c
541 28 _l
509 14 476 3 442 -3 _c
408 -9 373 -13 339 -13 _c
251 -13 182 12 131 62 _c
80 112 55 181 55 268 _c
55 357 79 428 127 481 _c
175 533 241 560 323 560 _c
397 560 455 536 498 489 _c
}_e{540 441 562 377 562 296 _c
472 322 _m
471 371 457 410 431 440 _c
404 469 368 484 324 484 _c
274 484 234 469 204 441 _c
174 413 156 373 152 322 _c
472 322 _l
_cl}_e}_d
/f{352 0 23 0 371 760 _sc
371 760 _m
371 685 _l
285 685 _l
253 685 230 678 218 665 _c
205 652 199 629 199 595 _c
199 547 _l
347 547 _l
347 477 _l
199 477 _l
199 0 _l
109 0 _l
109 477 _l
23 477 _l
23 547 _l
109 547 _l
109 585 _l
109 645 123 690 151 718 _c
179 746 224 760 286 760 _c
371 760 _l
_cl}_d
/g{{635 0 55 -207 544 560 _sc
454 280 _m
454 344 440 395 414 431 _c
387 467 349 485 301 485 _c
253 485 215 467 188 431 _c
161 395 148 344 148 280 _c
148 215 161 165 188 129 _c
215 93 253 75 301 75 _c
349 75 387 93 414 129 _c
440 165 454 215 454 280 _c
544 68 _m
544 -24 523 -93 482 -139 _c
440 -184 377 -207 292 -207 _c
260 -207 231 -204 203 -200 _c
175 -195 147 -188 121 -178 _c
}_e{121 -91 _l
147 -105 173 -115 199 -122 _c
225 -129 251 -133 278 -133 _c
336 -133 380 -117 410 -87 _c
439 -56 454 -10 454 52 _c
454 96 _l
435 64 411 40 382 24 _c
353 8 319 0 279 0 _c
211 0 157 25 116 76 _c
75 127 55 195 55 280 _c
55 364 75 432 116 483 _c
157 534 211 560 279 560 _c
319 560 353 552 382 536 _c
411 520 435 496 454 464 _c
454 547 _l
544 547 _l
}_e{544 68 _l
_cl}_e}_d
/h{634 0 91 0 549 760 _sc
549 330 _m
549 0 _l
459 0 _l
459 327 _l
459 379 448 417 428 443 _c
408 469 378 482 338 482 _c
289 482 251 466 223 435 _c
195 404 181 362 181 309 _c
181 0 _l
91 0 _l
91 760 _l
181 760 _l
181 462 _l
202 494 227 519 257 535 _c
286 551 320 560 358 560 _c
420 560 468 540 500 501 _c
532 462 549 405 549 330 _c
_cl}_d
/i{278 0 94 0 184 760 _sc
94 547 _m
184 547 _l
184 0 _l
94 0 _l
94 547 _l
94 760 _m
184 760 _l
184 646 _l
94 646 _l
94 760 _l
_cl}_d
/k{579 0 91 0 576 760 _sc
91 760 _m
181 760 _l
181 311 _l
449 547 _l
564 547 _l
274 291 _l
576 0 _l
459 0 _l
181 267 _l
181 0 _l
91 0 _l
91 760 _l
_cl}_d
/l{278 0 94 0 184 760 _sc
94 760 _m
184 760 _l
184 0 _l
94 0 _l
94 760 _l
_cl}_d
/n{634 0 91 0 549 560 _sc
549 330 _m
549 0 _l
459 0 _l
459 327 _l
459 379 448 417 428 443 _c
408 469 378 482 338 482 _c
289 482 251 466 223 435 _c
195 404 181 362 181 309 _c
181 0 _l
91 0 _l
91 547 _l
181 547 _l
181 462 _l
202 494 227 519 257 535 _c
286 551 320 560 358 560 _c
420 560 468 540 500 501 _c
532 462 549 405 549 330 _c
_cl}_d
/o{612 0 55 -13 557 560 _sc
306 484 _m
258 484 220 465 192 427 _c
164 389 150 338 150 273 _c
150 207 163 156 191 118 _c
219 80 257 62 306 62 _c
354 62 392 80 420 118 _c
448 156 462 207 462 273 _c
462 337 448 389 420 427 _c
392 465 354 484 306 484 _c
306 560 _m
384 560 445 534 490 484 _c
534 433 557 363 557 273 _c
557 183 534 113 490 63 _c
445 12 384 -13 306 -13 _c
227 -13 165 12 121 63 _c
77 113 55 183 55 273 _c
55 363 77 433 121 484 _c
165 534 227 560 306 560 _c
_cl}_d
/p{{635 0 91 -207 580 560 _sc
181 82 _m
181 -207 _l
91 -207 _l
91 547 _l
181 547 _l
181 464 _l
199 496 223 520 252 536 _c
281 552 316 560 356 560 _c
422 560 476 533 518 481 _c
559 428 580 359 580 273 _c
580 187 559 117 518 65 _c
476 13 422 -13 356 -13 _c
316 -13 281 -5 252 10 _c
223 25 199 49 181 82 _c
487 273 _m
487 339 473 390 446 428 _c
418 466 381 485 334 485 _c
}_e{286 485 249 466 222 428 _c
194 390 181 339 181 273 _c
181 207 194 155 222 117 _c
249 79 286 61 334 61 _c
381 61 418 79 446 117 _c
473 155 487 207 487 273 _c
_cl}_e}_d
/r{411 0 91 0 411 560 _sc
411 463 _m
401 469 390 473 378 476 _c
366 478 353 480 339 480 _c
288 480 249 463 222 430 _c
194 397 181 350 181 288 _c
181 0 _l
91 0 _l
91 547 _l
181 547 _l
181 462 _l
199 495 224 520 254 536 _c
284 552 321 560 365 560 _c
371 560 378 559 386 559 _c
393 558 401 557 411 555 _c
411 463 _l
_cl}_d
/s{{521 0 54 -13 472 560 _sc
443 531 _m
443 446 _l
417 458 391 468 364 475 _c
336 481 308 485 279 485 _c
234 485 200 478 178 464 _c
156 450 145 430 145 403 _c
145 382 153 366 169 354 _c
185 342 217 330 265 320 _c
296 313 _l
360 299 405 279 432 255 _c
458 230 472 195 472 151 _c
472 100 452 60 412 31 _c
372 1 316 -13 246 -13 _c
216 -13 186 -10 154 -5 _c
}_e{122 0 89 8 54 20 _c
54 113 _l
87 95 120 82 152 74 _c
184 65 216 61 248 61 _c
290 61 323 68 346 82 _c
368 96 380 117 380 144 _c
380 168 371 187 355 200 _c
339 213 303 226 247 238 _c
216 245 _l
160 257 119 275 95 299 _c
70 323 58 356 58 399 _c
58 450 76 490 112 518 _c
148 546 200 560 268 560 _c
301 560 332 557 362 552 _c
391 547 418 540 443 531 _c
}_e{_cl}_e}_d
/t{392 0 27 0 368 702 _sc
183 702 _m
183 547 _l
368 547 _l
368 477 _l
183 477 _l
183 180 _l
183 135 189 106 201 94 _c
213 81 238 75 276 75 _c
368 75 _l
368 0 _l
276 0 _l
206 0 158 13 132 39 _c
106 65 93 112 93 180 _c
93 477 _l
27 477 _l
27 547 _l
93 547 _l
93 702 _l
183 702 _l
_cl}_d
/u{634 0 85 -13 543 560 _sc
85 216 _m
85 547 _l
175 547 _l
175 219 _l
175 167 185 129 205 103 _c
225 77 255 64 296 64 _c
344 64 383 79 411 110 _c
439 141 453 183 453 237 _c
453 547 _l
543 547 _l
543 0 _l
453 0 _l
453 84 _l
431 50 405 26 377 10 _c
348 -5 315 -13 277 -13 _c
214 -13 166 6 134 45 _c
101 83 85 140 85 216 _c
311 560 _m
311 560 _l
_cl}_d
end readonly def

/BuildGlyph
 {exch begin
 CharStrings exch
 2 copy known not{pop /.notdef}if
 true 3 1 roll get exec
 end}_d

/BuildChar {
 1 index /Encoding get exch get
 1 index /BuildGlyph get exec
}_d

FontName currentdict end definefont pop
%!PS-Adobe-3.0 Resource-Font
%%Title: DejaVu Sans Oblique
%%Copyright: Copyright (c) 2003 by Bitstream, Inc. All Rights Reserved. Copyright (c) 2006 by Tavmjong Bah. All Rights Reserved. DejaVu changes are in public domain 
%%Creator: Converted from TrueType to type 3 by PPR
25 dict begin
/_d{bind def}bind def
/_m{moveto}_d
/_l{lineto}_d
/_cl{closepath eofill}_d
/_c{curveto}_d
/_sc{7 -1 roll{setcachedevice}{pop pop pop pop pop pop}ifelse}_d
/_e{exec}_d
/FontName /DejaVuSans-Oblique def
/PaintType 0 def
/FontMatrix[.001 0 0 .001 0 0]def
/FontBBox[-1016 -350 1659 1068]def
/FontType 3 def
/Encoding [ /t /delta ] def
/FontInfo 10 dict dup begin
/FamilyName (DejaVu Sans) def
/FullName (DejaVu Sans Oblique) def
/Notice (Copyright (c) 2003 by Bitstream, Inc. All Rights Reserved. Copyright (c) 2006 by Tavmjong Bah. All Rights Reserved. DejaVu changes are in public domain ) def
/Weight (Oblique) def
/Version (Version 2.35) def
/ItalicAngle -11.0 def
/isFixedPitch false def
/UnderlinePosition -130 def
/UnderlineThickness 90 def
end readonly def
/CharStrings 3 dict dup begin
/.notdef 0 def
/t{{392 0 64 0 423 702 _sc
423 547 _m
409 477 _l
230 477 _l
172 180 _l
170 169 168 160 167 152 _c
166 144 166 139 166 135 _c
166 114 172 99 185 89 _c
197 79 217 75 245 75 _c
336 75 _l
321 0 _l
235 0 _l
181 0 141 10 115 31 _c
89 52 76 84 76 126 _c
76 133 76 141 77 150 _c
78 159 80 169 82 180 _c
140 477 _l
64 477 _l
78 547 _l
153 547 _l
183 702 _l
}_e{273 702 _l
243 547 _l
423 547 _l
_cl}_e}_d
/delta{{612 0 38 -13 557 742 _sc
542 633 _m
514 655 461 667 383 667 _c
300 667 255 648 248 610 _c
242 580 280 557 364 542 _c
428 530 476 505 508 469 _c
546 425 556 358 539 268 _c
521 182 486 113 432 63 _c
377 12 310 -13 232 -13 _c
154 -13 98 12 63 63 _c
28 113 20 183 38 273 _c
50 339 84 399 139 453 _c
160 473 184 490 211 502 _c
165 528 147 563 156 609 _c
}_e{173 697 253 742 397 742 _c
469 742 522 730 557 708 _c
542 633 _l
274 478 _m
250 468 226 451 204 428 _c
168 391 144 339 132 273 _c
119 207 123 155 144 118 _c
164 80 199 62 248 62 _c
295 62 336 81 372 119 _c
407 156 431 206 443 268 _c
455 332 450 380 427 412 _c
401 445 369 464 329 468 _c
308 470 290 473 274 478 _c
_cl}_e}_d
end readonly def

/BuildGlyph
 {exch begin
 CharStrings exch
 2 copy known not{pop /.notdef}if
 true 3 1 roll get exec
 end}_d

/BuildChar {
 1 index /Encoding get exch get
 1 index /BuildGlyph get exec
}_d

FontName currentdict end definefont pop
end
%%EndProlog
mpldict begin
-126 72 translate
864 648 0 0 clipbox
gsave
0 0 m
864 0 l
864 648 l
0 648 l
cl
1.000 setgray
fill
grestore
gsave
108 71.28 m
777.6 71.28 l
777.6 570.24 l
108 570.24 l
cl
1.000 setgray
fill
grestore
0.800 setlinewidth
1 setlinejoin
0 setlinecap
[] 0 setdash
0.000 setgray
gsave
/o {
gsave
newpath
translate
0.8 setlinewidth
1 setlinejoin
0 setlinecap
0 0 m
0 -3.5 l

gsave
0.000 setgray
fill
grestore
stroke
grestore
} bind def
108 71.28 o
grestore
/DejaVuSans findfont
24.000 scalefont
setfont
gsave
100.367188 46.045625 translate
0.000000 rotate
0.000000 0.000000 m /five glyphshow
grestore
gsave
/o {
gsave
newpath
translate
0.8 setlinewidth
1 setlinejoin
0 setlinecap
0 0 m
0 -3.5 l

gsave
0.000 setgray
fill
grestore
stroke
grestore
} bind def
185.86 71.28 o
grestore
gsave
170.594840 46.045625 translate
0.000000 rotate
0.000000 0.000000 m /one glyphshow
15.269531 0.000000 m /zero glyphshow
grestore
gsave
/o {
gsave
newpath
translate
0.8 setlinewidth
1 setlinejoin
0 setlinecap
0 0 m
0 -3.5 l

gsave
0.000 setgray
fill
grestore
stroke
grestore
} bind def
263.721 71.28 o
grestore
gsave
248.455305 46.045625 translate
0.000000 rotate
0.000000 0.000000 m /one glyphshow
15.269531 0.000000 m /five glyphshow
grestore
gsave
/o {
gsave
newpath
translate
0.8 setlinewidth
1 setlinejoin
0 setlinecap
0 0 m
0 -3.5 l

gsave
0.000 setgray
fill
grestore
stroke
grestore
} bind def
341.581 71.28 o
grestore
gsave
326.315770 46.045625 translate
0.000000 rotate
0.000000 0.000000 m /two glyphshow
15.269531 0.000000 m /zero glyphshow
grestore
gsave
/o {
gsave
newpath
translate
0.8 setlinewidth
1 setlinejoin
0 setlinecap
0 0 m
0 -3.5 l

gsave
0.000 setgray
fill
grestore
stroke
grestore
} bind def
419.442 71.28 o
grestore
gsave
404.176235 46.045625 translate
0.000000 rotate
0.000000 0.000000 m /two glyphshow
15.269531 0.000000 m /five glyphshow
grestore
gsave
/o {
gsave
newpath
translate
0.8 setlinewidth
1 setlinejoin
0 setlinecap
0 0 m
0 -3.5 l

gsave
0.000 setgray
fill
grestore
stroke
grestore
} bind def
497.302 71.28 o
grestore
gsave
482.036701 46.045625 translate
0.000000 rotate
0.000000 0.000000 m /three glyphshow
15.269531 0.000000 m /zero glyphshow
grestore
gsave
/o {
gsave
newpath
translate
0.8 setlinewidth
1 setlinejoin
0 setlinecap
0 0 m
0 -3.5 l

gsave
0.000 setgray
fill
grestore
stroke
grestore
} bind def
575.163 71.28 o
grestore
gsave
559.897166 46.045625 translate
0.000000 rotate
0.000000 0.000000 m /three glyphshow
15.269531 0.000000 m /five glyphshow
grestore
gsave
/o {
gsave
newpath
translate
0.8 setlinewidth
1 setlinejoin
0 setlinecap
0 0 m
0 -3.5 l

gsave
0.000 setgray
fill
grestore
stroke
grestore
} bind def
653.023 71.28 o
grestore
gsave
637.757631 46.045625 translate
0.000000 rotate
0.000000 0.000000 m /four glyphshow
15.269531 0.000000 m /zero glyphshow
grestore
gsave
/o {
gsave
newpath
translate
0.8 setlinewidth
1 setlinejoin
0 setlinecap
0 0 m
0 -3.5 l

gsave
0.000 setgray
fill
grestore
stroke
grestore
} bind def
730.884 71.28 o
grestore
gsave
715.618096 46.045625 translate
0.000000 rotate
0.000000 0.000000 m /four glyphshow
15.269531 0.000000 m /five glyphshow
grestore
gsave
380.448438 18.811250 translate
0.000000 rotate
0.000000 0.000000 m /S glyphshow
15.234375 0.000000 m /n glyphshow
30.445312 0.000000 m /a glyphshow
45.152344 0.000000 m /p glyphshow
60.386719 0.000000 m /s glyphshow
72.890625 0.000000 m /h glyphshow
88.101562 0.000000 m /o glyphshow
102.785156 0.000000 m /t glyphshow
112.195312 0.000000 m /s glyphshow
grestore
gsave
/o {
gsave
newpath
translate
0.8 setlinewidth
1 setlinejoin
0 setlinecap
0 0 m
-3.5 0 l

gsave
0.000 setgray
fill
grestore
stroke
grestore
} bind def
108 93.96 o
grestore
gsave
47.578125 84.842812 translate
0.000000 rotate
0.000000 0.000000 m /zero glyphshow
15.269531 0.000000 m /period glyphshow
22.898438 0.000000 m /zero glyphshow
38.167969 0.000000 m /zero glyphshow
grestore
gsave
/o {
gsave
newpath
translate
0.8 setlinewidth
1 setlinejoin
0 setlinecap
0 0 m
-3.5 0 l

gsave
0.000 setgray
fill
grestore
stroke
grestore
} bind def
108 179.303 o
grestore
gsave
47.578125 170.186180 translate
0.000000 rotate
0.000000 0.000000 m /zero glyphshow
15.269531 0.000000 m /period glyphshow
22.898438 0.000000 m /zero glyphshow
38.167969 0.000000 m /one glyphshow
grestore
gsave
/o {
gsave
newpath
translate
0.8 setlinewidth
1 setlinejoin
0 setlinecap
0 0 m
-3.5 0 l

gsave
0.000 setgray
fill
grestore
stroke
grestore
} bind def
108 264.647 o
grestore
gsave
47.578125 255.529548 translate
0.000000 rotate
0.000000 0.000000 m /zero glyphshow
15.269531 0.000000 m /period glyphshow
22.898438 0.000000 m /zero glyphshow
38.167969 0.000000 m /two glyphshow
grestore
gsave
/o {
gsave
newpath
translate
0.8 setlinewidth
1 setlinejoin
0 setlinecap
0 0 m
-3.5 0 l

gsave
0.000 setgray
fill
grestore
stroke
grestore
} bind def
108 349.99 o
grestore
gsave
47.578125 340.872916 translate
0.000000 rotate
0.000000 0.000000 m /zero glyphshow
15.269531 0.000000 m /period glyphshow
22.898438 0.000000 m /zero glyphshow
38.167969 0.000000 m /three glyphshow
grestore
gsave
/o {
gsave
newpath
translate
0.8 setlinewidth
1 setlinejoin
0 setlinecap
0 0 m
-3.5 0 l

gsave
0.000 setgray
fill
grestore
stroke
grestore
} bind def
108 435.333 o
grestore
gsave
47.578125 426.216284 translate
0.000000 rotate
0.000000 0.000000 m /zero glyphshow
15.269531 0.000000 m /period glyphshow
22.898438 0.000000 m /zero glyphshow
38.167969 0.000000 m /four glyphshow
grestore
gsave
/o {
gsave
newpath
translate
0.8 setlinewidth
1 setlinejoin
0 setlinecap
0 0 m
-3.5 0 l

gsave
0.000 setgray
fill
grestore
stroke
grestore
} bind def
108 520.677 o
grestore
gsave
47.578125 511.559652 translate
0.000000 rotate
0.000000 0.000000 m /zero glyphshow
15.269531 0.000000 m /period glyphshow
22.898438 0.000000 m /zero glyphshow
38.167969 0.000000 m /five glyphshow
grestore
gsave
38.578125 271.978750 translate
90.000000 rotate
0.000000 0.000000 m /F glyphshow
13.789062 0.000000 m /r glyphshow
23.656250 0.000000 m /a glyphshow
38.363281 0.000000 m /c glyphshow
51.558594 0.000000 m /t glyphshow
60.968750 0.000000 m /i glyphshow
67.636719 0.000000 m /o glyphshow
82.320312 0.000000 m /n glyphshow
grestore
3.000 setlinewidth
2 setlinecap
1.000 0.000 0.000 setrgbcolor
gsave
669.6 499 108 71.28 clipbox
108 94.386717 m
123.572093 93.96 l
139.144186 93.96 l
154.716279 94.813434 l
170.288372 93.96 l
185.860465 93.96 l
201.432558 94.813434 l
217.004651 93.96 l
232.576744 93.96 l
248.148837 93.96 l
263.72093 94.386717 l
279.293023 95.240151 l
294.865116 94.386717 l
310.437209 94.813434 l
326.009302 94.386717 l
341.581395 95.240151 l
357.153488 94.386717 l
372.725581 96.093584 l
388.297674 94.813434 l
403.869767 94.813434 l
419.44186 93.96 l
435.013953 94.813434 l
450.586047 94.813434 l
466.15814 95.240151 l
481.730233 94.386717 l
497.302326 94.386717 l
512.874419 93.96 l
528.446512 93.96 l
544.018605 93.96 l
559.590698 94.386717 l
575.162791 93.96 l
590.734884 94.813434 l
606.306977 94.813434 l
621.87907 94.813434 l
637.451163 93.96 l
653.023256 95.240151 l
668.595349 95.240151 l
684.167442 94.386717 l
699.739535 95.666867 l
715.311628 95.240151 l
730.883721 94.813434 l
746.455814 94.813434 l
762.027907 94.386717 l
777.6 93.96 l
stroke
grestore
0.000 0.000 1.000 setrgbcolor
gsave
669.6 499 108 71.28 clipbox
108 93.96 m
123.572093 93.96 l
139.144186 93.96 l
154.716279 93.96 l
170.288372 94.386717 l
185.860465 93.96 l
201.432558 93.96 l
217.004651 95.240151 l
232.576744 94.386717 l
248.148837 94.386717 l
263.72093 93.96 l
279.293023 93.96 l
294.865116 93.96 l
310.437209 93.96 l
326.009302 93.96 l
341.581395 93.96 l
357.153488 93.96 l
372.725581 94.813434 l
388.297674 94.386717 l
403.869767 94.386717 l
419.44186 94.386717 l
435.013953 94.386717 l
450.586047 94.386717 l
466.15814 94.386717 l
481.730233 94.386717 l
497.302326 95.666867 l
512.874419 94.386717 l
528.446512 95.240151 l
544.018605 94.386717 l
559.590698 94.813434 l
575.162791 93.96 l
590.734884 94.386717 l
606.306977 94.386717 l
621.87907 94.813434 l
637.451163 93.96 l
653.023256 94.386717 l
668.595349 94.386717 l
684.167442 94.813434 l
699.739535 94.386717 l
715.311628 94.386717 l
730.883721 94.813434 l
746.455814 95.240151 l
762.027907 93.96 l
777.6 94.813434 l
stroke
grestore
1.000 0.000 0.000 setrgbcolor
gsave
669.6 499 108 71.28 clipbox
108 94.386717 m
123.572093 94.386717 l
139.144186 94.386717 l
154.716279 94.813434 l
170.288372 94.386717 l
185.860465 97.800452 l
201.432558 95.666867 l
217.004651 96.947018 l
232.576744 96.947018 l
248.148837 96.093584 l
263.72093 96.520301 l
279.293023 96.093584 l
294.865116 94.386717 l
310.437209 95.666867 l
326.009302 95.666867 l
341.581395 94.813434 l
357.153488 95.240151 l
372.725581 95.666867 l
388.297674 96.520301 l
403.869767 95.666867 l
419.44186 96.093584 l
435.013953 94.386717 l
450.586047 95.240151 l
466.15814 96.947018 l
481.730233 96.947018 l
497.302326 96.520301 l
512.874419 96.093584 l
528.446512 94.386717 l
544.018605 96.520301 l
559.590698 96.520301 l
575.162791 95.666867 l
590.734884 96.520301 l
606.306977 96.947018 l
621.87907 97.373735 l
637.451163 99.080602 l
653.023256 96.947018 l
668.595349 95.666867 l
684.167442 96.520301 l
699.739535 95.666867 l
715.311628 96.093584 l
730.883721 96.520301 l
746.455814 98.227168 l
762.027907 97.800452 l
777.6 96.093584 l
stroke
grestore
1.000 setlinewidth
0 setlinejoin
0 setlinecap
gsave
669.6 499 108 71.28 clipbox
/o {
gsave
newpath
translate
1.0 setlinewidth
0 setlinejoin
0 setlinecap
-10 -10 m
10 -10 l
10 10 l
-10 10 l
cl

gsave
grestore
stroke
grestore
} bind def
108 94.3867 o
123.572 94.3867 o
139.144 94.3867 o
154.716 94.8134 o
170.288 94.3867 o
185.86 97.8005 o
201.433 95.6669 o
217.005 96.947 o
232.577 96.947 o
248.149 96.0936 o
263.721 96.5203 o
279.293 96.0936 o
294.865 94.3867 o
310.437 95.6669 o
326.009 95.6669 o
341.581 94.8134 o
357.153 95.2402 o
372.726 95.6669 o
388.298 96.5203 o
403.87 95.6669 o
419.442 96.0936 o
435.014 94.3867 o
450.586 95.2402 o
466.158 96.947 o
481.73 96.947 o
497.302 96.5203 o
512.874 96.0936 o
528.447 94.3867 o
544.019 96.5203 o
559.591 96.5203 o
575.163 95.6669 o
590.735 96.5203 o
606.307 96.947 o
621.879 97.3737 o
637.451 99.0806 o
653.023 96.947 o
668.595 95.6669 o
684.167 96.5203 o
699.74 95.6669 o
715.312 96.0936 o
730.884 96.5203 o
746.456 98.2272 o
762.028 97.8005 o
777.6 96.0936 o
grestore
3.000 setlinewidth
1 setlinejoin
2 setlinecap
0.000 0.000 1.000 setrgbcolor
gsave
669.6 499 108 71.28 clipbox
108 94.386717 m
123.572093 94.386717 l
139.144186 95.240151 l
154.716279 95.240151 l
170.288372 94.386717 l
185.860465 95.240151 l
201.432558 97.373735 l
217.004651 95.666867 l
232.576744 94.386717 l
248.148837 94.813434 l
263.72093 95.240151 l
279.293023 96.520301 l
294.865116 96.520301 l
310.437209 96.520301 l
326.009302 94.813434 l
341.581395 93.96 l
357.153488 94.813434 l
372.725581 94.813434 l
388.297674 94.813434 l
403.869767 94.813434 l
419.44186 94.386717 l
435.013953 94.813434 l
450.586047 95.240151 l
466.15814 94.386717 l
481.730233 94.813434 l
497.302326 94.386717 l
512.874419 94.386717 l
528.446512 95.666867 l
544.018605 95.666867 l
559.590698 96.093584 l
575.162791 94.813434 l
590.734884 95.240151 l
606.306977 95.666867 l
621.87907 94.386717 l
637.451163 96.093584 l
653.023256 95.666867 l
668.595349 95.240151 l
684.167442 95.666867 l
699.739535 95.666867 l
715.311628 95.666867 l
730.883721 95.666867 l
746.455814 95.666867 l
762.027907 95.240151 l
777.6 96.520301 l
stroke
grestore
1.000 setlinewidth
0 setlinejoin
0 setlinecap
gsave
669.6 499 108 71.28 clipbox
/o {
gsave
newpath
translate
1.0 setlinewidth
0 setlinejoin
0 setlinecap
-10 -10 m
10 -10 l
10 10 l
-10 10 l
cl

gsave
grestore
stroke
grestore
} bind def
108 94.3867 o
123.572 94.3867 o
139.144 95.2402 o
154.716 95.2402 o
170.288 94.3867 o
185.86 95.2402 o
201.433 97.3737 o
217.005 95.6669 o
232.577 94.3867 o
248.149 94.8134 o
263.721 95.2402 o
279.293 96.5203 o
294.865 96.5203 o
310.437 96.5203 o
326.009 94.8134 o
341.581 93.96 o
357.153 94.8134 o
372.726 94.8134 o
388.298 94.8134 o
403.87 94.8134 o
419.442 94.3867 o
435.014 94.8134 o
450.586 95.2402 o
466.158 94.3867 o
481.73 94.8134 o
497.302 94.3867 o
512.874 94.3867 o
528.447 95.6669 o
544.019 95.6669 o
559.591 96.0936 o
575.163 94.8134 o
590.735 95.2402 o
606.307 95.6669 o
621.879 94.3867 o
637.451 96.0936 o
653.023 95.6669 o
668.595 95.2402 o
684.167 95.6669 o
699.74 95.6669 o
715.312 95.6669 o
730.884 95.6669 o
746.456 95.6669 o
762.028 95.2402 o
777.6 96.5203 o
grestore
3.000 setlinewidth
1 setlinejoin
2 setlinecap
1.000 0.000 0.000 setrgbcolor
gsave
669.6 499 108 71.28 clipbox
108 95.240151 m
123.572093 97.373735 l
139.144186 102.494337 l
154.716279 109.321806 l
170.288372 104.627921 l
185.860465 105.481355 l
201.432558 106.334788 l
217.004651 104.627921 l
232.576744 104.201204 l
248.148837 108.041656 l
263.72093 105.481355 l
279.293023 110.601957 l
294.865116 111.028674 l
310.437209 110.17524 l
326.009302 112.735541 l
341.581395 118.28286 l
357.153488 117.856143 l
372.725581 119.56301 l
388.297674 126.817197 l
403.869767 128.950781 l
419.44186 125.537046 l
435.013953 134.4981 l
450.586047 136.204967 l
466.15814 132.364516 l
481.730233 136.631684 l
497.302326 148.579755 l
512.874419 160.954544 l
528.446512 164.794995 l
544.018605 186.984271 l
559.590698 202.772794 l
575.162791 214.720865 l
590.734884 221.975052 l
606.306977 240.323876 l
621.87907 253.978815 l
637.451163 280.435259 l
653.023256 297.503932 l
668.595349 329.934412 l
684.167442 358.097723 l
699.739535 383.700734 l
715.311628 421.251816 l
730.883721 453.682295 l
746.455814 499.767714 l
762.027907 519.823405 l
777.6 547.56 l
stroke
grestore
1.000 setlinewidth
0 setlinecap
gsave
669.6 499 108 71.28 clipbox
/o {
gsave
newpath
translate
1.0 setlinewidth
1 setlinejoin
0 setlinecap
0 -10 m
2.652031 -10 5.195799 -8.946337 7.071068 -7.071068 c
8.946337 -5.195799 10 -2.652031 10 0 c
10 2.652031 8.946337 5.195799 7.071068 7.071068 c
5.195799 8.946337 2.652031 10 0 10 c
-2.652031 10 -5.195799 8.946337 -7.071068 7.071068 c
-8.946337 5.195799 -10 2.652031 -10 0 c
-10 -2.652031 -8.946337 -5.195799 -7.071068 -7.071068 c
-5.195799 -8.946337 -2.652031 -10 0 -10 c
cl

gsave
grestore
stroke
grestore
} bind def
108 95.2402 o
123.572 97.3737 o
139.144 102.494 o
154.716 109.322 o
170.288 104.628 o
185.86 105.481 o
201.433 106.335 o
217.005 104.628 o
232.577 104.201 o
248.149 108.042 o
263.721 105.481 o
279.293 110.602 o
294.865 111.029 o
310.437 110.175 o
326.009 112.736 o
341.581 118.283 o
357.153 117.856 o
372.726 119.563 o
388.298 126.817 o
403.87 128.951 o
419.442 125.537 o
435.014 134.498 o
450.586 136.205 o
466.158 132.365 o
481.73 136.632 o
497.302 148.58 o
512.874 160.955 o
528.447 164.795 o
544.019 186.984 o
559.591 202.773 o
575.163 214.721 o
590.735 221.975 o
606.307 240.324 o
621.879 253.979 o
637.451 280.435 o
653.023 297.504 o
668.595 329.934 o
684.167 358.098 o
699.74 383.701 o
715.312 421.252 o
730.884 453.682 o
746.456 499.768 o
762.028 519.823 o
777.6 547.56 o
grestore
3.000 setlinewidth
2 setlinecap
0.000 0.000 1.000 setrgbcolor
gsave
669.6 499 108 71.28 clipbox
108 93.96 m
123.572093 96.520301 l
139.144186 98.227168 l
154.716279 102.921054 l
170.288372 99.934036 l
185.860465 99.080602 l
201.432558 101.640903 l
217.004651 103.774487 l
232.576744 100.787469 l
248.148837 98.653885 l
263.72093 104.627921 l
279.293023 102.494337 l
294.865116 102.06762 l
310.437209 104.627921 l
326.009302 104.201204 l
341.581395 105.054638 l
357.153488 102.921054 l
372.725581 103.34777 l
388.297674 103.34777 l
403.869767 108.041656 l
419.44186 105.054638 l
435.013953 106.334788 l
450.586047 106.761505 l
466.15814 103.774487 l
481.730233 103.774487 l
497.302326 106.334788 l
512.874419 103.774487 l
528.446512 105.908071 l
544.018605 102.06762 l
559.590698 100.787469 l
575.162791 102.921054 l
590.734884 100.787469 l
606.306977 102.06762 l
621.87907 102.06762 l
637.451163 100.360753 l
653.023256 102.06762 l
668.595349 103.34777 l
684.167442 100.360753 l
699.739535 106.334788 l
715.311628 105.481355 l
730.883721 103.34777 l
746.455814 107.188222 l
762.027907 108.041656 l
777.6 112.308824 l
stroke
grestore
1.000 setlinewidth
0 setlinecap
gsave
669.6 499 108 71.28 clipbox
/o {
gsave
newpath
translate
1.0 setlinewidth
1 setlinejoin
0 setlinecap
0 -10 m
2.652031 -10 5.195799 -8.946337 7.071068 -7.071068 c
8.946337 -5.195799 10 -2.652031 10 0 c
10 2.652031 8.946337 5.195799 7.071068 7.071068 c
5.195799 8.946337 2.652031 10 0 10 c
-2.652031 10 -5.195799 8.946337 -7.071068 7.071068 c
-8.946337 5.195799 -10 2.652031 -10 0 c
-10 -2.652031 -8.946337 -5.195799 -7.071068 -7.071068 c
-5.195799 -8.946337 -2.652031 -10 0 -10 c
cl

gsave
grestore
stroke
grestore
} bind def
108 93.96 o
123.572 96.5203 o
139.144 98.2272 o
154.716 102.921 o
170.288 99.934 o
185.86 99.0806 o
201.433 101.641 o
217.005 103.774 o
232.577 100.787 o
248.149 98.6539 o
263.721 104.628 o
279.293 102.494 o
294.865 102.068 o
310.437 104.628 o
326.009 104.201 o
341.581 105.055 o
357.153 102.921 o
372.726 103.348 o
388.298 103.348 o
403.87 108.042 o
419.442 105.055 o
435.014 106.335 o
450.586 106.762 o
466.158 103.774 o
481.73 103.774 o
497.302 106.335 o
512.874 103.774 o
528.447 105.908 o
544.019 102.068 o
559.591 100.787 o
575.163 102.921 o
590.735 100.787 o
606.307 102.068 o
621.879 102.068 o
637.451 100.361 o
653.023 102.068 o
668.595 103.348 o
684.167 100.361 o
699.74 106.335 o
715.312 105.481 o
730.884 103.348 o
746.456 107.188 o
762.028 108.042 o
777.6 112.309 o
grestore
0.800 setlinewidth
0 setlinejoin
2 setlinecap
[] 0 setdash
0.000 setgray
gsave
108 71.28 m
108 570.24 l
stroke
grestore
gsave
777.6 71.28 m
777.6 570.24 l
stroke
grestore
gsave
108 71.28 m
777.6 71.28 l
stroke
grestore
gsave
108 570.24 m
777.6 570.24 l
stroke
grestore
gsave
192.034375 576.240000 translate
0.000000 rotate
0.000000 0.000000 m /F glyphshow
13.789062 0.000000 m /r glyphshow
23.656250 0.000000 m /a glyphshow
38.363281 0.000000 m /c glyphshow
51.558594 0.000000 m /t glyphshow
60.968750 0.000000 m /i glyphshow
67.636719 0.000000 m /o glyphshow
82.320312 0.000000 m /n glyphshow
97.531250 0.000000 m /space glyphshow
105.160156 0.000000 m /o glyphshow
119.843750 0.000000 m /f glyphshow
128.292969 0.000000 m /space glyphshow
135.921875 0.000000 m /T glyphshow
150.535156 0.000000 m /r glyphshow
160.402344 0.000000 m /a glyphshow
175.109375 0.000000 m /c glyphshow
188.304688 0.000000 m /k glyphshow
202.203125 0.000000 m /e glyphshow
216.968750 0.000000 m /d glyphshow
232.203125 0.000000 m /space glyphshow
239.832031 0.000000 m /g glyphshow
255.066406 0.000000 m /h glyphshow
270.277344 0.000000 m /o glyphshow
284.960938 0.000000 m /s glyphshow
297.464844 0.000000 m /t glyphshow
306.875000 0.000000 m /space glyphshow
314.503906 0.000000 m /p glyphshow
329.738281 0.000000 m /a glyphshow
344.445312 0.000000 m /r glyphshow
354.312500 0.000000 m /t glyphshow
363.722656 0.000000 m /i glyphshow
370.390625 0.000000 m /c glyphshow
383.585938 0.000000 m /l glyphshow
390.253906 0.000000 m /e glyphshow
405.019531 0.000000 m /s glyphshow
417.523438 0.000000 m /space glyphshow
425.152344 0.000000 m /two glyphshow
440.421875 0.000000 m /zero glyphshow
455.691406 0.000000 m /zero glyphshow
470.960938 0.000000 m /zero glyphshow
486.230469 0.000000 m /zero glyphshow
grestore
1.000 setlinewidth
0 setlinecap
0.800 setgray
gsave
635.1 326.35425 m
767.1 326.35425 l
769.1 326.35425 770.1 327.35425 770.1 329.35425 c
770.1 459.948 l
770.1 461.948 769.1 462.948 767.1 462.948 c
635.1 462.948 l
633.1 462.948 632.1 461.948 632.1 459.948 c
632.1 329.35425 l
632.1 327.35425 633.1 326.35425 635.1 326.35425 c
cl
gsave
1.000 setgray
fill
grestore
stroke
grestore
3.000 setlinewidth
1 setlinejoin
2 setlinecap
[] 0 setdash
1.000 0.000 0.000 setrgbcolor
gsave
638.1 450.807375 m
668.1 450.807375 l
stroke
grestore
0.000 setgray
gsave
680.100000 445.557375 translate
0.000000 rotate
/DejaVuSans findfont
15.0 scalefont
setfont
0.000000 0.859375 moveto
/S glyphshow

9.521484 0.859375 moveto
/T glyphshow

18.684082 0.859375 moveto
/B glyphshow

28.974609 0.859375 moveto
/comma glyphshow

33.742676 0.859375 moveto
/space glyphshow

38.510742 0.859375 moveto
/three glyphshow

/DejaVuSans-Oblique findfont
15.0 scalefont
setfont
48.054199 0.859375 moveto
/delta glyphshow

57.231445 0.859375 moveto
/t glyphshow


grestore
0.000 0.000 1.000 setrgbcolor
gsave
638.1 428.79175 m
668.1 428.79175 l
stroke
grestore
0.000 setgray
gsave
680.100000 423.541750 translate
0.000000 rotate
/DejaVuSans findfont
15.0 scalefont
setfont
0.000000 0.859375 moveto
/O glyphshow

11.806641 0.859375 moveto
/u glyphshow

21.313477 0.859375 moveto
/r glyphshow

27.480469 0.859375 moveto
/s glyphshow

35.295410 0.859375 moveto
/comma glyphshow

40.063477 0.859375 moveto
/space glyphshow

44.831543 0.859375 moveto
/three glyphshow

/DejaVuSans-Oblique findfont
15.0 scalefont
setfont
54.375000 0.859375 moveto
/delta glyphshow

63.552246 0.859375 moveto
/t glyphshow


grestore
1.000 0.000 0.000 setrgbcolor
gsave
638.1 406.776125 m
668.1 406.776125 l
stroke
grestore
1.000 setlinewidth
0 setlinejoin
0 setlinecap
gsave
/o {
gsave
newpath
translate
1.0 setlinewidth
0 setlinejoin
0 setlinecap
-10 -10 m
10 -10 l
10 10 l
-10 10 l
cl

gsave
grestore
stroke
grestore
} bind def
653.1 406.776 o
grestore
0.000 setgray
gsave
680.100000 401.526125 translate
0.000000 rotate
/DejaVuSans findfont
15.0 scalefont
setfont
0.000000 0.859375 moveto
/S glyphshow

9.521484 0.859375 moveto
/T glyphshow

18.684082 0.859375 moveto
/B glyphshow

28.974609 0.859375 moveto
/comma glyphshow

33.742676 0.859375 moveto
/space glyphshow

38.510742 0.859375 moveto
/seven glyphshow

48.054199 0.859375 moveto
/period glyphshow

52.822266 0.859375 moveto
/five glyphshow

/DejaVuSans-Oblique findfont
15.0 scalefont
setfont
62.365723 0.859375 moveto
/delta glyphshow

71.542969 0.859375 moveto
/t glyphshow


grestore
3.000 setlinewidth
1 setlinejoin
2 setlinecap
0.000 0.000 1.000 setrgbcolor
gsave
638.1 384.7605 m
668.1 384.7605 l
stroke
grestore
1.000 setlinewidth
0 setlinejoin
0 setlinecap
gsave
/o {
gsave
newpath
translate
1.0 setlinewidth
0 setlinejoin
0 setlinecap
-10 -10 m
10 -10 l
10 10 l
-10 10 l
cl

gsave
grestore
stroke
grestore
} bind def
653.1 384.761 o
grestore
0.000 setgray
gsave
680.100000 379.510500 translate
0.000000 rotate
/DejaVuSans findfont
15.0 scalefont
setfont
0.000000 0.859375 moveto
/O glyphshow

11.806641 0.859375 moveto
/u glyphshow

21.313477 0.859375 moveto
/r glyphshow

27.480469 0.859375 moveto
/s glyphshow

35.295410 0.859375 moveto
/comma glyphshow

40.063477 0.859375 moveto
/space glyphshow

44.831543 0.859375 moveto
/seven glyphshow

54.375000 0.859375 moveto
/period glyphshow

59.143066 0.859375 moveto
/five glyphshow

/DejaVuSans-Oblique findfont
15.0 scalefont
setfont
68.686523 0.859375 moveto
/delta glyphshow

77.863770 0.859375 moveto
/t glyphshow


grestore
3.000 setlinewidth
1 setlinejoin
2 setlinecap
1.000 0.000 0.000 setrgbcolor
gsave
638.1 362.744875 m
668.1 362.744875 l
stroke
grestore
1.000 setlinewidth
0 setlinecap
gsave
/o {
gsave
newpath
translate
1.0 setlinewidth
1 setlinejoin
0 setlinecap
0 -10 m
2.652031 -10 5.195799 -8.946337 7.071068 -7.071068 c
8.946337 -5.195799 10 -2.652031 10 0 c
10 2.652031 8.946337 5.195799 7.071068 7.071068 c
5.195799 8.946337 2.652031 10 0 10 c
-2.652031 10 -5.195799 8.946337 -7.071068 7.071068 c
-8.946337 5.195799 -10 2.652031 -10 0 c
-10 -2.652031 -8.946337 -5.195799 -7.071068 -7.071068 c
-5.195799 -8.946337 -2.652031 -10 0 -10 c
cl

gsave
grestore
stroke
grestore
} bind def
653.1 362.745 o
grestore
0.000 setgray
gsave
680.100000 357.494875 translate
0.000000 rotate
/DejaVuSans findfont
15.0 scalefont
setfont
0.000000 0.859375 moveto
/S glyphshow

9.521484 0.859375 moveto
/T glyphshow

18.684082 0.859375 moveto
/B glyphshow

28.974609 0.859375 moveto
/comma glyphshow

33.742676 0.859375 moveto
/space glyphshow

38.510742 0.859375 moveto
/one glyphshow

48.054199 0.859375 moveto
/five glyphshow

/DejaVuSans-Oblique findfont
15.0 scalefont
setfont
57.597656 0.859375 moveto
/delta glyphshow

66.774902 0.859375 moveto
/t glyphshow


grestore
3.000 setlinewidth
2 setlinecap
0.000 0.000 1.000 setrgbcolor
gsave
638.1 340.72925 m
668.1 340.72925 l
stroke
grestore
1.000 setlinewidth
0 setlinecap
gsave
/o {
gsave
newpath
translate
1.0 setlinewidth
1 setlinejoin
0 setlinecap
0 -10 m
2.652031 -10 5.195799 -8.946337 7.071068 -7.071068 c
8.946337 -5.195799 10 -2.652031 10 0 c
10 2.652031 8.946337 5.195799 7.071068 7.071068 c
5.195799 8.946337 2.652031 10 0 10 c
-2.652031 10 -5.195799 8.946337 -7.071068 7.071068 c
-8.946337 5.195799 -10 2.652031 -10 0 c
-10 -2.652031 -8.946337 -5.195799 -7.071068 -7.071068 c
-5.195799 -8.946337 -2.652031 -10 0 -10 c
cl

gsave
grestore
stroke
grestore
} bind def
653.1 340.729 o
grestore
0.000 setgray
gsave
680.100000 335.479250 translate
0.000000 rotate
/DejaVuSans findfont
15.0 scalefont
setfont
0.000000 0.859375 moveto
/O glyphshow

11.806641 0.859375 moveto
/u glyphshow

21.313477 0.859375 moveto
/r glyphshow

27.480469 0.859375 moveto
/s glyphshow

35.295410 0.859375 moveto
/comma glyphshow

40.063477 0.859375 moveto
/space glyphshow

44.831543 0.859375 moveto
/one glyphshow

54.375000 0.859375 moveto
/five glyphshow

/DejaVuSans-Oblique findfont
15.0 scalefont
setfont
63.918457 0.859375 moveto
/delta glyphshow

73.095703 0.859375 moveto
/t glyphshow


grestore

end
showpage
