%!PS-Adobe-3.0 EPSF-3.0
%%Title: /home/yin/030000_undetected.eps
%%Creator: matplotlib version 3.1.0, http://matplotlib.org/
%%CreationDate: Mon Jan 13 14:47:05 2020
%%Orientation: portrait
%%BoundingBox: -126.0 72.0 738.0 720.0
%%EndComments
%%BeginProlog
/mpldict 9 dict def
mpldict begin
/m { moveto } bind def
/l { lineto } bind def
/r { rlineto } bind def
/c { curveto } bind def
/cl { closepath } bind def
/box {
m
1 index 0 r
0 exch r
neg 0 r
cl
} bind def
/clipbox {
box
clip
newpath
} bind def
%!PS-Adobe-3.0 Resource-Font
%%Title: DejaVu Sans
%%Copyright: Copyright (c) 2003 by Bitstream, Inc. All Rights Reserved. Copyright (c) 2006 by Tavmjong Bah. All Rights Reserved. DejaVu changes are in public domain 
%%Creator: Converted from TrueType to type 3 by PPR
25 dict begin
/_d{bind def}bind def
/_m{moveto}_d
/_l{lineto}_d
/_cl{closepath eofill}_d
/_c{curveto}_d
/_sc{7 -1 roll{setcachedevice}{pop pop pop pop pop pop}ifelse}_d
/_e{exec}_d
/FontName /DejaVuSans def
/PaintType 0 def
/FontMatrix[.001 0 0 .001 0 0]def
/FontBBox[-1021 -463 1793 1232]def
/FontType 3 def
/Encoding [ /space /comma /period /slash /zero /one /two /three /four /five /seven /B /F /O /P /S /T /U /a /c /d /e /f /h /i /k /l /n /o /p /r /s /t /u ] def
/FontInfo 10 dict dup begin
/FamilyName (DejaVu Sans) def
/FullName (DejaVu Sans) def
/Notice (Copyright (c) 2003 by Bitstream, Inc. All Rights Reserved. Copyright (c) 2006 by Tavmjong Bah. All Rights Reserved. DejaVu changes are in public domain ) def
/Weight (Book) def
/Version (Version 2.35) def
/ItalicAngle 0.0 def
/isFixedPitch false def
/UnderlinePosition -130 def
/UnderlineThickness 90 def
end readonly def
/CharStrings 35 dict dup begin
/.notdef 0 def
/space{318 0 0 0 0 0 _sc
}_d
/comma{318 0 77 -115 220 124 _sc
117 124 _m
220 124 _l
220 40 _l
140 -115 _l
77 -115 _l
117 40 _l
117 124 _l
_cl}_d
/period{318 0 107 0 210 124 _sc
107 124 _m
210 124 _l
210 0 _l
107 0 _l
107 124 _l
_cl}_d
/slash{337 0 0 -92 337 729 _sc
254 729 _m
337 729 _l
83 -92 _l
0 -92 _l
254 729 _l
_cl}_d
/zero{636 0 66 -13 570 742 _sc
318 664 _m
267 664 229 639 203 589 _c
177 539 165 464 165 364 _c
165 264 177 189 203 139 _c
229 89 267 64 318 64 _c
369 64 407 89 433 139 _c
458 189 471 264 471 364 _c
471 464 458 539 433 589 _c
407 639 369 664 318 664 _c
318 742 _m
399 742 461 709 505 645 _c
548 580 570 486 570 364 _c
570 241 548 147 505 83 _c
461 19 399 -13 318 -13 _c
236 -13 173 19 130 83 _c
87 147 66 241 66 364 _c
66 486 87 580 130 645 _c
173 709 236 742 318 742 _c
_cl}_d
/one{636 0 110 0 544 729 _sc
124 83 _m
285 83 _l
285 639 _l
110 604 _l
110 694 _l
284 729 _l
383 729 _l
383 83 _l
544 83 _l
544 0 _l
124 0 _l
124 83 _l
_cl}_d
/two{{636 0 73 0 536 742 _sc
192 83 _m
536 83 _l
536 0 _l
73 0 _l
73 83 _l
110 121 161 173 226 239 _c
290 304 331 346 348 365 _c
380 400 402 430 414 455 _c
426 479 433 504 433 528 _c
433 566 419 598 392 622 _c
365 646 330 659 286 659 _c
255 659 222 653 188 643 _c
154 632 117 616 78 594 _c
78 694 _l
118 710 155 722 189 730 _c
223 738 255 742 284 742 _c
}_e{359 742 419 723 464 685 _c
509 647 532 597 532 534 _c
532 504 526 475 515 449 _c
504 422 484 390 454 354 _c
446 344 420 317 376 272 _c
332 227 271 164 192 83 _c
_cl}_e}_d
/three{{636 0 76 -13 556 742 _sc
406 393 _m
453 383 490 362 516 330 _c
542 298 556 258 556 212 _c
556 140 531 84 482 45 _c
432 6 362 -13 271 -13 _c
240 -13 208 -10 176 -4 _c
144 1 110 10 76 22 _c
76 117 _l
103 101 133 89 166 81 _c
198 73 232 69 268 69 _c
330 69 377 81 409 105 _c
441 129 458 165 458 212 _c
458 254 443 288 413 312 _c
383 336 341 349 287 349 _c
}_e{202 349 _l
202 430 _l
291 430 _l
339 430 376 439 402 459 _c
428 478 441 506 441 543 _c
441 580 427 609 401 629 _c
374 649 336 659 287 659 _c
260 659 231 656 200 650 _c
169 644 135 635 98 623 _c
98 711 _l
135 721 170 729 203 734 _c
235 739 266 742 296 742 _c
370 742 429 725 473 691 _c
517 657 539 611 539 553 _c
539 513 527 479 504 451 _c
481 423 448 403 406 393 _c
_cl}_e}_d
/four{636 0 49 0 580 729 _sc
378 643 _m
129 254 _l
378 254 _l
378 643 _l
352 729 _m
476 729 _l
476 254 _l
580 254 _l
580 172 _l
476 172 _l
476 0 _l
378 0 _l
378 172 _l
49 172 _l
49 267 _l
352 729 _l
_cl}_d
/five{{636 0 77 -13 549 729 _sc
108 729 _m
495 729 _l
495 646 _l
198 646 _l
198 467 _l
212 472 227 476 241 478 _c
255 480 270 482 284 482 _c
365 482 429 459 477 415 _c
525 370 549 310 549 234 _c
549 155 524 94 475 51 _c
426 8 357 -13 269 -13 _c
238 -13 207 -10 175 -6 _c
143 -1 111 6 77 17 _c
77 116 _l
106 100 136 88 168 80 _c
199 72 232 69 267 69 _c
}_e{323 69 368 83 401 113 _c
433 143 450 183 450 234 _c
450 284 433 324 401 354 _c
368 384 323 399 267 399 _c
241 399 214 396 188 390 _c
162 384 135 375 108 363 _c
108 729 _l
_cl}_e}_d
/seven{636 0 82 0 551 729 _sc
82 729 _m
551 729 _l
551 687 _l
286 0 _l
183 0 _l
432 646 _l
82 646 _l
82 729 _l
_cl}_d
/B{{686 0 98 0 615 729 _sc
197 348 _m
197 81 _l
355 81 _l
408 81 447 92 473 114 _c
498 136 511 169 511 215 _c
511 260 498 293 473 315 _c
447 337 408 348 355 348 _c
197 348 _l
197 648 _m
197 428 _l
343 428 _l
391 428 426 437 450 455 _c
474 473 486 500 486 538 _c
486 574 474 602 450 620 _c
426 638 391 648 343 648 _c
197 648 _l
98 729 _m
350 729 _l
}_e{425 729 483 713 524 682 _c
564 650 585 606 585 549 _c
585 504 574 468 553 442 _c
532 416 502 399 462 393 _c
510 382 548 360 575 327 _c
601 294 615 253 615 204 _c
615 138 592 88 548 53 _c
504 17 441 0 360 0 _c
98 0 _l
98 729 _l
_cl}_e}_d
/F{575 0 98 0 517 729 _sc
98 729 _m
517 729 _l
517 646 _l
197 646 _l
197 431 _l
486 431 _l
486 348 _l
197 348 _l
197 0 _l
98 0 _l
98 729 _l
_cl}_d
/O{787 0 56 -13 731 742 _sc
394 662 _m
322 662 265 635 223 582 _c
181 528 160 456 160 364 _c
160 272 181 199 223 146 _c
265 92 322 66 394 66 _c
465 66 522 92 564 146 _c
606 199 627 272 627 364 _c
627 456 606 528 564 582 _c
522 635 465 662 394 662 _c
394 742 _m
496 742 577 707 639 639 _c
700 571 731 479 731 364 _c
731 248 700 157 639 89 _c
577 21 496 -13 394 -13 _c
291 -13 209 21 148 89 _c
86 157 56 248 56 364 _c
56 479 86 571 148 639 _c
209 707 291 742 394 742 _c
_cl}_d
/P{603 0 98 0 569 729 _sc
197 648 _m
197 374 _l
321 374 _l
367 374 402 385 427 409 _c
452 433 465 467 465 511 _c
465 555 452 588 427 612 _c
402 636 367 648 321 648 _c
197 648 _l
98 729 _m
321 729 _l
402 729 464 710 506 673 _c
548 636 569 582 569 511 _c
569 439 548 384 506 348 _c
464 311 402 293 321 293 _c
197 293 _l
197 0 _l
98 0 _l
98 729 _l
_cl}_d
/S{{635 0 66 -13 579 742 _sc
535 705 _m
535 609 _l
497 627 462 640 429 649 _c
395 657 363 662 333 662 _c
279 662 237 651 208 631 _c
179 610 165 580 165 542 _c
165 510 174 485 194 469 _c
213 452 250 439 304 429 _c
364 417 _l
437 403 491 378 526 343 _c
561 307 579 260 579 201 _c
579 130 555 77 508 41 _c
460 5 391 -13 300 -13 _c
265 -13 228 -9 189 -2 _c
}_e{150 5 110 16 69 32 _c
69 134 _l
109 111 148 94 186 83 _c
224 71 262 66 300 66 _c
356 66 399 77 430 99 _c
460 121 476 152 476 194 _c
476 230 465 258 443 278 _c
421 298 385 313 335 323 _c
275 335 _l
201 349 148 372 115 404 _c
82 435 66 478 66 534 _c
66 598 88 649 134 686 _c
179 723 242 742 322 742 _c
356 742 390 739 426 733 _c
461 727 497 717 535 705 _c
}_e{_cl}_e}_d
/T{611 0 -2 0 614 729 _sc
-2 729 _m
614 729 _l
614 646 _l
355 646 _l
355 0 _l
256 0 _l
256 646 _l
-2 646 _l
-2 729 _l
_cl}_d
/U{732 0 87 -13 645 729 _sc
87 729 _m
186 729 _l
186 286 _l
186 208 200 151 228 117 _c
256 83 302 66 366 66 _c
429 66 475 83 503 117 _c
531 151 546 208 546 286 _c
546 729 _l
645 729 _l
645 274 _l
645 178 621 107 574 59 _c
527 11 458 -13 366 -13 _c
274 -13 204 11 157 59 _c
110 107 87 178 87 274 _c
87 729 _l
_cl}_d
/a{{613 0 60 -13 522 560 _sc
343 275 _m
270 275 220 266 192 250 _c
164 233 150 205 150 165 _c
150 133 160 107 181 89 _c
202 70 231 61 267 61 _c
317 61 357 78 387 114 _c
417 149 432 196 432 255 _c
432 275 _l
343 275 _l
522 312 _m
522 0 _l
432 0 _l
432 83 _l
411 49 385 25 355 10 _c
325 -5 287 -13 243 -13 _c
187 -13 142 2 109 33 _c
76 64 60 106 60 159 _c
}_e{60 220 80 266 122 298 _c
163 329 224 345 306 345 _c
432 345 _l
432 354 _l
432 395 418 427 391 450 _c
364 472 326 484 277 484 _c
245 484 215 480 185 472 _c
155 464 127 453 100 439 _c
100 522 _l
132 534 164 544 195 550 _c
226 556 256 560 286 560 _c
365 560 424 539 463 498 _c
502 457 522 395 522 312 _c
_cl}_e}_d
/c{{550 0 55 -13 488 560 _sc
488 526 _m
488 442 _l
462 456 437 466 411 473 _c
385 480 360 484 334 484 _c
276 484 230 465 198 428 _c
166 391 150 339 150 273 _c
150 206 166 154 198 117 _c
230 80 276 62 334 62 _c
360 62 385 65 411 72 _c
437 79 462 90 488 104 _c
488 21 _l
462 9 436 0 410 -5 _c
383 -10 354 -13 324 -13 _c
242 -13 176 12 128 64 _c
}_e{79 115 55 185 55 273 _c
55 362 79 432 128 483 _c
177 534 244 560 330 560 _c
358 560 385 557 411 551 _c
437 545 463 537 488 526 _c
_cl}_e}_d
/d{{635 0 55 -13 544 760 _sc
454 464 _m
454 760 _l
544 760 _l
544 0 _l
454 0 _l
454 82 _l
435 49 411 25 382 10 _c
353 -5 319 -13 279 -13 _c
213 -13 159 13 117 65 _c
75 117 55 187 55 273 _c
55 359 75 428 117 481 _c
159 533 213 560 279 560 _c
319 560 353 552 382 536 _c
411 520 435 496 454 464 _c
148 273 _m
148 207 161 155 188 117 _c
215 79 253 61 301 61 _c
}_e{348 61 385 79 413 117 _c
440 155 454 207 454 273 _c
454 339 440 390 413 428 _c
385 466 348 485 301 485 _c
253 485 215 466 188 428 _c
161 390 148 339 148 273 _c
_cl}_e}_d
/e{{615 0 55 -13 562 560 _sc
562 296 _m
562 252 _l
149 252 _l
153 190 171 142 205 110 _c
238 78 284 62 344 62 _c
378 62 412 66 444 74 _c
476 82 509 95 541 113 _c
541 28 _l
509 14 476 3 442 -3 _c
408 -9 373 -13 339 -13 _c
251 -13 182 12 131 62 _c
80 112 55 181 55 268 _c
55 357 79 428 127 481 _c
175 533 241 560 323 560 _c
397 560 455 536 498 489 _c
}_e{540 441 562 377 562 296 _c
472 322 _m
471 371 457 410 431 440 _c
404 469 368 484 324 484 _c
274 484 234 469 204 441 _c
174 413 156 373 152 322 _c
472 322 _l
_cl}_e}_d
/f{352 0 23 0 371 760 _sc
371 760 _m
371 685 _l
285 685 _l
253 685 230 678 218 665 _c
205 652 199 629 199 595 _c
199 547 _l
347 547 _l
347 477 _l
199 477 _l
199 0 _l
109 0 _l
109 477 _l
23 477 _l
23 547 _l
109 547 _l
109 585 _l
109 645 123 690 151 718 _c
179 746 224 760 286 760 _c
371 760 _l
_cl}_d
/h{634 0 91 0 549 760 _sc
549 330 _m
549 0 _l
459 0 _l
459 327 _l
459 379 448 417 428 443 _c
408 469 378 482 338 482 _c
289 482 251 466 223 435 _c
195 404 181 362 181 309 _c
181 0 _l
91 0 _l
91 760 _l
181 760 _l
181 462 _l
202 494 227 519 257 535 _c
286 551 320 560 358 560 _c
420 560 468 540 500 501 _c
532 462 549 405 549 330 _c
_cl}_d
/i{278 0 94 0 184 760 _sc
94 547 _m
184 547 _l
184 0 _l
94 0 _l
94 547 _l
94 760 _m
184 760 _l
184 646 _l
94 646 _l
94 760 _l
_cl}_d
/k{579 0 91 0 576 760 _sc
91 760 _m
181 760 _l
181 311 _l
449 547 _l
564 547 _l
274 291 _l
576 0 _l
459 0 _l
181 267 _l
181 0 _l
91 0 _l
91 760 _l
_cl}_d
/l{278 0 94 0 184 760 _sc
94 760 _m
184 760 _l
184 0 _l
94 0 _l
94 760 _l
_cl}_d
/n{634 0 91 0 549 560 _sc
549 330 _m
549 0 _l
459 0 _l
459 327 _l
459 379 448 417 428 443 _c
408 469 378 482 338 482 _c
289 482 251 466 223 435 _c
195 404 181 362 181 309 _c
181 0 _l
91 0 _l
91 547 _l
181 547 _l
181 462 _l
202 494 227 519 257 535 _c
286 551 320 560 358 560 _c
420 560 468 540 500 501 _c
532 462 549 405 549 330 _c
_cl}_d
/o{612 0 55 -13 557 560 _sc
306 484 _m
258 484 220 465 192 427 _c
164 389 150 338 150 273 _c
150 207 163 156 191 118 _c
219 80 257 62 306 62 _c
354 62 392 80 420 118 _c
448 156 462 207 462 273 _c
462 337 448 389 420 427 _c
392 465 354 484 306 484 _c
306 560 _m
384 560 445 534 490 484 _c
534 433 557 363 557 273 _c
557 183 534 113 490 63 _c
445 12 384 -13 306 -13 _c
227 -13 165 12 121 63 _c
77 113 55 183 55 273 _c
55 363 77 433 121 484 _c
165 534 227 560 306 560 _c
_cl}_d
/p{{635 0 91 -207 580 560 _sc
181 82 _m
181 -207 _l
91 -207 _l
91 547 _l
181 547 _l
181 464 _l
199 496 223 520 252 536 _c
281 552 316 560 356 560 _c
422 560 476 533 518 481 _c
559 428 580 359 580 273 _c
580 187 559 117 518 65 _c
476 13 422 -13 356 -13 _c
316 -13 281 -5 252 10 _c
223 25 199 49 181 82 _c
487 273 _m
487 339 473 390 446 428 _c
418 466 381 485 334 485 _c
}_e{286 485 249 466 222 428 _c
194 390 181 339 181 273 _c
181 207 194 155 222 117 _c
249 79 286 61 334 61 _c
381 61 418 79 446 117 _c
473 155 487 207 487 273 _c
_cl}_e}_d
/r{411 0 91 0 411 560 _sc
411 463 _m
401 469 390 473 378 476 _c
366 478 353 480 339 480 _c
288 480 249 463 222 430 _c
194 397 181 350 181 288 _c
181 0 _l
91 0 _l
91 547 _l
181 547 _l
181 462 _l
199 495 224 520 254 536 _c
284 552 321 560 365 560 _c
371 560 378 559 386 559 _c
393 558 401 557 411 555 _c
411 463 _l
_cl}_d
/s{{521 0 54 -13 472 560 _sc
443 531 _m
443 446 _l
417 458 391 468 364 475 _c
336 481 308 485 279 485 _c
234 485 200 478 178 464 _c
156 450 145 430 145 403 _c
145 382 153 366 169 354 _c
185 342 217 330 265 320 _c
296 313 _l
360 299 405 279 432 255 _c
458 230 472 195 472 151 _c
472 100 452 60 412 31 _c
372 1 316 -13 246 -13 _c
216 -13 186 -10 154 -5 _c
}_e{122 0 89 8 54 20 _c
54 113 _l
87 95 120 82 152 74 _c
184 65 216 61 248 61 _c
290 61 323 68 346 82 _c
368 96 380 117 380 144 _c
380 168 371 187 355 200 _c
339 213 303 226 247 238 _c
216 245 _l
160 257 119 275 95 299 _c
70 323 58 356 58 399 _c
58 450 76 490 112 518 _c
148 546 200 560 268 560 _c
301 560 332 557 362 552 _c
391 547 418 540 443 531 _c
}_e{_cl}_e}_d
/t{392 0 27 0 368 702 _sc
183 702 _m
183 547 _l
368 547 _l
368 477 _l
183 477 _l
183 180 _l
183 135 189 106 201 94 _c
213 81 238 75 276 75 _c
368 75 _l
368 0 _l
276 0 _l
206 0 158 13 132 39 _c
106 65 93 112 93 180 _c
93 477 _l
27 477 _l
27 547 _l
93 547 _l
93 702 _l
183 702 _l
_cl}_d
/u{634 0 85 -13 543 560 _sc
85 216 _m
85 547 _l
175 547 _l
175 219 _l
175 167 185 129 205 103 _c
225 77 255 64 296 64 _c
344 64 383 79 411 110 _c
439 141 453 183 453 237 _c
453 547 _l
543 547 _l
543 0 _l
453 0 _l
453 84 _l
431 50 405 26 377 10 _c
348 -5 315 -13 277 -13 _c
214 -13 166 6 134 45 _c
101 83 85 140 85 216 _c
311 560 _m
311 560 _l
_cl}_d
end readonly def

/BuildGlyph
 {exch begin
 CharStrings exch
 2 copy known not{pop /.notdef}if
 true 3 1 roll get exec
 end}_d

/BuildChar {
 1 index /Encoding get exch get
 1 index /BuildGlyph get exec
}_d

FontName currentdict end definefont pop
%!PS-Adobe-3.0 Resource-Font
%%Title: DejaVu Sans Oblique
%%Copyright: Copyright (c) 2003 by Bitstream, Inc. All Rights Reserved. Copyright (c) 2006 by Tavmjong Bah. All Rights Reserved. DejaVu changes are in public domain 
%%Creator: Converted from TrueType to type 3 by PPR
25 dict begin
/_d{bind def}bind def
/_m{moveto}_d
/_l{lineto}_d
/_cl{closepath eofill}_d
/_c{curveto}_d
/_sc{7 -1 roll{setcachedevice}{pop pop pop pop pop pop}ifelse}_d
/_e{exec}_d
/FontName /DejaVuSans-Oblique def
/PaintType 0 def
/FontMatrix[.001 0 0 .001 0 0]def
/FontBBox[-1016 -350 1659 1068]def
/FontType 3 def
/Encoding [ /t /delta ] def
/FontInfo 10 dict dup begin
/FamilyName (DejaVu Sans) def
/FullName (DejaVu Sans Oblique) def
/Notice (Copyright (c) 2003 by Bitstream, Inc. All Rights Reserved. Copyright (c) 2006 by Tavmjong Bah. All Rights Reserved. DejaVu changes are in public domain ) def
/Weight (Oblique) def
/Version (Version 2.35) def
/ItalicAngle -11.0 def
/isFixedPitch false def
/UnderlinePosition -130 def
/UnderlineThickness 90 def
end readonly def
/CharStrings 3 dict dup begin
/.notdef 0 def
/t{{392 0 64 0 423 702 _sc
423 547 _m
409 477 _l
230 477 _l
172 180 _l
170 169 168 160 167 152 _c
166 144 166 139 166 135 _c
166 114 172 99 185 89 _c
197 79 217 75 245 75 _c
336 75 _l
321 0 _l
235 0 _l
181 0 141 10 115 31 _c
89 52 76 84 76 126 _c
76 133 76 141 77 150 _c
78 159 80 169 82 180 _c
140 477 _l
64 477 _l
78 547 _l
153 547 _l
183 702 _l
}_e{273 702 _l
243 547 _l
423 547 _l
_cl}_e}_d
/delta{{612 0 38 -13 557 742 _sc
542 633 _m
514 655 461 667 383 667 _c
300 667 255 648 248 610 _c
242 580 280 557 364 542 _c
428 530 476 505 508 469 _c
546 425 556 358 539 268 _c
521 182 486 113 432 63 _c
377 12 310 -13 232 -13 _c
154 -13 98 12 63 63 _c
28 113 20 183 38 273 _c
50 339 84 399 139 453 _c
160 473 184 490 211 502 _c
165 528 147 563 156 609 _c
}_e{173 697 253 742 397 742 _c
469 742 522 730 557 708 _c
542 633 _l
274 478 _m
250 468 226 451 204 428 _c
168 391 144 339 132 273 _c
119 207 123 155 144 118 _c
164 80 199 62 248 62 _c
295 62 336 81 372 119 _c
407 156 431 206 443 268 _c
455 332 450 380 427 412 _c
401 445 369 464 329 468 _c
308 470 290 473 274 478 _c
_cl}_e}_d
end readonly def

/BuildGlyph
 {exch begin
 CharStrings exch
 2 copy known not{pop /.notdef}if
 true 3 1 roll get exec
 end}_d

/BuildChar {
 1 index /Encoding get exch get
 1 index /BuildGlyph get exec
}_d

FontName currentdict end definefont pop
end
%%EndProlog
mpldict begin
-126 72 translate
864 648 0 0 clipbox
gsave
0 0 m
864 0 l
864 648 l
0 648 l
cl
1.000 setgray
fill
grestore
gsave
108 71.28 m
777.6 71.28 l
777.6 570.24 l
108 570.24 l
cl
1.000 setgray
fill
grestore
0.800 setlinewidth
1 setlinejoin
0 setlinecap
[] 0 setdash
0.000 setgray
gsave
/o {
gsave
newpath
translate
0.8 setlinewidth
1 setlinejoin
0 setlinecap
0 0 m
0 -3.5 l

gsave
0.000 setgray
fill
grestore
stroke
grestore
} bind def
108 71.28 o
grestore
/DejaVuSans findfont
24.000 scalefont
setfont
gsave
100.367188 46.045625 translate
0.000000 rotate
0.000000 0.000000 m /five glyphshow
grestore
gsave
/o {
gsave
newpath
translate
0.8 setlinewidth
1 setlinejoin
0 setlinecap
0 0 m
0 -3.5 l

gsave
0.000 setgray
fill
grestore
stroke
grestore
} bind def
185.86 71.28 o
grestore
gsave
170.594840 46.045625 translate
0.000000 rotate
0.000000 0.000000 m /one glyphshow
15.269531 0.000000 m /zero glyphshow
grestore
gsave
/o {
gsave
newpath
translate
0.8 setlinewidth
1 setlinejoin
0 setlinecap
0 0 m
0 -3.5 l

gsave
0.000 setgray
fill
grestore
stroke
grestore
} bind def
263.721 71.28 o
grestore
gsave
248.455305 46.045625 translate
0.000000 rotate
0.000000 0.000000 m /one glyphshow
15.269531 0.000000 m /five glyphshow
grestore
gsave
/o {
gsave
newpath
translate
0.8 setlinewidth
1 setlinejoin
0 setlinecap
0 0 m
0 -3.5 l

gsave
0.000 setgray
fill
grestore
stroke
grestore
} bind def
341.581 71.28 o
grestore
gsave
326.315770 46.045625 translate
0.000000 rotate
0.000000 0.000000 m /two glyphshow
15.269531 0.000000 m /zero glyphshow
grestore
gsave
/o {
gsave
newpath
translate
0.8 setlinewidth
1 setlinejoin
0 setlinecap
0 0 m
0 -3.5 l

gsave
0.000 setgray
fill
grestore
stroke
grestore
} bind def
419.442 71.28 o
grestore
gsave
404.176235 46.045625 translate
0.000000 rotate
0.000000 0.000000 m /two glyphshow
15.269531 0.000000 m /five glyphshow
grestore
gsave
/o {
gsave
newpath
translate
0.8 setlinewidth
1 setlinejoin
0 setlinecap
0 0 m
0 -3.5 l

gsave
0.000 setgray
fill
grestore
stroke
grestore
} bind def
497.302 71.28 o
grestore
gsave
482.036701 46.045625 translate
0.000000 rotate
0.000000 0.000000 m /three glyphshow
15.269531 0.000000 m /zero glyphshow
grestore
gsave
/o {
gsave
newpath
translate
0.8 setlinewidth
1 setlinejoin
0 setlinecap
0 0 m
0 -3.5 l

gsave
0.000 setgray
fill
grestore
stroke
grestore
} bind def
575.163 71.28 o
grestore
gsave
559.897166 46.045625 translate
0.000000 rotate
0.000000 0.000000 m /three glyphshow
15.269531 0.000000 m /five glyphshow
grestore
gsave
/o {
gsave
newpath
translate
0.8 setlinewidth
1 setlinejoin
0 setlinecap
0 0 m
0 -3.5 l

gsave
0.000 setgray
fill
grestore
stroke
grestore
} bind def
653.023 71.28 o
grestore
gsave
637.757631 46.045625 translate
0.000000 rotate
0.000000 0.000000 m /four glyphshow
15.269531 0.000000 m /zero glyphshow
grestore
gsave
/o {
gsave
newpath
translate
0.8 setlinewidth
1 setlinejoin
0 setlinecap
0 0 m
0 -3.5 l

gsave
0.000 setgray
fill
grestore
stroke
grestore
} bind def
730.884 71.28 o
grestore
gsave
715.618096 46.045625 translate
0.000000 rotate
0.000000 0.000000 m /four glyphshow
15.269531 0.000000 m /five glyphshow
grestore
gsave
380.448438 18.811250 translate
0.000000 rotate
0.000000 0.000000 m /S glyphshow
15.234375 0.000000 m /n glyphshow
30.445312 0.000000 m /a glyphshow
45.152344 0.000000 m /p glyphshow
60.386719 0.000000 m /s glyphshow
72.890625 0.000000 m /h glyphshow
88.101562 0.000000 m /o glyphshow
102.785156 0.000000 m /t glyphshow
112.195312 0.000000 m /s glyphshow
grestore
gsave
/o {
gsave
newpath
translate
0.8 setlinewidth
1 setlinejoin
0 setlinecap
0 0 m
-3.5 0 l

gsave
0.000 setgray
fill
grestore
stroke
grestore
} bind def
108 93.7373 o
grestore
gsave
47.578125 84.620096 translate
0.000000 rotate
0.000000 0.000000 m /zero glyphshow
15.269531 0.000000 m /period glyphshow
22.898438 0.000000 m /zero glyphshow
38.167969 0.000000 m /zero glyphshow
grestore
gsave
/o {
gsave
newpath
translate
0.8 setlinewidth
1 setlinejoin
0 setlinecap
0 0 m
-3.5 0 l

gsave
0.000 setgray
fill
grestore
stroke
grestore
} bind def
108 149.416 o
grestore
gsave
47.578125 140.299310 translate
0.000000 rotate
0.000000 0.000000 m /zero glyphshow
15.269531 0.000000 m /period glyphshow
22.898438 0.000000 m /zero glyphshow
38.167969 0.000000 m /five glyphshow
grestore
gsave
/o {
gsave
newpath
translate
0.8 setlinewidth
1 setlinejoin
0 setlinecap
0 0 m
-3.5 0 l

gsave
0.000 setgray
fill
grestore
stroke
grestore
} bind def
108 205.096 o
grestore
gsave
47.578125 195.978524 translate
0.000000 rotate
0.000000 0.000000 m /zero glyphshow
15.269531 0.000000 m /period glyphshow
22.898438 0.000000 m /one glyphshow
38.167969 0.000000 m /zero glyphshow
grestore
gsave
/o {
gsave
newpath
translate
0.8 setlinewidth
1 setlinejoin
0 setlinecap
0 0 m
-3.5 0 l

gsave
0.000 setgray
fill
grestore
stroke
grestore
} bind def
108 260.775 o
grestore
gsave
47.578125 251.657739 translate
0.000000 rotate
0.000000 0.000000 m /zero glyphshow
15.269531 0.000000 m /period glyphshow
22.898438 0.000000 m /one glyphshow
38.167969 0.000000 m /five glyphshow
grestore
gsave
/o {
gsave
newpath
translate
0.8 setlinewidth
1 setlinejoin
0 setlinecap
0 0 m
-3.5 0 l

gsave
0.000 setgray
fill
grestore
stroke
grestore
} bind def
108 316.454 o
grestore
gsave
47.578125 307.336953 translate
0.000000 rotate
0.000000 0.000000 m /zero glyphshow
15.269531 0.000000 m /period glyphshow
22.898438 0.000000 m /two glyphshow
38.167969 0.000000 m /zero glyphshow
grestore
gsave
/o {
gsave
newpath
translate
0.8 setlinewidth
1 setlinejoin
0 setlinecap
0 0 m
-3.5 0 l

gsave
0.000 setgray
fill
grestore
stroke
grestore
} bind def
108 372.133 o
grestore
gsave
47.578125 363.016168 translate
0.000000 rotate
0.000000 0.000000 m /zero glyphshow
15.269531 0.000000 m /period glyphshow
22.898438 0.000000 m /two glyphshow
38.167969 0.000000 m /five glyphshow
grestore
gsave
/o {
gsave
newpath
translate
0.8 setlinewidth
1 setlinejoin
0 setlinecap
0 0 m
-3.5 0 l

gsave
0.000 setgray
fill
grestore
stroke
grestore
} bind def
108 427.813 o
grestore
gsave
47.578125 418.695382 translate
0.000000 rotate
0.000000 0.000000 m /zero glyphshow
15.269531 0.000000 m /period glyphshow
22.898438 0.000000 m /three glyphshow
38.167969 0.000000 m /zero glyphshow
grestore
gsave
/o {
gsave
newpath
translate
0.8 setlinewidth
1 setlinejoin
0 setlinecap
0 0 m
-3.5 0 l

gsave
0.000 setgray
fill
grestore
stroke
grestore
} bind def
108 483.492 o
grestore
gsave
47.578125 474.374596 translate
0.000000 rotate
0.000000 0.000000 m /zero glyphshow
15.269531 0.000000 m /period glyphshow
22.898438 0.000000 m /three glyphshow
38.167969 0.000000 m /five glyphshow
grestore
gsave
/o {
gsave
newpath
translate
0.8 setlinewidth
1 setlinejoin
0 setlinecap
0 0 m
-3.5 0 l

gsave
0.000 setgray
fill
grestore
stroke
grestore
} bind def
108 539.171 o
grestore
gsave
47.578125 530.053811 translate
0.000000 rotate
0.000000 0.000000 m /zero glyphshow
15.269531 0.000000 m /period glyphshow
22.898438 0.000000 m /four glyphshow
38.167969 0.000000 m /zero glyphshow
grestore
gsave
38.578125 271.978750 translate
90.000000 rotate
0.000000 0.000000 m /F glyphshow
13.789062 0.000000 m /r glyphshow
23.656250 0.000000 m /a glyphshow
38.363281 0.000000 m /c glyphshow
51.558594 0.000000 m /t glyphshow
60.968750 0.000000 m /i glyphshow
67.636719 0.000000 m /o glyphshow
82.320312 0.000000 m /n glyphshow
grestore
3.000 setlinewidth
2 setlinecap
1.000 0.000 0.000 setrgbcolor
gsave
669.6 499 108 71.28 clipbox
108 101.161178 m
123.572093 98.377218 l
139.144186 94.850867 l
154.716279 94.553912 l
170.288372 94.479673 l
185.860465 94.887987 l
201.432558 94.925106 l
217.004651 95.036465 l
232.576744 95.184943 l
248.148837 95.147823 l
263.72093 95.110704 l
279.293023 95.259182 l
294.865116 95.40766 l
310.437209 95.481899 l
326.009302 95.741735 l
341.581395 96.038691 l
357.153488 95.741735 l
372.725581 96.001571 l
388.297674 95.630376 l
403.869767 95.927332 l
419.44186 96.187169 l
435.013953 96.07581 l
450.586047 96.298527 l
466.15814 96.595483 l
481.730233 96.558363 l
497.302326 96.372766 l
512.874419 96.261408 l
528.446512 96.11293 l
544.018605 96.07581 l
559.590698 96.150049 l
575.162791 96.484124 l
590.734884 96.892439 l
606.306977 96.447005 l
621.87907 96.743961 l
637.451163 96.743961 l
653.023256 97.078036 l
668.595349 97.078036 l
684.167442 97.003797 l
699.739535 97.040917 l
715.311628 97.226514 l
730.883721 97.115155 l
746.455814 96.892439 l
762.027907 96.855319 l
777.6 96.929558 l
stroke
grestore
0 setlinecap
[11.1 4.8] 0 setdash
gsave
669.6 499 108 71.28 clipbox
108 94.145597 m
123.572093 94.071358 l
139.144186 94.553912 l
154.716279 94.442553 l
170.288372 94.108478 l
185.860465 94.442553 l
201.432558 94.66527 l
217.004651 94.479673 l
232.576744 94.516792 l
248.148837 94.479673 l
263.72093 94.368314 l
279.293023 94.553912 l
294.865116 94.553912 l
310.437209 94.591031 l
326.009302 94.739509 l
341.581395 94.962226 l
357.153488 94.591031 l
372.725581 94.850867 l
388.297674 94.591031 l
403.869767 94.887987 l
419.44186 94.739509 l
435.013953 94.813748 l
450.586047 94.962226 l
466.15814 94.776628 l
481.730233 94.925106 l
497.302326 94.739509 l
512.874419 94.887987 l
528.446512 94.850867 l
544.018605 94.850867 l
559.590698 94.813748 l
575.162791 94.999345 l
590.734884 95.519018 l
606.306977 95.110704 l
621.87907 95.110704 l
637.451163 95.036465 l
653.023256 95.147823 l
668.595349 95.259182 l
684.167442 95.184943 l
699.739535 95.184943 l
715.311628 95.444779 l
730.883721 95.110704 l
746.455814 95.036465 l
762.027907 95.036465 l
777.6 95.184943 l
stroke
grestore
2 setlinecap
[] 0 setdash
0.000 0.000 1.000 setrgbcolor
gsave
669.6 499 108 71.28 clipbox
108 101.086939 m
123.572093 98.22874 l
139.144186 94.628151 l
154.716279 94.442553 l
170.288372 94.182717 l
185.860465 94.66527 l
201.432558 94.628151 l
217.004651 94.813748 l
232.576744 94.850867 l
248.148837 94.739509 l
263.72093 94.850867 l
279.293023 94.999345 l
294.865116 95.147823 l
310.437209 95.222062 l
326.009302 95.296301 l
341.581395 95.296301 l
357.153488 95.519018 l
372.725581 95.704615 l
388.297674 95.704615 l
403.869767 95.630376 l
419.44186 95.519018 l
435.013953 95.519018 l
450.586047 96.11293 l
466.15814 96.11293 l
481.730233 95.964452 l
497.302326 95.853093 l
512.874419 95.741735 l
528.446512 95.556137 l
544.018605 95.704615 l
559.590698 95.927332 l
575.162791 96.11293 l
590.734884 96.372766 l
606.306977 96.07581 l
621.87907 96.484124 l
637.451163 96.595483 l
653.023256 96.632602 l
668.595349 96.484124 l
684.167442 96.447005 l
699.739535 96.409885 l
715.311628 96.743961 l
730.883721 96.8182 l
746.455814 96.78108 l
762.027907 96.892439 l
777.6 96.892439 l
stroke
grestore
0 setlinecap
[11.1 4.8] 0 setdash
gsave
669.6 499 108 71.28 clipbox
108 94.108478 m
123.572093 93.96 l
139.144186 94.219836 l
154.716279 94.331195 l
170.288372 93.997119 l
185.860465 94.145597 l
201.432558 94.294075 l
217.004651 94.256956 l
232.576744 94.331195 l
248.148837 94.294075 l
263.72093 94.294075 l
279.293023 94.256956 l
294.865116 94.219836 l
310.437209 94.368314 l
326.009302 94.591031 l
341.581395 94.405434 l
357.153488 94.405434 l
372.725581 94.739509 l
388.297674 94.368314 l
403.869767 94.70239 l
419.44186 94.553912 l
435.013953 94.553912 l
450.586047 94.739509 l
466.15814 94.553912 l
481.730233 94.591031 l
497.302326 94.294075 l
512.874419 94.553912 l
528.446512 94.553912 l
544.018605 94.66527 l
559.590698 94.628151 l
575.162791 94.776628 l
590.734884 95.184943 l
606.306977 94.962226 l
621.87907 94.850867 l
637.451163 94.999345 l
653.023256 94.887987 l
668.595349 94.887987 l
684.167442 94.887987 l
699.739535 94.739509 l
715.311628 95.184943 l
730.883721 94.850867 l
746.455814 94.925106 l
762.027907 95.073584 l
777.6 94.999345 l
stroke
grestore
2 setlinecap
[] 0 setdash
1.000 0.000 0.000 setrgbcolor
gsave
669.6 499 108 71.28 clipbox
108 114.52419 m
123.572093 104.984484 l
139.144186 96.558363 l
154.716279 96.632602 l
170.288372 97.337872 l
185.860465 98.154501 l
201.432558 98.414337 l
217.004651 98.859771 l
232.576744 98.562815 l
248.148837 98.748412 l
263.72093 99.193846 l
279.293023 99.565041 l
294.865116 100.567267 l
310.437209 101.161178 l
326.009302 101.161178 l
341.581395 101.421015 l
357.153488 102.274763 l
372.725581 102.980033 l
388.297674 103.722422 l
403.869767 105.244321 l
419.44186 105.467038 l
435.013953 107.285892 l
450.586047 108.733552 l
466.15814 110.181211 l
481.730233 112.297021 l
497.302326 114.635548 l
512.874419 118.124779 l
528.446512 122.430638 l
544.018605 125.808511 l
559.590698 129.37198 l
575.162791 134.642946 l
590.734884 140.285106 l
606.306977 147.449165 l
621.87907 151.643666 l
637.451163 158.325172 l
653.023256 166.454337 l
668.595349 175.734206 l
684.167442 185.311031 l
699.739535 193.700033 l
715.311628 203.388216 l
730.883721 212.853682 l
746.455814 222.022193 l
762.027907 229.483208 l
777.6 238.503241 l
stroke
grestore
1.000 setlinewidth
0 setlinejoin
0 setlinecap
gsave
669.6 499 108 71.28 clipbox
/o {
gsave
newpath
translate
1.0 setlinewidth
0 setlinejoin
0 setlinecap
-10 -10 m
10 -10 l
10 10 l
-10 10 l
cl

gsave
grestore
stroke
grestore
} bind def
108 114.524 o
123.572 104.984 o
139.144 96.5584 o
154.716 96.6326 o
170.288 97.3379 o
185.86 98.1545 o
201.433 98.4143 o
217.005 98.8598 o
232.577 98.5628 o
248.149 98.7484 o
263.721 99.1938 o
279.293 99.565 o
294.865 100.567 o
310.437 101.161 o
326.009 101.161 o
341.581 101.421 o
357.153 102.275 o
372.726 102.98 o
388.298 103.722 o
403.87 105.244 o
419.442 105.467 o
435.014 107.286 o
450.586 108.734 o
466.158 110.181 o
481.73 112.297 o
497.302 114.636 o
512.874 118.125 o
528.447 122.431 o
544.019 125.809 o
559.591 129.372 o
575.163 134.643 o
590.735 140.285 o
606.307 147.449 o
621.879 151.644 o
637.451 158.325 o
653.023 166.454 o
668.595 175.734 o
684.167 185.311 o
699.74 193.7 o
715.312 203.388 o
730.884 212.854 o
746.456 222.022 o
762.028 229.483 o
777.6 238.503 o
grestore
3.000 setlinewidth
1 setlinejoin
[11.1 4.8] 0 setdash
gsave
669.6 499 108 71.28 clipbox
108 94.553912 m
123.572093 94.591031 l
139.144186 94.925106 l
154.716279 94.925106 l
170.288372 95.37054 l
185.860465 95.333421 l
201.432558 95.815974 l
217.004651 96.187169 l
232.576744 95.853093 l
248.148837 95.741735 l
263.72093 95.853093 l
279.293023 96.001571 l
294.865116 96.595483 l
310.437209 97.226514 l
326.009302 97.189394 l
341.581395 97.783306 l
357.153488 97.746187 l
372.725581 98.302979 l
388.297674 98.859771 l
403.869767 100.30743 l
419.44186 100.604386 l
435.013953 101.532373 l
450.586047 102.237643 l
466.15814 103.536825 l
481.730233 105.504157 l
497.302326 108.13964 l
512.874419 110.403928 l
528.446512 113.187889 l
544.018605 117.753584 l
559.590698 122.245041 l
575.162791 127.107692 l
590.734884 132.601375 l
606.306977 137.612504 l
621.87907 143.254664 l
637.451163 150.975516 l
653.023256 156.469198 l
668.595349 164.82108 l
684.167442 172.690409 l
699.739535 181.933159 l
715.311628 188.020753 l
730.883721 192.326612 l
746.455814 201.68072 l
762.027907 208.213748 l
777.6 212.816563 l
stroke
grestore
1.000 setlinewidth
0 setlinejoin
[] 0 setdash
gsave
669.6 499 108 71.28 clipbox
/o {
gsave
newpath
translate
1.0 setlinewidth
0 setlinejoin
0 setlinecap
-10 -10 m
10 -10 l
10 10 l
-10 10 l
cl

gsave
grestore
stroke
grestore
} bind def
108 94.5539 o
123.572 94.591 o
139.144 94.9251 o
154.716 94.9251 o
170.288 95.3705 o
185.86 95.3334 o
201.433 95.816 o
217.005 96.1872 o
232.577 95.8531 o
248.149 95.7417 o
263.721 95.8531 o
279.293 96.0016 o
294.865 96.5955 o
310.437 97.2265 o
326.009 97.1894 o
341.581 97.7833 o
357.153 97.7462 o
372.726 98.303 o
388.298 98.8598 o
403.87 100.307 o
419.442 100.604 o
435.014 101.532 o
450.586 102.238 o
466.158 103.537 o
481.73 105.504 o
497.302 108.14 o
512.874 110.404 o
528.447 113.188 o
544.019 117.754 o
559.591 122.245 o
575.163 127.108 o
590.735 132.601 o
606.307 137.613 o
621.879 143.255 o
637.451 150.976 o
653.023 156.469 o
668.595 164.821 o
684.167 172.69 o
699.74 181.933 o
715.312 188.021 o
730.884 192.327 o
746.456 201.681 o
762.028 208.214 o
777.6 212.817 o
grestore
3.000 setlinewidth
1 setlinejoin
2 setlinecap
0.000 0.000 1.000 setrgbcolor
gsave
669.6 499 108 71.28 clipbox
108 114.52419 m
123.572093 105.021604 l
139.144186 96.298527 l
154.716279 96.558363 l
170.288372 96.78108 l
185.860465 97.597709 l
201.432558 97.709067 l
217.004651 98.006023 l
232.576744 97.820426 l
248.148837 98.19162 l
263.72093 98.488576 l
279.293023 98.674173 l
294.865116 99.416563 l
310.437209 99.899116 l
326.009302 99.676399 l
341.581395 100.010475 l
357.153488 100.381669 l
372.725581 100.010475 l
388.297674 100.381669 l
403.869767 101.161178 l
419.44186 101.04982 l
435.013953 101.309656 l
450.586047 101.606612 l
466.15814 102.089165 l
481.730233 102.794435 l
497.302326 103.16563 l
512.874419 104.650409 l
528.446512 105.095843 l
544.018605 105.132962 l
559.590698 105.244321 l
575.162791 105.763993 l
590.734884 106.246547 l
606.306977 106.209427 l
621.87907 106.7291 l
637.451163 106.914697 l
653.023256 106.877578 l
668.595349 107.174534 l
684.167442 107.879804 l
699.739535 108.213879 l
715.311628 108.436596 l
730.883721 108.585074 l
746.455814 109.178985 l
762.027907 109.401702 l
777.6 109.253224 l
stroke
grestore
1.000 setlinewidth
0 setlinejoin
0 setlinecap
gsave
669.6 499 108 71.28 clipbox
/o {
gsave
newpath
translate
1.0 setlinewidth
0 setlinejoin
0 setlinecap
-10 -10 m
10 -10 l
10 10 l
-10 10 l
cl

gsave
grestore
stroke
grestore
} bind def
108 114.524 o
123.572 105.022 o
139.144 96.2985 o
154.716 96.5584 o
170.288 96.7811 o
185.86 97.5977 o
201.433 97.7091 o
217.005 98.006 o
232.577 97.8204 o
248.149 98.1916 o
263.721 98.4886 o
279.293 98.6742 o
294.865 99.4166 o
310.437 99.8991 o
326.009 99.6764 o
341.581 100.01 o
357.153 100.382 o
372.726 100.01 o
388.298 100.382 o
403.87 101.161 o
419.442 101.05 o
435.014 101.31 o
450.586 101.607 o
466.158 102.089 o
481.73 102.794 o
497.302 103.166 o
512.874 104.65 o
528.447 105.096 o
544.019 105.133 o
559.591 105.244 o
575.163 105.764 o
590.735 106.247 o
606.307 106.209 o
621.879 106.729 o
637.451 106.915 o
653.023 106.878 o
668.595 107.175 o
684.167 107.88 o
699.74 108.214 o
715.312 108.437 o
730.884 108.585 o
746.456 109.179 o
762.028 109.402 o
777.6 109.253 o
grestore
3.000 setlinewidth
1 setlinejoin
[11.1 4.8] 0 setdash
gsave
669.6 499 108 71.28 clipbox
108 94.516792 m
123.572093 94.553912 l
139.144186 94.813748 l
154.716279 94.887987 l
170.288372 95.036465 l
185.860465 95.110704 l
201.432558 95.147823 l
217.004651 95.481899 l
232.576744 95.110704 l
248.148837 95.147823 l
263.72093 95.37054 l
279.293023 95.444779 l
294.865116 95.778854 l
310.437209 96.150049 l
326.009302 95.704615 l
341.581395 95.815974 l
357.153488 95.927332 l
372.725581 95.444779 l
388.297674 95.481899 l
403.869767 96.038691 l
419.44186 96.001571 l
435.013953 95.815974 l
450.586047 96.335646 l
466.15814 96.001571 l
481.730233 96.372766 l
497.302326 96.558363 l
512.874419 96.892439 l
528.446512 97.003797 l
544.018605 97.597709 l
559.590698 97.52347 l
575.162791 97.671948 l
590.734884 97.709067 l
606.306977 97.820426 l
621.87907 97.783306 l
637.451163 97.783306 l
653.023256 97.52347 l
668.595349 97.560589 l
684.167442 97.52347 l
699.739535 97.709067 l
715.311628 97.48635 l
730.883721 97.820426 l
746.455814 97.894664 l
762.027907 98.19162 l
777.6 98.19162 l
stroke
grestore
1.000 setlinewidth
0 setlinejoin
[] 0 setdash
gsave
669.6 499 108 71.28 clipbox
/o {
gsave
newpath
translate
1.0 setlinewidth
0 setlinejoin
0 setlinecap
-10 -10 m
10 -10 l
10 10 l
-10 10 l
cl

gsave
grestore
stroke
grestore
} bind def
108 94.5168 o
123.572 94.5539 o
139.144 94.8137 o
154.716 94.888 o
170.288 95.0365 o
185.86 95.1107 o
201.433 95.1478 o
217.005 95.4819 o
232.577 95.1107 o
248.149 95.1478 o
263.721 95.3705 o
279.293 95.4448 o
294.865 95.7789 o
310.437 96.15 o
326.009 95.7046 o
341.581 95.816 o
357.153 95.9273 o
372.726 95.4448 o
388.298 95.4819 o
403.87 96.0387 o
419.442 96.0016 o
435.014 95.816 o
450.586 96.3356 o
466.158 96.0016 o
481.73 96.3728 o
497.302 96.5584 o
512.874 96.8924 o
528.447 97.0038 o
544.019 97.5977 o
559.591 97.5235 o
575.163 97.6719 o
590.735 97.7091 o
606.307 97.8204 o
621.879 97.7833 o
637.451 97.7833 o
653.023 97.5235 o
668.595 97.5606 o
684.167 97.5235 o
699.74 97.7091 o
715.312 97.4864 o
730.884 97.8204 o
746.456 97.8947 o
762.028 98.1916 o
777.6 98.1916 o
grestore
3.000 setlinewidth
1 setlinejoin
2 setlinecap
1.000 0.000 0.000 setrgbcolor
gsave
669.6 499 108 71.28 clipbox
108 137.20419 m
123.572093 120.351948 l
139.144186 103.425466 l
154.716279 106.395025 l
170.288372 109.030507 l
185.860465 111.814468 l
201.432558 116.862717 l
217.004651 120.982979 l
232.576744 125.771391 l
248.148837 131.302193 l
263.72093 138.503372 l
279.293023 146.706776 l
294.865116 156.766154 l
310.437209 167.530802 l
326.009302 179.112079 l
341.581395 193.069002 l
357.153488 206.283535 l
372.725581 219.943502 l
388.297674 234.754173 l
403.869767 248.042946 l
419.44186 260.774926 l
435.013953 273.878101 l
450.586047 286.498723 l
466.15814 298.896628 l
481.730233 312.630835 l
497.302326 322.87581 l
512.874419 335.533552 l
528.446512 349.267758 l
544.018605 360.849034 l
559.590698 371.910638 l
575.162791 383.083601 l
590.734884 392.400589 l
606.306977 404.056105 l
621.87907 415.822979 l
637.451163 427.404255 l
653.023256 438.094664 l
668.595349 449.230507 l
684.167442 462.593519 l
699.739535 475.177021 l
715.311628 489.505139 l
730.883721 503.981735 l
746.455814 517.493224 l
762.027907 532.229656 l
777.6 547.56 l
stroke
grestore
1.000 setlinewidth
0 setlinecap
gsave
669.6 499 108 71.28 clipbox
/o {
gsave
newpath
translate
1.0 setlinewidth
1 setlinejoin
0 setlinecap
0 -10 m
2.652031 -10 5.195799 -8.946337 7.071068 -7.071068 c
8.946337 -5.195799 10 -2.652031 10 0 c
10 2.652031 8.946337 5.195799 7.071068 7.071068 c
5.195799 8.946337 2.652031 10 0 10 c
-2.652031 10 -5.195799 8.946337 -7.071068 7.071068 c
-8.946337 5.195799 -10 2.652031 -10 0 c
-10 -2.652031 -8.946337 -5.195799 -7.071068 -7.071068 c
-5.195799 -8.946337 -2.652031 -10 0 -10 c
cl

gsave
grestore
stroke
grestore
} bind def
108 137.204 o
123.572 120.352 o
139.144 103.425 o
154.716 106.395 o
170.288 109.031 o
185.86 111.814 o
201.433 116.863 o
217.005 120.983 o
232.577 125.771 o
248.149 131.302 o
263.721 138.503 o
279.293 146.707 o
294.865 156.766 o
310.437 167.531 o
326.009 179.112 o
341.581 193.069 o
357.153 206.284 o
372.726 219.944 o
388.298 234.754 o
403.87 248.043 o
419.442 260.775 o
435.014 273.878 o
450.586 286.499 o
466.158 298.897 o
481.73 312.631 o
497.302 322.876 o
512.874 335.534 o
528.447 349.268 o
544.019 360.849 o
559.591 371.911 o
575.163 383.084 o
590.735 392.401 o
606.307 404.056 o
621.879 415.823 o
637.451 427.404 o
653.023 438.095 o
668.595 449.231 o
684.167 462.594 o
699.74 475.177 o
715.312 489.505 o
730.884 503.982 o
746.456 517.493 o
762.028 532.23 o
777.6 547.56 o
grestore
3.000 setlinewidth
[11.1 4.8] 0 setdash
gsave
669.6 499 108 71.28 clipbox
108 95.704615 m
123.572093 96.966678 l
139.144186 96.743961 l
154.716279 98.154501 l
170.288372 98.599935 l
185.860465 99.676399 l
201.432558 101.643732 l
217.004651 104.279214 l
232.576744 107.471489 l
248.148837 110.775123 l
263.72093 115.452177 l
279.293023 122.913191 l
294.865116 130.559804 l
310.437209 142.066841 l
326.009302 150.270245 l
341.581395 161.29473 l
357.153488 171.094272 l
372.725581 183.195221 l
388.297674 195.370409 l
403.869767 204.167725 l
419.44186 214.821015 l
435.013953 224.212242 l
450.586047 235.051129 l
466.15814 241.509918 l
481.730233 250.381473 l
497.302326 260.440851 l
512.874419 268.792733 l
528.446512 278.2582 l
544.018605 283.714763 l
559.590698 290.878822 l
575.162791 298.525434 l
590.734884 305.16982 l
606.306977 313.892897 l
621.87907 324.880262 l
637.451163 329.037643 l
653.023256 338.131915 l
668.595349 347.226187 l
684.167442 359.921047 l
699.739535 371.465205 l
715.311628 382.972242 l
730.883721 388.243208 l
746.455814 404.167463 l
762.027907 412.742062 l
777.6 422.615843 l
stroke
grestore
1.000 setlinewidth
[] 0 setdash
gsave
669.6 499 108 71.28 clipbox
/o {
gsave
newpath
translate
1.0 setlinewidth
1 setlinejoin
0 setlinecap
0 -10 m
2.652031 -10 5.195799 -8.946337 7.071068 -7.071068 c
8.946337 -5.195799 10 -2.652031 10 0 c
10 2.652031 8.946337 5.195799 7.071068 7.071068 c
5.195799 8.946337 2.652031 10 0 10 c
-2.652031 10 -5.195799 8.946337 -7.071068 7.071068 c
-8.946337 5.195799 -10 2.652031 -10 0 c
-10 -2.652031 -8.946337 -5.195799 -7.071068 -7.071068 c
-5.195799 -8.946337 -2.652031 -10 0 -10 c
cl

gsave
grestore
stroke
grestore
} bind def
108 95.7046 o
123.572 96.9667 o
139.144 96.744 o
154.716 98.1545 o
170.288 98.5999 o
185.86 99.6764 o
201.433 101.644 o
217.005 104.279 o
232.577 107.471 o
248.149 110.775 o
263.721 115.452 o
279.293 122.913 o
294.865 130.56 o
310.437 142.067 o
326.009 150.27 o
341.581 161.295 o
357.153 171.094 o
372.726 183.195 o
388.298 195.37 o
403.87 204.168 o
419.442 214.821 o
435.014 224.212 o
450.586 235.051 o
466.158 241.51 o
481.73 250.381 o
497.302 260.441 o
512.874 268.793 o
528.447 278.258 o
544.019 283.715 o
559.591 290.879 o
575.163 298.525 o
590.735 305.17 o
606.307 313.893 o
621.879 324.88 o
637.451 329.038 o
653.023 338.132 o
668.595 347.226 o
684.167 359.921 o
699.74 371.465 o
715.312 382.972 o
730.884 388.243 o
746.456 404.167 o
762.028 412.742 o
777.6 422.616 o
grestore
3.000 setlinewidth
2 setlinecap
0.000 0.000 1.000 setrgbcolor
gsave
669.6 499 108 71.28 clipbox
108 140.285106 m
123.572093 120.87162 l
139.144186 102.386121 l
154.716279 104.464812 l
170.288372 105.801113 l
185.860465 106.506383 l
201.432558 108.84491 l
217.004651 110.106972 l
232.576744 110.96072 l
248.148837 113.299247 l
263.72093 114.672668 l
279.293023 116.417283 l
294.865116 118.199018 l
310.437209 121.873846 l
326.009302 122.98743 l
341.581395 123.989656 l
357.153488 124.880524 l
372.725581 128.147038 l
388.297674 130.522684 l
403.869767 132.118822 l
419.44186 133.937676 l
435.013953 135.125499 l
450.586047 137.315548 l
466.15814 138.651849 l
481.730233 140.099509 l
497.302326 141.621408 l
512.874419 144.145532 l
528.446512 147.523404 l
544.018605 148.599869 l
559.590698 149.899051 l
575.162791 151.495188 l
590.734884 153.425401 l
606.306977 155.912406 l
621.87907 157.916858 l
637.451163 159.364517 l
653.023256 162.334075 l
668.595349 162.668151 l
684.167442 164.709722 l
699.739535 165.006678 l
715.311628 168.38455 l
730.883721 169.683732 l
746.455814 171.576825 l
762.027907 172.727529 l
777.6 175.771326 l
stroke
grestore
1.000 setlinewidth
0 setlinecap
gsave
669.6 499 108 71.28 clipbox
/o {
gsave
newpath
translate
1.0 setlinewidth
1 setlinejoin
0 setlinecap
0 -10 m
2.652031 -10 5.195799 -8.946337 7.071068 -7.071068 c
8.946337 -5.195799 10 -2.652031 10 0 c
10 2.652031 8.946337 5.195799 7.071068 7.071068 c
5.195799 8.946337 2.652031 10 0 10 c
-2.652031 10 -5.195799 8.946337 -7.071068 7.071068 c
-8.946337 5.195799 -10 2.652031 -10 0 c
-10 -2.652031 -8.946337 -5.195799 -7.071068 -7.071068 c
-5.195799 -8.946337 -2.652031 -10 0 -10 c
cl

gsave
grestore
stroke
grestore
} bind def
108 140.285 o
123.572 120.872 o
139.144 102.386 o
154.716 104.465 o
170.288 105.801 o
185.86 106.506 o
201.433 108.845 o
217.005 110.107 o
232.577 110.961 o
248.149 113.299 o
263.721 114.673 o
279.293 116.417 o
294.865 118.199 o
310.437 121.874 o
326.009 122.987 o
341.581 123.99 o
357.153 124.881 o
372.726 128.147 o
388.298 130.523 o
403.87 132.119 o
419.442 133.938 o
435.014 135.125 o
450.586 137.316 o
466.158 138.652 o
481.73 140.1 o
497.302 141.621 o
512.874 144.146 o
528.447 147.523 o
544.019 148.6 o
559.591 149.899 o
575.163 151.495 o
590.735 153.425 o
606.307 155.912 o
621.879 157.917 o
637.451 159.365 o
653.023 162.334 o
668.595 162.668 o
684.167 164.71 o
699.74 165.007 o
715.312 168.385 o
730.884 169.684 o
746.456 171.577 o
762.028 172.728 o
777.6 175.771 o
grestore
3.000 setlinewidth
[11.1 4.8] 0 setdash
gsave
669.6 499 108 71.28 clipbox
108 95.593257 m
123.572093 95.741735 l
139.144186 96.224288 l
154.716279 96.595483 l
170.288372 97.337872 l
185.860465 96.743961 l
201.432558 96.966678 l
217.004651 97.263633 l
232.576744 98.043142 l
248.148837 98.488576 l
263.72093 99.63928 l
279.293023 99.787758 l
294.865116 100.30743 l
310.437209 100.901342 l
326.009302 101.495254 l
341.581395 101.606612 l
357.153488 102.311882 l
372.725581 103.8709 l
388.297674 104.279214 l
403.869767 104.093617 l
419.44186 105.207201 l
435.013953 105.652635 l
450.586047 106.69198 l
466.15814 107.026056 l
481.730233 107.657087 l
497.302326 108.510835 l
512.874419 109.698658 l
528.446512 110.626645 l
544.018605 111.331915 l
559.590698 111.70311 l
575.162791 112.40838 l
590.734884 113.262128 l
606.306977 114.895385 l
621.87907 116.714239 l
637.451163 116.825597 l
653.023256 118.384615 l
668.595349 118.495974 l
684.167442 120.240589 l
699.739535 121.205696 l
715.311628 121.354173 l
730.883721 122.133682 l
746.455814 123.432864 l
762.027907 125.325957 l
777.6 127.330409 l
stroke
grestore
1.000 setlinewidth
[] 0 setdash
gsave
669.6 499 108 71.28 clipbox
/o {
gsave
newpath
translate
1.0 setlinewidth
1 setlinejoin
0 setlinecap
0 -10 m
2.652031 -10 5.195799 -8.946337 7.071068 -7.071068 c
8.946337 -5.195799 10 -2.652031 10 0 c
10 2.652031 8.946337 5.195799 7.071068 7.071068 c
5.195799 8.946337 2.652031 10 0 10 c
-2.652031 10 -5.195799 8.946337 -7.071068 7.071068 c
-8.946337 5.195799 -10 2.652031 -10 0 c
-10 -2.652031 -8.946337 -5.195799 -7.071068 -7.071068 c
-5.195799 -8.946337 -2.652031 -10 0 -10 c
cl

gsave
grestore
stroke
grestore
} bind def
108 95.5933 o
123.572 95.7417 o
139.144 96.2243 o
154.716 96.5955 o
170.288 97.3379 o
185.86 96.744 o
201.433 96.9667 o
217.005 97.2636 o
232.577 98.0431 o
248.149 98.4886 o
263.721 99.6393 o
279.293 99.7878 o
294.865 100.307 o
310.437 100.901 o
326.009 101.495 o
341.581 101.607 o
357.153 102.312 o
372.726 103.871 o
388.298 104.279 o
403.87 104.094 o
419.442 105.207 o
435.014 105.653 o
450.586 106.692 o
466.158 107.026 o
481.73 107.657 o
497.302 108.511 o
512.874 109.699 o
528.447 110.627 o
544.019 111.332 o
559.591 111.703 o
575.163 112.408 o
590.735 113.262 o
606.307 114.895 o
621.879 116.714 o
637.451 116.826 o
653.023 118.385 o
668.595 118.496 o
684.167 120.241 o
699.74 121.206 o
715.312 121.354 o
730.884 122.134 o
746.456 123.433 o
762.028 125.326 o
777.6 127.33 o
grestore
0.800 setlinewidth
0 setlinejoin
2 setlinecap
[] 0 setdash
0.000 setgray
gsave
108 71.28 m
108 570.24 l
stroke
grestore
gsave
777.6 71.28 m
777.6 570.24 l
stroke
grestore
gsave
108 71.28 m
777.6 71.28 l
stroke
grestore
gsave
108 570.24 m
777.6 570.24 l
stroke
grestore
gsave
160.870313 576.240000 translate
0.000000 rotate
0.000000 0.000000 m /F glyphshow
13.789062 0.000000 m /r glyphshow
23.656250 0.000000 m /a glyphshow
38.363281 0.000000 m /c glyphshow
51.558594 0.000000 m /t glyphshow
60.968750 0.000000 m /i glyphshow
67.636719 0.000000 m /o glyphshow
82.320312 0.000000 m /n glyphshow
97.531250 0.000000 m /space glyphshow
105.160156 0.000000 m /o glyphshow
119.843750 0.000000 m /f glyphshow
128.292969 0.000000 m /space glyphshow
135.921875 0.000000 m /U glyphshow
153.488281 0.000000 m /n glyphshow
168.699219 0.000000 m /d glyphshow
183.933594 0.000000 m /e glyphshow
198.699219 0.000000 m /t glyphshow
208.109375 0.000000 m /e glyphshow
222.875000 0.000000 m /c glyphshow
236.070312 0.000000 m /t glyphshow
245.480469 0.000000 m /e glyphshow
260.246094 0.000000 m /d glyphshow
275.480469 0.000000 m /space glyphshow
283.109375 0.000000 m /T glyphshow
297.722656 0.000000 m /r glyphshow
307.589844 0.000000 m /a glyphshow
322.296875 0.000000 m /c glyphshow
335.492188 0.000000 m /k glyphshow
349.390625 0.000000 m /s glyphshow
361.894531 0.000000 m /slash glyphshow
369.980469 0.000000 m /P glyphshow
384.437500 0.000000 m /a glyphshow
399.144531 0.000000 m /r glyphshow
409.011719 0.000000 m /t glyphshow
418.421875 0.000000 m /i glyphshow
425.089844 0.000000 m /c glyphshow
438.285156 0.000000 m /l glyphshow
444.953125 0.000000 m /e glyphshow
459.718750 0.000000 m /s glyphshow
472.222656 0.000000 m /comma glyphshow
479.851562 0.000000 m /space glyphshow
487.480469 0.000000 m /three glyphshow
502.750000 0.000000 m /zero glyphshow
518.019531 0.000000 m /zero glyphshow
533.289062 0.000000 m /zero glyphshow
548.558594 0.000000 m /zero glyphshow
grestore
1.000 setlinewidth
0 setlinecap
0.800 setgray
gsave
125.86 294.0525 m
331.86 294.0525 l
333.86 294.0525 334.86 295.0525 334.86 297.0525 c
334.86 559.74 l
334.86 561.74 333.86 562.74 331.86 562.74 c
125.86 562.74 l
123.86 562.74 122.86 561.74 122.86 559.74 c
122.86 297.0525 l
122.86 295.0525 123.86 294.0525 125.86 294.0525 c
cl
gsave
1.000 setgray
fill
grestore
stroke
grestore
3.000 setlinewidth
1 setlinejoin
2 setlinecap
[] 0 setdash
1.000 0.000 0.000 setrgbcolor
gsave
128.86 550.599375 m
158.86 550.599375 l
stroke
grestore
0.000 setgray
gsave
170.860000 545.349375 translate
0.000000 rotate
/DejaVuSans findfont
15.0 scalefont
setfont
0.000000 0.609375 moveto
/S glyphshow

9.521484 0.609375 moveto
/T glyphshow

18.684082 0.609375 moveto
/B glyphshow

28.974609 0.609375 moveto
/comma glyphshow

33.742676 0.609375 moveto
/space glyphshow

38.510742 0.609375 moveto
/three glyphshow

/DejaVuSans-Oblique findfont
15.0 scalefont
setfont
48.054199 0.609375 moveto
/delta glyphshow

57.231445 0.609375 moveto
/t glyphshow

/DejaVuSans findfont
15.0 scalefont
setfont
63.112793 0.609375 moveto
/comma glyphshow

67.880859 0.609375 moveto
/space glyphshow

72.648926 0.609375 moveto
/T glyphshow

81.811523 0.609375 moveto
/r glyphshow

87.978516 0.609375 moveto
/a glyphshow

97.170410 0.609375 moveto
/c glyphshow

105.417480 0.609375 moveto
/k glyphshow

114.104004 0.609375 moveto
/s glyphshow


grestore
0 setlinecap
[11.1 4.8] 0 setdash
1.000 0.000 0.000 setrgbcolor
gsave
128.86 528.58375 m
158.86 528.58375 l
stroke
grestore
0.000 setgray
gsave
170.860000 523.333750 translate
0.000000 rotate
/DejaVuSans findfont
15.0 scalefont
setfont
0.000000 0.609375 moveto
/S glyphshow

9.521484 0.609375 moveto
/T glyphshow

18.684082 0.609375 moveto
/B glyphshow

28.974609 0.609375 moveto
/comma glyphshow

33.742676 0.609375 moveto
/space glyphshow

38.510742 0.609375 moveto
/three glyphshow

/DejaVuSans-Oblique findfont
15.0 scalefont
setfont
48.054199 0.609375 moveto
/delta glyphshow

57.231445 0.609375 moveto
/t glyphshow

/DejaVuSans findfont
15.0 scalefont
setfont
63.112793 0.609375 moveto
/comma glyphshow

67.880859 0.609375 moveto
/space glyphshow

72.648926 0.609375 moveto
/P glyphshow

81.694336 0.609375 moveto
/a glyphshow

90.886230 0.609375 moveto
/r glyphshow

97.053223 0.609375 moveto
/t glyphshow

102.934570 0.609375 moveto
/i glyphshow

107.102051 0.609375 moveto
/c glyphshow

115.349121 0.609375 moveto
/l glyphshow

119.516602 0.609375 moveto
/e glyphshow

128.745117 0.609375 moveto
/s glyphshow


grestore
2 setlinecap
[] 0 setdash
0.000 0.000 1.000 setrgbcolor
gsave
128.86 506.568125 m
158.86 506.568125 l
stroke
grestore
0.000 setgray
gsave
170.860000 501.318125 translate
0.000000 rotate
/DejaVuSans findfont
15.0 scalefont
setfont
0.000000 0.609375 moveto
/O glyphshow

11.806641 0.609375 moveto
/u glyphshow

21.313477 0.609375 moveto
/r glyphshow

27.480469 0.609375 moveto
/s glyphshow

35.295410 0.609375 moveto
/comma glyphshow

40.063477 0.609375 moveto
/space glyphshow

44.831543 0.609375 moveto
/three glyphshow

/DejaVuSans-Oblique findfont
15.0 scalefont
setfont
54.375000 0.609375 moveto
/delta glyphshow

63.552246 0.609375 moveto
/t glyphshow

/DejaVuSans findfont
15.0 scalefont
setfont
69.433594 0.609375 moveto
/comma glyphshow

74.201660 0.609375 moveto
/space glyphshow

78.969727 0.609375 moveto
/T glyphshow

88.132324 0.609375 moveto
/r glyphshow

94.299316 0.609375 moveto
/a glyphshow

103.491211 0.609375 moveto
/c glyphshow

111.738281 0.609375 moveto
/k glyphshow

120.424805 0.609375 moveto
/s glyphshow


grestore
0 setlinecap
[11.1 4.8] 0 setdash
0.000 0.000 1.000 setrgbcolor
gsave
128.86 484.5525 m
158.86 484.5525 l
stroke
grestore
0.000 setgray
gsave
170.860000 479.302500 translate
0.000000 rotate
/DejaVuSans findfont
15.0 scalefont
setfont
0.000000 0.609375 moveto
/O glyphshow

11.806641 0.609375 moveto
/u glyphshow

21.313477 0.609375 moveto
/r glyphshow

27.480469 0.609375 moveto
/s glyphshow

35.295410 0.609375 moveto
/comma glyphshow

40.063477 0.609375 moveto
/space glyphshow

44.831543 0.609375 moveto
/three glyphshow

/DejaVuSans-Oblique findfont
15.0 scalefont
setfont
54.375000 0.609375 moveto
/delta glyphshow

63.552246 0.609375 moveto
/t glyphshow

/DejaVuSans findfont
15.0 scalefont
setfont
69.433594 0.609375 moveto
/comma glyphshow

74.201660 0.609375 moveto
/space glyphshow

78.969727 0.609375 moveto
/P glyphshow

88.015137 0.609375 moveto
/a glyphshow

97.207031 0.609375 moveto
/r glyphshow

103.374023 0.609375 moveto
/t glyphshow

109.255371 0.609375 moveto
/i glyphshow

113.422852 0.609375 moveto
/c glyphshow

121.669922 0.609375 moveto
/l glyphshow

125.837402 0.609375 moveto
/e glyphshow

135.065918 0.609375 moveto
/s glyphshow


grestore
2 setlinecap
[] 0 setdash
1.000 0.000 0.000 setrgbcolor
gsave
128.86 462.536875 m
158.86 462.536875 l
stroke
grestore
1.000 setlinewidth
0 setlinejoin
0 setlinecap
gsave
/o {
gsave
newpath
translate
1.0 setlinewidth
0 setlinejoin
0 setlinecap
-10 -10 m
10 -10 l
10 10 l
-10 10 l
cl

gsave
grestore
stroke
grestore
} bind def
143.86 462.537 o
grestore
0.000 setgray
gsave
170.860000 457.286875 translate
0.000000 rotate
/DejaVuSans findfont
15.0 scalefont
setfont
0.000000 0.609375 moveto
/S glyphshow

9.521484 0.609375 moveto
/T glyphshow

18.684082 0.609375 moveto
/B glyphshow

28.974609 0.609375 moveto
/comma glyphshow

33.742676 0.609375 moveto
/space glyphshow

38.510742 0.609375 moveto
/seven glyphshow

48.054199 0.609375 moveto
/period glyphshow

52.822266 0.609375 moveto
/five glyphshow

/DejaVuSans-Oblique findfont
15.0 scalefont
setfont
62.365723 0.609375 moveto
/delta glyphshow

71.542969 0.609375 moveto
/t glyphshow

/DejaVuSans findfont
15.0 scalefont
setfont
77.424316 0.609375 moveto
/comma glyphshow

82.192383 0.609375 moveto
/space glyphshow

86.960449 0.609375 moveto
/T glyphshow

96.123047 0.609375 moveto
/r glyphshow

102.290039 0.609375 moveto
/a glyphshow

111.481934 0.609375 moveto
/c glyphshow

119.729004 0.609375 moveto
/k glyphshow

128.415527 0.609375 moveto
/s glyphshow


grestore
3.000 setlinewidth
1 setlinejoin
[11.1 4.8] 0 setdash
1.000 0.000 0.000 setrgbcolor
gsave
128.86 440.52125 m
158.86 440.52125 l
stroke
grestore
1.000 setlinewidth
0 setlinejoin
[] 0 setdash
gsave
/o {
gsave
newpath
translate
1.0 setlinewidth
0 setlinejoin
0 setlinecap
-10 -10 m
10 -10 l
10 10 l
-10 10 l
cl

gsave
grestore
stroke
grestore
} bind def
143.86 440.521 o
grestore
0.000 setgray
gsave
170.860000 435.271250 translate
0.000000 rotate
/DejaVuSans findfont
15.0 scalefont
setfont
0.000000 0.609375 moveto
/S glyphshow

9.521484 0.609375 moveto
/T glyphshow

18.684082 0.609375 moveto
/B glyphshow

28.974609 0.609375 moveto
/comma glyphshow

33.742676 0.609375 moveto
/space glyphshow

38.510742 0.609375 moveto
/seven glyphshow

48.054199 0.609375 moveto
/period glyphshow

52.822266 0.609375 moveto
/five glyphshow

/DejaVuSans-Oblique findfont
15.0 scalefont
setfont
62.365723 0.609375 moveto
/delta glyphshow

71.542969 0.609375 moveto
/t glyphshow

/DejaVuSans findfont
15.0 scalefont
setfont
77.424316 0.609375 moveto
/comma glyphshow

82.192383 0.609375 moveto
/space glyphshow

86.960449 0.609375 moveto
/P glyphshow

96.005859 0.609375 moveto
/a glyphshow

105.197754 0.609375 moveto
/r glyphshow

111.364746 0.609375 moveto
/t glyphshow

117.246094 0.609375 moveto
/i glyphshow

121.413574 0.609375 moveto
/c glyphshow

129.660645 0.609375 moveto
/l glyphshow

133.828125 0.609375 moveto
/e glyphshow

143.056641 0.609375 moveto
/s glyphshow


grestore
3.000 setlinewidth
1 setlinejoin
2 setlinecap
0.000 0.000 1.000 setrgbcolor
gsave
128.86 418.505625 m
158.86 418.505625 l
stroke
grestore
1.000 setlinewidth
0 setlinejoin
0 setlinecap
gsave
/o {
gsave
newpath
translate
1.0 setlinewidth
0 setlinejoin
0 setlinecap
-10 -10 m
10 -10 l
10 10 l
-10 10 l
cl

gsave
grestore
stroke
grestore
} bind def
143.86 418.506 o
grestore
0.000 setgray
gsave
170.860000 413.255625 translate
0.000000 rotate
/DejaVuSans findfont
15.0 scalefont
setfont
0.000000 0.609375 moveto
/O glyphshow

11.806641 0.609375 moveto
/u glyphshow

21.313477 0.609375 moveto
/r glyphshow

27.480469 0.609375 moveto
/s glyphshow

35.295410 0.609375 moveto
/comma glyphshow

40.063477 0.609375 moveto
/space glyphshow

44.831543 0.609375 moveto
/seven glyphshow

54.375000 0.609375 moveto
/period glyphshow

59.143066 0.609375 moveto
/five glyphshow

/DejaVuSans-Oblique findfont
15.0 scalefont
setfont
68.686523 0.609375 moveto
/delta glyphshow

77.863770 0.609375 moveto
/t glyphshow

/DejaVuSans findfont
15.0 scalefont
setfont
83.745117 0.609375 moveto
/comma glyphshow

88.513184 0.609375 moveto
/space glyphshow

93.281250 0.609375 moveto
/T glyphshow

102.443848 0.609375 moveto
/r glyphshow

108.610840 0.609375 moveto
/a glyphshow

117.802734 0.609375 moveto
/c glyphshow

126.049805 0.609375 moveto
/k glyphshow

134.736328 0.609375 moveto
/s glyphshow


grestore
3.000 setlinewidth
1 setlinejoin
[11.1 4.8] 0 setdash
0.000 0.000 1.000 setrgbcolor
gsave
128.86 396.49 m
158.86 396.49 l
stroke
grestore
1.000 setlinewidth
0 setlinejoin
[] 0 setdash
gsave
/o {
gsave
newpath
translate
1.0 setlinewidth
0 setlinejoin
0 setlinecap
-10 -10 m
10 -10 l
10 10 l
-10 10 l
cl

gsave
grestore
stroke
grestore
} bind def
143.86 396.49 o
grestore
0.000 setgray
gsave
170.860000 391.240000 translate
0.000000 rotate
/DejaVuSans findfont
15.0 scalefont
setfont
0.000000 0.609375 moveto
/O glyphshow

11.806641 0.609375 moveto
/u glyphshow

21.313477 0.609375 moveto
/r glyphshow

27.480469 0.609375 moveto
/s glyphshow

35.295410 0.609375 moveto
/comma glyphshow

40.063477 0.609375 moveto
/space glyphshow

44.831543 0.609375 moveto
/seven glyphshow

54.375000 0.609375 moveto
/period glyphshow

59.143066 0.609375 moveto
/five glyphshow

/DejaVuSans-Oblique findfont
15.0 scalefont
setfont
68.686523 0.609375 moveto
/delta glyphshow

77.863770 0.609375 moveto
/t glyphshow

/DejaVuSans findfont
15.0 scalefont
setfont
83.745117 0.609375 moveto
/comma glyphshow

88.513184 0.609375 moveto
/space glyphshow

93.281250 0.609375 moveto
/P glyphshow

102.326660 0.609375 moveto
/a glyphshow

111.518555 0.609375 moveto
/r glyphshow

117.685547 0.609375 moveto
/t glyphshow

123.566895 0.609375 moveto
/i glyphshow

127.734375 0.609375 moveto
/c glyphshow

135.981445 0.609375 moveto
/l glyphshow

140.148926 0.609375 moveto
/e glyphshow

149.377441 0.609375 moveto
/s glyphshow


grestore
3.000 setlinewidth
1 setlinejoin
2 setlinecap
1.000 0.000 0.000 setrgbcolor
gsave
128.86 374.474375 m
158.86 374.474375 l
stroke
grestore
1.000 setlinewidth
0 setlinecap
gsave
/o {
gsave
newpath
translate
1.0 setlinewidth
1 setlinejoin
0 setlinecap
0 -10 m
2.652031 -10 5.195799 -8.946337 7.071068 -7.071068 c
8.946337 -5.195799 10 -2.652031 10 0 c
10 2.652031 8.946337 5.195799 7.071068 7.071068 c
5.195799 8.946337 2.652031 10 0 10 c
-2.652031 10 -5.195799 8.946337 -7.071068 7.071068 c
-8.946337 5.195799 -10 2.652031 -10 0 c
-10 -2.652031 -8.946337 -5.195799 -7.071068 -7.071068 c
-5.195799 -8.946337 -2.652031 -10 0 -10 c
cl

gsave
grestore
stroke
grestore
} bind def
143.86 374.474 o
grestore
0.000 setgray
gsave
170.860000 369.224375 translate
0.000000 rotate
/DejaVuSans findfont
15.0 scalefont
setfont
0.000000 0.609375 moveto
/S glyphshow

9.521484 0.609375 moveto
/T glyphshow

18.684082 0.609375 moveto
/B glyphshow

28.974609 0.609375 moveto
/comma glyphshow

33.742676 0.609375 moveto
/space glyphshow

38.510742 0.609375 moveto
/one glyphshow

48.054199 0.609375 moveto
/five glyphshow

/DejaVuSans-Oblique findfont
15.0 scalefont
setfont
57.597656 0.609375 moveto
/delta glyphshow

66.774902 0.609375 moveto
/t glyphshow

/DejaVuSans findfont
15.0 scalefont
setfont
72.656250 0.609375 moveto
/comma glyphshow

77.424316 0.609375 moveto
/space glyphshow

82.192383 0.609375 moveto
/T glyphshow

91.354980 0.609375 moveto
/r glyphshow

97.521973 0.609375 moveto
/a glyphshow

106.713867 0.609375 moveto
/c glyphshow

114.960938 0.609375 moveto
/k glyphshow

123.647461 0.609375 moveto
/s glyphshow


grestore
3.000 setlinewidth
[11.1 4.8] 0 setdash
1.000 0.000 0.000 setrgbcolor
gsave
128.86 352.45875 m
158.86 352.45875 l
stroke
grestore
1.000 setlinewidth
[] 0 setdash
gsave
/o {
gsave
newpath
translate
1.0 setlinewidth
1 setlinejoin
0 setlinecap
0 -10 m
2.652031 -10 5.195799 -8.946337 7.071068 -7.071068 c
8.946337 -5.195799 10 -2.652031 10 0 c
10 2.652031 8.946337 5.195799 7.071068 7.071068 c
5.195799 8.946337 2.652031 10 0 10 c
-2.652031 10 -5.195799 8.946337 -7.071068 7.071068 c
-8.946337 5.195799 -10 2.652031 -10 0 c
-10 -2.652031 -8.946337 -5.195799 -7.071068 -7.071068 c
-5.195799 -8.946337 -2.652031 -10 0 -10 c
cl

gsave
grestore
stroke
grestore
} bind def
143.86 352.459 o
grestore
0.000 setgray
gsave
170.860000 347.208750 translate
0.000000 rotate
/DejaVuSans findfont
15.0 scalefont
setfont
0.000000 0.609375 moveto
/S glyphshow

9.521484 0.609375 moveto
/T glyphshow

18.684082 0.609375 moveto
/B glyphshow

28.974609 0.609375 moveto
/comma glyphshow

33.742676 0.609375 moveto
/space glyphshow

38.510742 0.609375 moveto
/one glyphshow

48.054199 0.609375 moveto
/five glyphshow

/DejaVuSans-Oblique findfont
15.0 scalefont
setfont
57.597656 0.609375 moveto
/delta glyphshow

66.774902 0.609375 moveto
/t glyphshow

/DejaVuSans findfont
15.0 scalefont
setfont
72.656250 0.609375 moveto
/comma glyphshow

77.424316 0.609375 moveto
/space glyphshow

82.192383 0.609375 moveto
/P glyphshow

91.237793 0.609375 moveto
/a glyphshow

100.429688 0.609375 moveto
/r glyphshow

106.596680 0.609375 moveto
/t glyphshow

112.478027 0.609375 moveto
/i glyphshow

116.645508 0.609375 moveto
/c glyphshow

124.892578 0.609375 moveto
/l glyphshow

129.060059 0.609375 moveto
/e glyphshow

138.288574 0.609375 moveto
/s glyphshow


grestore
3.000 setlinewidth
2 setlinecap
0.000 0.000 1.000 setrgbcolor
gsave
128.86 330.443125 m
158.86 330.443125 l
stroke
grestore
1.000 setlinewidth
0 setlinecap
gsave
/o {
gsave
newpath
translate
1.0 setlinewidth
1 setlinejoin
0 setlinecap
0 -10 m
2.652031 -10 5.195799 -8.946337 7.071068 -7.071068 c
8.946337 -5.195799 10 -2.652031 10 0 c
10 2.652031 8.946337 5.195799 7.071068 7.071068 c
5.195799 8.946337 2.652031 10 0 10 c
-2.652031 10 -5.195799 8.946337 -7.071068 7.071068 c
-8.946337 5.195799 -10 2.652031 -10 0 c
-10 -2.652031 -8.946337 -5.195799 -7.071068 -7.071068 c
-5.195799 -8.946337 -2.652031 -10 0 -10 c
cl

gsave
grestore
stroke
grestore
} bind def
143.86 330.443 o
grestore
0.000 setgray
gsave
170.860000 325.193125 translate
0.000000 rotate
/DejaVuSans findfont
15.0 scalefont
setfont
0.000000 0.609375 moveto
/O glyphshow

11.806641 0.609375 moveto
/u glyphshow

21.313477 0.609375 moveto
/r glyphshow

27.480469 0.609375 moveto
/s glyphshow

35.295410 0.609375 moveto
/comma glyphshow

40.063477 0.609375 moveto
/space glyphshow

44.831543 0.609375 moveto
/one glyphshow

54.375000 0.609375 moveto
/five glyphshow

/DejaVuSans-Oblique findfont
15.0 scalefont
setfont
63.918457 0.609375 moveto
/delta glyphshow

73.095703 0.609375 moveto
/t glyphshow

/DejaVuSans findfont
15.0 scalefont
setfont
78.977051 0.609375 moveto
/comma glyphshow

83.745117 0.609375 moveto
/space glyphshow

88.513184 0.609375 moveto
/T glyphshow

97.675781 0.609375 moveto
/r glyphshow

103.842773 0.609375 moveto
/a glyphshow

113.034668 0.609375 moveto
/c glyphshow

121.281738 0.609375 moveto
/k glyphshow

129.968262 0.609375 moveto
/s glyphshow


grestore
3.000 setlinewidth
[11.1 4.8] 0 setdash
0.000 0.000 1.000 setrgbcolor
gsave
128.86 308.4275 m
158.86 308.4275 l
stroke
grestore
1.000 setlinewidth
[] 0 setdash
gsave
/o {
gsave
newpath
translate
1.0 setlinewidth
1 setlinejoin
0 setlinecap
0 -10 m
2.652031 -10 5.195799 -8.946337 7.071068 -7.071068 c
8.946337 -5.195799 10 -2.652031 10 0 c
10 2.652031 8.946337 5.195799 7.071068 7.071068 c
5.195799 8.946337 2.652031 10 0 10 c
-2.652031 10 -5.195799 8.946337 -7.071068 7.071068 c
-8.946337 5.195799 -10 2.652031 -10 0 c
-10 -2.652031 -8.946337 -5.195799 -7.071068 -7.071068 c
-5.195799 -8.946337 -2.652031 -10 0 -10 c
cl

gsave
grestore
stroke
grestore
} bind def
143.86 308.428 o
grestore
0.000 setgray
gsave
170.860000 303.177500 translate
0.000000 rotate
/DejaVuSans findfont
15.0 scalefont
setfont
0.000000 0.609375 moveto
/O glyphshow

11.806641 0.609375 moveto
/u glyphshow

21.313477 0.609375 moveto
/r glyphshow

27.480469 0.609375 moveto
/s glyphshow

35.295410 0.609375 moveto
/comma glyphshow

40.063477 0.609375 moveto
/space glyphshow

44.831543 0.609375 moveto
/one glyphshow

54.375000 0.609375 moveto
/five glyphshow

/DejaVuSans-Oblique findfont
15.0 scalefont
setfont
63.918457 0.609375 moveto
/delta glyphshow

73.095703 0.609375 moveto
/t glyphshow

/DejaVuSans findfont
15.0 scalefont
setfont
78.977051 0.609375 moveto
/comma glyphshow

83.745117 0.609375 moveto
/space glyphshow

88.513184 0.609375 moveto
/P glyphshow

97.558594 0.609375 moveto
/a glyphshow

106.750488 0.609375 moveto
/r glyphshow

112.917480 0.609375 moveto
/t glyphshow

118.798828 0.609375 moveto
/i glyphshow

122.966309 0.609375 moveto
/c glyphshow

131.213379 0.609375 moveto
/l glyphshow

135.380859 0.609375 moveto
/e glyphshow

144.609375 0.609375 moveto
/s glyphshow


grestore

end
showpage
