%!PS-Adobe-3.0 EPSF-3.0
%%Title: /home/yin/030000_error.eps
%%Creator: matplotlib version 3.1.0, http://matplotlib.org/
%%CreationDate: Mon Jan 13 14:44:36 2020
%%Orientation: portrait
%%BoundingBox: -126.0 72.0 738.0 720.0
%%EndComments
%%BeginProlog
/mpldict 9 dict def
mpldict begin
/m { moveto } bind def
/l { lineto } bind def
/r { rlineto } bind def
/c { curveto } bind def
/cl { closepath } bind def
/box {
m
1 index 0 r
0 exch r
neg 0 r
cl
} bind def
/clipbox {
box
clip
newpath
} bind def
%!PS-Adobe-3.0 Resource-Font
%%Title: DejaVu Sans
%%Copyright: Copyright (c) 2003 by Bitstream, Inc. All Rights Reserved. Copyright (c) 2006 by Tavmjong Bah. All Rights Reserved. DejaVu changes are in public domain 
%%Creator: Converted from TrueType to type 3 by PPR
25 dict begin
/_d{bind def}bind def
/_m{moveto}_d
/_l{lineto}_d
/_cl{closepath eofill}_d
/_c{curveto}_d
/_sc{7 -1 roll{setcachedevice}{pop pop pop pop pop pop}ifelse}_d
/_e{exec}_d
/FontName /DejaVuSans def
/PaintType 0 def
/FontMatrix[.001 0 0 .001 0 0]def
/FontBBox[-1021 -463 1793 1232]def
/FontType 3 def
/Encoding [ /space /parenleft /parenright /comma /period /zero /one /two /three /four /five /six /seven /eight /B /E /M /O /P /S /T /a /c /d /e /f /h /i /k /l /n /o /p /r /s /t /u /x ] def
/FontInfo 10 dict dup begin
/FamilyName (DejaVu Sans) def
/FullName (DejaVu Sans) def
/Notice (Copyright (c) 2003 by Bitstream, Inc. All Rights Reserved. Copyright (c) 2006 by Tavmjong Bah. All Rights Reserved. DejaVu changes are in public domain ) def
/Weight (Book) def
/Version (Version 2.35) def
/ItalicAngle 0.0 def
/isFixedPitch false def
/UnderlinePosition -130 def
/UnderlineThickness 90 def
end readonly def
/CharStrings 39 dict dup begin
/.notdef 0 def
/space{318 0 0 0 0 0 _sc
}_d
/parenleft{390 0 86 -131 310 759 _sc
310 759 _m
266 683 234 609 213 536 _c
191 463 181 389 181 314 _c
181 238 191 164 213 91 _c
234 17 266 -56 310 -131 _c
232 -131 _l
183 -54 146 20 122 94 _c
98 168 86 241 86 314 _c
86 386 98 459 122 533 _c
146 607 182 682 232 759 _c
310 759 _l
_cl}_d
/parenright{390 0 80 -131 304 759 _sc
80 759 _m
158 759 _l
206 682 243 607 267 533 _c
291 459 304 386 304 314 _c
304 241 291 168 267 94 _c
243 20 206 -54 158 -131 _c
80 -131 _l
123 -56 155 17 177 91 _c
198 164 209 238 209 314 _c
209 389 198 463 177 536 _c
155 609 123 683 80 759 _c
_cl}_d
/comma{318 0 77 -115 220 124 _sc
117 124 _m
220 124 _l
220 40 _l
140 -115 _l
77 -115 _l
117 40 _l
117 124 _l
_cl}_d
/period{318 0 107 0 210 124 _sc
107 124 _m
210 124 _l
210 0 _l
107 0 _l
107 124 _l
_cl}_d
/zero{636 0 66 -13 570 742 _sc
318 664 _m
267 664 229 639 203 589 _c
177 539 165 464 165 364 _c
165 264 177 189 203 139 _c
229 89 267 64 318 64 _c
369 64 407 89 433 139 _c
458 189 471 264 471 364 _c
471 464 458 539 433 589 _c
407 639 369 664 318 664 _c
318 742 _m
399 742 461 709 505 645 _c
548 580 570 486 570 364 _c
570 241 548 147 505 83 _c
461 19 399 -13 318 -13 _c
236 -13 173 19 130 83 _c
87 147 66 241 66 364 _c
66 486 87 580 130 645 _c
173 709 236 742 318 742 _c
_cl}_d
/one{636 0 110 0 544 729 _sc
124 83 _m
285 83 _l
285 639 _l
110 604 _l
110 694 _l
284 729 _l
383 729 _l
383 83 _l
544 83 _l
544 0 _l
124 0 _l
124 83 _l
_cl}_d
/two{{636 0 73 0 536 742 _sc
192 83 _m
536 83 _l
536 0 _l
73 0 _l
73 83 _l
110 121 161 173 226 239 _c
290 304 331 346 348 365 _c
380 400 402 430 414 455 _c
426 479 433 504 433 528 _c
433 566 419 598 392 622 _c
365 646 330 659 286 659 _c
255 659 222 653 188 643 _c
154 632 117 616 78 594 _c
78 694 _l
118 710 155 722 189 730 _c
223 738 255 742 284 742 _c
}_e{359 742 419 723 464 685 _c
509 647 532 597 532 534 _c
532 504 526 475 515 449 _c
504 422 484 390 454 354 _c
446 344 420 317 376 272 _c
332 227 271 164 192 83 _c
_cl}_e}_d
/three{{636 0 76 -13 556 742 _sc
406 393 _m
453 383 490 362 516 330 _c
542 298 556 258 556 212 _c
556 140 531 84 482 45 _c
432 6 362 -13 271 -13 _c
240 -13 208 -10 176 -4 _c
144 1 110 10 76 22 _c
76 117 _l
103 101 133 89 166 81 _c
198 73 232 69 268 69 _c
330 69 377 81 409 105 _c
441 129 458 165 458 212 _c
458 254 443 288 413 312 _c
383 336 341 349 287 349 _c
}_e{202 349 _l
202 430 _l
291 430 _l
339 430 376 439 402 459 _c
428 478 441 506 441 543 _c
441 580 427 609 401 629 _c
374 649 336 659 287 659 _c
260 659 231 656 200 650 _c
169 644 135 635 98 623 _c
98 711 _l
135 721 170 729 203 734 _c
235 739 266 742 296 742 _c
370 742 429 725 473 691 _c
517 657 539 611 539 553 _c
539 513 527 479 504 451 _c
481 423 448 403 406 393 _c
_cl}_e}_d
/four{636 0 49 0 580 729 _sc
378 643 _m
129 254 _l
378 254 _l
378 643 _l
352 729 _m
476 729 _l
476 254 _l
580 254 _l
580 172 _l
476 172 _l
476 0 _l
378 0 _l
378 172 _l
49 172 _l
49 267 _l
352 729 _l
_cl}_d
/five{{636 0 77 -13 549 729 _sc
108 729 _m
495 729 _l
495 646 _l
198 646 _l
198 467 _l
212 472 227 476 241 478 _c
255 480 270 482 284 482 _c
365 482 429 459 477 415 _c
525 370 549 310 549 234 _c
549 155 524 94 475 51 _c
426 8 357 -13 269 -13 _c
238 -13 207 -10 175 -6 _c
143 -1 111 6 77 17 _c
77 116 _l
106 100 136 88 168 80 _c
199 72 232 69 267 69 _c
}_e{323 69 368 83 401 113 _c
433 143 450 183 450 234 _c
450 284 433 324 401 354 _c
368 384 323 399 267 399 _c
241 399 214 396 188 390 _c
162 384 135 375 108 363 _c
108 729 _l
_cl}_e}_d
/six{{636 0 70 -13 573 742 _sc
330 404 _m
286 404 251 388 225 358 _c
199 328 186 286 186 234 _c
186 181 199 139 225 109 _c
251 79 286 64 330 64 _c
374 64 409 79 435 109 _c
461 139 474 181 474 234 _c
474 286 461 328 435 358 _c
409 388 374 404 330 404 _c
526 713 _m
526 623 _l
501 635 476 644 451 650 _c
425 656 400 659 376 659 _c
310 659 260 637 226 593 _c
}_e{192 549 172 482 168 394 _c
187 422 211 444 240 459 _c
269 474 301 482 336 482 _c
409 482 467 459 509 415 _c
551 371 573 310 573 234 _c
573 159 550 99 506 54 _c
462 9 403 -13 330 -13 _c
246 -13 181 19 137 83 _c
92 147 70 241 70 364 _c
70 479 97 571 152 639 _c
206 707 280 742 372 742 _c
396 742 421 739 447 735 _c
472 730 498 723 526 713 _c
_cl}_e}_d
/seven{636 0 82 0 551 729 _sc
82 729 _m
551 729 _l
551 687 _l
286 0 _l
183 0 _l
432 646 _l
82 646 _l
82 729 _l
_cl}_d
/eight{{636 0 68 -13 568 742 _sc
318 346 _m
271 346 234 333 207 308 _c
180 283 167 249 167 205 _c
167 161 180 126 207 101 _c
234 76 271 64 318 64 _c
364 64 401 76 428 102 _c
455 127 469 161 469 205 _c
469 249 455 283 429 308 _c
402 333 365 346 318 346 _c
219 388 _m
177 398 144 418 120 447 _c
96 476 85 511 85 553 _c
85 611 105 657 147 691 _c
188 725 245 742 318 742 _c
}_e{390 742 447 725 489 691 _c
530 657 551 611 551 553 _c
551 511 539 476 515 447 _c
491 418 459 398 417 388 _c
464 377 501 355 528 323 _c
554 291 568 251 568 205 _c
568 134 546 80 503 43 _c
459 5 398 -13 318 -13 _c
237 -13 175 5 132 43 _c
89 80 68 134 68 205 _c
68 251 81 291 108 323 _c
134 355 171 377 219 388 _c
183 544 _m
183 506 194 476 218 455 _c
}_e{242 434 275 424 318 424 _c
360 424 393 434 417 455 _c
441 476 453 506 453 544 _c
453 582 441 611 417 632 _c
393 653 360 664 318 664 _c
275 664 242 653 218 632 _c
194 611 183 582 183 544 _c
_cl}_e}_d
/B{{686 0 98 0 615 729 _sc
197 348 _m
197 81 _l
355 81 _l
408 81 447 92 473 114 _c
498 136 511 169 511 215 _c
511 260 498 293 473 315 _c
447 337 408 348 355 348 _c
197 348 _l
197 648 _m
197 428 _l
343 428 _l
391 428 426 437 450 455 _c
474 473 486 500 486 538 _c
486 574 474 602 450 620 _c
426 638 391 648 343 648 _c
197 648 _l
98 729 _m
350 729 _l
}_e{425 729 483 713 524 682 _c
564 650 585 606 585 549 _c
585 504 574 468 553 442 _c
532 416 502 399 462 393 _c
510 382 548 360 575 327 _c
601 294 615 253 615 204 _c
615 138 592 88 548 53 _c
504 17 441 0 360 0 _c
98 0 _l
98 729 _l
_cl}_e}_d
/E{632 0 98 0 568 729 _sc
98 729 _m
559 729 _l
559 646 _l
197 646 _l
197 430 _l
544 430 _l
544 347 _l
197 347 _l
197 83 _l
568 83 _l
568 0 _l
98 0 _l
98 729 _l
_cl}_d
/M{863 0 98 0 765 729 _sc
98 729 _m
245 729 _l
431 233 _l
618 729 _l
765 729 _l
765 0 _l
669 0 _l
669 640 _l
481 140 _l
382 140 _l
194 640 _l
194 0 _l
98 0 _l
98 729 _l
_cl}_d
/O{787 0 56 -13 731 742 _sc
394 662 _m
322 662 265 635 223 582 _c
181 528 160 456 160 364 _c
160 272 181 199 223 146 _c
265 92 322 66 394 66 _c
465 66 522 92 564 146 _c
606 199 627 272 627 364 _c
627 456 606 528 564 582 _c
522 635 465 662 394 662 _c
394 742 _m
496 742 577 707 639 639 _c
700 571 731 479 731 364 _c
731 248 700 157 639 89 _c
577 21 496 -13 394 -13 _c
291 -13 209 21 148 89 _c
86 157 56 248 56 364 _c
56 479 86 571 148 639 _c
209 707 291 742 394 742 _c
_cl}_d
/P{603 0 98 0 569 729 _sc
197 648 _m
197 374 _l
321 374 _l
367 374 402 385 427 409 _c
452 433 465 467 465 511 _c
465 555 452 588 427 612 _c
402 636 367 648 321 648 _c
197 648 _l
98 729 _m
321 729 _l
402 729 464 710 506 673 _c
548 636 569 582 569 511 _c
569 439 548 384 506 348 _c
464 311 402 293 321 293 _c
197 293 _l
197 0 _l
98 0 _l
98 729 _l
_cl}_d
/S{{635 0 66 -13 579 742 _sc
535 705 _m
535 609 _l
497 627 462 640 429 649 _c
395 657 363 662 333 662 _c
279 662 237 651 208 631 _c
179 610 165 580 165 542 _c
165 510 174 485 194 469 _c
213 452 250 439 304 429 _c
364 417 _l
437 403 491 378 526 343 _c
561 307 579 260 579 201 _c
579 130 555 77 508 41 _c
460 5 391 -13 300 -13 _c
265 -13 228 -9 189 -2 _c
}_e{150 5 110 16 69 32 _c
69 134 _l
109 111 148 94 186 83 _c
224 71 262 66 300 66 _c
356 66 399 77 430 99 _c
460 121 476 152 476 194 _c
476 230 465 258 443 278 _c
421 298 385 313 335 323 _c
275 335 _l
201 349 148 372 115 404 _c
82 435 66 478 66 534 _c
66 598 88 649 134 686 _c
179 723 242 742 322 742 _c
356 742 390 739 426 733 _c
461 727 497 717 535 705 _c
}_e{_cl}_e}_d
/T{611 0 -2 0 614 729 _sc
-2 729 _m
614 729 _l
614 646 _l
355 646 _l
355 0 _l
256 0 _l
256 646 _l
-2 646 _l
-2 729 _l
_cl}_d
/a{{613 0 60 -13 522 560 _sc
343 275 _m
270 275 220 266 192 250 _c
164 233 150 205 150 165 _c
150 133 160 107 181 89 _c
202 70 231 61 267 61 _c
317 61 357 78 387 114 _c
417 149 432 196 432 255 _c
432 275 _l
343 275 _l
522 312 _m
522 0 _l
432 0 _l
432 83 _l
411 49 385 25 355 10 _c
325 -5 287 -13 243 -13 _c
187 -13 142 2 109 33 _c
76 64 60 106 60 159 _c
}_e{60 220 80 266 122 298 _c
163 329 224 345 306 345 _c
432 345 _l
432 354 _l
432 395 418 427 391 450 _c
364 472 326 484 277 484 _c
245 484 215 480 185 472 _c
155 464 127 453 100 439 _c
100 522 _l
132 534 164 544 195 550 _c
226 556 256 560 286 560 _c
365 560 424 539 463 498 _c
502 457 522 395 522 312 _c
_cl}_e}_d
/c{{550 0 55 -13 488 560 _sc
488 526 _m
488 442 _l
462 456 437 466 411 473 _c
385 480 360 484 334 484 _c
276 484 230 465 198 428 _c
166 391 150 339 150 273 _c
150 206 166 154 198 117 _c
230 80 276 62 334 62 _c
360 62 385 65 411 72 _c
437 79 462 90 488 104 _c
488 21 _l
462 9 436 0 410 -5 _c
383 -10 354 -13 324 -13 _c
242 -13 176 12 128 64 _c
}_e{79 115 55 185 55 273 _c
55 362 79 432 128 483 _c
177 534 244 560 330 560 _c
358 560 385 557 411 551 _c
437 545 463 537 488 526 _c
_cl}_e}_d
/d{{635 0 55 -13 544 760 _sc
454 464 _m
454 760 _l
544 760 _l
544 0 _l
454 0 _l
454 82 _l
435 49 411 25 382 10 _c
353 -5 319 -13 279 -13 _c
213 -13 159 13 117 65 _c
75 117 55 187 55 273 _c
55 359 75 428 117 481 _c
159 533 213 560 279 560 _c
319 560 353 552 382 536 _c
411 520 435 496 454 464 _c
148 273 _m
148 207 161 155 188 117 _c
215 79 253 61 301 61 _c
}_e{348 61 385 79 413 117 _c
440 155 454 207 454 273 _c
454 339 440 390 413 428 _c
385 466 348 485 301 485 _c
253 485 215 466 188 428 _c
161 390 148 339 148 273 _c
_cl}_e}_d
/e{{615 0 55 -13 562 560 _sc
562 296 _m
562 252 _l
149 252 _l
153 190 171 142 205 110 _c
238 78 284 62 344 62 _c
378 62 412 66 444 74 _c
476 82 509 95 541 113 _c
541 28 _l
509 14 476 3 442 -3 _c
408 -9 373 -13 339 -13 _c
251 -13 182 12 131 62 _c
80 112 55 181 55 268 _c
55 357 79 428 127 481 _c
175 533 241 560 323 560 _c
397 560 455 536 498 489 _c
}_e{540 441 562 377 562 296 _c
472 322 _m
471 371 457 410 431 440 _c
404 469 368 484 324 484 _c
274 484 234 469 204 441 _c
174 413 156 373 152 322 _c
472 322 _l
_cl}_e}_d
/f{352 0 23 0 371 760 _sc
371 760 _m
371 685 _l
285 685 _l
253 685 230 678 218 665 _c
205 652 199 629 199 595 _c
199 547 _l
347 547 _l
347 477 _l
199 477 _l
199 0 _l
109 0 _l
109 477 _l
23 477 _l
23 547 _l
109 547 _l
109 585 _l
109 645 123 690 151 718 _c
179 746 224 760 286 760 _c
371 760 _l
_cl}_d
/h{634 0 91 0 549 760 _sc
549 330 _m
549 0 _l
459 0 _l
459 327 _l
459 379 448 417 428 443 _c
408 469 378 482 338 482 _c
289 482 251 466 223 435 _c
195 404 181 362 181 309 _c
181 0 _l
91 0 _l
91 760 _l
181 760 _l
181 462 _l
202 494 227 519 257 535 _c
286 551 320 560 358 560 _c
420 560 468 540 500 501 _c
532 462 549 405 549 330 _c
_cl}_d
/i{278 0 94 0 184 760 _sc
94 547 _m
184 547 _l
184 0 _l
94 0 _l
94 547 _l
94 760 _m
184 760 _l
184 646 _l
94 646 _l
94 760 _l
_cl}_d
/k{579 0 91 0 576 760 _sc
91 760 _m
181 760 _l
181 311 _l
449 547 _l
564 547 _l
274 291 _l
576 0 _l
459 0 _l
181 267 _l
181 0 _l
91 0 _l
91 760 _l
_cl}_d
/l{278 0 94 0 184 760 _sc
94 760 _m
184 760 _l
184 0 _l
94 0 _l
94 760 _l
_cl}_d
/n{634 0 91 0 549 560 _sc
549 330 _m
549 0 _l
459 0 _l
459 327 _l
459 379 448 417 428 443 _c
408 469 378 482 338 482 _c
289 482 251 466 223 435 _c
195 404 181 362 181 309 _c
181 0 _l
91 0 _l
91 547 _l
181 547 _l
181 462 _l
202 494 227 519 257 535 _c
286 551 320 560 358 560 _c
420 560 468 540 500 501 _c
532 462 549 405 549 330 _c
_cl}_d
/o{612 0 55 -13 557 560 _sc
306 484 _m
258 484 220 465 192 427 _c
164 389 150 338 150 273 _c
150 207 163 156 191 118 _c
219 80 257 62 306 62 _c
354 62 392 80 420 118 _c
448 156 462 207 462 273 _c
462 337 448 389 420 427 _c
392 465 354 484 306 484 _c
306 560 _m
384 560 445 534 490 484 _c
534 433 557 363 557 273 _c
557 183 534 113 490 63 _c
445 12 384 -13 306 -13 _c
227 -13 165 12 121 63 _c
77 113 55 183 55 273 _c
55 363 77 433 121 484 _c
165 534 227 560 306 560 _c
_cl}_d
/p{{635 0 91 -207 580 560 _sc
181 82 _m
181 -207 _l
91 -207 _l
91 547 _l
181 547 _l
181 464 _l
199 496 223 520 252 536 _c
281 552 316 560 356 560 _c
422 560 476 533 518 481 _c
559 428 580 359 580 273 _c
580 187 559 117 518 65 _c
476 13 422 -13 356 -13 _c
316 -13 281 -5 252 10 _c
223 25 199 49 181 82 _c
487 273 _m
487 339 473 390 446 428 _c
418 466 381 485 334 485 _c
}_e{286 485 249 466 222 428 _c
194 390 181 339 181 273 _c
181 207 194 155 222 117 _c
249 79 286 61 334 61 _c
381 61 418 79 446 117 _c
473 155 487 207 487 273 _c
_cl}_e}_d
/r{411 0 91 0 411 560 _sc
411 463 _m
401 469 390 473 378 476 _c
366 478 353 480 339 480 _c
288 480 249 463 222 430 _c
194 397 181 350 181 288 _c
181 0 _l
91 0 _l
91 547 _l
181 547 _l
181 462 _l
199 495 224 520 254 536 _c
284 552 321 560 365 560 _c
371 560 378 559 386 559 _c
393 558 401 557 411 555 _c
411 463 _l
_cl}_d
/s{{521 0 54 -13 472 560 _sc
443 531 _m
443 446 _l
417 458 391 468 364 475 _c
336 481 308 485 279 485 _c
234 485 200 478 178 464 _c
156 450 145 430 145 403 _c
145 382 153 366 169 354 _c
185 342 217 330 265 320 _c
296 313 _l
360 299 405 279 432 255 _c
458 230 472 195 472 151 _c
472 100 452 60 412 31 _c
372 1 316 -13 246 -13 _c
216 -13 186 -10 154 -5 _c
}_e{122 0 89 8 54 20 _c
54 113 _l
87 95 120 82 152 74 _c
184 65 216 61 248 61 _c
290 61 323 68 346 82 _c
368 96 380 117 380 144 _c
380 168 371 187 355 200 _c
339 213 303 226 247 238 _c
216 245 _l
160 257 119 275 95 299 _c
70 323 58 356 58 399 _c
58 450 76 490 112 518 _c
148 546 200 560 268 560 _c
301 560 332 557 362 552 _c
391 547 418 540 443 531 _c
}_e{_cl}_e}_d
/t{392 0 27 0 368 702 _sc
183 702 _m
183 547 _l
368 547 _l
368 477 _l
183 477 _l
183 180 _l
183 135 189 106 201 94 _c
213 81 238 75 276 75 _c
368 75 _l
368 0 _l
276 0 _l
206 0 158 13 132 39 _c
106 65 93 112 93 180 _c
93 477 _l
27 477 _l
27 547 _l
93 547 _l
93 702 _l
183 702 _l
_cl}_d
/u{634 0 85 -13 543 560 _sc
85 216 _m
85 547 _l
175 547 _l
175 219 _l
175 167 185 129 205 103 _c
225 77 255 64 296 64 _c
344 64 383 79 411 110 _c
439 141 453 183 453 237 _c
453 547 _l
543 547 _l
543 0 _l
453 0 _l
453 84 _l
431 50 405 26 377 10 _c
348 -5 315 -13 277 -13 _c
214 -13 166 6 134 45 _c
101 83 85 140 85 216 _c
311 560 _m
311 560 _l
_cl}_d
/x{592 0 29 0 559 547 _sc
549 547 _m
351 281 _l
559 0 _l
453 0 _l
294 215 _l
135 0 _l
29 0 _l
241 286 _l
47 547 _l
153 547 _l
298 352 _l
443 547 _l
549 547 _l
_cl}_d
end readonly def

/BuildGlyph
 {exch begin
 CharStrings exch
 2 copy known not{pop /.notdef}if
 true 3 1 roll get exec
 end}_d

/BuildChar {
 1 index /Encoding get exch get
 1 index /BuildGlyph get exec
}_d

FontName currentdict end definefont pop
%!PS-Adobe-3.0 Resource-Font
%%Title: DejaVu Sans Oblique
%%Copyright: Copyright (c) 2003 by Bitstream, Inc. All Rights Reserved. Copyright (c) 2006 by Tavmjong Bah. All Rights Reserved. DejaVu changes are in public domain 
%%Creator: Converted from TrueType to type 3 by PPR
25 dict begin
/_d{bind def}bind def
/_m{moveto}_d
/_l{lineto}_d
/_cl{closepath eofill}_d
/_c{curveto}_d
/_sc{7 -1 roll{setcachedevice}{pop pop pop pop pop pop}ifelse}_d
/_e{exec}_d
/FontName /DejaVuSans-Oblique def
/PaintType 0 def
/FontMatrix[.001 0 0 .001 0 0]def
/FontBBox[-1016 -350 1659 1068]def
/FontType 3 def
/Encoding [ /t /delta ] def
/FontInfo 10 dict dup begin
/FamilyName (DejaVu Sans) def
/FullName (DejaVu Sans Oblique) def
/Notice (Copyright (c) 2003 by Bitstream, Inc. All Rights Reserved. Copyright (c) 2006 by Tavmjong Bah. All Rights Reserved. DejaVu changes are in public domain ) def
/Weight (Oblique) def
/Version (Version 2.35) def
/ItalicAngle -11.0 def
/isFixedPitch false def
/UnderlinePosition -130 def
/UnderlineThickness 90 def
end readonly def
/CharStrings 3 dict dup begin
/.notdef 0 def
/t{{392 0 64 0 423 702 _sc
423 547 _m
409 477 _l
230 477 _l
172 180 _l
170 169 168 160 167 152 _c
166 144 166 139 166 135 _c
166 114 172 99 185 89 _c
197 79 217 75 245 75 _c
336 75 _l
321 0 _l
235 0 _l
181 0 141 10 115 31 _c
89 52 76 84 76 126 _c
76 133 76 141 77 150 _c
78 159 80 169 82 180 _c
140 477 _l
64 477 _l
78 547 _l
153 547 _l
183 702 _l
}_e{273 702 _l
243 547 _l
423 547 _l
_cl}_e}_d
/delta{{612 0 38 -13 557 742 _sc
542 633 _m
514 655 461 667 383 667 _c
300 667 255 648 248 610 _c
242 580 280 557 364 542 _c
428 530 476 505 508 469 _c
546 425 556 358 539 268 _c
521 182 486 113 432 63 _c
377 12 310 -13 232 -13 _c
154 -13 98 12 63 63 _c
28 113 20 183 38 273 _c
50 339 84 399 139 453 _c
160 473 184 490 211 502 _c
165 528 147 563 156 609 _c
}_e{173 697 253 742 397 742 _c
469 742 522 730 557 708 _c
542 633 _l
274 478 _m
250 468 226 451 204 428 _c
168 391 144 339 132 273 _c
119 207 123 155 144 118 _c
164 80 199 62 248 62 _c
295 62 336 81 372 119 _c
407 156 431 206 443 268 _c
455 332 450 380 427 412 _c
401 445 369 464 329 468 _c
308 470 290 473 274 478 _c
_cl}_e}_d
end readonly def

/BuildGlyph
 {exch begin
 CharStrings exch
 2 copy known not{pop /.notdef}if
 true 3 1 roll get exec
 end}_d

/BuildChar {
 1 index /Encoding get exch get
 1 index /BuildGlyph get exec
}_d

FontName currentdict end definefont pop
end
%%EndProlog
mpldict begin
-126 72 translate
864 648 0 0 clipbox
gsave
0 0 m
864 0 l
864 648 l
0 648 l
cl
1.000 setgray
fill
grestore
gsave
108 71.28 m
777.6 71.28 l
777.6 570.24 l
108 570.24 l
cl
1.000 setgray
fill
grestore
0.800 setlinewidth
1 setlinejoin
0 setlinecap
[] 0 setdash
0.000 setgray
gsave
/o {
gsave
newpath
translate
0.8 setlinewidth
1 setlinejoin
0 setlinecap
0 0 m
0 -3.5 l

gsave
0.000 setgray
fill
grestore
stroke
grestore
} bind def
108 71.28 o
grestore
/DejaVuSans findfont
24.000 scalefont
setfont
gsave
100.367188 46.045625 translate
0.000000 rotate
0.000000 0.000000 m /five glyphshow
grestore
gsave
/o {
gsave
newpath
translate
0.8 setlinewidth
1 setlinejoin
0 setlinecap
0 0 m
0 -3.5 l

gsave
0.000 setgray
fill
grestore
stroke
grestore
} bind def
185.86 71.28 o
grestore
gsave
170.594840 46.045625 translate
0.000000 rotate
0.000000 0.000000 m /one glyphshow
15.269531 0.000000 m /zero glyphshow
grestore
gsave
/o {
gsave
newpath
translate
0.8 setlinewidth
1 setlinejoin
0 setlinecap
0 0 m
0 -3.5 l

gsave
0.000 setgray
fill
grestore
stroke
grestore
} bind def
263.721 71.28 o
grestore
gsave
248.455305 46.045625 translate
0.000000 rotate
0.000000 0.000000 m /one glyphshow
15.269531 0.000000 m /five glyphshow
grestore
gsave
/o {
gsave
newpath
translate
0.8 setlinewidth
1 setlinejoin
0 setlinecap
0 0 m
0 -3.5 l

gsave
0.000 setgray
fill
grestore
stroke
grestore
} bind def
341.581 71.28 o
grestore
gsave
326.315770 46.045625 translate
0.000000 rotate
0.000000 0.000000 m /two glyphshow
15.269531 0.000000 m /zero glyphshow
grestore
gsave
/o {
gsave
newpath
translate
0.8 setlinewidth
1 setlinejoin
0 setlinecap
0 0 m
0 -3.5 l

gsave
0.000 setgray
fill
grestore
stroke
grestore
} bind def
419.442 71.28 o
grestore
gsave
404.176235 46.045625 translate
0.000000 rotate
0.000000 0.000000 m /two glyphshow
15.269531 0.000000 m /five glyphshow
grestore
gsave
/o {
gsave
newpath
translate
0.8 setlinewidth
1 setlinejoin
0 setlinecap
0 0 m
0 -3.5 l

gsave
0.000 setgray
fill
grestore
stroke
grestore
} bind def
497.302 71.28 o
grestore
gsave
482.036701 46.045625 translate
0.000000 rotate
0.000000 0.000000 m /three glyphshow
15.269531 0.000000 m /zero glyphshow
grestore
gsave
/o {
gsave
newpath
translate
0.8 setlinewidth
1 setlinejoin
0 setlinecap
0 0 m
0 -3.5 l

gsave
0.000 setgray
fill
grestore
stroke
grestore
} bind def
575.163 71.28 o
grestore
gsave
559.897166 46.045625 translate
0.000000 rotate
0.000000 0.000000 m /three glyphshow
15.269531 0.000000 m /five glyphshow
grestore
gsave
/o {
gsave
newpath
translate
0.8 setlinewidth
1 setlinejoin
0 setlinecap
0 0 m
0 -3.5 l

gsave
0.000 setgray
fill
grestore
stroke
grestore
} bind def
653.023 71.28 o
grestore
gsave
637.757631 46.045625 translate
0.000000 rotate
0.000000 0.000000 m /four glyphshow
15.269531 0.000000 m /zero glyphshow
grestore
gsave
/o {
gsave
newpath
translate
0.8 setlinewidth
1 setlinejoin
0 setlinecap
0 0 m
0 -3.5 l

gsave
0.000 setgray
fill
grestore
stroke
grestore
} bind def
730.884 71.28 o
grestore
gsave
715.618096 46.045625 translate
0.000000 rotate
0.000000 0.000000 m /four glyphshow
15.269531 0.000000 m /five glyphshow
grestore
gsave
380.448438 18.811250 translate
0.000000 rotate
0.000000 0.000000 m /S glyphshow
15.234375 0.000000 m /n glyphshow
30.445312 0.000000 m /a glyphshow
45.152344 0.000000 m /p glyphshow
60.386719 0.000000 m /s glyphshow
72.890625 0.000000 m /h glyphshow
88.101562 0.000000 m /o glyphshow
102.785156 0.000000 m /t glyphshow
112.195312 0.000000 m /s glyphshow
grestore
gsave
/o {
gsave
newpath
translate
0.8 setlinewidth
1 setlinejoin
0 setlinecap
0 0 m
-3.5 0 l

gsave
0.000 setgray
fill
grestore
stroke
grestore
} bind def
108 89.8116 o
grestore
gsave
47.578125 80.694423 translate
0.000000 rotate
0.000000 0.000000 m /zero glyphshow
15.269531 0.000000 m /period glyphshow
22.898438 0.000000 m /zero glyphshow
38.167969 0.000000 m /zero glyphshow
grestore
gsave
/o {
gsave
newpath
translate
0.8 setlinewidth
1 setlinejoin
0 setlinecap
0 0 m
-3.5 0 l

gsave
0.000 setgray
fill
grestore
stroke
grestore
} bind def
108 171.435 o
grestore
gsave
47.578125 162.317873 translate
0.000000 rotate
0.000000 0.000000 m /zero glyphshow
15.269531 0.000000 m /period glyphshow
22.898438 0.000000 m /zero glyphshow
38.167969 0.000000 m /two glyphshow
grestore
gsave
/o {
gsave
newpath
translate
0.8 setlinewidth
1 setlinejoin
0 setlinecap
0 0 m
-3.5 0 l

gsave
0.000 setgray
fill
grestore
stroke
grestore
} bind def
108 253.059 o
grestore
gsave
47.578125 243.941323 translate
0.000000 rotate
0.000000 0.000000 m /zero glyphshow
15.269531 0.000000 m /period glyphshow
22.898438 0.000000 m /zero glyphshow
38.167969 0.000000 m /four glyphshow
grestore
gsave
/o {
gsave
newpath
translate
0.8 setlinewidth
1 setlinejoin
0 setlinecap
0 0 m
-3.5 0 l

gsave
0.000 setgray
fill
grestore
stroke
grestore
} bind def
108 334.682 o
grestore
gsave
47.578125 325.564773 translate
0.000000 rotate
0.000000 0.000000 m /zero glyphshow
15.269531 0.000000 m /period glyphshow
22.898438 0.000000 m /zero glyphshow
38.167969 0.000000 m /six glyphshow
grestore
gsave
/o {
gsave
newpath
translate
0.8 setlinewidth
1 setlinejoin
0 setlinecap
0 0 m
-3.5 0 l

gsave
0.000 setgray
fill
grestore
stroke
grestore
} bind def
108 416.305 o
grestore
gsave
47.578125 407.188224 translate
0.000000 rotate
0.000000 0.000000 m /zero glyphshow
15.269531 0.000000 m /period glyphshow
22.898438 0.000000 m /zero glyphshow
38.167969 0.000000 m /eight glyphshow
grestore
gsave
/o {
gsave
newpath
translate
0.8 setlinewidth
1 setlinejoin
0 setlinecap
0 0 m
-3.5 0 l

gsave
0.000 setgray
fill
grestore
stroke
grestore
} bind def
108 497.929 o
grestore
gsave
47.578125 488.811674 translate
0.000000 rotate
0.000000 0.000000 m /zero glyphshow
15.269531 0.000000 m /period glyphshow
22.898438 0.000000 m /one glyphshow
38.167969 0.000000 m /zero glyphshow
grestore
gsave
38.578125 256.877187 translate
90.000000 rotate
0.000000 0.000000 m /E glyphshow
15.164062 0.000000 m /r glyphshow
25.031250 0.000000 m /r glyphshow
34.898438 0.000000 m /o glyphshow
49.582031 0.000000 m /r glyphshow
59.449219 0.000000 m /s glyphshow
71.953125 0.000000 m /space glyphshow
79.582031 0.000000 m /parenleft glyphshow
88.945312 0.000000 m /p glyphshow
104.179688 0.000000 m /x glyphshow
118.382812 0.000000 m /parenright glyphshow
grestore
3.000 setlinewidth
2 setlinecap
1.000 0.000 0.000 setrgbcolor
gsave
669.6 499 108 71.28 clipbox
108 94.1772 m
123.572093 93.96 l
139.144186 95.119094 l
154.716279 96.866938 l
170.288372 95.965651 l
185.860465 96.549871 l
201.432558 97.731289 l
217.004651 97.453361 l
232.576744 98.349464 l
248.148837 98.347669 l
263.72093 98.419497 l
279.293023 97.249099 l
294.865116 98.23111 l
310.437209 97.240936 l
326.009302 98.597355 l
341.581395 100.218845 l
357.153488 99.139457 l
372.725581 99.222386 l
388.297674 100.589375 l
403.869767 99.269197 l
419.44186 98.551727 l
435.013953 97.879966 l
450.586047 99.957814 l
466.15814 100.987249 l
481.730233 100.642145 l
497.302326 99.237405 l
512.874419 99.62528 l
528.446512 101.998645 l
544.018605 100.957089 l
559.590698 100.829348 l
575.162791 101.127314 l
590.734884 101.071198 l
606.306977 102.242862 l
621.87907 104.398088 l
637.451163 103.753018 l
653.023256 100.54289 l
668.595349 102.606331 l
684.167442 102.716686 l
699.739535 101.883107 l
715.311628 104.047842 l
730.883721 102.92303 l
746.455814 102.668651 l
762.027907 102.200948 l
777.6 102.831449 l
stroke
grestore
0 setlinecap
[11.1 4.8] 0 setdash
gsave
669.6 499 108 71.28 clipbox
108 102.94062 m
123.572093 102.348442 l
139.144186 103.410363 l
154.716279 104.253329 l
170.288372 103.583037 l
185.860465 104.575619 l
201.432558 104.969902 l
217.004651 106.031537 l
232.576744 105.896573 l
248.148837 106.09455 l
263.72093 107.34698 l
279.293023 107.434685 l
294.865116 109.466823 l
310.437209 109.17155 l
326.009302 109.548161 l
341.581395 110.071041 l
357.153488 110.353743 l
372.725581 110.091936 l
388.297674 110.750597 l
403.869767 109.843719 l
419.44186 109.884898 l
435.013953 109.770421 l
450.586047 110.627998 l
466.15814 110.981509 l
481.730233 112.085589 l
497.302326 112.881418 l
512.874419 111.775542 l
528.446512 111.669636 l
544.018605 111.588421 l
559.590698 112.861991 l
575.162791 114.295462 l
590.734884 114.904455 l
606.306977 113.368914 l
621.87907 113.879346 l
637.451163 113.740709 l
653.023256 114.090179 l
668.595349 115.120267 l
684.167442 114.070222 l
699.739535 115.6076 l
715.311628 116.003229 l
730.883721 114.651177 l
746.455814 115.242213 l
762.027907 115.724485 l
777.6 115.366444 l
stroke
grestore
2 setlinecap
[] 0 setdash
0.000 0.000 1.000 setrgbcolor
gsave
669.6 499 108 71.28 clipbox
108 95.382207 m
123.572093 94.352078 l
139.144186 94.93891 l
154.716279 95.677561 l
170.288372 95.228102 l
185.860465 96.085434 l
201.432558 96.118287 l
217.004651 96.365157 l
232.576744 98.59009 l
248.148837 98.48602 l
263.72093 99.270177 l
279.293023 97.757327 l
294.865116 97.249017 l
310.437209 98.757459 l
326.009302 100.007481 l
341.581395 100.200235 l
357.153488 99.532188 l
372.725581 99.985606 l
388.297674 97.893842 l
403.869767 98.42015 l
419.44186 99.342005 l
435.013953 99.931939 l
450.586047 102.076473 l
466.15814 100.429556 l
481.730233 100.326343 l
497.302326 101.598975 l
512.874419 100.871547 l
528.446512 101.226854 l
544.018605 100.73344 l
559.590698 100.969169 l
575.162791 102.069943 l
590.734884 102.450308 l
606.306977 102.660039 l
621.87907 103.937895 l
637.451163 104.668344 l
653.023256 103.442808 l
668.595349 104.437064 l
684.167442 105.658314 l
699.739535 102.797942 l
715.311628 106.022395 l
730.883721 103.513331 l
746.455814 104.906807 l
762.027907 104.517748 l
777.6 104.082899 l
stroke
grestore
0 setlinecap
[11.1 4.8] 0 setdash
gsave
669.6 499 108 71.28 clipbox
108 103.895819 m
123.572093 102.88581 l
139.144186 102.944538 l
154.716279 103.978626 l
170.288372 103.304824 l
185.860465 103.988747 l
201.432558 103.947649 l
217.004651 106.033496 l
232.576744 106.038271 l
248.148837 106.406025 l
263.72093 106.583311 l
279.293023 107.299925 l
294.865116 109.496697 l
310.437209 109.00912 l
326.009302 109.806989 l
341.581395 109.476618 l
357.153488 110.938331 l
372.725581 110.237267 l
388.297674 109.998233 l
403.869767 109.537958 l
419.44186 109.570036 l
435.013953 109.915099 l
450.586047 111.45566 l
466.15814 110.67836 l
481.730233 110.774186 l
497.302326 111.557444 l
512.874419 110.486749 l
528.446512 111.204627 l
544.018605 111.771706 l
559.590698 111.292862 l
575.162791 112.871174 l
590.734884 112.897171 l
606.306977 112.575819 l
621.87907 112.380168 l
637.451163 113.105066 l
653.023256 113.807517 l
668.595349 114.30489 l
684.167442 114.447894 l
699.739535 113.759931 l
715.311628 116.680051 l
730.883721 115.04399 l
746.455814 114.56482 l
762.027907 115.724485 l
777.6 116.591081 l
stroke
grestore
2 setlinecap
[] 0 setdash
1.000 0.000 0.000 setrgbcolor
gsave
669.6 499 108 71.28 clipbox
108 98.09533 m
123.572093 100.644104 l
139.144186 108.118853 l
154.716279 106.520543 l
170.288372 107.037056 l
185.860465 111.269436 l
201.432558 110.174213 l
217.004651 112.139297 l
232.576744 114.114381 l
248.148837 115.036522 l
263.72093 114.978855 l
279.293023 117.242273 l
294.865116 120.669601 l
310.437209 121.304999 l
326.009302 124.335922 l
341.581395 126.779443 l
357.153488 128.340613 l
372.725581 133.085099 l
388.297674 135.762756 l
403.869767 140.481 l
419.44186 145.012326 l
435.013953 141.826154 l
450.586047 147.545101 l
466.15814 155.299737 l
481.730233 164.851313 l
497.302326 175.973325 l
512.874419 190.810019 l
528.446512 193.60399 l
544.018605 205.914438 l
559.590698 220.158955 l
575.162791 228.922865 l
590.734884 237.678612 l
606.306977 234.718946 l
621.87907 266.63698 l
637.451163 290.950157 l
653.023256 302.094615 l
668.595349 295.573717 l
684.167442 299.650809 l
699.739535 314.181823 l
715.311628 310.861789 l
730.883721 299.392879 l
746.455814 306.851629 l
762.027907 323.93705 l
777.6 323.893381 l
stroke
grestore
1.000 setlinewidth
0 setlinejoin
0 setlinecap
gsave
669.6 499 108 71.28 clipbox
/o {
gsave
newpath
translate
1.0 setlinewidth
0 setlinejoin
0 setlinecap
-10 -10 m
10 -10 l
10 10 l
-10 10 l
cl

gsave
grestore
stroke
grestore
} bind def
108 98.0953 o
123.572 100.644 o
139.144 108.119 o
154.716 106.521 o
170.288 107.037 o
185.86 111.269 o
201.433 110.174 o
217.005 112.139 o
232.577 114.114 o
248.149 115.037 o
263.721 114.979 o
279.293 117.242 o
294.865 120.67 o
310.437 121.305 o
326.009 124.336 o
341.581 126.779 o
357.153 128.341 o
372.726 133.085 o
388.298 135.763 o
403.87 140.481 o
419.442 145.012 o
435.014 141.826 o
450.586 147.545 o
466.158 155.3 o
481.73 164.851 o
497.302 175.973 o
512.874 190.81 o
528.447 193.604 o
544.019 205.914 o
559.591 220.159 o
575.163 228.923 o
590.735 237.679 o
606.307 234.719 o
621.879 266.637 o
637.451 290.95 o
653.023 302.095 o
668.595 295.574 o
684.167 299.651 o
699.74 314.182 o
715.312 310.862 o
730.884 299.393 o
746.456 306.852 o
762.028 323.937 o
777.6 323.893 o
grestore
3.000 setlinewidth
1 setlinejoin
[11.1 4.8] 0 setdash
gsave
669.6 499 108 71.28 clipbox
108 105.498291 m
123.572093 108.021761 l
139.144186 109.609991 l
154.716279 113.447599 l
170.288372 115.525528 l
185.860465 114.87707 l
201.432558 117.215664 l
217.004651 118.391817 l
232.576744 119.161812 l
248.148837 121.69875 l
263.72093 123.218334 l
279.293023 124.185898 l
294.865116 124.251972 l
310.437209 126.441113 l
326.009302 128.566955 l
341.581395 129.002906 l
357.153488 134.344549 l
372.725581 135.960693 l
388.297674 135.136704 l
403.869767 139.657827 l
419.44186 141.718411 l
435.013953 145.331881 l
450.586047 149.145737 l
466.15814 149.813417 l
481.730233 155.518896 l
497.302326 162.321802 l
512.874419 167.779146 l
528.446512 175.427672 l
544.018605 178.980332 l
559.590698 186.148504 l
575.162791 189.399974 l
590.734884 191.32996 l
606.306977 207.915029 l
621.87907 214.848941 l
637.451163 214.891794 l
653.023256 223.125151 l
668.595349 228.569435 l
684.167442 234.167988 l
699.739535 234.614468 l
715.311628 241.254127 l
730.883721 249.349949 l
746.455814 254.267762 l
762.027907 262.042396 l
777.6 277.41454 l
stroke
grestore
1.000 setlinewidth
0 setlinejoin
[] 0 setdash
gsave
669.6 499 108 71.28 clipbox
/o {
gsave
newpath
translate
1.0 setlinewidth
0 setlinejoin
0 setlinecap
-10 -10 m
10 -10 l
10 10 l
-10 10 l
cl

gsave
grestore
stroke
grestore
} bind def
108 105.498 o
123.572 108.022 o
139.144 109.61 o
154.716 113.448 o
170.288 115.526 o
185.86 114.877 o
201.433 117.216 o
217.005 118.392 o
232.577 119.162 o
248.149 121.699 o
263.721 123.218 o
279.293 124.186 o
294.865 124.252 o
310.437 126.441 o
326.009 128.567 o
341.581 129.003 o
357.153 134.345 o
372.726 135.961 o
388.298 135.137 o
403.87 139.658 o
419.442 141.718 o
435.014 145.332 o
450.586 149.146 o
466.158 149.813 o
481.73 155.519 o
497.302 162.322 o
512.874 167.779 o
528.447 175.428 o
544.019 178.98 o
559.591 186.149 o
575.163 189.4 o
590.735 191.33 o
606.307 207.915 o
621.879 214.849 o
637.451 214.892 o
653.023 223.125 o
668.595 228.569 o
684.167 234.168 o
699.74 234.614 o
715.312 241.254 o
730.884 249.35 o
746.456 254.268 o
762.028 262.042 o
777.6 277.415 o
grestore
3.000 setlinewidth
1 setlinejoin
2 setlinecap
0.000 0.000 1.000 setrgbcolor
gsave
669.6 499 108 71.28 clipbox
108 101.744061 m
123.572093 104.91905 l
139.144186 110.540457 l
154.716279 110.881439 l
170.288372 112.403839 l
185.860465 113.036543 l
201.432558 116.717761 l
217.004651 114.5025 l
232.576744 116.21745 l
248.148837 118.323131 l
263.72093 118.681335 l
279.293023 121.385479 l
294.865116 121.648552 l
310.437209 123.06427 l
326.009302 125.891624 l
341.581395 125.896644 l
357.153488 124.666171 l
372.725581 128.200997 l
388.297674 127.170419 l
403.869767 128.564302 l
419.44186 124.966708 l
435.013953 129.803346 l
450.586047 137.50909 l
466.15814 126.456622 l
481.730233 127.885359 l
497.302326 141.911043 l
512.874419 136.030481 l
528.446512 138.924441 l
544.018605 141.012368 l
559.590698 140.18389 l
575.162791 146.732132 l
590.734884 142.106531 l
606.306977 142.658305 l
621.87907 145.91304 l
637.451163 140.323058 l
653.023256 149.141656 l
668.595349 143.449645 l
684.167442 140.359789 l
699.739535 149.788114 l
715.311628 147.21371 l
730.883721 148.972287 l
746.455814 152.793489 l
762.027907 150.268468 l
777.6 152.215187 l
stroke
grestore
1.000 setlinewidth
0 setlinejoin
0 setlinecap
gsave
669.6 499 108 71.28 clipbox
/o {
gsave
newpath
translate
1.0 setlinewidth
0 setlinejoin
0 setlinecap
-10 -10 m
10 -10 l
10 10 l
-10 10 l
cl

gsave
grestore
stroke
grestore
} bind def
108 101.744 o
123.572 104.919 o
139.144 110.54 o
154.716 110.881 o
170.288 112.404 o
185.86 113.037 o
201.433 116.718 o
217.005 114.503 o
232.577 116.217 o
248.149 118.323 o
263.721 118.681 o
279.293 121.385 o
294.865 121.649 o
310.437 123.064 o
326.009 125.892 o
341.581 125.897 o
357.153 124.666 o
372.726 128.201 o
388.298 127.17 o
403.87 128.564 o
419.442 124.967 o
435.014 129.803 o
450.586 137.509 o
466.158 126.457 o
481.73 127.885 o
497.302 141.911 o
512.874 136.03 o
528.447 138.924 o
544.019 141.012 o
559.591 140.184 o
575.163 146.732 o
590.735 142.107 o
606.307 142.658 o
621.879 145.913 o
637.451 140.323 o
653.023 149.142 o
668.595 143.45 o
684.167 140.36 o
699.74 149.788 o
715.312 147.214 o
730.884 148.972 o
746.456 152.793 o
762.028 150.268 o
777.6 152.215 o
grestore
3.000 setlinewidth
1 setlinejoin
[11.1 4.8] 0 setdash
gsave
669.6 499 108 71.28 clipbox
108 108.556313 m
123.572093 110.936739 l
139.144186 112.757228 l
154.716279 114.804507 l
170.288372 117.858897 l
185.860465 117.150487 l
201.432558 119.868589 l
217.004651 120.406447 l
232.576744 120.896269 l
248.148837 123.40317 l
263.72093 125.421677 l
279.293023 124.867903 l
294.865116 124.485905 l
310.437209 126.960238 l
326.009302 127.660404 l
341.581395 127.485077 l
357.153488 128.959482 l
372.725581 129.600022 l
388.297674 128.757872 l
403.869767 129.730824 l
419.44186 131.202046 l
435.013953 132.989191 l
450.586047 133.2712 l
466.15814 130.731487 l
481.730233 133.530355 l
497.302326 136.964253 l
512.874419 138.789762 l
528.446512 136.134143 l
544.018605 140.476919 l
559.590698 139.85005 l
575.162791 139.768835 l
590.734884 138.383685 l
606.306977 140.687915 l
621.87907 141.93757 l
637.451163 141.220916 l
653.023256 141.467827 l
668.595349 139.88923 l
684.167442 141.864109 l
699.739535 143.335372 l
715.311628 142.230598 l
730.883721 140.705056 l
746.455814 142.742377 l
762.027907 141.606995 l
777.6 142.830531 l
stroke
grestore
1.000 setlinewidth
0 setlinejoin
[] 0 setdash
gsave
669.6 499 108 71.28 clipbox
/o {
gsave
newpath
translate
1.0 setlinewidth
0 setlinejoin
0 setlinecap
-10 -10 m
10 -10 l
10 10 l
-10 10 l
cl

gsave
grestore
stroke
grestore
} bind def
108 108.556 o
123.572 110.937 o
139.144 112.757 o
154.716 114.805 o
170.288 117.859 o
185.86 117.15 o
201.433 119.869 o
217.005 120.406 o
232.577 120.896 o
248.149 123.403 o
263.721 125.422 o
279.293 124.868 o
294.865 124.486 o
310.437 126.96 o
326.009 127.66 o
341.581 127.485 o
357.153 128.959 o
372.726 129.6 o
388.298 128.758 o
403.87 129.731 o
419.442 131.202 o
435.014 132.989 o
450.586 133.271 o
466.158 130.731 o
481.73 133.53 o
497.302 136.964 o
512.874 138.79 o
528.447 136.134 o
544.019 140.477 o
559.591 139.85 o
575.163 139.769 o
590.735 138.384 o
606.307 140.688 o
621.879 141.938 o
637.451 141.221 o
653.023 141.468 o
668.595 139.889 o
684.167 141.864 o
699.74 143.335 o
715.312 142.231 o
730.884 140.705 o
746.456 142.742 o
762.028 141.607 o
777.6 142.831 o
grestore
3.000 setlinewidth
1 setlinejoin
2 setlinecap
1.000 0.000 0.000 setrgbcolor
gsave
669.6 499 108 71.28 clipbox
108 113.452537 m
123.572093 128.153165 l
139.144186 158.926267 l
154.716279 162.95969 l
170.288372 160.747694 l
185.860465 177.033205 l
201.432558 185.064544 l
217.004651 182.192623 l
232.576744 199.294369 l
248.148837 220.598089 l
263.72093 232.94935 l
279.293023 258.358321 l
294.865116 269.819886 l
310.437209 303.569142 l
326.009302 322.718004 l
341.581395 330.252664 l
357.153488 327.920274 l
372.725581 331.566394 l
388.297674 350.726274 l
403.869767 338.008933 l
419.44186 351.053584 l
435.013953 349.788421 l
450.586047 350.54507 l
466.15814 352.857871 l
481.730233 358.974732 l
497.302326 359.080026 l
512.874419 351.7331 l
528.446512 344.551869 l
544.018605 337.417571 l
559.590698 331.653731 l
575.162791 324.404752 l
590.734884 334.692164 l
606.306977 351.838394 l
621.87907 354.365048 l
637.451163 357.112493 l
653.023256 389.772484 l
668.595349 406.883208 l
684.167442 425.967179 l
699.739535 465.965526 l
715.311628 482.841583 l
730.883721 493.802388 l
746.455814 503.928185 l
762.027907 508.735806 l
777.6 503.07522 l
stroke
grestore
1.000 setlinewidth
0 setlinecap
gsave
669.6 499 108 71.28 clipbox
/o {
gsave
newpath
translate
1.0 setlinewidth
1 setlinejoin
0 setlinecap
0 -10 m
2.652031 -10 5.195799 -8.946337 7.071068 -7.071068 c
8.946337 -5.195799 10 -2.652031 10 0 c
10 2.652031 8.946337 5.195799 7.071068 7.071068 c
5.195799 8.946337 2.652031 10 0 10 c
-2.652031 10 -5.195799 8.946337 -7.071068 7.071068 c
-8.946337 5.195799 -10 2.652031 -10 0 c
-10 -2.652031 -8.946337 -5.195799 -7.071068 -7.071068 c
-5.195799 -8.946337 -2.652031 -10 0 -10 c
cl

gsave
grestore
stroke
grestore
} bind def
108 113.453 o
123.572 128.153 o
139.144 158.926 o
154.716 162.96 o
170.288 160.748 o
185.86 177.033 o
201.433 185.065 o
217.005 182.193 o
232.577 199.294 o
248.149 220.598 o
263.721 232.949 o
279.293 258.358 o
294.865 269.82 o
310.437 303.569 o
326.009 322.718 o
341.581 330.253 o
357.153 327.92 o
372.726 331.566 o
388.298 350.726 o
403.87 338.009 o
419.442 351.054 o
435.014 349.788 o
450.586 350.545 o
466.158 352.858 o
481.73 358.975 o
497.302 359.08 o
512.874 351.733 o
528.447 344.552 o
544.019 337.418 o
559.591 331.654 o
575.163 324.405 o
590.735 334.692 o
606.307 351.838 o
621.879 354.365 o
637.451 357.112 o
653.023 389.772 o
668.595 406.883 o
684.167 425.967 o
699.74 465.966 o
715.312 482.842 o
730.884 493.802 o
746.456 503.928 o
762.028 508.736 o
777.6 503.075 o
grestore
3.000 setlinewidth
[11.1 4.8] 0 setdash
gsave
669.6 499 108 71.28 clipbox
108 126.591382 m
123.572093 132.974907 l
139.144186 137.493581 l
154.716279 142.438738 l
170.288372 147.246767 l
185.860465 156.205757 l
201.432558 159.939214 l
217.004651 168.157471 l
232.576744 182.238741 l
248.148837 190.225187 l
263.72093 205.251656 l
279.293023 216.089618 l
294.865116 224.259309 l
310.437209 236.518335 l
326.009302 240.445647 l
341.581395 255.337846 l
357.153488 254.332245 l
372.725581 264.55599 l
388.297674 279.58001 l
403.869767 286.230689 l
419.44186 286.003368 l
435.013953 300.909442 l
450.586047 312.966858 l
466.15814 315.782867 l
481.730233 328.621012 l
497.302326 329.261348 l
512.874419 328.836089 l
528.446512 339.276137 l
544.018605 349.58477 l
559.590698 352.082448 l
575.162791 359.535893 l
590.734884 376.263803 l
606.306977 383.18588 l
621.87907 389.206834 l
637.451163 408.386712 l
653.023256 426.585885 l
668.595349 439.653391 l
684.167442 456.267844 l
699.739535 473.86586 l
715.311628 492.490291 l
730.883721 515.355468 l
746.455814 516.987937 l
762.027907 533.835017 l
777.6 547.56 l
stroke
grestore
1.000 setlinewidth
[] 0 setdash
gsave
669.6 499 108 71.28 clipbox
/o {
gsave
newpath
translate
1.0 setlinewidth
1 setlinejoin
0 setlinecap
0 -10 m
2.652031 -10 5.195799 -8.946337 7.071068 -7.071068 c
8.946337 -5.195799 10 -2.652031 10 0 c
10 2.652031 8.946337 5.195799 7.071068 7.071068 c
5.195799 8.946337 2.652031 10 0 10 c
-2.652031 10 -5.195799 8.946337 -7.071068 7.071068 c
-8.946337 5.195799 -10 2.652031 -10 0 c
-10 -2.652031 -8.946337 -5.195799 -7.071068 -7.071068 c
-5.195799 -8.946337 -2.652031 -10 0 -10 c
cl

gsave
grestore
stroke
grestore
} bind def
108 126.591 o
123.572 132.975 o
139.144 137.494 o
154.716 142.439 o
170.288 147.247 o
185.86 156.206 o
201.433 159.939 o
217.005 168.157 o
232.577 182.239 o
248.149 190.225 o
263.721 205.252 o
279.293 216.09 o
294.865 224.259 o
310.437 236.518 o
326.009 240.446 o
341.581 255.338 o
357.153 254.332 o
372.726 264.556 o
388.298 279.58 o
403.87 286.231 o
419.442 286.003 o
435.014 300.909 o
450.586 312.967 o
466.158 315.783 o
481.73 328.621 o
497.302 329.261 o
512.874 328.836 o
528.447 339.276 o
544.019 349.585 o
559.591 352.082 o
575.163 359.536 o
590.735 376.264 o
606.307 383.186 o
621.879 389.207 o
637.451 408.387 o
653.023 426.586 o
668.595 439.653 o
684.167 456.268 o
699.74 473.866 o
715.312 492.49 o
730.884 515.355 o
746.456 516.988 o
762.028 533.835 o
777.6 547.56 o
grestore
3.000 setlinewidth
2 setlinecap
0.000 0.000 1.000 setrgbcolor
gsave
669.6 499 108 71.28 clipbox
108 125.329973 m
123.572093 139.846377 l
139.144186 165.19454 l
154.716279 161.204786 l
170.288372 166.711104 l
185.860465 166.638867 l
201.432558 176.678143 l
217.004651 177.490704 l
232.576744 185.896695 l
248.148837 188.537214 l
263.72093 198.142662 l
279.293023 191.85031 l
294.865116 203.232292 l
310.437209 207.200824 l
326.009302 206.14176 l
341.581395 215.989629 l
357.153488 219.152538 l
372.725581 225.262053 l
388.297674 225.283683 l
403.869767 230.215372 l
419.44186 238.647891 l
435.013953 239.067843 l
450.586047 232.05394 l
466.15814 238.441791 l
481.730233 241.992412 l
497.302326 251.895377 l
512.874419 250.176795 l
528.446512 253.020964 l
544.018605 256.066743 l
559.590698 252.216973 l
575.162791 250.260051 l
590.734884 257.079282 l
606.306977 256.183873 l
621.87907 253.931474 l
637.451163 261.322885 l
653.023256 259.573695 l
668.595349 263.570795 l
684.167442 258.563196 l
699.739535 271.242175 l
715.311628 254.149 l
730.883721 273.29827 l
746.455814 261.403692 l
762.027907 274.964204 l
777.6 274.514459 l
stroke
grestore
1.000 setlinewidth
0 setlinecap
gsave
669.6 499 108 71.28 clipbox
/o {
gsave
newpath
translate
1.0 setlinewidth
1 setlinejoin
0 setlinecap
0 -10 m
2.652031 -10 5.195799 -8.946337 7.071068 -7.071068 c
8.946337 -5.195799 10 -2.652031 10 0 c
10 2.652031 8.946337 5.195799 7.071068 7.071068 c
5.195799 8.946337 2.652031 10 0 10 c
-2.652031 10 -5.195799 8.946337 -7.071068 7.071068 c
-8.946337 5.195799 -10 2.652031 -10 0 c
-10 -2.652031 -8.946337 -5.195799 -7.071068 -7.071068 c
-5.195799 -8.946337 -2.652031 -10 0 -10 c
cl

gsave
grestore
stroke
grestore
} bind def
108 125.33 o
123.572 139.846 o
139.144 165.195 o
154.716 161.205 o
170.288 166.711 o
185.86 166.639 o
201.433 176.678 o
217.005 177.491 o
232.577 185.897 o
248.149 188.537 o
263.721 198.143 o
279.293 191.85 o
294.865 203.232 o
310.437 207.201 o
326.009 206.142 o
341.581 215.99 o
357.153 219.153 o
372.726 225.262 o
388.298 225.284 o
403.87 230.215 o
419.442 238.648 o
435.014 239.068 o
450.586 232.054 o
466.158 238.442 o
481.73 241.992 o
497.302 251.895 o
512.874 250.177 o
528.447 253.021 o
544.019 256.067 o
559.591 252.217 o
575.163 250.26 o
590.735 257.079 o
606.307 256.184 o
621.879 253.931 o
637.451 261.323 o
653.023 259.574 o
668.595 263.571 o
684.167 258.563 o
699.74 271.242 o
715.312 254.149 o
730.884 273.298 o
746.456 261.404 o
762.028 274.964 o
777.6 274.514 o
grestore
3.000 setlinewidth
[11.1 4.8] 0 setdash
gsave
669.6 499 108 71.28 clipbox
108 138.582438 m
123.572093 146.095061 l
139.144186 149.037586 l
154.716279 153.532998 l
170.288372 155.841717 l
185.860465 158.602222 l
201.432558 159.007482 l
217.004651 161.723911 l
232.576744 170.431908 l
248.148837 170.513532 l
263.72093 178.259597 l
279.293023 177.558044 l
294.865116 179.656583 l
310.437209 183.019061 l
326.009302 185.802012 l
341.581395 185.274317 l
357.153488 187.201854 l
372.725581 190.53454 l
388.297674 192.460037 l
403.869767 192.481667 l
419.44186 200.199981 l
435.013953 200.766856 l
450.586047 201.869997 l
466.15814 201.065597 l
481.730233 208.223158 l
497.302326 209.149176 l
512.874419 203.524504 l
528.446512 212.802641 l
544.018605 212.17863 l
559.590698 211.713785 l
575.162791 217.140112 l
590.734884 215.724761 l
606.306977 216.255313 l
621.87907 216.88463 l
637.451163 221.536351 l
653.023256 219.168454 l
668.595349 228.353133 l
684.167442 224.384601 l
699.739535 227.639336 l
715.311628 226.434574 l
730.883721 230.961002 l
746.455814 237.923483 l
762.027907 238.218959 l
777.6 234.07208 l
stroke
grestore
1.000 setlinewidth
[] 0 setdash
gsave
669.6 499 108 71.28 clipbox
/o {
gsave
newpath
translate
1.0 setlinewidth
1 setlinejoin
0 setlinecap
0 -10 m
2.652031 -10 5.195799 -8.946337 7.071068 -7.071068 c
8.946337 -5.195799 10 -2.652031 10 0 c
10 2.652031 8.946337 5.195799 7.071068 7.071068 c
5.195799 8.946337 2.652031 10 0 10 c
-2.652031 10 -5.195799 8.946337 -7.071068 7.071068 c
-8.946337 5.195799 -10 2.652031 -10 0 c
-10 -2.652031 -8.946337 -5.195799 -7.071068 -7.071068 c
-5.195799 -8.946337 -2.652031 -10 0 -10 c
cl

gsave
grestore
stroke
grestore
} bind def
108 138.582 o
123.572 146.095 o
139.144 149.038 o
154.716 153.533 o
170.288 155.842 o
185.86 158.602 o
201.433 159.007 o
217.005 161.724 o
232.577 170.432 o
248.149 170.514 o
263.721 178.26 o
279.293 177.558 o
294.865 179.657 o
310.437 183.019 o
326.009 185.802 o
341.581 185.274 o
357.153 187.202 o
372.726 190.535 o
388.298 192.46 o
403.87 192.482 o
419.442 200.2 o
435.014 200.767 o
450.586 201.87 o
466.158 201.066 o
481.73 208.223 o
497.302 209.149 o
512.874 203.525 o
528.447 212.803 o
544.019 212.179 o
559.591 211.714 o
575.163 217.14 o
590.735 215.725 o
606.307 216.255 o
621.879 216.885 o
637.451 221.536 o
653.023 219.168 o
668.595 228.353 o
684.167 224.385 o
699.74 227.639 o
715.312 226.435 o
730.884 230.961 o
746.456 237.923 o
762.028 238.219 o
777.6 234.072 o
grestore
0.800 setlinewidth
0 setlinejoin
2 setlinecap
[] 0 setdash
0.000 setgray
gsave
108 71.28 m
108 570.24 l
stroke
grestore
gsave
777.6 71.28 m
777.6 570.24 l
stroke
grestore
gsave
108 71.28 m
777.6 71.28 l
stroke
grestore
gsave
108 570.24 m
777.6 570.24 l
stroke
grestore
gsave
206.862500 576.240000 translate
0.000000 rotate
0.000000 0.000000 m /M glyphshow
20.707031 0.000000 m /e glyphshow
35.472656 0.000000 m /a glyphshow
50.179688 0.000000 m /n glyphshow
65.390625 0.000000 m /space glyphshow
73.019531 0.000000 m /e glyphshow
87.785156 0.000000 m /r glyphshow
97.652344 0.000000 m /r glyphshow
107.519531 0.000000 m /o glyphshow
122.203125 0.000000 m /r glyphshow
132.070312 0.000000 m /space glyphshow
139.699219 0.000000 m /o glyphshow
154.382812 0.000000 m /f glyphshow
162.832031 0.000000 m /space glyphshow
170.460938 0.000000 m /d glyphshow
185.695312 0.000000 m /e glyphshow
200.460938 0.000000 m /t glyphshow
209.871094 0.000000 m /e glyphshow
224.636719 0.000000 m /c glyphshow
237.832031 0.000000 m /t glyphshow
247.242188 0.000000 m /e glyphshow
262.007812 0.000000 m /d glyphshow
277.242188 0.000000 m /space glyphshow
284.871094 0.000000 m /p glyphshow
300.105469 0.000000 m /a glyphshow
314.812500 0.000000 m /r glyphshow
324.679688 0.000000 m /t glyphshow
334.089844 0.000000 m /i glyphshow
340.757812 0.000000 m /c glyphshow
353.953125 0.000000 m /l glyphshow
360.621094 0.000000 m /e glyphshow
375.386719 0.000000 m /s glyphshow
387.890625 0.000000 m /space glyphshow
395.519531 0.000000 m /three glyphshow
410.789062 0.000000 m /zero glyphshow
426.058594 0.000000 m /zero glyphshow
441.328125 0.000000 m /zero glyphshow
456.597656 0.000000 m /zero glyphshow
grestore
1.000 setlinewidth
0 setlinecap
0.800 setgray
gsave
125.86 294.0525 m
331.86 294.0525 l
333.86 294.0525 334.86 295.0525 334.86 297.0525 c
334.86 559.74 l
334.86 561.74 333.86 562.74 331.86 562.74 c
125.86 562.74 l
123.86 562.74 122.86 561.74 122.86 559.74 c
122.86 297.0525 l
122.86 295.0525 123.86 294.0525 125.86 294.0525 c
cl
gsave
1.000 setgray
fill
grestore
stroke
grestore
3.000 setlinewidth
1 setlinejoin
2 setlinecap
[] 0 setdash
1.000 0.000 0.000 setrgbcolor
gsave
128.86 550.599375 m
158.86 550.599375 l
stroke
grestore
0.000 setgray
gsave
170.860000 545.349375 translate
0.000000 rotate
/DejaVuSans findfont
15.0 scalefont
setfont
0.000000 0.609375 moveto
/S glyphshow

9.521484 0.609375 moveto
/T glyphshow

18.684082 0.609375 moveto
/B glyphshow

28.974609 0.609375 moveto
/comma glyphshow

33.742676 0.609375 moveto
/space glyphshow

38.510742 0.609375 moveto
/three glyphshow

/DejaVuSans-Oblique findfont
15.0 scalefont
setfont
48.054199 0.609375 moveto
/delta glyphshow

57.231445 0.609375 moveto
/t glyphshow

/DejaVuSans findfont
15.0 scalefont
setfont
63.112793 0.609375 moveto
/comma glyphshow

67.880859 0.609375 moveto
/space glyphshow

72.648926 0.609375 moveto
/T glyphshow

81.811523 0.609375 moveto
/r glyphshow

87.978516 0.609375 moveto
/a glyphshow

97.170410 0.609375 moveto
/c glyphshow

105.417480 0.609375 moveto
/k glyphshow

114.104004 0.609375 moveto
/s glyphshow


grestore
0 setlinecap
[11.1 4.8] 0 setdash
1.000 0.000 0.000 setrgbcolor
gsave
128.86 528.58375 m
158.86 528.58375 l
stroke
grestore
0.000 setgray
gsave
170.860000 523.333750 translate
0.000000 rotate
/DejaVuSans findfont
15.0 scalefont
setfont
0.000000 0.609375 moveto
/S glyphshow

9.521484 0.609375 moveto
/T glyphshow

18.684082 0.609375 moveto
/B glyphshow

28.974609 0.609375 moveto
/comma glyphshow

33.742676 0.609375 moveto
/space glyphshow

38.510742 0.609375 moveto
/three glyphshow

/DejaVuSans-Oblique findfont
15.0 scalefont
setfont
48.054199 0.609375 moveto
/delta glyphshow

57.231445 0.609375 moveto
/t glyphshow

/DejaVuSans findfont
15.0 scalefont
setfont
63.112793 0.609375 moveto
/comma glyphshow

67.880859 0.609375 moveto
/space glyphshow

72.648926 0.609375 moveto
/P glyphshow

81.694336 0.609375 moveto
/a glyphshow

90.886230 0.609375 moveto
/r glyphshow

97.053223 0.609375 moveto
/t glyphshow

102.934570 0.609375 moveto
/i glyphshow

107.102051 0.609375 moveto
/c glyphshow

115.349121 0.609375 moveto
/l glyphshow

119.516602 0.609375 moveto
/e glyphshow

128.745117 0.609375 moveto
/s glyphshow


grestore
2 setlinecap
[] 0 setdash
0.000 0.000 1.000 setrgbcolor
gsave
128.86 506.568125 m
158.86 506.568125 l
stroke
grestore
0.000 setgray
gsave
170.860000 501.318125 translate
0.000000 rotate
/DejaVuSans findfont
15.0 scalefont
setfont
0.000000 0.609375 moveto
/O glyphshow

11.806641 0.609375 moveto
/u glyphshow

21.313477 0.609375 moveto
/r glyphshow

27.480469 0.609375 moveto
/s glyphshow

35.295410 0.609375 moveto
/comma glyphshow

40.063477 0.609375 moveto
/space glyphshow

44.831543 0.609375 moveto
/three glyphshow

/DejaVuSans-Oblique findfont
15.0 scalefont
setfont
54.375000 0.609375 moveto
/delta glyphshow

63.552246 0.609375 moveto
/t glyphshow

/DejaVuSans findfont
15.0 scalefont
setfont
69.433594 0.609375 moveto
/comma glyphshow

74.201660 0.609375 moveto
/space glyphshow

78.969727 0.609375 moveto
/T glyphshow

88.132324 0.609375 moveto
/r glyphshow

94.299316 0.609375 moveto
/a glyphshow

103.491211 0.609375 moveto
/c glyphshow

111.738281 0.609375 moveto
/k glyphshow

120.424805 0.609375 moveto
/s glyphshow


grestore
0 setlinecap
[11.1 4.8] 0 setdash
0.000 0.000 1.000 setrgbcolor
gsave
128.86 484.5525 m
158.86 484.5525 l
stroke
grestore
0.000 setgray
gsave
170.860000 479.302500 translate
0.000000 rotate
/DejaVuSans findfont
15.0 scalefont
setfont
0.000000 0.609375 moveto
/O glyphshow

11.806641 0.609375 moveto
/u glyphshow

21.313477 0.609375 moveto
/r glyphshow

27.480469 0.609375 moveto
/s glyphshow

35.295410 0.609375 moveto
/comma glyphshow

40.063477 0.609375 moveto
/space glyphshow

44.831543 0.609375 moveto
/three glyphshow

/DejaVuSans-Oblique findfont
15.0 scalefont
setfont
54.375000 0.609375 moveto
/delta glyphshow

63.552246 0.609375 moveto
/t glyphshow

/DejaVuSans findfont
15.0 scalefont
setfont
69.433594 0.609375 moveto
/comma glyphshow

74.201660 0.609375 moveto
/space glyphshow

78.969727 0.609375 moveto
/P glyphshow

88.015137 0.609375 moveto
/a glyphshow

97.207031 0.609375 moveto
/r glyphshow

103.374023 0.609375 moveto
/t glyphshow

109.255371 0.609375 moveto
/i glyphshow

113.422852 0.609375 moveto
/c glyphshow

121.669922 0.609375 moveto
/l glyphshow

125.837402 0.609375 moveto
/e glyphshow

135.065918 0.609375 moveto
/s glyphshow


grestore
2 setlinecap
[] 0 setdash
1.000 0.000 0.000 setrgbcolor
gsave
128.86 462.536875 m
158.86 462.536875 l
stroke
grestore
1.000 setlinewidth
0 setlinejoin
0 setlinecap
gsave
/o {
gsave
newpath
translate
1.0 setlinewidth
0 setlinejoin
0 setlinecap
-10 -10 m
10 -10 l
10 10 l
-10 10 l
cl

gsave
grestore
stroke
grestore
} bind def
143.86 462.537 o
grestore
0.000 setgray
gsave
170.860000 457.286875 translate
0.000000 rotate
/DejaVuSans findfont
15.0 scalefont
setfont
0.000000 0.609375 moveto
/S glyphshow

9.521484 0.609375 moveto
/T glyphshow

18.684082 0.609375 moveto
/B glyphshow

28.974609 0.609375 moveto
/comma glyphshow

33.742676 0.609375 moveto
/space glyphshow

38.510742 0.609375 moveto
/seven glyphshow

48.054199 0.609375 moveto
/period glyphshow

52.822266 0.609375 moveto
/five glyphshow

/DejaVuSans-Oblique findfont
15.0 scalefont
setfont
62.365723 0.609375 moveto
/delta glyphshow

71.542969 0.609375 moveto
/t glyphshow

/DejaVuSans findfont
15.0 scalefont
setfont
77.424316 0.609375 moveto
/comma glyphshow

82.192383 0.609375 moveto
/space glyphshow

86.960449 0.609375 moveto
/T glyphshow

96.123047 0.609375 moveto
/r glyphshow

102.290039 0.609375 moveto
/a glyphshow

111.481934 0.609375 moveto
/c glyphshow

119.729004 0.609375 moveto
/k glyphshow

128.415527 0.609375 moveto
/s glyphshow


grestore
3.000 setlinewidth
1 setlinejoin
[11.1 4.8] 0 setdash
1.000 0.000 0.000 setrgbcolor
gsave
128.86 440.52125 m
158.86 440.52125 l
stroke
grestore
1.000 setlinewidth
0 setlinejoin
[] 0 setdash
gsave
/o {
gsave
newpath
translate
1.0 setlinewidth
0 setlinejoin
0 setlinecap
-10 -10 m
10 -10 l
10 10 l
-10 10 l
cl

gsave
grestore
stroke
grestore
} bind def
143.86 440.521 o
grestore
0.000 setgray
gsave
170.860000 435.271250 translate
0.000000 rotate
/DejaVuSans findfont
15.0 scalefont
setfont
0.000000 0.609375 moveto
/S glyphshow

9.521484 0.609375 moveto
/T glyphshow

18.684082 0.609375 moveto
/B glyphshow

28.974609 0.609375 moveto
/comma glyphshow

33.742676 0.609375 moveto
/space glyphshow

38.510742 0.609375 moveto
/seven glyphshow

48.054199 0.609375 moveto
/period glyphshow

52.822266 0.609375 moveto
/five glyphshow

/DejaVuSans-Oblique findfont
15.0 scalefont
setfont
62.365723 0.609375 moveto
/delta glyphshow

71.542969 0.609375 moveto
/t glyphshow

/DejaVuSans findfont
15.0 scalefont
setfont
77.424316 0.609375 moveto
/comma glyphshow

82.192383 0.609375 moveto
/space glyphshow

86.960449 0.609375 moveto
/P glyphshow

96.005859 0.609375 moveto
/a glyphshow

105.197754 0.609375 moveto
/r glyphshow

111.364746 0.609375 moveto
/t glyphshow

117.246094 0.609375 moveto
/i glyphshow

121.413574 0.609375 moveto
/c glyphshow

129.660645 0.609375 moveto
/l glyphshow

133.828125 0.609375 moveto
/e glyphshow

143.056641 0.609375 moveto
/s glyphshow


grestore
3.000 setlinewidth
1 setlinejoin
2 setlinecap
0.000 0.000 1.000 setrgbcolor
gsave
128.86 418.505625 m
158.86 418.505625 l
stroke
grestore
1.000 setlinewidth
0 setlinejoin
0 setlinecap
gsave
/o {
gsave
newpath
translate
1.0 setlinewidth
0 setlinejoin
0 setlinecap
-10 -10 m
10 -10 l
10 10 l
-10 10 l
cl

gsave
grestore
stroke
grestore
} bind def
143.86 418.506 o
grestore
0.000 setgray
gsave
170.860000 413.255625 translate
0.000000 rotate
/DejaVuSans findfont
15.0 scalefont
setfont
0.000000 0.609375 moveto
/O glyphshow

11.806641 0.609375 moveto
/u glyphshow

21.313477 0.609375 moveto
/r glyphshow

27.480469 0.609375 moveto
/s glyphshow

35.295410 0.609375 moveto
/comma glyphshow

40.063477 0.609375 moveto
/space glyphshow

44.831543 0.609375 moveto
/seven glyphshow

54.375000 0.609375 moveto
/period glyphshow

59.143066 0.609375 moveto
/five glyphshow

/DejaVuSans-Oblique findfont
15.0 scalefont
setfont
68.686523 0.609375 moveto
/delta glyphshow

77.863770 0.609375 moveto
/t glyphshow

/DejaVuSans findfont
15.0 scalefont
setfont
83.745117 0.609375 moveto
/comma glyphshow

88.513184 0.609375 moveto
/space glyphshow

93.281250 0.609375 moveto
/T glyphshow

102.443848 0.609375 moveto
/r glyphshow

108.610840 0.609375 moveto
/a glyphshow

117.802734 0.609375 moveto
/c glyphshow

126.049805 0.609375 moveto
/k glyphshow

134.736328 0.609375 moveto
/s glyphshow


grestore
3.000 setlinewidth
1 setlinejoin
[11.1 4.8] 0 setdash
0.000 0.000 1.000 setrgbcolor
gsave
128.86 396.49 m
158.86 396.49 l
stroke
grestore
1.000 setlinewidth
0 setlinejoin
[] 0 setdash
gsave
/o {
gsave
newpath
translate
1.0 setlinewidth
0 setlinejoin
0 setlinecap
-10 -10 m
10 -10 l
10 10 l
-10 10 l
cl

gsave
grestore
stroke
grestore
} bind def
143.86 396.49 o
grestore
0.000 setgray
gsave
170.860000 391.240000 translate
0.000000 rotate
/DejaVuSans findfont
15.0 scalefont
setfont
0.000000 0.609375 moveto
/O glyphshow

11.806641 0.609375 moveto
/u glyphshow

21.313477 0.609375 moveto
/r glyphshow

27.480469 0.609375 moveto
/s glyphshow

35.295410 0.609375 moveto
/comma glyphshow

40.063477 0.609375 moveto
/space glyphshow

44.831543 0.609375 moveto
/seven glyphshow

54.375000 0.609375 moveto
/period glyphshow

59.143066 0.609375 moveto
/five glyphshow

/DejaVuSans-Oblique findfont
15.0 scalefont
setfont
68.686523 0.609375 moveto
/delta glyphshow

77.863770 0.609375 moveto
/t glyphshow

/DejaVuSans findfont
15.0 scalefont
setfont
83.745117 0.609375 moveto
/comma glyphshow

88.513184 0.609375 moveto
/space glyphshow

93.281250 0.609375 moveto
/P glyphshow

102.326660 0.609375 moveto
/a glyphshow

111.518555 0.609375 moveto
/r glyphshow

117.685547 0.609375 moveto
/t glyphshow

123.566895 0.609375 moveto
/i glyphshow

127.734375 0.609375 moveto
/c glyphshow

135.981445 0.609375 moveto
/l glyphshow

140.148926 0.609375 moveto
/e glyphshow

149.377441 0.609375 moveto
/s glyphshow


grestore
3.000 setlinewidth
1 setlinejoin
2 setlinecap
1.000 0.000 0.000 setrgbcolor
gsave
128.86 374.474375 m
158.86 374.474375 l
stroke
grestore
1.000 setlinewidth
0 setlinecap
gsave
/o {
gsave
newpath
translate
1.0 setlinewidth
1 setlinejoin
0 setlinecap
0 -10 m
2.652031 -10 5.195799 -8.946337 7.071068 -7.071068 c
8.946337 -5.195799 10 -2.652031 10 0 c
10 2.652031 8.946337 5.195799 7.071068 7.071068 c
5.195799 8.946337 2.652031 10 0 10 c
-2.652031 10 -5.195799 8.946337 -7.071068 7.071068 c
-8.946337 5.195799 -10 2.652031 -10 0 c
-10 -2.652031 -8.946337 -5.195799 -7.071068 -7.071068 c
-5.195799 -8.946337 -2.652031 -10 0 -10 c
cl

gsave
grestore
stroke
grestore
} bind def
143.86 374.474 o
grestore
0.000 setgray
gsave
170.860000 369.224375 translate
0.000000 rotate
/DejaVuSans findfont
15.0 scalefont
setfont
0.000000 0.609375 moveto
/S glyphshow

9.521484 0.609375 moveto
/T glyphshow

18.684082 0.609375 moveto
/B glyphshow

28.974609 0.609375 moveto
/comma glyphshow

33.742676 0.609375 moveto
/space glyphshow

38.510742 0.609375 moveto
/one glyphshow

48.054199 0.609375 moveto
/five glyphshow

/DejaVuSans-Oblique findfont
15.0 scalefont
setfont
57.597656 0.609375 moveto
/delta glyphshow

66.774902 0.609375 moveto
/t glyphshow

/DejaVuSans findfont
15.0 scalefont
setfont
72.656250 0.609375 moveto
/comma glyphshow

77.424316 0.609375 moveto
/space glyphshow

82.192383 0.609375 moveto
/T glyphshow

91.354980 0.609375 moveto
/r glyphshow

97.521973 0.609375 moveto
/a glyphshow

106.713867 0.609375 moveto
/c glyphshow

114.960938 0.609375 moveto
/k glyphshow

123.647461 0.609375 moveto
/s glyphshow


grestore
3.000 setlinewidth
[11.1 4.8] 0 setdash
1.000 0.000 0.000 setrgbcolor
gsave
128.86 352.45875 m
158.86 352.45875 l
stroke
grestore
1.000 setlinewidth
[] 0 setdash
gsave
/o {
gsave
newpath
translate
1.0 setlinewidth
1 setlinejoin
0 setlinecap
0 -10 m
2.652031 -10 5.195799 -8.946337 7.071068 -7.071068 c
8.946337 -5.195799 10 -2.652031 10 0 c
10 2.652031 8.946337 5.195799 7.071068 7.071068 c
5.195799 8.946337 2.652031 10 0 10 c
-2.652031 10 -5.195799 8.946337 -7.071068 7.071068 c
-8.946337 5.195799 -10 2.652031 -10 0 c
-10 -2.652031 -8.946337 -5.195799 -7.071068 -7.071068 c
-5.195799 -8.946337 -2.652031 -10 0 -10 c
cl

gsave
grestore
stroke
grestore
} bind def
143.86 352.459 o
grestore
0.000 setgray
gsave
170.860000 347.208750 translate
0.000000 rotate
/DejaVuSans findfont
15.0 scalefont
setfont
0.000000 0.609375 moveto
/S glyphshow

9.521484 0.609375 moveto
/T glyphshow

18.684082 0.609375 moveto
/B glyphshow

28.974609 0.609375 moveto
/comma glyphshow

33.742676 0.609375 moveto
/space glyphshow

38.510742 0.609375 moveto
/one glyphshow

48.054199 0.609375 moveto
/five glyphshow

/DejaVuSans-Oblique findfont
15.0 scalefont
setfont
57.597656 0.609375 moveto
/delta glyphshow

66.774902 0.609375 moveto
/t glyphshow

/DejaVuSans findfont
15.0 scalefont
setfont
72.656250 0.609375 moveto
/comma glyphshow

77.424316 0.609375 moveto
/space glyphshow

82.192383 0.609375 moveto
/P glyphshow

91.237793 0.609375 moveto
/a glyphshow

100.429688 0.609375 moveto
/r glyphshow

106.596680 0.609375 moveto
/t glyphshow

112.478027 0.609375 moveto
/i glyphshow

116.645508 0.609375 moveto
/c glyphshow

124.892578 0.609375 moveto
/l glyphshow

129.060059 0.609375 moveto
/e glyphshow

138.288574 0.609375 moveto
/s glyphshow


grestore
3.000 setlinewidth
2 setlinecap
0.000 0.000 1.000 setrgbcolor
gsave
128.86 330.443125 m
158.86 330.443125 l
stroke
grestore
1.000 setlinewidth
0 setlinecap
gsave
/o {
gsave
newpath
translate
1.0 setlinewidth
1 setlinejoin
0 setlinecap
0 -10 m
2.652031 -10 5.195799 -8.946337 7.071068 -7.071068 c
8.946337 -5.195799 10 -2.652031 10 0 c
10 2.652031 8.946337 5.195799 7.071068 7.071068 c
5.195799 8.946337 2.652031 10 0 10 c
-2.652031 10 -5.195799 8.946337 -7.071068 7.071068 c
-8.946337 5.195799 -10 2.652031 -10 0 c
-10 -2.652031 -8.946337 -5.195799 -7.071068 -7.071068 c
-5.195799 -8.946337 -2.652031 -10 0 -10 c
cl

gsave
grestore
stroke
grestore
} bind def
143.86 330.443 o
grestore
0.000 setgray
gsave
170.860000 325.193125 translate
0.000000 rotate
/DejaVuSans findfont
15.0 scalefont
setfont
0.000000 0.609375 moveto
/O glyphshow

11.806641 0.609375 moveto
/u glyphshow

21.313477 0.609375 moveto
/r glyphshow

27.480469 0.609375 moveto
/s glyphshow

35.295410 0.609375 moveto
/comma glyphshow

40.063477 0.609375 moveto
/space glyphshow

44.831543 0.609375 moveto
/one glyphshow

54.375000 0.609375 moveto
/five glyphshow

/DejaVuSans-Oblique findfont
15.0 scalefont
setfont
63.918457 0.609375 moveto
/delta glyphshow

73.095703 0.609375 moveto
/t glyphshow

/DejaVuSans findfont
15.0 scalefont
setfont
78.977051 0.609375 moveto
/comma glyphshow

83.745117 0.609375 moveto
/space glyphshow

88.513184 0.609375 moveto
/T glyphshow

97.675781 0.609375 moveto
/r glyphshow

103.842773 0.609375 moveto
/a glyphshow

113.034668 0.609375 moveto
/c glyphshow

121.281738 0.609375 moveto
/k glyphshow

129.968262 0.609375 moveto
/s glyphshow


grestore
3.000 setlinewidth
[11.1 4.8] 0 setdash
0.000 0.000 1.000 setrgbcolor
gsave
128.86 308.4275 m
158.86 308.4275 l
stroke
grestore
1.000 setlinewidth
[] 0 setdash
gsave
/o {
gsave
newpath
translate
1.0 setlinewidth
1 setlinejoin
0 setlinecap
0 -10 m
2.652031 -10 5.195799 -8.946337 7.071068 -7.071068 c
8.946337 -5.195799 10 -2.652031 10 0 c
10 2.652031 8.946337 5.195799 7.071068 7.071068 c
5.195799 8.946337 2.652031 10 0 10 c
-2.652031 10 -5.195799 8.946337 -7.071068 7.071068 c
-8.946337 5.195799 -10 2.652031 -10 0 c
-10 -2.652031 -8.946337 -5.195799 -7.071068 -7.071068 c
-5.195799 -8.946337 -2.652031 -10 0 -10 c
cl

gsave
grestore
stroke
grestore
} bind def
143.86 308.428 o
grestore
0.000 setgray
gsave
170.860000 303.177500 translate
0.000000 rotate
/DejaVuSans findfont
15.0 scalefont
setfont
0.000000 0.609375 moveto
/O glyphshow

11.806641 0.609375 moveto
/u glyphshow

21.313477 0.609375 moveto
/r glyphshow

27.480469 0.609375 moveto
/s glyphshow

35.295410 0.609375 moveto
/comma glyphshow

40.063477 0.609375 moveto
/space glyphshow

44.831543 0.609375 moveto
/one glyphshow

54.375000 0.609375 moveto
/five glyphshow

/DejaVuSans-Oblique findfont
15.0 scalefont
setfont
63.918457 0.609375 moveto
/delta glyphshow

73.095703 0.609375 moveto
/t glyphshow

/DejaVuSans findfont
15.0 scalefont
setfont
78.977051 0.609375 moveto
/comma glyphshow

83.745117 0.609375 moveto
/space glyphshow

88.513184 0.609375 moveto
/P glyphshow

97.558594 0.609375 moveto
/a glyphshow

106.750488 0.609375 moveto
/r glyphshow

112.917480 0.609375 moveto
/t glyphshow

118.798828 0.609375 moveto
/i glyphshow

122.966309 0.609375 moveto
/c glyphshow

131.213379 0.609375 moveto
/l glyphshow

135.380859 0.609375 moveto
/e glyphshow

144.609375 0.609375 moveto
/s glyphshow


grestore

end
showpage
