%!PS-Adobe-3.0 EPSF-3.0
%%Title: /Users/yin.yang/Documents/err_res_snap.eps
%%Creator: matplotlib version 2.0.2, http://matplotlib.org/
%%CreationDate: Wed Mar 28 14:02:00 2018
%%Orientation: portrait
%%BoundingBox: 75 223 536 568
%%EndComments
%%BeginProlog
/mpldict 8 dict def
mpldict begin
/m { moveto } bind def
/l { lineto } bind def
/r { rlineto } bind def
/c { curveto } bind def
/cl { closepath } bind def
/box {
m
1 index 0 r
0 exch r
neg 0 r
cl
} bind def
/clipbox {
box
clip
newpath
} bind def
%!PS-Adobe-3.0 Resource-Font
%%Title: DejaVu Sans
%%Copyright: Copyright (c) 2003 by Bitstream, Inc. All Rights Reserved. Copyright (c) 2006 by Tavmjong Bah. All Rights Reserved. DejaVu changes are in public domain 
%%Creator: Converted from TrueType to type 3 by PPR
25 dict begin
/_d{bind def}bind def
/_m{moveto}_d
/_l{lineto}_d
/_cl{closepath eofill}_d
/_c{curveto}_d
/_sc{7 -1 roll{setcachedevice}{pop pop pop pop pop pop}ifelse}_d
/_e{exec}_d
/FontName /DejaVuSans def
/PaintType 0 def
/FontMatrix[.001 0 0 .001 0 0]def
/FontBBox[-1021 -463 1793 1232]def
/FontType 3 def
/Encoding [ /space /comma /period /zero /one /two /three /five /seven /E /M /P /S /a /b /d /e /h /i /l /n /o /p /r /s /t /u /x ] def
/FontInfo 10 dict dup begin
/FamilyName (DejaVu Sans) def
/FullName (DejaVu Sans) def
/Notice (Copyright (c) 2003 by Bitstream, Inc. All Rights Reserved. Copyright (c) 2006 by Tavmjong Bah. All Rights Reserved. DejaVu changes are in public domain ) def
/Weight (Book) def
/Version (Version 2.35) def
/ItalicAngle 0.0 def
/isFixedPitch false def
/UnderlinePosition -130 def
/UnderlineThickness 90 def
end readonly def
/CharStrings 28 dict dup begin
/space{318 0 0 0 0 0 _sc
}_d
/comma{318 0 77 -115 220 124 _sc
117 124 _m
220 124 _l
220 40 _l
140 -115 _l
77 -115 _l
117 40 _l
117 124 _l
_cl}_d
/period{318 0 107 0 210 124 _sc
107 124 _m
210 124 _l
210 0 _l
107 0 _l
107 124 _l
_cl}_d
/zero{636 0 66 -13 570 742 _sc
318 664 _m
267 664 229 639 203 589 _c
177 539 165 464 165 364 _c
165 264 177 189 203 139 _c
229 89 267 64 318 64 _c
369 64 407 89 433 139 _c
458 189 471 264 471 364 _c
471 464 458 539 433 589 _c
407 639 369 664 318 664 _c
318 742 _m
399 742 461 709 505 645 _c
548 580 570 486 570 364 _c
570 241 548 147 505 83 _c
461 19 399 -13 318 -13 _c
236 -13 173 19 130 83 _c
87 147 66 241 66 364 _c
66 486 87 580 130 645 _c
173 709 236 742 318 742 _c
_cl}_d
/one{636 0 110 0 544 729 _sc
124 83 _m
285 83 _l
285 639 _l
110 604 _l
110 694 _l
284 729 _l
383 729 _l
383 83 _l
544 83 _l
544 0 _l
124 0 _l
124 83 _l
_cl}_d
/two{{636 0 73 0 536 742 _sc
192 83 _m
536 83 _l
536 0 _l
73 0 _l
73 83 _l
110 121 161 173 226 239 _c
290 304 331 346 348 365 _c
380 400 402 430 414 455 _c
426 479 433 504 433 528 _c
433 566 419 598 392 622 _c
365 646 330 659 286 659 _c
255 659 222 653 188 643 _c
154 632 117 616 78 594 _c
78 694 _l
118 710 155 722 189 730 _c
223 738 255 742 284 742 _c
}_e{359 742 419 723 464 685 _c
509 647 532 597 532 534 _c
532 504 526 475 515 449 _c
504 422 484 390 454 354 _c
446 344 420 317 376 272 _c
332 227 271 164 192 83 _c
_cl}_e}_d
/three{{636 0 76 -13 556 742 _sc
406 393 _m
453 383 490 362 516 330 _c
542 298 556 258 556 212 _c
556 140 531 84 482 45 _c
432 6 362 -13 271 -13 _c
240 -13 208 -10 176 -4 _c
144 1 110 10 76 22 _c
76 117 _l
103 101 133 89 166 81 _c
198 73 232 69 268 69 _c
330 69 377 81 409 105 _c
441 129 458 165 458 212 _c
458 254 443 288 413 312 _c
383 336 341 349 287 349 _c
}_e{202 349 _l
202 430 _l
291 430 _l
339 430 376 439 402 459 _c
428 478 441 506 441 543 _c
441 580 427 609 401 629 _c
374 649 336 659 287 659 _c
260 659 231 656 200 650 _c
169 644 135 635 98 623 _c
98 711 _l
135 721 170 729 203 734 _c
235 739 266 742 296 742 _c
370 742 429 725 473 691 _c
517 657 539 611 539 553 _c
539 513 527 479 504 451 _c
481 423 448 403 406 393 _c
_cl}_e}_d
/five{{636 0 77 -13 549 729 _sc
108 729 _m
495 729 _l
495 646 _l
198 646 _l
198 467 _l
212 472 227 476 241 478 _c
255 480 270 482 284 482 _c
365 482 429 459 477 415 _c
525 370 549 310 549 234 _c
549 155 524 94 475 51 _c
426 8 357 -13 269 -13 _c
238 -13 207 -10 175 -6 _c
143 -1 111 6 77 17 _c
77 116 _l
106 100 136 88 168 80 _c
199 72 232 69 267 69 _c
}_e{323 69 368 83 401 113 _c
433 143 450 183 450 234 _c
450 284 433 324 401 354 _c
368 384 323 399 267 399 _c
241 399 214 396 188 390 _c
162 384 135 375 108 363 _c
108 729 _l
_cl}_e}_d
/seven{636 0 82 0 551 729 _sc
82 729 _m
551 729 _l
551 687 _l
286 0 _l
183 0 _l
432 646 _l
82 646 _l
82 729 _l
_cl}_d
/E{632 0 98 0 568 729 _sc
98 729 _m
559 729 _l
559 646 _l
197 646 _l
197 430 _l
544 430 _l
544 347 _l
197 347 _l
197 83 _l
568 83 _l
568 0 _l
98 0 _l
98 729 _l
_cl}_d
/M{863 0 98 0 765 729 _sc
98 729 _m
245 729 _l
431 233 _l
618 729 _l
765 729 _l
765 0 _l
669 0 _l
669 640 _l
481 140 _l
382 140 _l
194 640 _l
194 0 _l
98 0 _l
98 729 _l
_cl}_d
/P{603 0 98 0 569 729 _sc
197 648 _m
197 374 _l
321 374 _l
367 374 402 385 427 409 _c
452 433 465 467 465 511 _c
465 555 452 588 427 612 _c
402 636 367 648 321 648 _c
197 648 _l
98 729 _m
321 729 _l
402 729 464 710 506 673 _c
548 636 569 582 569 511 _c
569 439 548 384 506 348 _c
464 311 402 293 321 293 _c
197 293 _l
197 0 _l
98 0 _l
98 729 _l
_cl}_d
/S{{635 0 66 -13 579 742 _sc
535 705 _m
535 609 _l
497 627 462 640 429 649 _c
395 657 363 662 333 662 _c
279 662 237 651 208 631 _c
179 610 165 580 165 542 _c
165 510 174 485 194 469 _c
213 452 250 439 304 429 _c
364 417 _l
437 403 491 378 526 343 _c
561 307 579 260 579 201 _c
579 130 555 77 508 41 _c
460 5 391 -13 300 -13 _c
265 -13 228 -9 189 -2 _c
}_e{150 5 110 16 69 32 _c
69 134 _l
109 111 148 94 186 83 _c
224 71 262 66 300 66 _c
356 66 399 77 430 99 _c
460 121 476 152 476 194 _c
476 230 465 258 443 278 _c
421 298 385 313 335 323 _c
275 335 _l
201 349 148 372 115 404 _c
82 435 66 478 66 534 _c
66 598 88 649 134 686 _c
179 723 242 742 322 742 _c
356 742 390 739 426 733 _c
461 727 497 717 535 705 _c
}_e{_cl}_e}_d
/a{{613 0 60 -13 522 560 _sc
343 275 _m
270 275 220 266 192 250 _c
164 233 150 205 150 165 _c
150 133 160 107 181 89 _c
202 70 231 61 267 61 _c
317 61 357 78 387 114 _c
417 149 432 196 432 255 _c
432 275 _l
343 275 _l
522 312 _m
522 0 _l
432 0 _l
432 83 _l
411 49 385 25 355 10 _c
325 -5 287 -13 243 -13 _c
187 -13 142 2 109 33 _c
76 64 60 106 60 159 _c
}_e{60 220 80 266 122 298 _c
163 329 224 345 306 345 _c
432 345 _l
432 354 _l
432 395 418 427 391 450 _c
364 472 326 484 277 484 _c
245 484 215 480 185 472 _c
155 464 127 453 100 439 _c
100 522 _l
132 534 164 544 195 550 _c
226 556 256 560 286 560 _c
365 560 424 539 463 498 _c
502 457 522 395 522 312 _c
_cl}_e}_d
/b{{635 0 91 -13 580 760 _sc
487 273 _m
487 339 473 390 446 428 _c
418 466 381 485 334 485 _c
286 485 249 466 222 428 _c
194 390 181 339 181 273 _c
181 207 194 155 222 117 _c
249 79 286 61 334 61 _c
381 61 418 79 446 117 _c
473 155 487 207 487 273 _c
181 464 _m
199 496 223 520 252 536 _c
281 552 316 560 356 560 _c
422 560 476 533 518 481 _c
559 428 580 359 580 273 _c
}_e{580 187 559 117 518 65 _c
476 13 422 -13 356 -13 _c
316 -13 281 -5 252 10 _c
223 25 199 49 181 82 _c
181 0 _l
91 0 _l
91 760 _l
181 760 _l
181 464 _l
_cl}_e}_d
/d{{635 0 55 -13 544 760 _sc
454 464 _m
454 760 _l
544 760 _l
544 0 _l
454 0 _l
454 82 _l
435 49 411 25 382 10 _c
353 -5 319 -13 279 -13 _c
213 -13 159 13 117 65 _c
75 117 55 187 55 273 _c
55 359 75 428 117 481 _c
159 533 213 560 279 560 _c
319 560 353 552 382 536 _c
411 520 435 496 454 464 _c
148 273 _m
148 207 161 155 188 117 _c
215 79 253 61 301 61 _c
}_e{348 61 385 79 413 117 _c
440 155 454 207 454 273 _c
454 339 440 390 413 428 _c
385 466 348 485 301 485 _c
253 485 215 466 188 428 _c
161 390 148 339 148 273 _c
_cl}_e}_d
/e{{615 0 55 -13 562 560 _sc
562 296 _m
562 252 _l
149 252 _l
153 190 171 142 205 110 _c
238 78 284 62 344 62 _c
378 62 412 66 444 74 _c
476 82 509 95 541 113 _c
541 28 _l
509 14 476 3 442 -3 _c
408 -9 373 -13 339 -13 _c
251 -13 182 12 131 62 _c
80 112 55 181 55 268 _c
55 357 79 428 127 481 _c
175 533 241 560 323 560 _c
397 560 455 536 498 489 _c
}_e{540 441 562 377 562 296 _c
472 322 _m
471 371 457 410 431 440 _c
404 469 368 484 324 484 _c
274 484 234 469 204 441 _c
174 413 156 373 152 322 _c
472 322 _l
_cl}_e}_d
/h{634 0 91 0 549 760 _sc
549 330 _m
549 0 _l
459 0 _l
459 327 _l
459 379 448 417 428 443 _c
408 469 378 482 338 482 _c
289 482 251 466 223 435 _c
195 404 181 362 181 309 _c
181 0 _l
91 0 _l
91 760 _l
181 760 _l
181 462 _l
202 494 227 519 257 535 _c
286 551 320 560 358 560 _c
420 560 468 540 500 501 _c
532 462 549 405 549 330 _c
_cl}_d
/i{278 0 94 0 184 760 _sc
94 547 _m
184 547 _l
184 0 _l
94 0 _l
94 547 _l
94 760 _m
184 760 _l
184 646 _l
94 646 _l
94 760 _l
_cl}_d
/l{278 0 94 0 184 760 _sc
94 760 _m
184 760 _l
184 0 _l
94 0 _l
94 760 _l
_cl}_d
/n{634 0 91 0 549 560 _sc
549 330 _m
549 0 _l
459 0 _l
459 327 _l
459 379 448 417 428 443 _c
408 469 378 482 338 482 _c
289 482 251 466 223 435 _c
195 404 181 362 181 309 _c
181 0 _l
91 0 _l
91 547 _l
181 547 _l
181 462 _l
202 494 227 519 257 535 _c
286 551 320 560 358 560 _c
420 560 468 540 500 501 _c
532 462 549 405 549 330 _c
_cl}_d
/o{612 0 55 -13 557 560 _sc
306 484 _m
258 484 220 465 192 427 _c
164 389 150 338 150 273 _c
150 207 163 156 191 118 _c
219 80 257 62 306 62 _c
354 62 392 80 420 118 _c
448 156 462 207 462 273 _c
462 337 448 389 420 427 _c
392 465 354 484 306 484 _c
306 560 _m
384 560 445 534 490 484 _c
534 433 557 363 557 273 _c
557 183 534 113 490 63 _c
445 12 384 -13 306 -13 _c
227 -13 165 12 121 63 _c
77 113 55 183 55 273 _c
55 363 77 433 121 484 _c
165 534 227 560 306 560 _c
_cl}_d
/p{{635 0 91 -207 580 560 _sc
181 82 _m
181 -207 _l
91 -207 _l
91 547 _l
181 547 _l
181 464 _l
199 496 223 520 252 536 _c
281 552 316 560 356 560 _c
422 560 476 533 518 481 _c
559 428 580 359 580 273 _c
580 187 559 117 518 65 _c
476 13 422 -13 356 -13 _c
316 -13 281 -5 252 10 _c
223 25 199 49 181 82 _c
487 273 _m
487 339 473 390 446 428 _c
418 466 381 485 334 485 _c
}_e{286 485 249 466 222 428 _c
194 390 181 339 181 273 _c
181 207 194 155 222 117 _c
249 79 286 61 334 61 _c
381 61 418 79 446 117 _c
473 155 487 207 487 273 _c
_cl}_e}_d
/r{411 0 91 0 411 560 _sc
411 463 _m
401 469 390 473 378 476 _c
366 478 353 480 339 480 _c
288 480 249 463 222 430 _c
194 397 181 350 181 288 _c
181 0 _l
91 0 _l
91 547 _l
181 547 _l
181 462 _l
199 495 224 520 254 536 _c
284 552 321 560 365 560 _c
371 560 378 559 386 559 _c
393 558 401 557 411 555 _c
411 463 _l
_cl}_d
/s{{521 0 54 -13 472 560 _sc
443 531 _m
443 446 _l
417 458 391 468 364 475 _c
336 481 308 485 279 485 _c
234 485 200 478 178 464 _c
156 450 145 430 145 403 _c
145 382 153 366 169 354 _c
185 342 217 330 265 320 _c
296 313 _l
360 299 405 279 432 255 _c
458 230 472 195 472 151 _c
472 100 452 60 412 31 _c
372 1 316 -13 246 -13 _c
216 -13 186 -10 154 -5 _c
}_e{122 0 89 8 54 20 _c
54 113 _l
87 95 120 82 152 74 _c
184 65 216 61 248 61 _c
290 61 323 68 346 82 _c
368 96 380 117 380 144 _c
380 168 371 187 355 200 _c
339 213 303 226 247 238 _c
216 245 _l
160 257 119 275 95 299 _c
70 323 58 356 58 399 _c
58 450 76 490 112 518 _c
148 546 200 560 268 560 _c
301 560 332 557 362 552 _c
391 547 418 540 443 531 _c
}_e{_cl}_e}_d
/t{392 0 27 0 368 702 _sc
183 702 _m
183 547 _l
368 547 _l
368 477 _l
183 477 _l
183 180 _l
183 135 189 106 201 94 _c
213 81 238 75 276 75 _c
368 75 _l
368 0 _l
276 0 _l
206 0 158 13 132 39 _c
106 65 93 112 93 180 _c
93 477 _l
27 477 _l
27 547 _l
93 547 _l
93 702 _l
183 702 _l
_cl}_d
/u{634 0 85 -13 543 560 _sc
85 216 _m
85 547 _l
175 547 _l
175 219 _l
175 167 185 129 205 103 _c
225 77 255 64 296 64 _c
344 64 383 79 411 110 _c
439 141 453 183 453 237 _c
453 547 _l
543 547 _l
543 0 _l
453 0 _l
453 84 _l
431 50 405 26 377 10 _c
348 -5 315 -13 277 -13 _c
214 -13 166 6 134 45 _c
101 83 85 140 85 216 _c
311 560 _m
311 560 _l
_cl}_d
/x{592 0 29 0 559 547 _sc
549 547 _m
351 281 _l
559 0 _l
453 0 _l
294 215 _l
135 0 _l
29 0 _l
241 286 _l
47 547 _l
153 547 _l
298 352 _l
443 547 _l
549 547 _l
_cl}_d
end readonly def

/BuildGlyph
 {exch begin
 CharStrings exch
 2 copy known not{pop /.notdef}if
 true 3 1 roll get exec
 end}_d

/BuildChar {
 1 index /Encoding get exch get
 1 index /BuildGlyph get exec
}_d

FontName currentdict end definefont pop
end
%%EndProlog
mpldict begin
75.6 223.2 translate
460.8 345.6 0 0 clipbox
gsave
0 0 m
460.8 0 l
460.8 345.6 l
0 345.6 l
cl
1.000 setgray
fill
grestore
gsave
57.6 38.016 m
307.584 38.016 l
307.584 304.128 l
57.6 304.128 l
cl
1.000 setgray
fill
grestore
0.800 setlinewidth
1 setlinejoin
0 setlinecap
[] 0 setdash
0.000 setgray
gsave
/o {
gsave
newpath
translate
0.8 setlinewidth
1 setlinejoin
0 setlinecap
0 0 m
0 -3.5 l

gsave
0.000 setgray
fill
grestore
stroke
grestore
} bind def
68.9629 38.016 o
grestore
/DejaVuSans findfont
10.000 scalefont
setfont
gsave
62.603534 23.422250 translate
0.000000 rotate
0.000000 0.000000 m /one glyphshow
6.362305 0.000000 m /zero glyphshow
grestore
gsave
/o {
gsave
newpath
translate
0.8 setlinewidth
1 setlinejoin
0 setlinecap
0 0 m
0 -3.5 l

gsave
0.000 setgray
fill
grestore
stroke
grestore
} bind def
125.777 38.016 o
grestore
gsave
119.418080 23.422250 translate
0.000000 rotate
0.000000 0.000000 m /one glyphshow
6.362305 0.000000 m /five glyphshow
grestore
gsave
/o {
gsave
newpath
translate
0.8 setlinewidth
1 setlinejoin
0 setlinecap
0 0 m
0 -3.5 l

gsave
0.000 setgray
fill
grestore
stroke
grestore
} bind def
182.592 38.016 o
grestore
gsave
176.232625 23.422250 translate
0.000000 rotate
0.000000 0.000000 m /two glyphshow
6.362305 0.000000 m /zero glyphshow
grestore
gsave
/o {
gsave
newpath
translate
0.8 setlinewidth
1 setlinejoin
0 setlinecap
0 0 m
0 -3.5 l

gsave
0.000 setgray
fill
grestore
stroke
grestore
} bind def
239.407 38.016 o
grestore
gsave
233.047170 23.422250 translate
0.000000 rotate
0.000000 0.000000 m /two glyphshow
6.362305 0.000000 m /five glyphshow
grestore
gsave
/o {
gsave
newpath
translate
0.8 setlinewidth
1 setlinejoin
0 setlinecap
0 0 m
0 -3.5 l

gsave
0.000 setgray
fill
grestore
stroke
grestore
} bind def
296.221 38.016 o
grestore
gsave
289.861716 23.422250 translate
0.000000 rotate
0.000000 0.000000 m /three glyphshow
6.362305 0.000000 m /zero glyphshow
grestore
gsave
156.599813 9.750375 translate
0.000000 rotate
0.000000 0.000000 m /S glyphshow
6.347656 0.000000 m /n glyphshow
12.685547 0.000000 m /a glyphshow
18.813477 0.000000 m /p glyphshow
25.161133 0.000000 m /s glyphshow
30.371094 0.000000 m /h glyphshow
36.708984 0.000000 m /o glyphshow
42.827148 0.000000 m /t glyphshow
46.748047 0.000000 m /s glyphshow
grestore
gsave
/o {
gsave
newpath
translate
0.8 setlinewidth
1 setlinejoin
0 setlinecap
0 0 m
-3.5 0 l

gsave
0.000 setgray
fill
grestore
stroke
grestore
} bind def
57.6 49.2884 o
grestore
gsave
21.975000 45.491515 translate
0.000000 rotate
0.000000 0.000000 m /zero glyphshow
6.362305 0.000000 m /period glyphshow
9.541016 0.000000 m /zero glyphshow
15.903320 0.000000 m /zero glyphshow
22.265625 0.000000 m /zero glyphshow
grestore
gsave
/o {
gsave
newpath
translate
0.8 setlinewidth
1 setlinejoin
0 setlinecap
0 0 m
-3.5 0 l

gsave
0.000 setgray
fill
grestore
stroke
grestore
} bind def
57.6 80.2906 o
grestore
gsave
21.975000 76.493748 translate
0.000000 rotate
0.000000 0.000000 m /zero glyphshow
6.362305 0.000000 m /period glyphshow
9.541016 0.000000 m /zero glyphshow
15.903320 0.000000 m /two glyphshow
22.265625 0.000000 m /five glyphshow
grestore
gsave
/o {
gsave
newpath
translate
0.8 setlinewidth
1 setlinejoin
0 setlinecap
0 0 m
-3.5 0 l

gsave
0.000 setgray
fill
grestore
stroke
grestore
} bind def
57.6 111.293 o
grestore
gsave
21.975000 107.495980 translate
0.000000 rotate
0.000000 0.000000 m /zero glyphshow
6.362305 0.000000 m /period glyphshow
9.541016 0.000000 m /zero glyphshow
15.903320 0.000000 m /five glyphshow
22.265625 0.000000 m /zero glyphshow
grestore
gsave
/o {
gsave
newpath
translate
0.8 setlinewidth
1 setlinejoin
0 setlinecap
0 0 m
-3.5 0 l

gsave
0.000 setgray
fill
grestore
stroke
grestore
} bind def
57.6 142.295 o
grestore
gsave
21.975000 138.498212 translate
0.000000 rotate
0.000000 0.000000 m /zero glyphshow
6.362305 0.000000 m /period glyphshow
9.541016 0.000000 m /zero glyphshow
15.903320 0.000000 m /seven glyphshow
22.265625 0.000000 m /five glyphshow
grestore
gsave
/o {
gsave
newpath
translate
0.8 setlinewidth
1 setlinejoin
0 setlinecap
0 0 m
-3.5 0 l

gsave
0.000 setgray
fill
grestore
stroke
grestore
} bind def
57.6 173.297 o
grestore
gsave
21.975000 169.500444 translate
0.000000 rotate
0.000000 0.000000 m /zero glyphshow
6.362305 0.000000 m /period glyphshow
9.541016 0.000000 m /one glyphshow
15.903320 0.000000 m /zero glyphshow
22.265625 0.000000 m /zero glyphshow
grestore
gsave
/o {
gsave
newpath
translate
0.8 setlinewidth
1 setlinejoin
0 setlinecap
0 0 m
-3.5 0 l

gsave
0.000 setgray
fill
grestore
stroke
grestore
} bind def
57.6 204.3 o
grestore
gsave
21.975000 200.502677 translate
0.000000 rotate
0.000000 0.000000 m /zero glyphshow
6.362305 0.000000 m /period glyphshow
9.541016 0.000000 m /one glyphshow
15.903320 0.000000 m /two glyphshow
22.265625 0.000000 m /five glyphshow
grestore
gsave
/o {
gsave
newpath
translate
0.8 setlinewidth
1 setlinejoin
0 setlinecap
0 0 m
-3.5 0 l

gsave
0.000 setgray
fill
grestore
stroke
grestore
} bind def
57.6 235.302 o
grestore
gsave
21.975000 231.504909 translate
0.000000 rotate
0.000000 0.000000 m /zero glyphshow
6.362305 0.000000 m /period glyphshow
9.541016 0.000000 m /one glyphshow
15.903320 0.000000 m /five glyphshow
22.265625 0.000000 m /zero glyphshow
grestore
gsave
/o {
gsave
newpath
translate
0.8 setlinewidth
1 setlinejoin
0 setlinecap
0 0 m
-3.5 0 l

gsave
0.000 setgray
fill
grestore
stroke
grestore
} bind def
57.6 266.304 o
grestore
gsave
21.975000 262.507141 translate
0.000000 rotate
0.000000 0.000000 m /zero glyphshow
6.362305 0.000000 m /period glyphshow
9.541016 0.000000 m /one glyphshow
15.903320 0.000000 m /seven glyphshow
22.265625 0.000000 m /five glyphshow
grestore
gsave
/o {
gsave
newpath
translate
0.8 setlinewidth
1 setlinejoin
0 setlinecap
0 0 m
-3.5 0 l

gsave
0.000 setgray
fill
grestore
stroke
grestore
} bind def
57.6 297.306 o
grestore
gsave
21.975000 293.509373 translate
0.000000 rotate
0.000000 0.000000 m /zero glyphshow
6.362305 0.000000 m /period glyphshow
9.541016 0.000000 m /two glyphshow
15.903320 0.000000 m /zero glyphshow
22.265625 0.000000 m /zero glyphshow
grestore
gsave
15.896875 159.236062 translate
90.000000 rotate
0.000000 0.000000 m /P glyphshow
6.030273 0.000000 m /i glyphshow
8.808594 0.000000 m /x glyphshow
14.726562 0.000000 m /e glyphshow
20.878906 0.000000 m /l glyphshow
grestore
2.000 setlinewidth
2 setlinecap
1.000 0.000 0.000 setrgbcolor
gsave
250 266.1 57.6 38.02 clipbox
57.6 279.975443 m
68.962909 67.902751 l
80.325818 75.680277 l
91.688727 76.196251 l
103.051636 75.892241 l
114.414545 76.332961 l
125.777455 75.822065 l
137.140364 76.045719 l
148.503273 76.145764 l
159.866182 76.22273 l
171.229091 76.267567 l
182.592 75.721888 l
193.954909 75.786785 l
205.317818 76.064151 l
216.680727 75.993283 l
228.043636 76.075382 l
239.406545 75.573178 l
250.769455 75.680193 l
262.132364 75.35365 l
273.495273 75.332874 l
284.858182 75.349588 l
296.221091 74.800267 l
307.584 75.698636 l
stroke
grestore
0 setlinecap
[7.4 3.2] 0 setdash
gsave
250 266.1 57.6 38.02 clipbox
57.6 275.682399 m
68.962909 63.300455 l
80.325818 66.09068 l
91.688727 65.859401 l
103.051636 65.818169 l
114.414545 66.029349 l
125.777455 65.509484 l
137.140364 65.81399 l
148.503273 65.768533 l
159.866182 66.026799 l
171.229091 66.185867 l
182.592 66.09814 l
193.954909 65.644686 l
205.317818 65.359924 l
216.680727 65.202712 l
228.043636 65.612453 l
239.406545 65.237296 l
250.769455 65.60097 l
262.132364 65.816098 l
273.495273 65.771111 l
284.858182 65.787868 l
296.221091 65.486603 l
307.584 66.082845 l
stroke
grestore
0.750 0.000 0.750 setrgbcolor
gsave
250 266.1 57.6 38.02 clipbox
57.6 284.519974 m
68.962909 63.233367 l
80.325818 65.885465 l
91.688727 67.08312 l
103.051636 66.377099 l
114.414545 66.707199 l
125.777455 66.993793 l
137.140364 67.174716 l
148.503273 67.147839 l
159.866182 66.758949 l
171.229091 67.468449 l
182.592 67.481653 l
193.954909 67.823736 l
205.317818 67.405721 l
216.680727 67.394202 l
228.043636 67.458989 l
239.406545 67.915867 l
250.769455 67.775604 l
262.132364 67.745749 l
273.495273 67.893416 l
284.858182 67.132216 l
296.221091 67.330144 l
307.584 67.380407 l
stroke
grestore
[12.8 3.2 2 3.2] 0 setdash
1.000 0.000 0.000 setrgbcolor
gsave
250 266.1 57.6 38.02 clipbox
57.6 274.124591 m
68.962909 61.939591 l
80.325818 63.065512 l
91.688727 63.152001 l
103.051636 62.672015 l
114.414545 62.408165 l
125.777455 62.379939 l
137.140364 62.766884 l
148.503273 62.435377 l
159.866182 62.474559 l
171.229091 62.853398 l
182.592 62.694213 l
193.954909 62.985982 l
205.317818 61.873519 l
216.680727 62.402798 l
228.043636 62.189173 l
239.406545 62.103688 l
250.769455 62.626861 l
262.132364 63.142613 l
273.495273 62.359711 l
284.858182 62.257926 l
296.221091 62.695502 l
307.584 62.927106 l
stroke
grestore
[2 3.3] 0 setdash
gsave
250 266.1 57.6 38.02 clipbox
57.6 282.161909 m
68.962909 61.480935 l
80.325818 61.69253 l
91.688727 61.833214 l
103.051636 61.243667 l
114.414545 60.669801 l
125.777455 61.012198 l
137.140364 61.031295 l
148.503273 61.173411 l
159.866182 61.549492 l
171.229091 61.29441 l
182.592 61.204857 l
193.954909 61.155114 l
205.317818 60.81129 l
216.680727 61.546165 l
228.043636 60.953924 l
239.406545 60.992716 l
250.769455 61.46149 l
262.132364 60.895424 l
273.495273 61.92079 l
284.858182 61.392722 l
296.221091 61.000697 l
307.584 60.75557 l
stroke
grestore
0.750 0.000 0.750 setrgbcolor
gsave
250 266.1 57.6 38.02 clipbox
57.6 287.268659 m
68.962909 60.946016 l
80.325818 61.340939 l
91.688727 61.804492 l
103.051636 62.095518 l
114.414545 60.96386 l
125.777455 60.633694 l
137.140364 60.250193 l
148.503273 61.009187 l
159.866182 61.359209 l
171.229091 61.348252 l
182.592 61.216202 l
193.954909 61.686072 l
205.317818 61.194435 l
216.680727 61.307114 l
228.043636 61.187793 l
239.406545 61.917741 l
250.769455 61.023232 l
262.132364 61.10282 l
273.495273 60.899991 l
284.858182 61.723024 l
296.221091 60.948534 l
307.584 61.378804 l
stroke
grestore
2 setlinecap
[] 0 setdash
0.000 setgray
gsave
250 266.1 57.6 38.02 clipbox
57.6 280.459881 m
68.962909 55.226425 l
80.325818 56.98969 l
91.688727 57.891558 l
103.051636 58.438057 l
114.414545 59.358475 l
125.777455 59.650734 l
137.140364 59.833314 l
148.503273 59.756561 l
159.866182 59.959332 l
171.229091 60.161229 l
182.592 60.468499 l
193.954909 60.242598 l
205.317818 60.403369 l
216.680727 60.459801 l
228.043636 60.909725 l
239.406545 61.054418 l
250.769455 61.016318 l
262.132364 61.485486 l
273.495273 61.009991 l
284.858182 61.274533 l
296.221091 60.963586 l
307.584 61.861324 l
stroke
grestore
0 setlinecap
[7.4 3.2] 0 setdash
gsave
250 266.1 57.6 38.02 clipbox
57.6 275.7327 m
68.962909 52.060516 l
80.325818 52.640686 l
91.688727 53.132742 l
103.051636 53.176986 l
114.414545 53.451629 l
125.777455 53.323682 l
137.140364 53.206871 l
148.503273 53.400446 l
159.866182 53.70748 l
171.229091 53.752744 l
182.592 53.63883 l
193.954909 53.428354 l
205.317818 53.671165 l
216.680727 53.733149 l
228.043636 53.720479 l
239.406545 53.872403 l
250.769455 53.384596 l
262.132364 54.111516 l
273.495273 54.127196 l
284.858182 54.159652 l
296.221091 53.884034 l
307.584 54.391954 l
stroke
grestore
0.000 0.000 1.000 setrgbcolor
gsave
250 266.1 57.6 38.02 clipbox
57.6 285.783677 m
68.962909 52.461575 l
80.325818 52.953888 l
91.688727 53.880488 l
103.051636 53.460056 l
114.414545 53.893935 l
125.777455 54.186943 l
137.140364 54.588696 l
148.503273 54.780316 l
159.866182 54.748851 l
171.229091 55.010139 l
182.592 54.996151 l
193.954909 55.343672 l
205.317818 55.573236 l
216.680727 55.012465 l
228.043636 55.2172 l
239.406545 55.572381 l
250.769455 55.176532 l
262.132364 55.573555 l
273.495273 55.91725 l
284.858182 55.469844 l
296.221091 55.697213 l
307.584 56.022826 l
stroke
grestore
[12.8 3.2 2 3.2] 0 setdash
0.000 setgray
gsave
250 266.1 57.6 38.02 clipbox
57.6 274.01819 m
68.962909 50.917327 l
80.325818 51.00612 l
91.688727 51.202934 l
103.051636 51.05733 l
114.414545 50.961595 l
125.777455 51.116409 l
137.140364 51.006421 l
148.503273 51.226684 l
159.866182 51.249626 l
171.229091 51.203177 l
182.592 51.076383 l
193.954909 51.129867 l
205.317818 51.140765 l
216.680727 51.463796 l
228.043636 51.370437 l
239.406545 51.31849 l
250.769455 51.293466 l
262.132364 51.72308 l
273.495273 51.468667 l
284.858182 51.667299 l
296.221091 52.018488 l
307.584 52.019209 l
stroke
grestore
[2 3.3] 0 setdash
gsave
250 266.1 57.6 38.02 clipbox
57.6 281.817169 m
68.962909 50.345193 l
80.325818 50.298029 l
91.688727 50.416917 l
103.051636 50.138825 l
114.414545 50.223282 l
125.777455 50.29924 l
137.140364 50.195826 l
148.503273 50.436291 l
159.866182 50.171784 l
171.229091 50.282143 l
182.592 50.112 l
193.954909 50.151768 l
205.317818 50.166317 l
216.680727 50.156639 l
228.043636 50.190203 l
239.406545 50.196902 l
250.769455 50.231138 l
262.132364 50.142546 l
273.495273 50.478207 l
284.858182 50.849047 l
296.221091 50.324248 l
307.584 50.308673 l
stroke
grestore
0.000 0.000 1.000 setrgbcolor
gsave
250 266.1 57.6 38.02 clipbox
57.6 292.032 m
68.962909 50.321181 l
80.325818 50.753809 l
91.688727 50.507544 l
103.051636 50.179151 l
114.414545 51.100697 l
125.777455 50.116833 l
137.140364 50.359162 l
148.503273 50.631661 l
159.866182 51.516564 l
171.229091 51.812261 l
182.592 51.963635 l
193.954909 51.115121 l
205.317818 51.70524 l
216.680727 51.680308 l
228.043636 51.387972 l
239.406545 52.140835 l
250.769455 51.822952 l
262.132364 51.948279 l
273.495273 52.026902 l
284.858182 51.35782 l
296.221091 51.608422 l
307.584 51.538001 l
stroke
grestore
0.800 setlinewidth
0 setlinejoin
2 setlinecap
[] 0 setdash
0.000 setgray
gsave
57.6 38.016 m
57.6 304.128 l
stroke
grestore
gsave
307.584 38.016 m
307.584 304.128 l
stroke
grestore
gsave
57.6 38.016 m
307.584 38.016 l
stroke
grestore
gsave
57.6 304.128 m
307.584 304.128 l
stroke
grestore
/DejaVuSans findfont
12.000 scalefont
setfont
gsave
118.638875 310.128000 translate
0.000000 rotate
0.000000 0.000000 m /M glyphshow
10.353516 0.000000 m /e glyphshow
17.736328 0.000000 m /a glyphshow
25.089844 0.000000 m /n glyphshow
32.695312 0.000000 m /space glyphshow
36.509766 0.000000 m /P glyphshow
43.746094 0.000000 m /o glyphshow
51.087891 0.000000 m /s glyphshow
57.339844 0.000000 m /i glyphshow
60.673828 0.000000 m /t glyphshow
65.378906 0.000000 m /i glyphshow
68.712891 0.000000 m /o glyphshow
76.054688 0.000000 m /n glyphshow
83.660156 0.000000 m /a glyphshow
91.013672 0.000000 m /l glyphshow
94.347656 0.000000 m /space glyphshow
98.162109 0.000000 m /E glyphshow
105.744141 0.000000 m /r glyphshow
110.677734 0.000000 m /r glyphshow
115.611328 0.000000 m /o glyphshow
122.953125 0.000000 m /r glyphshow
grestore
1.000 setlinewidth
0 setlinecap
0.800 setgray
gsave
325.402525 120.0655 m
450.5744 120.0655 l
451.907733 120.0655 452.5744 120.732167 452.5744 122.0655 c
452.5744 297.128 l
452.5744 298.461333 451.907733 299.128 450.5744 299.128 c
325.402525 299.128 l
324.069192 299.128 323.402525 298.461333 323.402525 297.128 c
323.402525 122.0655 l
323.402525 120.732167 324.069192 120.0655 325.402525 120.0655 c
cl
gsave
1.000 setgray
fill
grestore
stroke
grestore
2.000 setlinewidth
1 setlinejoin
2 setlinecap
[] 0 setdash
1.000 0.000 0.000 setrgbcolor
gsave
327.402525 291.03425 m
347.402525 291.03425 l
stroke
grestore
0.000 setgray
/DejaVuSans findfont
10.000 scalefont
setfont
gsave
355.402525 287.534250 translate
0.000000 rotate
0.000000 0.000000 m /s glyphshow
5.209961 0.000000 m /t glyphshow
9.130859 0.000000 m /b glyphshow
15.478516 0.000000 m /space glyphshow
18.657227 0.000000 m /two glyphshow
25.019531 0.000000 m /five glyphshow
31.381836 0.000000 m /zero glyphshow
37.744141 0.000000 m /zero glyphshow
44.106445 0.000000 m /zero glyphshow
grestore
0 setlinecap
[7.4 3.2] 0 setdash
1.000 0.000 0.000 setrgbcolor
gsave
327.402525 276.362375 m
347.402525 276.362375 l
stroke
grestore
0.000 setgray
gsave
355.402525 272.862375 translate
0.000000 rotate
0.000000 0.000000 m /s glyphshow
5.209961 0.000000 m /t glyphshow
9.130859 0.000000 m /b glyphshow
15.478516 0.000000 m /space glyphshow
18.657227 0.000000 m /one glyphshow
25.019531 0.000000 m /zero glyphshow
31.381836 0.000000 m /zero glyphshow
37.744141 0.000000 m /zero glyphshow
44.106445 0.000000 m /zero glyphshow
grestore
0.750 0.000 0.750 setrgbcolor
gsave
327.402525 261.6905 m
347.402525 261.6905 l
stroke
grestore
0.000 setgray
gsave
355.402525 258.190500 translate
0.000000 rotate
0.000000 0.000000 m /s glyphshow
5.209961 0.000000 m /t glyphshow
9.130859 0.000000 m /b glyphshow
15.478516 0.000000 m /space glyphshow
18.657227 0.000000 m /one glyphshow
25.019531 0.000000 m /zero glyphshow
31.381836 0.000000 m /zero glyphshow
37.744141 0.000000 m /zero glyphshow
44.106445 0.000000 m /zero glyphshow
50.468750 0.000000 m /comma glyphshow
53.647461 0.000000 m /space glyphshow
56.826172 0.000000 m /d glyphshow
63.173828 0.000000 m /o glyphshow
69.291992 0.000000 m /u glyphshow
75.629883 0.000000 m /b glyphshow
81.977539 0.000000 m /l glyphshow
84.755859 0.000000 m /e glyphshow
grestore
[12.8 3.2 2 3.2] 0 setdash
1.000 0.000 0.000 setrgbcolor
gsave
327.402525 247.018625 m
347.402525 247.018625 l
stroke
grestore
0.000 setgray
gsave
355.402525 243.518625 translate
0.000000 rotate
0.000000 0.000000 m /s glyphshow
5.209961 0.000000 m /t glyphshow
9.130859 0.000000 m /b glyphshow
15.478516 0.000000 m /space glyphshow
18.657227 0.000000 m /five glyphshow
25.019531 0.000000 m /zero glyphshow
31.381836 0.000000 m /zero glyphshow
37.744141 0.000000 m /zero glyphshow
grestore
[2 3.3] 0 setdash
1.000 0.000 0.000 setrgbcolor
gsave
327.402525 232.34675 m
347.402525 232.34675 l
stroke
grestore
0.000 setgray
gsave
355.402525 228.846750 translate
0.000000 rotate
0.000000 0.000000 m /s glyphshow
5.209961 0.000000 m /t glyphshow
9.130859 0.000000 m /b glyphshow
15.478516 0.000000 m /space glyphshow
18.657227 0.000000 m /one glyphshow
25.019531 0.000000 m /zero glyphshow
31.381836 0.000000 m /zero glyphshow
37.744141 0.000000 m /zero glyphshow
grestore
0.750 0.000 0.750 setrgbcolor
gsave
327.402525 217.674875 m
347.402525 217.674875 l
stroke
grestore
0.000 setgray
gsave
355.402525 214.174875 translate
0.000000 rotate
0.000000 0.000000 m /s glyphshow
5.209961 0.000000 m /t glyphshow
9.130859 0.000000 m /b glyphshow
15.478516 0.000000 m /space glyphshow
18.657227 0.000000 m /one glyphshow
25.019531 0.000000 m /zero glyphshow
31.381836 0.000000 m /zero glyphshow
37.744141 0.000000 m /zero glyphshow
44.106445 0.000000 m /comma glyphshow
47.285156 0.000000 m /space glyphshow
50.463867 0.000000 m /d glyphshow
56.811523 0.000000 m /o glyphshow
62.929688 0.000000 m /u glyphshow
69.267578 0.000000 m /b glyphshow
75.615234 0.000000 m /l glyphshow
78.393555 0.000000 m /e glyphshow
grestore
2 setlinecap
[] 0 setdash
gsave
327.402525 203.003 m
347.402525 203.003 l
stroke
grestore
gsave
355.402525 199.503000 translate
0.000000 rotate
0.000000 0.000000 m /e glyphshow
6.152344 0.000000 m /n glyphshow
12.490234 0.000000 m /s glyphshow
17.700195 0.000000 m /space glyphshow
20.878906 0.000000 m /two glyphshow
27.241211 0.000000 m /five glyphshow
33.603516 0.000000 m /zero glyphshow
39.965820 0.000000 m /zero glyphshow
46.328125 0.000000 m /zero glyphshow
grestore
0 setlinecap
[7.4 3.2] 0 setdash
gsave
327.402525 188.331125 m
347.402525 188.331125 l
stroke
grestore
gsave
355.402525 184.831125 translate
0.000000 rotate
0.000000 0.000000 m /e glyphshow
6.152344 0.000000 m /n glyphshow
12.490234 0.000000 m /s glyphshow
17.700195 0.000000 m /space glyphshow
20.878906 0.000000 m /one glyphshow
27.241211 0.000000 m /zero glyphshow
33.603516 0.000000 m /zero glyphshow
39.965820 0.000000 m /zero glyphshow
46.328125 0.000000 m /zero glyphshow
grestore
0.000 0.000 1.000 setrgbcolor
gsave
327.402525 173.65925 m
347.402525 173.65925 l
stroke
grestore
0.000 setgray
gsave
355.402525 170.159250 translate
0.000000 rotate
0.000000 0.000000 m /e glyphshow
6.152344 0.000000 m /n glyphshow
12.490234 0.000000 m /s glyphshow
17.700195 0.000000 m /space glyphshow
20.878906 0.000000 m /one glyphshow
27.241211 0.000000 m /zero glyphshow
33.603516 0.000000 m /zero glyphshow
39.965820 0.000000 m /zero glyphshow
46.328125 0.000000 m /zero glyphshow
52.690430 0.000000 m /comma glyphshow
55.869141 0.000000 m /space glyphshow
59.047852 0.000000 m /d glyphshow
65.395508 0.000000 m /o glyphshow
71.513672 0.000000 m /u glyphshow
77.851562 0.000000 m /b glyphshow
84.199219 0.000000 m /l glyphshow
86.977539 0.000000 m /e glyphshow
grestore
[12.8 3.2 2 3.2] 0 setdash
gsave
327.402525 158.987375 m
347.402525 158.987375 l
stroke
grestore
gsave
355.402525 155.487375 translate
0.000000 rotate
0.000000 0.000000 m /e glyphshow
6.152344 0.000000 m /n glyphshow
12.490234 0.000000 m /s glyphshow
17.700195 0.000000 m /space glyphshow
20.878906 0.000000 m /five glyphshow
27.241211 0.000000 m /zero glyphshow
33.603516 0.000000 m /zero glyphshow
39.965820 0.000000 m /zero glyphshow
grestore
[2 3.3] 0 setdash
gsave
327.402525 144.3155 m
347.402525 144.3155 l
stroke
grestore
gsave
355.402525 140.815500 translate
0.000000 rotate
0.000000 0.000000 m /e glyphshow
6.152344 0.000000 m /n glyphshow
12.490234 0.000000 m /s glyphshow
17.700195 0.000000 m /space glyphshow
20.878906 0.000000 m /one glyphshow
27.241211 0.000000 m /zero glyphshow
33.603516 0.000000 m /zero glyphshow
39.965820 0.000000 m /zero glyphshow
grestore
0.000 0.000 1.000 setrgbcolor
gsave
327.402525 129.643625 m
347.402525 129.643625 l
stroke
grestore
0.000 setgray
gsave
355.402525 126.143625 translate
0.000000 rotate
0.000000 0.000000 m /e glyphshow
6.152344 0.000000 m /n glyphshow
12.490234 0.000000 m /s glyphshow
17.700195 0.000000 m /space glyphshow
20.878906 0.000000 m /one glyphshow
27.241211 0.000000 m /zero glyphshow
33.603516 0.000000 m /zero glyphshow
39.965820 0.000000 m /zero glyphshow
46.328125 0.000000 m /comma glyphshow
49.506836 0.000000 m /space glyphshow
52.685547 0.000000 m /d glyphshow
59.033203 0.000000 m /o glyphshow
65.151367 0.000000 m /u glyphshow
71.489258 0.000000 m /b glyphshow
77.836914 0.000000 m /l glyphshow
80.615234 0.000000 m /e glyphshow
grestore

end
showpage
