%!PS-Adobe-3.0 EPSF-3.0
%%Title: /Users/yin.yang/Documents/err_res_snap.eps
%%Creator: matplotlib version 2.0.2, http://matplotlib.org/
%%CreationDate: Thu May 24 08:14:05 2018
%%Orientation: portrait
%%BoundingBox: 75 223 536 568
%%EndComments
%%BeginProlog
/mpldict 8 dict def
mpldict begin
/m { moveto } bind def
/l { lineto } bind def
/r { rlineto } bind def
/c { curveto } bind def
/cl { closepath } bind def
/box {
m
1 index 0 r
0 exch r
neg 0 r
cl
} bind def
/clipbox {
box
clip
newpath
} bind def
%!PS-Adobe-3.0 Resource-Font
%%Title: DejaVu Sans
%%Copyright: Copyright (c) 2003 by Bitstream, Inc. All Rights Reserved. Copyright (c) 2006 by Tavmjong Bah. All Rights Reserved. DejaVu changes are in public domain 
%%Creator: Converted from TrueType to type 3 by PPR
25 dict begin
/_d{bind def}bind def
/_m{moveto}_d
/_l{lineto}_d
/_cl{closepath eofill}_d
/_c{curveto}_d
/_sc{7 -1 roll{setcachedevice}{pop pop pop pop pop pop}ifelse}_d
/_e{exec}_d
/FontName /DejaVuSans def
/PaintType 0 def
/FontMatrix[.001 0 0 .001 0 0]def
/FontBBox[-1021 -463 1793 1232]def
/FontType 3 def
/Encoding [ /space /comma /period /zero /one /two /three /four /five /six /seven /eight /equal /E /M /P /S /a /b /d /e /h /i /l /n /o /p /r /s /t /x ] def
/FontInfo 10 dict dup begin
/FamilyName (DejaVu Sans) def
/FullName (DejaVu Sans) def
/Notice (Copyright (c) 2003 by Bitstream, Inc. All Rights Reserved. Copyright (c) 2006 by Tavmjong Bah. All Rights Reserved. DejaVu changes are in public domain ) def
/Weight (Book) def
/Version (Version 2.35) def
/ItalicAngle 0.0 def
/isFixedPitch false def
/UnderlinePosition -130 def
/UnderlineThickness 90 def
end readonly def
/CharStrings 31 dict dup begin
/space{318 0 0 0 0 0 _sc
}_d
/comma{318 0 77 -115 220 124 _sc
117 124 _m
220 124 _l
220 40 _l
140 -115 _l
77 -115 _l
117 40 _l
117 124 _l
_cl}_d
/period{318 0 107 0 210 124 _sc
107 124 _m
210 124 _l
210 0 _l
107 0 _l
107 124 _l
_cl}_d
/zero{636 0 66 -13 570 742 _sc
318 664 _m
267 664 229 639 203 589 _c
177 539 165 464 165 364 _c
165 264 177 189 203 139 _c
229 89 267 64 318 64 _c
369 64 407 89 433 139 _c
458 189 471 264 471 364 _c
471 464 458 539 433 589 _c
407 639 369 664 318 664 _c
318 742 _m
399 742 461 709 505 645 _c
548 580 570 486 570 364 _c
570 241 548 147 505 83 _c
461 19 399 -13 318 -13 _c
236 -13 173 19 130 83 _c
87 147 66 241 66 364 _c
66 486 87 580 130 645 _c
173 709 236 742 318 742 _c
_cl}_d
/one{636 0 110 0 544 729 _sc
124 83 _m
285 83 _l
285 639 _l
110 604 _l
110 694 _l
284 729 _l
383 729 _l
383 83 _l
544 83 _l
544 0 _l
124 0 _l
124 83 _l
_cl}_d
/two{{636 0 73 0 536 742 _sc
192 83 _m
536 83 _l
536 0 _l
73 0 _l
73 83 _l
110 121 161 173 226 239 _c
290 304 331 346 348 365 _c
380 400 402 430 414 455 _c
426 479 433 504 433 528 _c
433 566 419 598 392 622 _c
365 646 330 659 286 659 _c
255 659 222 653 188 643 _c
154 632 117 616 78 594 _c
78 694 _l
118 710 155 722 189 730 _c
223 738 255 742 284 742 _c
}_e{359 742 419 723 464 685 _c
509 647 532 597 532 534 _c
532 504 526 475 515 449 _c
504 422 484 390 454 354 _c
446 344 420 317 376 272 _c
332 227 271 164 192 83 _c
_cl}_e}_d
/three{{636 0 76 -13 556 742 _sc
406 393 _m
453 383 490 362 516 330 _c
542 298 556 258 556 212 _c
556 140 531 84 482 45 _c
432 6 362 -13 271 -13 _c
240 -13 208 -10 176 -4 _c
144 1 110 10 76 22 _c
76 117 _l
103 101 133 89 166 81 _c
198 73 232 69 268 69 _c
330 69 377 81 409 105 _c
441 129 458 165 458 212 _c
458 254 443 288 413 312 _c
383 336 341 349 287 349 _c
}_e{202 349 _l
202 430 _l
291 430 _l
339 430 376 439 402 459 _c
428 478 441 506 441 543 _c
441 580 427 609 401 629 _c
374 649 336 659 287 659 _c
260 659 231 656 200 650 _c
169 644 135 635 98 623 _c
98 711 _l
135 721 170 729 203 734 _c
235 739 266 742 296 742 _c
370 742 429 725 473 691 _c
517 657 539 611 539 553 _c
539 513 527 479 504 451 _c
481 423 448 403 406 393 _c
_cl}_e}_d
/four{636 0 49 0 580 729 _sc
378 643 _m
129 254 _l
378 254 _l
378 643 _l
352 729 _m
476 729 _l
476 254 _l
580 254 _l
580 172 _l
476 172 _l
476 0 _l
378 0 _l
378 172 _l
49 172 _l
49 267 _l
352 729 _l
_cl}_d
/five{{636 0 77 -13 549 729 _sc
108 729 _m
495 729 _l
495 646 _l
198 646 _l
198 467 _l
212 472 227 476 241 478 _c
255 480 270 482 284 482 _c
365 482 429 459 477 415 _c
525 370 549 310 549 234 _c
549 155 524 94 475 51 _c
426 8 357 -13 269 -13 _c
238 -13 207 -10 175 -6 _c
143 -1 111 6 77 17 _c
77 116 _l
106 100 136 88 168 80 _c
199 72 232 69 267 69 _c
}_e{323 69 368 83 401 113 _c
433 143 450 183 450 234 _c
450 284 433 324 401 354 _c
368 384 323 399 267 399 _c
241 399 214 396 188 390 _c
162 384 135 375 108 363 _c
108 729 _l
_cl}_e}_d
/six{{636 0 70 -13 573 742 _sc
330 404 _m
286 404 251 388 225 358 _c
199 328 186 286 186 234 _c
186 181 199 139 225 109 _c
251 79 286 64 330 64 _c
374 64 409 79 435 109 _c
461 139 474 181 474 234 _c
474 286 461 328 435 358 _c
409 388 374 404 330 404 _c
526 713 _m
526 623 _l
501 635 476 644 451 650 _c
425 656 400 659 376 659 _c
310 659 260 637 226 593 _c
}_e{192 549 172 482 168 394 _c
187 422 211 444 240 459 _c
269 474 301 482 336 482 _c
409 482 467 459 509 415 _c
551 371 573 310 573 234 _c
573 159 550 99 506 54 _c
462 9 403 -13 330 -13 _c
246 -13 181 19 137 83 _c
92 147 70 241 70 364 _c
70 479 97 571 152 639 _c
206 707 280 742 372 742 _c
396 742 421 739 447 735 _c
472 730 498 723 526 713 _c
_cl}_e}_d
/seven{636 0 82 0 551 729 _sc
82 729 _m
551 729 _l
551 687 _l
286 0 _l
183 0 _l
432 646 _l
82 646 _l
82 729 _l
_cl}_d
/eight{{636 0 68 -13 568 742 _sc
318 346 _m
271 346 234 333 207 308 _c
180 283 167 249 167 205 _c
167 161 180 126 207 101 _c
234 76 271 64 318 64 _c
364 64 401 76 428 102 _c
455 127 469 161 469 205 _c
469 249 455 283 429 308 _c
402 333 365 346 318 346 _c
219 388 _m
177 398 144 418 120 447 _c
96 476 85 511 85 553 _c
85 611 105 657 147 691 _c
188 725 245 742 318 742 _c
}_e{390 742 447 725 489 691 _c
530 657 551 611 551 553 _c
551 511 539 476 515 447 _c
491 418 459 398 417 388 _c
464 377 501 355 528 323 _c
554 291 568 251 568 205 _c
568 134 546 80 503 43 _c
459 5 398 -13 318 -13 _c
237 -13 175 5 132 43 _c
89 80 68 134 68 205 _c
68 251 81 291 108 323 _c
134 355 171 377 219 388 _c
183 544 _m
183 506 194 476 218 455 _c
}_e{242 434 275 424 318 424 _c
360 424 393 434 417 455 _c
441 476 453 506 453 544 _c
453 582 441 611 417 632 _c
393 653 360 664 318 664 _c
275 664 242 653 218 632 _c
194 611 183 582 183 544 _c
_cl}_e}_d
/equal{838 0 106 172 732 454 _sc
106 454 _m
732 454 _l
732 372 _l
106 372 _l
106 454 _l
106 255 _m
732 255 _l
732 172 _l
106 172 _l
106 255 _l
_cl}_d
/E{632 0 98 0 568 729 _sc
98 729 _m
559 729 _l
559 646 _l
197 646 _l
197 430 _l
544 430 _l
544 347 _l
197 347 _l
197 83 _l
568 83 _l
568 0 _l
98 0 _l
98 729 _l
_cl}_d
/M{863 0 98 0 765 729 _sc
98 729 _m
245 729 _l
431 233 _l
618 729 _l
765 729 _l
765 0 _l
669 0 _l
669 640 _l
481 140 _l
382 140 _l
194 640 _l
194 0 _l
98 0 _l
98 729 _l
_cl}_d
/P{603 0 98 0 569 729 _sc
197 648 _m
197 374 _l
321 374 _l
367 374 402 385 427 409 _c
452 433 465 467 465 511 _c
465 555 452 588 427 612 _c
402 636 367 648 321 648 _c
197 648 _l
98 729 _m
321 729 _l
402 729 464 710 506 673 _c
548 636 569 582 569 511 _c
569 439 548 384 506 348 _c
464 311 402 293 321 293 _c
197 293 _l
197 0 _l
98 0 _l
98 729 _l
_cl}_d
/S{{635 0 66 -13 579 742 _sc
535 705 _m
535 609 _l
497 627 462 640 429 649 _c
395 657 363 662 333 662 _c
279 662 237 651 208 631 _c
179 610 165 580 165 542 _c
165 510 174 485 194 469 _c
213 452 250 439 304 429 _c
364 417 _l
437 403 491 378 526 343 _c
561 307 579 260 579 201 _c
579 130 555 77 508 41 _c
460 5 391 -13 300 -13 _c
265 -13 228 -9 189 -2 _c
}_e{150 5 110 16 69 32 _c
69 134 _l
109 111 148 94 186 83 _c
224 71 262 66 300 66 _c
356 66 399 77 430 99 _c
460 121 476 152 476 194 _c
476 230 465 258 443 278 _c
421 298 385 313 335 323 _c
275 335 _l
201 349 148 372 115 404 _c
82 435 66 478 66 534 _c
66 598 88 649 134 686 _c
179 723 242 742 322 742 _c
356 742 390 739 426 733 _c
461 727 497 717 535 705 _c
}_e{_cl}_e}_d
/a{{613 0 60 -13 522 560 _sc
343 275 _m
270 275 220 266 192 250 _c
164 233 150 205 150 165 _c
150 133 160 107 181 89 _c
202 70 231 61 267 61 _c
317 61 357 78 387 114 _c
417 149 432 196 432 255 _c
432 275 _l
343 275 _l
522 312 _m
522 0 _l
432 0 _l
432 83 _l
411 49 385 25 355 10 _c
325 -5 287 -13 243 -13 _c
187 -13 142 2 109 33 _c
76 64 60 106 60 159 _c
}_e{60 220 80 266 122 298 _c
163 329 224 345 306 345 _c
432 345 _l
432 354 _l
432 395 418 427 391 450 _c
364 472 326 484 277 484 _c
245 484 215 480 185 472 _c
155 464 127 453 100 439 _c
100 522 _l
132 534 164 544 195 550 _c
226 556 256 560 286 560 _c
365 560 424 539 463 498 _c
502 457 522 395 522 312 _c
_cl}_e}_d
/b{{635 0 91 -13 580 760 _sc
487 273 _m
487 339 473 390 446 428 _c
418 466 381 485 334 485 _c
286 485 249 466 222 428 _c
194 390 181 339 181 273 _c
181 207 194 155 222 117 _c
249 79 286 61 334 61 _c
381 61 418 79 446 117 _c
473 155 487 207 487 273 _c
181 464 _m
199 496 223 520 252 536 _c
281 552 316 560 356 560 _c
422 560 476 533 518 481 _c
559 428 580 359 580 273 _c
}_e{580 187 559 117 518 65 _c
476 13 422 -13 356 -13 _c
316 -13 281 -5 252 10 _c
223 25 199 49 181 82 _c
181 0 _l
91 0 _l
91 760 _l
181 760 _l
181 464 _l
_cl}_e}_d
/d{{635 0 55 -13 544 760 _sc
454 464 _m
454 760 _l
544 760 _l
544 0 _l
454 0 _l
454 82 _l
435 49 411 25 382 10 _c
353 -5 319 -13 279 -13 _c
213 -13 159 13 117 65 _c
75 117 55 187 55 273 _c
55 359 75 428 117 481 _c
159 533 213 560 279 560 _c
319 560 353 552 382 536 _c
411 520 435 496 454 464 _c
148 273 _m
148 207 161 155 188 117 _c
215 79 253 61 301 61 _c
}_e{348 61 385 79 413 117 _c
440 155 454 207 454 273 _c
454 339 440 390 413 428 _c
385 466 348 485 301 485 _c
253 485 215 466 188 428 _c
161 390 148 339 148 273 _c
_cl}_e}_d
/e{{615 0 55 -13 562 560 _sc
562 296 _m
562 252 _l
149 252 _l
153 190 171 142 205 110 _c
238 78 284 62 344 62 _c
378 62 412 66 444 74 _c
476 82 509 95 541 113 _c
541 28 _l
509 14 476 3 442 -3 _c
408 -9 373 -13 339 -13 _c
251 -13 182 12 131 62 _c
80 112 55 181 55 268 _c
55 357 79 428 127 481 _c
175 533 241 560 323 560 _c
397 560 455 536 498 489 _c
}_e{540 441 562 377 562 296 _c
472 322 _m
471 371 457 410 431 440 _c
404 469 368 484 324 484 _c
274 484 234 469 204 441 _c
174 413 156 373 152 322 _c
472 322 _l
_cl}_e}_d
/h{634 0 91 0 549 760 _sc
549 330 _m
549 0 _l
459 0 _l
459 327 _l
459 379 448 417 428 443 _c
408 469 378 482 338 482 _c
289 482 251 466 223 435 _c
195 404 181 362 181 309 _c
181 0 _l
91 0 _l
91 760 _l
181 760 _l
181 462 _l
202 494 227 519 257 535 _c
286 551 320 560 358 560 _c
420 560 468 540 500 501 _c
532 462 549 405 549 330 _c
_cl}_d
/i{278 0 94 0 184 760 _sc
94 547 _m
184 547 _l
184 0 _l
94 0 _l
94 547 _l
94 760 _m
184 760 _l
184 646 _l
94 646 _l
94 760 _l
_cl}_d
/l{278 0 94 0 184 760 _sc
94 760 _m
184 760 _l
184 0 _l
94 0 _l
94 760 _l
_cl}_d
/n{634 0 91 0 549 560 _sc
549 330 _m
549 0 _l
459 0 _l
459 327 _l
459 379 448 417 428 443 _c
408 469 378 482 338 482 _c
289 482 251 466 223 435 _c
195 404 181 362 181 309 _c
181 0 _l
91 0 _l
91 547 _l
181 547 _l
181 462 _l
202 494 227 519 257 535 _c
286 551 320 560 358 560 _c
420 560 468 540 500 501 _c
532 462 549 405 549 330 _c
_cl}_d
/o{612 0 55 -13 557 560 _sc
306 484 _m
258 484 220 465 192 427 _c
164 389 150 338 150 273 _c
150 207 163 156 191 118 _c
219 80 257 62 306 62 _c
354 62 392 80 420 118 _c
448 156 462 207 462 273 _c
462 337 448 389 420 427 _c
392 465 354 484 306 484 _c
306 560 _m
384 560 445 534 490 484 _c
534 433 557 363 557 273 _c
557 183 534 113 490 63 _c
445 12 384 -13 306 -13 _c
227 -13 165 12 121 63 _c
77 113 55 183 55 273 _c
55 363 77 433 121 484 _c
165 534 227 560 306 560 _c
_cl}_d
/p{{635 0 91 -207 580 560 _sc
181 82 _m
181 -207 _l
91 -207 _l
91 547 _l
181 547 _l
181 464 _l
199 496 223 520 252 536 _c
281 552 316 560 356 560 _c
422 560 476 533 518 481 _c
559 428 580 359 580 273 _c
580 187 559 117 518 65 _c
476 13 422 -13 356 -13 _c
316 -13 281 -5 252 10 _c
223 25 199 49 181 82 _c
487 273 _m
487 339 473 390 446 428 _c
418 466 381 485 334 485 _c
}_e{286 485 249 466 222 428 _c
194 390 181 339 181 273 _c
181 207 194 155 222 117 _c
249 79 286 61 334 61 _c
381 61 418 79 446 117 _c
473 155 487 207 487 273 _c
_cl}_e}_d
/r{411 0 91 0 411 560 _sc
411 463 _m
401 469 390 473 378 476 _c
366 478 353 480 339 480 _c
288 480 249 463 222 430 _c
194 397 181 350 181 288 _c
181 0 _l
91 0 _l
91 547 _l
181 547 _l
181 462 _l
199 495 224 520 254 536 _c
284 552 321 560 365 560 _c
371 560 378 559 386 559 _c
393 558 401 557 411 555 _c
411 463 _l
_cl}_d
/s{{521 0 54 -13 472 560 _sc
443 531 _m
443 446 _l
417 458 391 468 364 475 _c
336 481 308 485 279 485 _c
234 485 200 478 178 464 _c
156 450 145 430 145 403 _c
145 382 153 366 169 354 _c
185 342 217 330 265 320 _c
296 313 _l
360 299 405 279 432 255 _c
458 230 472 195 472 151 _c
472 100 452 60 412 31 _c
372 1 316 -13 246 -13 _c
216 -13 186 -10 154 -5 _c
}_e{122 0 89 8 54 20 _c
54 113 _l
87 95 120 82 152 74 _c
184 65 216 61 248 61 _c
290 61 323 68 346 82 _c
368 96 380 117 380 144 _c
380 168 371 187 355 200 _c
339 213 303 226 247 238 _c
216 245 _l
160 257 119 275 95 299 _c
70 323 58 356 58 399 _c
58 450 76 490 112 518 _c
148 546 200 560 268 560 _c
301 560 332 557 362 552 _c
391 547 418 540 443 531 _c
}_e{_cl}_e}_d
/t{392 0 27 0 368 702 _sc
183 702 _m
183 547 _l
368 547 _l
368 477 _l
183 477 _l
183 180 _l
183 135 189 106 201 94 _c
213 81 238 75 276 75 _c
368 75 _l
368 0 _l
276 0 _l
206 0 158 13 132 39 _c
106 65 93 112 93 180 _c
93 477 _l
27 477 _l
27 547 _l
93 547 _l
93 702 _l
183 702 _l
_cl}_d
/x{592 0 29 0 559 547 _sc
549 547 _m
351 281 _l
559 0 _l
453 0 _l
294 215 _l
135 0 _l
29 0 _l
241 286 _l
47 547 _l
153 547 _l
298 352 _l
443 547 _l
549 547 _l
_cl}_d
end readonly def

/BuildGlyph
 {exch begin
 CharStrings exch
 2 copy known not{pop /.notdef}if
 true 3 1 roll get exec
 end}_d

/BuildChar {
 1 index /Encoding get exch get
 1 index /BuildGlyph get exec
}_d

FontName currentdict end definefont pop
end
%%EndProlog
mpldict begin
75.6 223.2 translate
460.8 345.6 0 0 clipbox
gsave
0 0 m
460.8 0 l
460.8 345.6 l
0 345.6 l
cl
1.000 setgray
fill
grestore
gsave
57.6 38.016 m
414.72 38.016 l
414.72 304.128 l
57.6 304.128 l
cl
1.000 setgray
fill
grestore
0.800 setlinewidth
1 setlinejoin
0 setlinecap
[] 0 setdash
0.000 setgray
gsave
/o {
gsave
newpath
translate
0.8 setlinewidth
1 setlinejoin
0 setlinecap
0 0 m
0 -3.5 l

gsave
0.000 setgray
fill
grestore
stroke
grestore
} bind def
57.6 38.016 o
grestore
/DejaVuSans findfont
10.000 scalefont
setfont
gsave
51.240625 23.422250 translate
0.000000 rotate
0.000000 0.000000 m /one glyphshow
6.362305 0.000000 m /zero glyphshow
grestore
gsave
/o {
gsave
newpath
translate
0.8 setlinewidth
1 setlinejoin
0 setlinecap
0 0 m
0 -3.5 l

gsave
0.000 setgray
fill
grestore
stroke
grestore
} bind def
100.114 38.016 o
grestore
gsave
93.754911 23.422250 translate
0.000000 rotate
0.000000 0.000000 m /one glyphshow
6.362305 0.000000 m /two glyphshow
grestore
gsave
/o {
gsave
newpath
translate
0.8 setlinewidth
1 setlinejoin
0 setlinecap
0 0 m
0 -3.5 l

gsave
0.000 setgray
fill
grestore
stroke
grestore
} bind def
142.629 38.016 o
grestore
gsave
136.269196 23.422250 translate
0.000000 rotate
0.000000 0.000000 m /one glyphshow
6.362305 0.000000 m /five glyphshow
grestore
gsave
/o {
gsave
newpath
translate
0.8 setlinewidth
1 setlinejoin
0 setlinecap
0 0 m
0 -3.5 l

gsave
0.000 setgray
fill
grestore
stroke
grestore
} bind def
185.143 38.016 o
grestore
gsave
178.783482 23.422250 translate
0.000000 rotate
0.000000 0.000000 m /one glyphshow
6.362305 0.000000 m /seven glyphshow
grestore
gsave
/o {
gsave
newpath
translate
0.8 setlinewidth
1 setlinejoin
0 setlinecap
0 0 m
0 -3.5 l

gsave
0.000 setgray
fill
grestore
stroke
grestore
} bind def
227.657 38.016 o
grestore
gsave
221.297768 23.422250 translate
0.000000 rotate
0.000000 0.000000 m /two glyphshow
6.362305 0.000000 m /zero glyphshow
grestore
gsave
/o {
gsave
newpath
translate
0.8 setlinewidth
1 setlinejoin
0 setlinecap
0 0 m
0 -3.5 l

gsave
0.000 setgray
fill
grestore
stroke
grestore
} bind def
270.171 38.016 o
grestore
gsave
263.812054 23.422250 translate
0.000000 rotate
0.000000 0.000000 m /two glyphshow
6.362305 0.000000 m /two glyphshow
grestore
gsave
/o {
gsave
newpath
translate
0.8 setlinewidth
1 setlinejoin
0 setlinecap
0 0 m
0 -3.5 l

gsave
0.000 setgray
fill
grestore
stroke
grestore
} bind def
312.686 38.016 o
grestore
gsave
306.326339 23.422250 translate
0.000000 rotate
0.000000 0.000000 m /two glyphshow
6.362305 0.000000 m /five glyphshow
grestore
gsave
/o {
gsave
newpath
translate
0.8 setlinewidth
1 setlinejoin
0 setlinecap
0 0 m
0 -3.5 l

gsave
0.000 setgray
fill
grestore
stroke
grestore
} bind def
355.2 38.016 o
grestore
gsave
348.840625 23.422250 translate
0.000000 rotate
0.000000 0.000000 m /two glyphshow
6.362305 0.000000 m /seven glyphshow
grestore
gsave
/o {
gsave
newpath
translate
0.8 setlinewidth
1 setlinejoin
0 setlinecap
0 0 m
0 -3.5 l

gsave
0.000 setgray
fill
grestore
stroke
grestore
} bind def
397.714 38.016 o
grestore
gsave
391.354911 23.422250 translate
0.000000 rotate
0.000000 0.000000 m /three glyphshow
6.362305 0.000000 m /zero glyphshow
grestore
gsave
210.167812 9.750375 translate
0.000000 rotate
0.000000 0.000000 m /S glyphshow
6.347656 0.000000 m /n glyphshow
12.685547 0.000000 m /a glyphshow
18.813477 0.000000 m /p glyphshow
25.161133 0.000000 m /s glyphshow
30.371094 0.000000 m /h glyphshow
36.708984 0.000000 m /o glyphshow
42.827148 0.000000 m /t glyphshow
46.748047 0.000000 m /s glyphshow
grestore
gsave
/o {
gsave
newpath
translate
0.8 setlinewidth
1 setlinejoin
0 setlinecap
0 0 m
-3.5 0 l

gsave
0.000 setgray
fill
grestore
stroke
grestore
} bind def
57.6 63.0518 o
grestore
gsave
21.975000 59.254927 translate
0.000000 rotate
0.000000 0.000000 m /zero glyphshow
6.362305 0.000000 m /period glyphshow
9.541016 0.000000 m /zero glyphshow
15.903320 0.000000 m /zero glyphshow
22.265625 0.000000 m /one glyphshow
grestore
gsave
/o {
gsave
newpath
translate
0.8 setlinewidth
1 setlinejoin
0 setlinecap
0 0 m
-3.5 0 l

gsave
0.000 setgray
fill
grestore
stroke
grestore
} bind def
57.6 94.9892 o
grestore
gsave
21.975000 91.192276 translate
0.000000 rotate
0.000000 0.000000 m /zero glyphshow
6.362305 0.000000 m /period glyphshow
9.541016 0.000000 m /zero glyphshow
15.903320 0.000000 m /zero glyphshow
22.265625 0.000000 m /two glyphshow
grestore
gsave
/o {
gsave
newpath
translate
0.8 setlinewidth
1 setlinejoin
0 setlinecap
0 0 m
-3.5 0 l

gsave
0.000 setgray
fill
grestore
stroke
grestore
} bind def
57.6 126.927 o
grestore
gsave
21.975000 123.129625 translate
0.000000 rotate
0.000000 0.000000 m /zero glyphshow
6.362305 0.000000 m /period glyphshow
9.541016 0.000000 m /zero glyphshow
15.903320 0.000000 m /zero glyphshow
22.265625 0.000000 m /three glyphshow
grestore
gsave
/o {
gsave
newpath
translate
0.8 setlinewidth
1 setlinejoin
0 setlinecap
0 0 m
-3.5 0 l

gsave
0.000 setgray
fill
grestore
stroke
grestore
} bind def
57.6 158.864 o
grestore
gsave
21.975000 155.066975 translate
0.000000 rotate
0.000000 0.000000 m /zero glyphshow
6.362305 0.000000 m /period glyphshow
9.541016 0.000000 m /zero glyphshow
15.903320 0.000000 m /zero glyphshow
22.265625 0.000000 m /four glyphshow
grestore
gsave
/o {
gsave
newpath
translate
0.8 setlinewidth
1 setlinejoin
0 setlinecap
0 0 m
-3.5 0 l

gsave
0.000 setgray
fill
grestore
stroke
grestore
} bind def
57.6 190.801 o
grestore
gsave
21.975000 187.004324 translate
0.000000 rotate
0.000000 0.000000 m /zero glyphshow
6.362305 0.000000 m /period glyphshow
9.541016 0.000000 m /zero glyphshow
15.903320 0.000000 m /zero glyphshow
22.265625 0.000000 m /five glyphshow
grestore
gsave
/o {
gsave
newpath
translate
0.8 setlinewidth
1 setlinejoin
0 setlinecap
0 0 m
-3.5 0 l

gsave
0.000 setgray
fill
grestore
stroke
grestore
} bind def
57.6 222.739 o
grestore
gsave
21.975000 218.941674 translate
0.000000 rotate
0.000000 0.000000 m /zero glyphshow
6.362305 0.000000 m /period glyphshow
9.541016 0.000000 m /zero glyphshow
15.903320 0.000000 m /zero glyphshow
22.265625 0.000000 m /six glyphshow
grestore
gsave
/o {
gsave
newpath
translate
0.8 setlinewidth
1 setlinejoin
0 setlinecap
0 0 m
-3.5 0 l

gsave
0.000 setgray
fill
grestore
stroke
grestore
} bind def
57.6 254.676 o
grestore
gsave
21.975000 250.879023 translate
0.000000 rotate
0.000000 0.000000 m /zero glyphshow
6.362305 0.000000 m /period glyphshow
9.541016 0.000000 m /zero glyphshow
15.903320 0.000000 m /zero glyphshow
22.265625 0.000000 m /seven glyphshow
grestore
gsave
/o {
gsave
newpath
translate
0.8 setlinewidth
1 setlinejoin
0 setlinecap
0 0 m
-3.5 0 l

gsave
0.000 setgray
fill
grestore
stroke
grestore
} bind def
57.6 286.613 o
grestore
gsave
21.975000 282.816372 translate
0.000000 rotate
0.000000 0.000000 m /zero glyphshow
6.362305 0.000000 m /period glyphshow
9.541016 0.000000 m /zero glyphshow
15.903320 0.000000 m /zero glyphshow
22.265625 0.000000 m /eight glyphshow
grestore
gsave
15.896875 159.236062 translate
90.000000 rotate
0.000000 0.000000 m /P glyphshow
6.030273 0.000000 m /i glyphshow
8.808594 0.000000 m /x glyphshow
14.726562 0.000000 m /e glyphshow
20.878906 0.000000 m /l glyphshow
grestore
2.000 setlinewidth
2 setlinecap
gsave
357.1 266.1 57.6 38.02 clipbox
57.6 172.306016 m
74.605714 175.534234 l
91.611429 179.700543 l
108.617143 178.518607 l
125.622857 189.805503 l
142.628571 193.1227 l
159.634286 199.281635 l
176.64 194.724515 l
193.645714 202.484209 l
210.651429 204.16541 l
227.657143 216.265903 l
244.662857 227.453442 l
261.668571 224.583693 l
278.674286 222.520763 l
295.68 237.804556 l
312.685714 225.814799 l
329.691429 237.798928 l
346.697143 245.888024 l
363.702857 239.995735 l
380.708571 258.287194 l
397.714286 266.805823 l
414.72 292.032 l
stroke
grestore
1.000 0.000 0.000 setrgbcolor
gsave
357.1 266.1 57.6 38.02 clipbox
57.6 65.476046 m
74.605714 68.517192 l
91.611429 66.959189 l
108.617143 65.914389 l
125.622857 67.579312 l
142.628571 68.383487 l
159.634286 69.405792 l
176.64 67.793792 l
193.645714 67.874917 l
210.651429 70.396344 l
227.657143 66.151978 l
244.662857 67.490431 l
261.668571 68.338489 l
278.674286 68.750432 l
295.68 72.307092 l
312.685714 71.423207 l
329.691429 71.483855 l
346.697143 71.297471 l
363.702857 69.511298 l
380.708571 71.364512 l
397.714286 70.745459 l
414.72 69.063148 l
stroke
grestore
0.000 0.000 1.000 setrgbcolor
gsave
357.1 266.1 57.6 38.02 clipbox
57.6 68.926495 m
74.605714 73.320389 l
91.611429 72.300547 l
108.617143 78.699275 l
125.622857 82.966776 l
142.628571 84.400468 l
159.634286 83.421135 l
176.64 81.574559 l
193.645714 88.12503 l
210.651429 83.377811 l
227.657143 89.882811 l
244.662857 99.110919 l
261.668571 96.971535 l
278.674286 132.56218 l
295.68 123.805297 l
312.685714 151.56419 l
329.691429 173.396035 l
346.697143 130.788393 l
363.702857 131.070116 l
380.708571 210.426506 l
397.714286 195.416271 l
414.72 219.541625 l
stroke
grestore
0 setlinecap
[7.4 3.2] 0 setdash
0.000 setgray
gsave
357.1 266.1 57.6 38.02 clipbox
57.6 63.766309 m
74.605714 71.696713 l
91.611429 79.093081 l
108.617143 83.181562 l
125.622857 87.141169 l
142.628571 87.568473 l
159.634286 88.417423 l
176.64 85.880534 l
193.645714 93.252398 l
210.651429 93.433105 l
227.657143 97.951805 l
244.662857 94.121081 l
261.668571 96.68094 l
278.674286 95.800704 l
295.68 102.922936 l
312.685714 100.127505 l
329.691429 97.791252 l
346.697143 92.097458 l
363.702857 94.135656 l
380.708571 93.143132 l
397.714286 95.593227 l
414.72 96.264138 l
stroke
grestore
1.000 0.000 0.000 setrgbcolor
gsave
357.1 266.1 57.6 38.02 clipbox
57.6 50.112 m
74.605714 53.579706 l
91.611429 55.13065 l
108.617143 57.2161 l
125.622857 58.001665 l
142.628571 59.526163 l
159.634286 60.909066 l
176.64 62.213821 l
193.645714 60.846848 l
210.651429 63.010202 l
227.657143 62.815368 l
244.662857 63.628314 l
261.668571 64.84266 l
278.674286 64.220586 l
295.68 65.167493 l
312.685714 67.369408 l
329.691429 66.080022 l
346.697143 68.025102 l
363.702857 68.796042 l
380.708571 67.318538 l
397.714286 70.821992 l
414.72 70.726774 l
stroke
grestore
0.000 0.000 1.000 setrgbcolor
gsave
357.1 266.1 57.6 38.02 clipbox
57.6 68.000267 m
74.605714 66.116814 l
91.611429 81.132677 l
108.617143 70.498123 l
125.622857 72.108507 l
142.628571 80.282551 l
159.634286 72.428295 l
176.64 78.678978 l
193.645714 77.434863 l
210.651429 72.806038 l
227.657143 70.853835 l
244.662857 73.117553 l
261.668571 82.748779 l
278.674286 102.401239 l
295.68 101.008921 l
312.685714 92.023185 l
329.691429 82.753477 l
346.697143 88.017082 l
363.702857 101.771921 l
380.708571 120.359763 l
397.714286 125.42526 l
414.72 138.411684 l
stroke
grestore
0.800 setlinewidth
0 setlinejoin
2 setlinecap
[] 0 setdash
0.000 setgray
gsave
57.6 38.016 m
57.6 304.128 l
stroke
grestore
gsave
414.72 38.016 m
414.72 304.128 l
stroke
grestore
gsave
57.6 38.016 m
414.72 38.016 l
stroke
grestore
gsave
57.6 304.128 m
414.72 304.128 l
stroke
grestore
/DejaVuSans findfont
12.000 scalefont
setfont
gsave
172.206875 310.128000 translate
0.000000 rotate
0.000000 0.000000 m /M glyphshow
10.353516 0.000000 m /e glyphshow
17.736328 0.000000 m /a glyphshow
25.089844 0.000000 m /n glyphshow
32.695312 0.000000 m /space glyphshow
36.509766 0.000000 m /P glyphshow
43.746094 0.000000 m /o glyphshow
51.087891 0.000000 m /s glyphshow
57.339844 0.000000 m /i glyphshow
60.673828 0.000000 m /t glyphshow
65.378906 0.000000 m /i glyphshow
68.712891 0.000000 m /o glyphshow
76.054688 0.000000 m /n glyphshow
83.660156 0.000000 m /a glyphshow
91.013672 0.000000 m /l glyphshow
94.347656 0.000000 m /space glyphshow
98.162109 0.000000 m /E glyphshow
105.744141 0.000000 m /r glyphshow
110.677734 0.000000 m /r glyphshow
115.611328 0.000000 m /o glyphshow
122.953125 0.000000 m /r glyphshow
grestore
1.000 setlinewidth
0 setlinecap
0.800 setgray
gsave
64.6 208.09675 m
214.271875 208.09675 l
215.605208 208.09675 216.271875 208.763417 216.271875 210.09675 c
216.271875 297.128 l
216.271875 298.461333 215.605208 299.128 214.271875 299.128 c
64.6 299.128 l
63.266667 299.128 62.6 298.461333 62.6 297.128 c
62.6 210.09675 l
62.6 208.763417 63.266667 208.09675 64.6 208.09675 c
cl
gsave
1.000 setgray
fill
grestore
stroke
grestore
2.000 setlinewidth
1 setlinejoin
2 setlinecap
[] 0 setdash
0.000 setgray
gsave
66.6 291.03425 m
86.6 291.03425 l
stroke
grestore
/DejaVuSans findfont
10.000 scalefont
setfont
gsave
94.600000 287.534250 translate
0.000000 rotate
0.000000 0.000000 m /s glyphshow
5.209961 0.000000 m /t glyphshow
9.130859 0.000000 m /b glyphshow
15.478516 0.000000 m /space glyphshow
18.657227 0.000000 m /one glyphshow
25.019531 0.000000 m /zero glyphshow
31.381836 0.000000 m /zero glyphshow
37.744141 0.000000 m /zero glyphshow
44.106445 0.000000 m /zero glyphshow
50.468750 0.000000 m /comma glyphshow
53.647461 0.000000 m /space glyphshow
56.826172 0.000000 m /d glyphshow
63.173828 0.000000 m /t glyphshow
67.094727 0.000000 m /o glyphshow
73.212891 0.000000 m /b glyphshow
79.560547 0.000000 m /s glyphshow
84.770508 0.000000 m /equal glyphshow
93.149414 0.000000 m /zero glyphshow
99.511719 0.000000 m /period glyphshow
102.690430 0.000000 m /zero glyphshow
109.052734 0.000000 m /two glyphshow
grestore
1.000 0.000 0.000 setrgbcolor
gsave
66.6 276.362375 m
86.6 276.362375 l
stroke
grestore
0.000 setgray
gsave
94.600000 272.862375 translate
0.000000 rotate
0.000000 0.000000 m /s glyphshow
5.209961 0.000000 m /t glyphshow
9.130859 0.000000 m /b glyphshow
15.478516 0.000000 m /space glyphshow
18.657227 0.000000 m /one glyphshow
25.019531 0.000000 m /zero glyphshow
31.381836 0.000000 m /zero glyphshow
37.744141 0.000000 m /zero glyphshow
44.106445 0.000000 m /comma glyphshow
47.285156 0.000000 m /space glyphshow
50.463867 0.000000 m /d glyphshow
56.811523 0.000000 m /t glyphshow
60.732422 0.000000 m /o glyphshow
66.850586 0.000000 m /b glyphshow
73.198242 0.000000 m /s glyphshow
78.408203 0.000000 m /equal glyphshow
86.787109 0.000000 m /zero glyphshow
93.149414 0.000000 m /period glyphshow
96.328125 0.000000 m /zero glyphshow
102.690430 0.000000 m /two glyphshow
grestore
0.000 0.000 1.000 setrgbcolor
gsave
66.6 261.6905 m
86.6 261.6905 l
stroke
grestore
0.000 setgray
gsave
94.600000 258.190500 translate
0.000000 rotate
0.000000 0.000000 m /s glyphshow
5.209961 0.000000 m /t glyphshow
9.130859 0.000000 m /b glyphshow
15.478516 0.000000 m /space glyphshow
18.657227 0.000000 m /one glyphshow
25.019531 0.000000 m /zero glyphshow
31.381836 0.000000 m /zero glyphshow
37.744141 0.000000 m /zero glyphshow
44.106445 0.000000 m /comma glyphshow
47.285156 0.000000 m /space glyphshow
50.463867 0.000000 m /d glyphshow
56.811523 0.000000 m /t glyphshow
60.732422 0.000000 m /o glyphshow
66.850586 0.000000 m /b glyphshow
73.198242 0.000000 m /s glyphshow
78.408203 0.000000 m /equal glyphshow
86.787109 0.000000 m /zero glyphshow
93.149414 0.000000 m /period glyphshow
96.328125 0.000000 m /zero glyphshow
102.690430 0.000000 m /five glyphshow
grestore
0 setlinecap
[7.4 3.2] 0 setdash
gsave
66.6 247.018625 m
86.6 247.018625 l
stroke
grestore
gsave
94.600000 243.518625 translate
0.000000 rotate
0.000000 0.000000 m /e glyphshow
6.152344 0.000000 m /n glyphshow
12.490234 0.000000 m /s glyphshow
17.700195 0.000000 m /space glyphshow
20.878906 0.000000 m /one glyphshow
27.241211 0.000000 m /zero glyphshow
33.603516 0.000000 m /zero glyphshow
39.965820 0.000000 m /zero glyphshow
46.328125 0.000000 m /zero glyphshow
52.690430 0.000000 m /comma glyphshow
55.869141 0.000000 m /space glyphshow
59.047852 0.000000 m /d glyphshow
65.395508 0.000000 m /t glyphshow
69.316406 0.000000 m /o glyphshow
75.434570 0.000000 m /b glyphshow
81.782227 0.000000 m /s glyphshow
86.992188 0.000000 m /equal glyphshow
95.371094 0.000000 m /zero glyphshow
101.733398 0.000000 m /period glyphshow
104.912109 0.000000 m /zero glyphshow
111.274414 0.000000 m /two glyphshow
grestore
1.000 0.000 0.000 setrgbcolor
gsave
66.6 232.34675 m
86.6 232.34675 l
stroke
grestore
0.000 setgray
gsave
94.600000 228.846750 translate
0.000000 rotate
0.000000 0.000000 m /e glyphshow
6.152344 0.000000 m /n glyphshow
12.490234 0.000000 m /s glyphshow
17.700195 0.000000 m /space glyphshow
20.878906 0.000000 m /one glyphshow
27.241211 0.000000 m /zero glyphshow
33.603516 0.000000 m /zero glyphshow
39.965820 0.000000 m /zero glyphshow
46.328125 0.000000 m /comma glyphshow
49.506836 0.000000 m /space glyphshow
52.685547 0.000000 m /d glyphshow
59.033203 0.000000 m /t glyphshow
62.954102 0.000000 m /o glyphshow
69.072266 0.000000 m /b glyphshow
75.419922 0.000000 m /s glyphshow
80.629883 0.000000 m /equal glyphshow
89.008789 0.000000 m /zero glyphshow
95.371094 0.000000 m /period glyphshow
98.549805 0.000000 m /zero glyphshow
104.912109 0.000000 m /two glyphshow
grestore
0.000 0.000 1.000 setrgbcolor
gsave
66.6 217.674875 m
86.6 217.674875 l
stroke
grestore
0.000 setgray
gsave
94.600000 214.174875 translate
0.000000 rotate
0.000000 0.000000 m /e glyphshow
6.152344 0.000000 m /n glyphshow
12.490234 0.000000 m /s glyphshow
17.700195 0.000000 m /space glyphshow
20.878906 0.000000 m /one glyphshow
27.241211 0.000000 m /zero glyphshow
33.603516 0.000000 m /zero glyphshow
39.965820 0.000000 m /zero glyphshow
46.328125 0.000000 m /comma glyphshow
49.506836 0.000000 m /space glyphshow
52.685547 0.000000 m /d glyphshow
59.033203 0.000000 m /t glyphshow
62.954102 0.000000 m /o glyphshow
69.072266 0.000000 m /b glyphshow
75.419922 0.000000 m /s glyphshow
80.629883 0.000000 m /equal glyphshow
89.008789 0.000000 m /zero glyphshow
95.371094 0.000000 m /period glyphshow
98.549805 0.000000 m /zero glyphshow
104.912109 0.000000 m /five glyphshow
grestore

end
showpage
