%!PS-Adobe-3.0 EPSF-3.0
%%Title: /Users/yin.yang/Documents/err_res_snap.eps
%%Creator: matplotlib version 2.0.2, http://matplotlib.org/
%%CreationDate: Thu May 24 08:12:03 2018
%%Orientation: portrait
%%BoundingBox: 75 223 536 568
%%EndComments
%%BeginProlog
/mpldict 8 dict def
mpldict begin
/m { moveto } bind def
/l { lineto } bind def
/r { rlineto } bind def
/c { curveto } bind def
/cl { closepath } bind def
/box {
m
1 index 0 r
0 exch r
neg 0 r
cl
} bind def
/clipbox {
box
clip
newpath
} bind def
%!PS-Adobe-3.0 Resource-Font
%%Title: DejaVu Sans
%%Copyright: Copyright (c) 2003 by Bitstream, Inc. All Rights Reserved. Copyright (c) 2006 by Tavmjong Bah. All Rights Reserved. DejaVu changes are in public domain 
%%Creator: Converted from TrueType to type 3 by PPR
25 dict begin
/_d{bind def}bind def
/_m{moveto}_d
/_l{lineto}_d
/_cl{closepath eofill}_d
/_c{curveto}_d
/_sc{7 -1 roll{setcachedevice}{pop pop pop pop pop pop}ifelse}_d
/_e{exec}_d
/FontName /DejaVuSans def
/PaintType 0 def
/FontMatrix[.001 0 0 .001 0 0]def
/FontBBox[-1021 -463 1793 1232]def
/FontType 3 def
/Encoding [ /space /comma /period /zero /one /two /three /four /five /six /seven /eight /equal /E /M /P /S /a /b /d /e /h /i /l /n /o /p /r /s /t /x ] def
/FontInfo 10 dict dup begin
/FamilyName (DejaVu Sans) def
/FullName (DejaVu Sans) def
/Notice (Copyright (c) 2003 by Bitstream, Inc. All Rights Reserved. Copyright (c) 2006 by Tavmjong Bah. All Rights Reserved. DejaVu changes are in public domain ) def
/Weight (Book) def
/Version (Version 2.35) def
/ItalicAngle 0.0 def
/isFixedPitch false def
/UnderlinePosition -130 def
/UnderlineThickness 90 def
end readonly def
/CharStrings 31 dict dup begin
/space{318 0 0 0 0 0 _sc
}_d
/comma{318 0 77 -115 220 124 _sc
117 124 _m
220 124 _l
220 40 _l
140 -115 _l
77 -115 _l
117 40 _l
117 124 _l
_cl}_d
/period{318 0 107 0 210 124 _sc
107 124 _m
210 124 _l
210 0 _l
107 0 _l
107 124 _l
_cl}_d
/zero{636 0 66 -13 570 742 _sc
318 664 _m
267 664 229 639 203 589 _c
177 539 165 464 165 364 _c
165 264 177 189 203 139 _c
229 89 267 64 318 64 _c
369 64 407 89 433 139 _c
458 189 471 264 471 364 _c
471 464 458 539 433 589 _c
407 639 369 664 318 664 _c
318 742 _m
399 742 461 709 505 645 _c
548 580 570 486 570 364 _c
570 241 548 147 505 83 _c
461 19 399 -13 318 -13 _c
236 -13 173 19 130 83 _c
87 147 66 241 66 364 _c
66 486 87 580 130 645 _c
173 709 236 742 318 742 _c
_cl}_d
/one{636 0 110 0 544 729 _sc
124 83 _m
285 83 _l
285 639 _l
110 604 _l
110 694 _l
284 729 _l
383 729 _l
383 83 _l
544 83 _l
544 0 _l
124 0 _l
124 83 _l
_cl}_d
/two{{636 0 73 0 536 742 _sc
192 83 _m
536 83 _l
536 0 _l
73 0 _l
73 83 _l
110 121 161 173 226 239 _c
290 304 331 346 348 365 _c
380 400 402 430 414 455 _c
426 479 433 504 433 528 _c
433 566 419 598 392 622 _c
365 646 330 659 286 659 _c
255 659 222 653 188 643 _c
154 632 117 616 78 594 _c
78 694 _l
118 710 155 722 189 730 _c
223 738 255 742 284 742 _c
}_e{359 742 419 723 464 685 _c
509 647 532 597 532 534 _c
532 504 526 475 515 449 _c
504 422 484 390 454 354 _c
446 344 420 317 376 272 _c
332 227 271 164 192 83 _c
_cl}_e}_d
/three{{636 0 76 -13 556 742 _sc
406 393 _m
453 383 490 362 516 330 _c
542 298 556 258 556 212 _c
556 140 531 84 482 45 _c
432 6 362 -13 271 -13 _c
240 -13 208 -10 176 -4 _c
144 1 110 10 76 22 _c
76 117 _l
103 101 133 89 166 81 _c
198 73 232 69 268 69 _c
330 69 377 81 409 105 _c
441 129 458 165 458 212 _c
458 254 443 288 413 312 _c
383 336 341 349 287 349 _c
}_e{202 349 _l
202 430 _l
291 430 _l
339 430 376 439 402 459 _c
428 478 441 506 441 543 _c
441 580 427 609 401 629 _c
374 649 336 659 287 659 _c
260 659 231 656 200 650 _c
169 644 135 635 98 623 _c
98 711 _l
135 721 170 729 203 734 _c
235 739 266 742 296 742 _c
370 742 429 725 473 691 _c
517 657 539 611 539 553 _c
539 513 527 479 504 451 _c
481 423 448 403 406 393 _c
_cl}_e}_d
/four{636 0 49 0 580 729 _sc
378 643 _m
129 254 _l
378 254 _l
378 643 _l
352 729 _m
476 729 _l
476 254 _l
580 254 _l
580 172 _l
476 172 _l
476 0 _l
378 0 _l
378 172 _l
49 172 _l
49 267 _l
352 729 _l
_cl}_d
/five{{636 0 77 -13 549 729 _sc
108 729 _m
495 729 _l
495 646 _l
198 646 _l
198 467 _l
212 472 227 476 241 478 _c
255 480 270 482 284 482 _c
365 482 429 459 477 415 _c
525 370 549 310 549 234 _c
549 155 524 94 475 51 _c
426 8 357 -13 269 -13 _c
238 -13 207 -10 175 -6 _c
143 -1 111 6 77 17 _c
77 116 _l
106 100 136 88 168 80 _c
199 72 232 69 267 69 _c
}_e{323 69 368 83 401 113 _c
433 143 450 183 450 234 _c
450 284 433 324 401 354 _c
368 384 323 399 267 399 _c
241 399 214 396 188 390 _c
162 384 135 375 108 363 _c
108 729 _l
_cl}_e}_d
/six{{636 0 70 -13 573 742 _sc
330 404 _m
286 404 251 388 225 358 _c
199 328 186 286 186 234 _c
186 181 199 139 225 109 _c
251 79 286 64 330 64 _c
374 64 409 79 435 109 _c
461 139 474 181 474 234 _c
474 286 461 328 435 358 _c
409 388 374 404 330 404 _c
526 713 _m
526 623 _l
501 635 476 644 451 650 _c
425 656 400 659 376 659 _c
310 659 260 637 226 593 _c
}_e{192 549 172 482 168 394 _c
187 422 211 444 240 459 _c
269 474 301 482 336 482 _c
409 482 467 459 509 415 _c
551 371 573 310 573 234 _c
573 159 550 99 506 54 _c
462 9 403 -13 330 -13 _c
246 -13 181 19 137 83 _c
92 147 70 241 70 364 _c
70 479 97 571 152 639 _c
206 707 280 742 372 742 _c
396 742 421 739 447 735 _c
472 730 498 723 526 713 _c
_cl}_e}_d
/seven{636 0 82 0 551 729 _sc
82 729 _m
551 729 _l
551 687 _l
286 0 _l
183 0 _l
432 646 _l
82 646 _l
82 729 _l
_cl}_d
/eight{{636 0 68 -13 568 742 _sc
318 346 _m
271 346 234 333 207 308 _c
180 283 167 249 167 205 _c
167 161 180 126 207 101 _c
234 76 271 64 318 64 _c
364 64 401 76 428 102 _c
455 127 469 161 469 205 _c
469 249 455 283 429 308 _c
402 333 365 346 318 346 _c
219 388 _m
177 398 144 418 120 447 _c
96 476 85 511 85 553 _c
85 611 105 657 147 691 _c
188 725 245 742 318 742 _c
}_e{390 742 447 725 489 691 _c
530 657 551 611 551 553 _c
551 511 539 476 515 447 _c
491 418 459 398 417 388 _c
464 377 501 355 528 323 _c
554 291 568 251 568 205 _c
568 134 546 80 503 43 _c
459 5 398 -13 318 -13 _c
237 -13 175 5 132 43 _c
89 80 68 134 68 205 _c
68 251 81 291 108 323 _c
134 355 171 377 219 388 _c
183 544 _m
183 506 194 476 218 455 _c
}_e{242 434 275 424 318 424 _c
360 424 393 434 417 455 _c
441 476 453 506 453 544 _c
453 582 441 611 417 632 _c
393 653 360 664 318 664 _c
275 664 242 653 218 632 _c
194 611 183 582 183 544 _c
_cl}_e}_d
/equal{838 0 106 172 732 454 _sc
106 454 _m
732 454 _l
732 372 _l
106 372 _l
106 454 _l
106 255 _m
732 255 _l
732 172 _l
106 172 _l
106 255 _l
_cl}_d
/E{632 0 98 0 568 729 _sc
98 729 _m
559 729 _l
559 646 _l
197 646 _l
197 430 _l
544 430 _l
544 347 _l
197 347 _l
197 83 _l
568 83 _l
568 0 _l
98 0 _l
98 729 _l
_cl}_d
/M{863 0 98 0 765 729 _sc
98 729 _m
245 729 _l
431 233 _l
618 729 _l
765 729 _l
765 0 _l
669 0 _l
669 640 _l
481 140 _l
382 140 _l
194 640 _l
194 0 _l
98 0 _l
98 729 _l
_cl}_d
/P{603 0 98 0 569 729 _sc
197 648 _m
197 374 _l
321 374 _l
367 374 402 385 427 409 _c
452 433 465 467 465 511 _c
465 555 452 588 427 612 _c
402 636 367 648 321 648 _c
197 648 _l
98 729 _m
321 729 _l
402 729 464 710 506 673 _c
548 636 569 582 569 511 _c
569 439 548 384 506 348 _c
464 311 402 293 321 293 _c
197 293 _l
197 0 _l
98 0 _l
98 729 _l
_cl}_d
/S{{635 0 66 -13 579 742 _sc
535 705 _m
535 609 _l
497 627 462 640 429 649 _c
395 657 363 662 333 662 _c
279 662 237 651 208 631 _c
179 610 165 580 165 542 _c
165 510 174 485 194 469 _c
213 452 250 439 304 429 _c
364 417 _l
437 403 491 378 526 343 _c
561 307 579 260 579 201 _c
579 130 555 77 508 41 _c
460 5 391 -13 300 -13 _c
265 -13 228 -9 189 -2 _c
}_e{150 5 110 16 69 32 _c
69 134 _l
109 111 148 94 186 83 _c
224 71 262 66 300 66 _c
356 66 399 77 430 99 _c
460 121 476 152 476 194 _c
476 230 465 258 443 278 _c
421 298 385 313 335 323 _c
275 335 _l
201 349 148 372 115 404 _c
82 435 66 478 66 534 _c
66 598 88 649 134 686 _c
179 723 242 742 322 742 _c
356 742 390 739 426 733 _c
461 727 497 717 535 705 _c
}_e{_cl}_e}_d
/a{{613 0 60 -13 522 560 _sc
343 275 _m
270 275 220 266 192 250 _c
164 233 150 205 150 165 _c
150 133 160 107 181 89 _c
202 70 231 61 267 61 _c
317 61 357 78 387 114 _c
417 149 432 196 432 255 _c
432 275 _l
343 275 _l
522 312 _m
522 0 _l
432 0 _l
432 83 _l
411 49 385 25 355 10 _c
325 -5 287 -13 243 -13 _c
187 -13 142 2 109 33 _c
76 64 60 106 60 159 _c
}_e{60 220 80 266 122 298 _c
163 329 224 345 306 345 _c
432 345 _l
432 354 _l
432 395 418 427 391 450 _c
364 472 326 484 277 484 _c
245 484 215 480 185 472 _c
155 464 127 453 100 439 _c
100 522 _l
132 534 164 544 195 550 _c
226 556 256 560 286 560 _c
365 560 424 539 463 498 _c
502 457 522 395 522 312 _c
_cl}_e}_d
/b{{635 0 91 -13 580 760 _sc
487 273 _m
487 339 473 390 446 428 _c
418 466 381 485 334 485 _c
286 485 249 466 222 428 _c
194 390 181 339 181 273 _c
181 207 194 155 222 117 _c
249 79 286 61 334 61 _c
381 61 418 79 446 117 _c
473 155 487 207 487 273 _c
181 464 _m
199 496 223 520 252 536 _c
281 552 316 560 356 560 _c
422 560 476 533 518 481 _c
559 428 580 359 580 273 _c
}_e{580 187 559 117 518 65 _c
476 13 422 -13 356 -13 _c
316 -13 281 -5 252 10 _c
223 25 199 49 181 82 _c
181 0 _l
91 0 _l
91 760 _l
181 760 _l
181 464 _l
_cl}_e}_d
/d{{635 0 55 -13 544 760 _sc
454 464 _m
454 760 _l
544 760 _l
544 0 _l
454 0 _l
454 82 _l
435 49 411 25 382 10 _c
353 -5 319 -13 279 -13 _c
213 -13 159 13 117 65 _c
75 117 55 187 55 273 _c
55 359 75 428 117 481 _c
159 533 213 560 279 560 _c
319 560 353 552 382 536 _c
411 520 435 496 454 464 _c
148 273 _m
148 207 161 155 188 117 _c
215 79 253 61 301 61 _c
}_e{348 61 385 79 413 117 _c
440 155 454 207 454 273 _c
454 339 440 390 413 428 _c
385 466 348 485 301 485 _c
253 485 215 466 188 428 _c
161 390 148 339 148 273 _c
_cl}_e}_d
/e{{615 0 55 -13 562 560 _sc
562 296 _m
562 252 _l
149 252 _l
153 190 171 142 205 110 _c
238 78 284 62 344 62 _c
378 62 412 66 444 74 _c
476 82 509 95 541 113 _c
541 28 _l
509 14 476 3 442 -3 _c
408 -9 373 -13 339 -13 _c
251 -13 182 12 131 62 _c
80 112 55 181 55 268 _c
55 357 79 428 127 481 _c
175 533 241 560 323 560 _c
397 560 455 536 498 489 _c
}_e{540 441 562 377 562 296 _c
472 322 _m
471 371 457 410 431 440 _c
404 469 368 484 324 484 _c
274 484 234 469 204 441 _c
174 413 156 373 152 322 _c
472 322 _l
_cl}_e}_d
/h{634 0 91 0 549 760 _sc
549 330 _m
549 0 _l
459 0 _l
459 327 _l
459 379 448 417 428 443 _c
408 469 378 482 338 482 _c
289 482 251 466 223 435 _c
195 404 181 362 181 309 _c
181 0 _l
91 0 _l
91 760 _l
181 760 _l
181 462 _l
202 494 227 519 257 535 _c
286 551 320 560 358 560 _c
420 560 468 540 500 501 _c
532 462 549 405 549 330 _c
_cl}_d
/i{278 0 94 0 184 760 _sc
94 547 _m
184 547 _l
184 0 _l
94 0 _l
94 547 _l
94 760 _m
184 760 _l
184 646 _l
94 646 _l
94 760 _l
_cl}_d
/l{278 0 94 0 184 760 _sc
94 760 _m
184 760 _l
184 0 _l
94 0 _l
94 760 _l
_cl}_d
/n{634 0 91 0 549 560 _sc
549 330 _m
549 0 _l
459 0 _l
459 327 _l
459 379 448 417 428 443 _c
408 469 378 482 338 482 _c
289 482 251 466 223 435 _c
195 404 181 362 181 309 _c
181 0 _l
91 0 _l
91 547 _l
181 547 _l
181 462 _l
202 494 227 519 257 535 _c
286 551 320 560 358 560 _c
420 560 468 540 500 501 _c
532 462 549 405 549 330 _c
_cl}_d
/o{612 0 55 -13 557 560 _sc
306 484 _m
258 484 220 465 192 427 _c
164 389 150 338 150 273 _c
150 207 163 156 191 118 _c
219 80 257 62 306 62 _c
354 62 392 80 420 118 _c
448 156 462 207 462 273 _c
462 337 448 389 420 427 _c
392 465 354 484 306 484 _c
306 560 _m
384 560 445 534 490 484 _c
534 433 557 363 557 273 _c
557 183 534 113 490 63 _c
445 12 384 -13 306 -13 _c
227 -13 165 12 121 63 _c
77 113 55 183 55 273 _c
55 363 77 433 121 484 _c
165 534 227 560 306 560 _c
_cl}_d
/p{{635 0 91 -207 580 560 _sc
181 82 _m
181 -207 _l
91 -207 _l
91 547 _l
181 547 _l
181 464 _l
199 496 223 520 252 536 _c
281 552 316 560 356 560 _c
422 560 476 533 518 481 _c
559 428 580 359 580 273 _c
580 187 559 117 518 65 _c
476 13 422 -13 356 -13 _c
316 -13 281 -5 252 10 _c
223 25 199 49 181 82 _c
487 273 _m
487 339 473 390 446 428 _c
418 466 381 485 334 485 _c
}_e{286 485 249 466 222 428 _c
194 390 181 339 181 273 _c
181 207 194 155 222 117 _c
249 79 286 61 334 61 _c
381 61 418 79 446 117 _c
473 155 487 207 487 273 _c
_cl}_e}_d
/r{411 0 91 0 411 560 _sc
411 463 _m
401 469 390 473 378 476 _c
366 478 353 480 339 480 _c
288 480 249 463 222 430 _c
194 397 181 350 181 288 _c
181 0 _l
91 0 _l
91 547 _l
181 547 _l
181 462 _l
199 495 224 520 254 536 _c
284 552 321 560 365 560 _c
371 560 378 559 386 559 _c
393 558 401 557 411 555 _c
411 463 _l
_cl}_d
/s{{521 0 54 -13 472 560 _sc
443 531 _m
443 446 _l
417 458 391 468 364 475 _c
336 481 308 485 279 485 _c
234 485 200 478 178 464 _c
156 450 145 430 145 403 _c
145 382 153 366 169 354 _c
185 342 217 330 265 320 _c
296 313 _l
360 299 405 279 432 255 _c
458 230 472 195 472 151 _c
472 100 452 60 412 31 _c
372 1 316 -13 246 -13 _c
216 -13 186 -10 154 -5 _c
}_e{122 0 89 8 54 20 _c
54 113 _l
87 95 120 82 152 74 _c
184 65 216 61 248 61 _c
290 61 323 68 346 82 _c
368 96 380 117 380 144 _c
380 168 371 187 355 200 _c
339 213 303 226 247 238 _c
216 245 _l
160 257 119 275 95 299 _c
70 323 58 356 58 399 _c
58 450 76 490 112 518 _c
148 546 200 560 268 560 _c
301 560 332 557 362 552 _c
391 547 418 540 443 531 _c
}_e{_cl}_e}_d
/t{392 0 27 0 368 702 _sc
183 702 _m
183 547 _l
368 547 _l
368 477 _l
183 477 _l
183 180 _l
183 135 189 106 201 94 _c
213 81 238 75 276 75 _c
368 75 _l
368 0 _l
276 0 _l
206 0 158 13 132 39 _c
106 65 93 112 93 180 _c
93 477 _l
27 477 _l
27 547 _l
93 547 _l
93 702 _l
183 702 _l
_cl}_d
/x{592 0 29 0 559 547 _sc
549 547 _m
351 281 _l
559 0 _l
453 0 _l
294 215 _l
135 0 _l
29 0 _l
241 286 _l
47 547 _l
153 547 _l
298 352 _l
443 547 _l
549 547 _l
_cl}_d
end readonly def

/BuildGlyph
 {exch begin
 CharStrings exch
 2 copy known not{pop /.notdef}if
 true 3 1 roll get exec
 end}_d

/BuildChar {
 1 index /Encoding get exch get
 1 index /BuildGlyph get exec
}_d

FontName currentdict end definefont pop
end
%%EndProlog
mpldict begin
75.6 223.2 translate
460.8 345.6 0 0 clipbox
gsave
0 0 m
460.8 0 l
460.8 345.6 l
0 345.6 l
cl
1.000 setgray
fill
grestore
gsave
57.6 38.016 m
414.72 38.016 l
414.72 304.128 l
57.6 304.128 l
cl
1.000 setgray
fill
grestore
0.800 setlinewidth
1 setlinejoin
0 setlinecap
[] 0 setdash
0.000 setgray
gsave
/o {
gsave
newpath
translate
0.8 setlinewidth
1 setlinejoin
0 setlinecap
0 0 m
0 -3.5 l

gsave
0.000 setgray
fill
grestore
stroke
grestore
} bind def
57.6 38.016 o
grestore
/DejaVuSans findfont
10.000 scalefont
setfont
gsave
51.240625 23.422250 translate
0.000000 rotate
0.000000 0.000000 m /one glyphshow
6.362305 0.000000 m /zero glyphshow
grestore
gsave
/o {
gsave
newpath
translate
0.8 setlinewidth
1 setlinejoin
0 setlinecap
0 0 m
0 -3.5 l

gsave
0.000 setgray
fill
grestore
stroke
grestore
} bind def
100.114 38.016 o
grestore
gsave
93.754911 23.422250 translate
0.000000 rotate
0.000000 0.000000 m /one glyphshow
6.362305 0.000000 m /two glyphshow
grestore
gsave
/o {
gsave
newpath
translate
0.8 setlinewidth
1 setlinejoin
0 setlinecap
0 0 m
0 -3.5 l

gsave
0.000 setgray
fill
grestore
stroke
grestore
} bind def
142.629 38.016 o
grestore
gsave
136.269196 23.422250 translate
0.000000 rotate
0.000000 0.000000 m /one glyphshow
6.362305 0.000000 m /five glyphshow
grestore
gsave
/o {
gsave
newpath
translate
0.8 setlinewidth
1 setlinejoin
0 setlinecap
0 0 m
0 -3.5 l

gsave
0.000 setgray
fill
grestore
stroke
grestore
} bind def
185.143 38.016 o
grestore
gsave
178.783482 23.422250 translate
0.000000 rotate
0.000000 0.000000 m /one glyphshow
6.362305 0.000000 m /seven glyphshow
grestore
gsave
/o {
gsave
newpath
translate
0.8 setlinewidth
1 setlinejoin
0 setlinecap
0 0 m
0 -3.5 l

gsave
0.000 setgray
fill
grestore
stroke
grestore
} bind def
227.657 38.016 o
grestore
gsave
221.297768 23.422250 translate
0.000000 rotate
0.000000 0.000000 m /two glyphshow
6.362305 0.000000 m /zero glyphshow
grestore
gsave
/o {
gsave
newpath
translate
0.8 setlinewidth
1 setlinejoin
0 setlinecap
0 0 m
0 -3.5 l

gsave
0.000 setgray
fill
grestore
stroke
grestore
} bind def
270.171 38.016 o
grestore
gsave
263.812054 23.422250 translate
0.000000 rotate
0.000000 0.000000 m /two glyphshow
6.362305 0.000000 m /two glyphshow
grestore
gsave
/o {
gsave
newpath
translate
0.8 setlinewidth
1 setlinejoin
0 setlinecap
0 0 m
0 -3.5 l

gsave
0.000 setgray
fill
grestore
stroke
grestore
} bind def
312.686 38.016 o
grestore
gsave
306.326339 23.422250 translate
0.000000 rotate
0.000000 0.000000 m /two glyphshow
6.362305 0.000000 m /five glyphshow
grestore
gsave
/o {
gsave
newpath
translate
0.8 setlinewidth
1 setlinejoin
0 setlinecap
0 0 m
0 -3.5 l

gsave
0.000 setgray
fill
grestore
stroke
grestore
} bind def
355.2 38.016 o
grestore
gsave
348.840625 23.422250 translate
0.000000 rotate
0.000000 0.000000 m /two glyphshow
6.362305 0.000000 m /seven glyphshow
grestore
gsave
/o {
gsave
newpath
translate
0.8 setlinewidth
1 setlinejoin
0 setlinecap
0 0 m
0 -3.5 l

gsave
0.000 setgray
fill
grestore
stroke
grestore
} bind def
397.714 38.016 o
grestore
gsave
391.354911 23.422250 translate
0.000000 rotate
0.000000 0.000000 m /three glyphshow
6.362305 0.000000 m /zero glyphshow
grestore
gsave
210.167812 9.750375 translate
0.000000 rotate
0.000000 0.000000 m /S glyphshow
6.347656 0.000000 m /n glyphshow
12.685547 0.000000 m /a glyphshow
18.813477 0.000000 m /p glyphshow
25.161133 0.000000 m /s glyphshow
30.371094 0.000000 m /h glyphshow
36.708984 0.000000 m /o glyphshow
42.827148 0.000000 m /t glyphshow
46.748047 0.000000 m /s glyphshow
grestore
gsave
/o {
gsave
newpath
translate
0.8 setlinewidth
1 setlinejoin
0 setlinecap
0 0 m
-3.5 0 l

gsave
0.000 setgray
fill
grestore
stroke
grestore
} bind def
57.6 38.4093 o
grestore
gsave
21.975000 34.612416 translate
0.000000 rotate
0.000000 0.000000 m /zero glyphshow
6.362305 0.000000 m /period glyphshow
9.541016 0.000000 m /zero glyphshow
15.903320 0.000000 m /zero glyphshow
22.265625 0.000000 m /zero glyphshow
grestore
gsave
/o {
gsave
newpath
translate
0.8 setlinewidth
1 setlinejoin
0 setlinecap
0 0 m
-3.5 0 l

gsave
0.000 setgray
fill
grestore
stroke
grestore
} bind def
57.6 77.7568 o
grestore
gsave
21.975000 73.959970 translate
0.000000 rotate
0.000000 0.000000 m /zero glyphshow
6.362305 0.000000 m /period glyphshow
9.541016 0.000000 m /zero glyphshow
15.903320 0.000000 m /zero glyphshow
22.265625 0.000000 m /two glyphshow
grestore
gsave
/o {
gsave
newpath
translate
0.8 setlinewidth
1 setlinejoin
0 setlinecap
0 0 m
-3.5 0 l

gsave
0.000 setgray
fill
grestore
stroke
grestore
} bind def
57.6 117.104 o
grestore
gsave
21.975000 113.307524 translate
0.000000 rotate
0.000000 0.000000 m /zero glyphshow
6.362305 0.000000 m /period glyphshow
9.541016 0.000000 m /zero glyphshow
15.903320 0.000000 m /zero glyphshow
22.265625 0.000000 m /four glyphshow
grestore
gsave
/o {
gsave
newpath
translate
0.8 setlinewidth
1 setlinejoin
0 setlinecap
0 0 m
-3.5 0 l

gsave
0.000 setgray
fill
grestore
stroke
grestore
} bind def
57.6 156.452 o
grestore
gsave
21.975000 152.655077 translate
0.000000 rotate
0.000000 0.000000 m /zero glyphshow
6.362305 0.000000 m /period glyphshow
9.541016 0.000000 m /zero glyphshow
15.903320 0.000000 m /zero glyphshow
22.265625 0.000000 m /six glyphshow
grestore
gsave
/o {
gsave
newpath
translate
0.8 setlinewidth
1 setlinejoin
0 setlinecap
0 0 m
-3.5 0 l

gsave
0.000 setgray
fill
grestore
stroke
grestore
} bind def
57.6 195.8 o
grestore
gsave
21.975000 192.002631 translate
0.000000 rotate
0.000000 0.000000 m /zero glyphshow
6.362305 0.000000 m /period glyphshow
9.541016 0.000000 m /zero glyphshow
15.903320 0.000000 m /zero glyphshow
22.265625 0.000000 m /eight glyphshow
grestore
gsave
/o {
gsave
newpath
translate
0.8 setlinewidth
1 setlinejoin
0 setlinecap
0 0 m
-3.5 0 l

gsave
0.000 setgray
fill
grestore
stroke
grestore
} bind def
57.6 235.147 o
grestore
gsave
21.975000 231.350185 translate
0.000000 rotate
0.000000 0.000000 m /zero glyphshow
6.362305 0.000000 m /period glyphshow
9.541016 0.000000 m /zero glyphshow
15.903320 0.000000 m /one glyphshow
22.265625 0.000000 m /zero glyphshow
grestore
gsave
/o {
gsave
newpath
translate
0.8 setlinewidth
1 setlinejoin
0 setlinecap
0 0 m
-3.5 0 l

gsave
0.000 setgray
fill
grestore
stroke
grestore
} bind def
57.6 274.495 o
grestore
gsave
21.975000 270.697739 translate
0.000000 rotate
0.000000 0.000000 m /zero glyphshow
6.362305 0.000000 m /period glyphshow
9.541016 0.000000 m /zero glyphshow
15.903320 0.000000 m /one glyphshow
22.265625 0.000000 m /two glyphshow
grestore
gsave
15.896875 159.236062 translate
90.000000 rotate
0.000000 0.000000 m /P glyphshow
6.030273 0.000000 m /i glyphshow
8.808594 0.000000 m /x glyphshow
14.726562 0.000000 m /e glyphshow
20.878906 0.000000 m /l glyphshow
grestore
2.000 setlinewidth
2 setlinecap
gsave
357.1 266.1 57.6 38.02 clipbox
57.6 125.384929 m
74.605714 127.373548 l
91.611429 129.940043 l
108.617143 129.211957 l
125.622857 136.164815 l
142.628571 138.208247 l
159.634286 142.002222 l
176.64 139.194984 l
193.645714 143.975045 l
210.651429 145.010684 l
227.657143 152.464728 l
244.662857 159.356381 l
261.668571 157.588583 l
278.674286 156.317794 l
295.68 165.732788 l
312.685714 158.346958 l
329.691429 165.72932 l
346.697143 170.712297 l
363.702857 167.082579 l
380.708571 178.35033 l
397.714286 183.597904 l
414.72 199.137521 l
stroke
grestore
1.000 0.000 0.000 setrgbcolor
gsave
357.1 266.1 57.6 38.02 clipbox
57.6 59.57643 m
74.605714 61.449811 l
91.611429 60.490064 l
108.617143 59.846454 l
125.622857 60.872066 l
142.628571 61.367448 l
159.634286 61.997199 l
176.64 61.004189 l
193.645714 61.054163 l
210.651429 62.607391 l
227.657143 59.992812 l
244.662857 60.817314 l
261.668571 61.339728 l
278.674286 61.59349 l
295.68 63.784433 l
312.685714 63.23995 l
329.691429 63.27731 l
346.697143 63.162496 l
363.702857 62.062192 l
380.708571 63.203793 l
397.714286 62.822449 l
414.72 61.786126 l
stroke
grestore
0.000 0.000 1.000 setrgbcolor
gsave
357.1 266.1 57.6 38.02 clipbox
57.6 61.701947 m
74.605714 64.408636 l
91.611429 63.780402 l
108.617143 67.722092 l
125.622857 70.350923 l
142.628571 71.234093 l
159.634286 70.630813 l
176.64 69.493301 l
193.645714 73.528467 l
210.651429 70.604125 l
227.657143 74.61128 l
244.662857 80.295902 l
261.668571 78.978016 l
278.674286 100.902265 l
295.68 95.507924 l
312.685714 112.607724 l
329.691429 126.056393 l
346.697143 99.809592 l
363.702857 99.983137 l
380.708571 148.867592 l
397.714286 139.621113 l
414.72 154.482611 l
stroke
grestore
0.750 0.000 0.750 setrgbcolor
gsave
357.1 266.1 57.6 38.02 clipbox
57.6 145.587559 m
74.605714 121.729473 l
91.611429 129.724929 l
108.617143 138.288048 l
125.622857 173.591412 l
142.628571 165.17997 l
159.634286 163.410355 l
176.64 209.129777 l
193.645714 242.142127 l
210.651429 240.940732 l
227.657143 267.828706 l
244.662857 233.351617 l
261.668571 219.423362 l
278.674286 245.666569 l
295.68 225.149878 l
312.685714 259.347836 l
329.691429 218.130054 l
346.697143 244.425778 l
363.702857 238.781488 l
380.708571 279.497903 l
397.714286 199.79097 l
414.72 261.094163 l
stroke
grestore
0 setlinecap
[7.4 3.2] 0 setdash
0.000 setgray
gsave
357.1 266.1 57.6 38.02 clipbox
57.6 58.523212 m
74.605714 63.408433 l
91.611429 67.964681 l
108.617143 70.483233 l
125.622857 72.922397 l
142.628571 73.185621 l
159.634286 73.708584 l
176.64 72.145831 l
193.645714 76.686985 l
210.651429 76.798302 l
227.657143 79.581874 l
244.662857 77.222103 l
261.668571 78.799006 l
278.674286 78.256771 l
295.68 82.644148 l
312.685714 80.92213 l
329.691429 79.482971 l
346.697143 75.975529 l
363.702857 77.231082 l
380.708571 76.619676 l
397.714286 78.128962 l
414.72 78.542251 l
stroke
grestore
1.000 0.000 0.000 setrgbcolor
gsave
357.1 266.1 57.6 38.02 clipbox
57.6 50.112 m
74.605714 52.248147 l
91.611429 53.203546 l
108.617143 54.488208 l
125.622857 54.972125 l
142.628571 55.911234 l
159.634286 56.763118 l
176.64 57.566862 l
193.645714 56.724791 l
210.651429 58.057442 l
227.657143 57.937421 l
244.662857 58.438206 l
261.668571 59.186257 l
278.674286 58.803053 l
295.68 59.386358 l
312.685714 60.742763 l
329.691429 59.948486 l
346.697143 61.146678 l
363.702857 61.621586 l
380.708571 60.711427 l
397.714286 62.869595 l
414.72 62.810939 l
stroke
grestore
0.000 0.000 1.000 setrgbcolor
gsave
357.1 266.1 57.6 38.02 clipbox
57.6 61.13138 m
74.605714 59.97115 l
91.611429 69.221096 l
108.617143 62.670088 l
125.622857 63.662103 l
142.628571 68.697408 l
159.634286 63.859096 l
176.64 67.709589 l
193.645714 66.9432 l
210.651429 64.09179 l
227.657143 62.889211 l
244.662857 64.283687 l
261.668571 70.216634 l
278.674286 82.322777 l
295.68 81.465092 l
312.685714 75.929775 l
329.691429 70.219528 l
346.697143 73.461969 l
363.702857 81.93511 l
380.708571 93.385435 l
397.714286 96.50584 l
414.72 104.505628 l
stroke
grestore
0.750 0.000 0.750 setrgbcolor
gsave
357.1 266.1 57.6 38.02 clipbox
57.6 84.443158 m
74.605714 110.806572 l
91.611429 159.776702 l
108.617143 130.475278 l
125.622857 110.562277 l
142.628571 152.028087 l
159.634286 158.740625 l
176.64 206.898804 l
193.645714 184.483392 l
210.651429 182.265009 l
227.657143 217.568891 l
244.662857 224.172592 l
261.668571 215.000011 l
278.674286 237.043388 l
295.68 236.80555 l
312.685714 225.983061 l
329.691429 292.032 l
346.697143 225.344496 l
363.702857 283.176606 l
380.708571 258.116721 l
397.714286 243.491547 l
414.72 275.877912 l
stroke
grestore
0.800 setlinewidth
0 setlinejoin
2 setlinecap
[] 0 setdash
0.000 setgray
gsave
57.6 38.016 m
57.6 304.128 l
stroke
grestore
gsave
414.72 38.016 m
414.72 304.128 l
stroke
grestore
gsave
57.6 38.016 m
414.72 38.016 l
stroke
grestore
gsave
57.6 304.128 m
414.72 304.128 l
stroke
grestore
/DejaVuSans findfont
12.000 scalefont
setfont
gsave
172.206875 310.128000 translate
0.000000 rotate
0.000000 0.000000 m /M glyphshow
10.353516 0.000000 m /e glyphshow
17.736328 0.000000 m /a glyphshow
25.089844 0.000000 m /n glyphshow
32.695312 0.000000 m /space glyphshow
36.509766 0.000000 m /P glyphshow
43.746094 0.000000 m /o glyphshow
51.087891 0.000000 m /s glyphshow
57.339844 0.000000 m /i glyphshow
60.673828 0.000000 m /t glyphshow
65.378906 0.000000 m /i glyphshow
68.712891 0.000000 m /o glyphshow
76.054688 0.000000 m /n glyphshow
83.660156 0.000000 m /a glyphshow
91.013672 0.000000 m /l glyphshow
94.347656 0.000000 m /space glyphshow
98.162109 0.000000 m /E glyphshow
105.744141 0.000000 m /r glyphshow
110.677734 0.000000 m /r glyphshow
115.611328 0.000000 m /o glyphshow
122.953125 0.000000 m /r glyphshow
grestore
1.000 setlinewidth
0 setlinecap
0.800 setgray
gsave
64.6 178.753 m
214.271875 178.753 l
215.605208 178.753 216.271875 179.419667 216.271875 180.753 c
216.271875 297.128 l
216.271875 298.461333 215.605208 299.128 214.271875 299.128 c
64.6 299.128 l
63.266667 299.128 62.6 298.461333 62.6 297.128 c
62.6 180.753 l
62.6 179.419667 63.266667 178.753 64.6 178.753 c
cl
gsave
1.000 setgray
fill
grestore
stroke
grestore
2.000 setlinewidth
1 setlinejoin
2 setlinecap
[] 0 setdash
0.000 setgray
gsave
66.6 291.03425 m
86.6 291.03425 l
stroke
grestore
/DejaVuSans findfont
10.000 scalefont
setfont
gsave
94.600000 287.534250 translate
0.000000 rotate
0.000000 0.000000 m /s glyphshow
5.209961 0.000000 m /t glyphshow
9.130859 0.000000 m /b glyphshow
15.478516 0.000000 m /space glyphshow
18.657227 0.000000 m /one glyphshow
25.019531 0.000000 m /zero glyphshow
31.381836 0.000000 m /zero glyphshow
37.744141 0.000000 m /zero glyphshow
44.106445 0.000000 m /zero glyphshow
50.468750 0.000000 m /comma glyphshow
53.647461 0.000000 m /space glyphshow
56.826172 0.000000 m /d glyphshow
63.173828 0.000000 m /t glyphshow
67.094727 0.000000 m /o glyphshow
73.212891 0.000000 m /b glyphshow
79.560547 0.000000 m /s glyphshow
84.770508 0.000000 m /equal glyphshow
93.149414 0.000000 m /zero glyphshow
99.511719 0.000000 m /period glyphshow
102.690430 0.000000 m /zero glyphshow
109.052734 0.000000 m /two glyphshow
grestore
1.000 0.000 0.000 setrgbcolor
gsave
66.6 276.362375 m
86.6 276.362375 l
stroke
grestore
0.000 setgray
gsave
94.600000 272.862375 translate
0.000000 rotate
0.000000 0.000000 m /s glyphshow
5.209961 0.000000 m /t glyphshow
9.130859 0.000000 m /b glyphshow
15.478516 0.000000 m /space glyphshow
18.657227 0.000000 m /one glyphshow
25.019531 0.000000 m /zero glyphshow
31.381836 0.000000 m /zero glyphshow
37.744141 0.000000 m /zero glyphshow
44.106445 0.000000 m /comma glyphshow
47.285156 0.000000 m /space glyphshow
50.463867 0.000000 m /d glyphshow
56.811523 0.000000 m /t glyphshow
60.732422 0.000000 m /o glyphshow
66.850586 0.000000 m /b glyphshow
73.198242 0.000000 m /s glyphshow
78.408203 0.000000 m /equal glyphshow
86.787109 0.000000 m /zero glyphshow
93.149414 0.000000 m /period glyphshow
96.328125 0.000000 m /zero glyphshow
102.690430 0.000000 m /two glyphshow
grestore
0.000 0.000 1.000 setrgbcolor
gsave
66.6 261.6905 m
86.6 261.6905 l
stroke
grestore
0.000 setgray
gsave
94.600000 258.190500 translate
0.000000 rotate
0.000000 0.000000 m /s glyphshow
5.209961 0.000000 m /t glyphshow
9.130859 0.000000 m /b glyphshow
15.478516 0.000000 m /space glyphshow
18.657227 0.000000 m /one glyphshow
25.019531 0.000000 m /zero glyphshow
31.381836 0.000000 m /zero glyphshow
37.744141 0.000000 m /zero glyphshow
44.106445 0.000000 m /comma glyphshow
47.285156 0.000000 m /space glyphshow
50.463867 0.000000 m /d glyphshow
56.811523 0.000000 m /t glyphshow
60.732422 0.000000 m /o glyphshow
66.850586 0.000000 m /b glyphshow
73.198242 0.000000 m /s glyphshow
78.408203 0.000000 m /equal glyphshow
86.787109 0.000000 m /zero glyphshow
93.149414 0.000000 m /period glyphshow
96.328125 0.000000 m /zero glyphshow
102.690430 0.000000 m /five glyphshow
grestore
0.750 0.000 0.750 setrgbcolor
gsave
66.6 247.018625 m
86.6 247.018625 l
stroke
grestore
0.000 setgray
gsave
94.600000 243.518625 translate
0.000000 rotate
0.000000 0.000000 m /s glyphshow
5.209961 0.000000 m /t glyphshow
9.130859 0.000000 m /b glyphshow
15.478516 0.000000 m /space glyphshow
18.657227 0.000000 m /one glyphshow
25.019531 0.000000 m /zero glyphshow
31.381836 0.000000 m /zero glyphshow
37.744141 0.000000 m /zero glyphshow
44.106445 0.000000 m /comma glyphshow
47.285156 0.000000 m /space glyphshow
50.463867 0.000000 m /d glyphshow
56.811523 0.000000 m /t glyphshow
60.732422 0.000000 m /o glyphshow
66.850586 0.000000 m /b glyphshow
73.198242 0.000000 m /s glyphshow
78.408203 0.000000 m /equal glyphshow
86.787109 0.000000 m /zero glyphshow
93.149414 0.000000 m /period glyphshow
96.328125 0.000000 m /one glyphshow
grestore
0 setlinecap
[7.4 3.2] 0 setdash
gsave
66.6 232.34675 m
86.6 232.34675 l
stroke
grestore
gsave
94.600000 228.846750 translate
0.000000 rotate
0.000000 0.000000 m /e glyphshow
6.152344 0.000000 m /n glyphshow
12.490234 0.000000 m /s glyphshow
17.700195 0.000000 m /space glyphshow
20.878906 0.000000 m /one glyphshow
27.241211 0.000000 m /zero glyphshow
33.603516 0.000000 m /zero glyphshow
39.965820 0.000000 m /zero glyphshow
46.328125 0.000000 m /zero glyphshow
52.690430 0.000000 m /comma glyphshow
55.869141 0.000000 m /space glyphshow
59.047852 0.000000 m /d glyphshow
65.395508 0.000000 m /t glyphshow
69.316406 0.000000 m /o glyphshow
75.434570 0.000000 m /b glyphshow
81.782227 0.000000 m /s glyphshow
86.992188 0.000000 m /equal glyphshow
95.371094 0.000000 m /zero glyphshow
101.733398 0.000000 m /period glyphshow
104.912109 0.000000 m /zero glyphshow
111.274414 0.000000 m /two glyphshow
grestore
1.000 0.000 0.000 setrgbcolor
gsave
66.6 217.674875 m
86.6 217.674875 l
stroke
grestore
0.000 setgray
gsave
94.600000 214.174875 translate
0.000000 rotate
0.000000 0.000000 m /e glyphshow
6.152344 0.000000 m /n glyphshow
12.490234 0.000000 m /s glyphshow
17.700195 0.000000 m /space glyphshow
20.878906 0.000000 m /one glyphshow
27.241211 0.000000 m /zero glyphshow
33.603516 0.000000 m /zero glyphshow
39.965820 0.000000 m /zero glyphshow
46.328125 0.000000 m /comma glyphshow
49.506836 0.000000 m /space glyphshow
52.685547 0.000000 m /d glyphshow
59.033203 0.000000 m /t glyphshow
62.954102 0.000000 m /o glyphshow
69.072266 0.000000 m /b glyphshow
75.419922 0.000000 m /s glyphshow
80.629883 0.000000 m /equal glyphshow
89.008789 0.000000 m /zero glyphshow
95.371094 0.000000 m /period glyphshow
98.549805 0.000000 m /zero glyphshow
104.912109 0.000000 m /two glyphshow
grestore
0.000 0.000 1.000 setrgbcolor
gsave
66.6 203.003 m
86.6 203.003 l
stroke
grestore
0.000 setgray
gsave
94.600000 199.503000 translate
0.000000 rotate
0.000000 0.000000 m /e glyphshow
6.152344 0.000000 m /n glyphshow
12.490234 0.000000 m /s glyphshow
17.700195 0.000000 m /space glyphshow
20.878906 0.000000 m /one glyphshow
27.241211 0.000000 m /zero glyphshow
33.603516 0.000000 m /zero glyphshow
39.965820 0.000000 m /zero glyphshow
46.328125 0.000000 m /comma glyphshow
49.506836 0.000000 m /space glyphshow
52.685547 0.000000 m /d glyphshow
59.033203 0.000000 m /t glyphshow
62.954102 0.000000 m /o glyphshow
69.072266 0.000000 m /b glyphshow
75.419922 0.000000 m /s glyphshow
80.629883 0.000000 m /equal glyphshow
89.008789 0.000000 m /zero glyphshow
95.371094 0.000000 m /period glyphshow
98.549805 0.000000 m /zero glyphshow
104.912109 0.000000 m /five glyphshow
grestore
0.750 0.000 0.750 setrgbcolor
gsave
66.6 188.331125 m
86.6 188.331125 l
stroke
grestore
0.000 setgray
gsave
94.600000 184.831125 translate
0.000000 rotate
0.000000 0.000000 m /e glyphshow
6.152344 0.000000 m /n glyphshow
12.490234 0.000000 m /s glyphshow
17.700195 0.000000 m /space glyphshow
20.878906 0.000000 m /one glyphshow
27.241211 0.000000 m /zero glyphshow
33.603516 0.000000 m /zero glyphshow
39.965820 0.000000 m /zero glyphshow
46.328125 0.000000 m /comma glyphshow
49.506836 0.000000 m /space glyphshow
52.685547 0.000000 m /d glyphshow
59.033203 0.000000 m /t glyphshow
62.954102 0.000000 m /o glyphshow
69.072266 0.000000 m /b glyphshow
75.419922 0.000000 m /s glyphshow
80.629883 0.000000 m /equal glyphshow
89.008789 0.000000 m /zero glyphshow
95.371094 0.000000 m /period glyphshow
98.549805 0.000000 m /one glyphshow
grestore

end
showpage
