%!PS-Adobe-3.0 EPSF-3.0
%%Title: /Users/yin.yang/Documents/err_res_snap.eps
%%Creator: matplotlib version 2.0.2, http://matplotlib.org/
%%CreationDate: Wed Mar 28 13:54:08 2018
%%Orientation: portrait
%%BoundingBox: 75 223 536 568
%%EndComments
%%BeginProlog
/mpldict 8 dict def
mpldict begin
/m { moveto } bind def
/l { lineto } bind def
/r { rlineto } bind def
/c { curveto } bind def
/cl { closepath } bind def
/box {
m
1 index 0 r
0 exch r
neg 0 r
cl
} bind def
/clipbox {
box
clip
newpath
} bind def
%!PS-Adobe-3.0 Resource-Font
%%Title: DejaVu Sans
%%Copyright: Copyright (c) 2003 by Bitstream, Inc. All Rights Reserved. Copyright (c) 2006 by Tavmjong Bah. All Rights Reserved. DejaVu changes are in public domain 
%%Creator: Converted from TrueType to type 3 by PPR
25 dict begin
/_d{bind def}bind def
/_m{moveto}_d
/_l{lineto}_d
/_cl{closepath eofill}_d
/_c{curveto}_d
/_sc{7 -1 roll{setcachedevice}{pop pop pop pop pop pop}ifelse}_d
/_e{exec}_d
/FontName /DejaVuSans def
/PaintType 0 def
/FontMatrix[.001 0 0 .001 0 0]def
/FontBBox[-1021 -463 1793 1232]def
/FontType 3 def
/Encoding [ /space /comma /period /zero /one /two /three /five /E /M /P /S /a /b /d /e /h /i /l /n /o /p /r /s /t /u /x ] def
/FontInfo 10 dict dup begin
/FamilyName (DejaVu Sans) def
/FullName (DejaVu Sans) def
/Notice (Copyright (c) 2003 by Bitstream, Inc. All Rights Reserved. Copyright (c) 2006 by Tavmjong Bah. All Rights Reserved. DejaVu changes are in public domain ) def
/Weight (Book) def
/Version (Version 2.35) def
/ItalicAngle 0.0 def
/isFixedPitch false def
/UnderlinePosition -130 def
/UnderlineThickness 90 def
end readonly def
/CharStrings 27 dict dup begin
/space{318 0 0 0 0 0 _sc
}_d
/comma{318 0 77 -115 220 124 _sc
117 124 _m
220 124 _l
220 40 _l
140 -115 _l
77 -115 _l
117 40 _l
117 124 _l
_cl}_d
/period{318 0 107 0 210 124 _sc
107 124 _m
210 124 _l
210 0 _l
107 0 _l
107 124 _l
_cl}_d
/zero{636 0 66 -13 570 742 _sc
318 664 _m
267 664 229 639 203 589 _c
177 539 165 464 165 364 _c
165 264 177 189 203 139 _c
229 89 267 64 318 64 _c
369 64 407 89 433 139 _c
458 189 471 264 471 364 _c
471 464 458 539 433 589 _c
407 639 369 664 318 664 _c
318 742 _m
399 742 461 709 505 645 _c
548 580 570 486 570 364 _c
570 241 548 147 505 83 _c
461 19 399 -13 318 -13 _c
236 -13 173 19 130 83 _c
87 147 66 241 66 364 _c
66 486 87 580 130 645 _c
173 709 236 742 318 742 _c
_cl}_d
/one{636 0 110 0 544 729 _sc
124 83 _m
285 83 _l
285 639 _l
110 604 _l
110 694 _l
284 729 _l
383 729 _l
383 83 _l
544 83 _l
544 0 _l
124 0 _l
124 83 _l
_cl}_d
/two{{636 0 73 0 536 742 _sc
192 83 _m
536 83 _l
536 0 _l
73 0 _l
73 83 _l
110 121 161 173 226 239 _c
290 304 331 346 348 365 _c
380 400 402 430 414 455 _c
426 479 433 504 433 528 _c
433 566 419 598 392 622 _c
365 646 330 659 286 659 _c
255 659 222 653 188 643 _c
154 632 117 616 78 594 _c
78 694 _l
118 710 155 722 189 730 _c
223 738 255 742 284 742 _c
}_e{359 742 419 723 464 685 _c
509 647 532 597 532 534 _c
532 504 526 475 515 449 _c
504 422 484 390 454 354 _c
446 344 420 317 376 272 _c
332 227 271 164 192 83 _c
_cl}_e}_d
/three{{636 0 76 -13 556 742 _sc
406 393 _m
453 383 490 362 516 330 _c
542 298 556 258 556 212 _c
556 140 531 84 482 45 _c
432 6 362 -13 271 -13 _c
240 -13 208 -10 176 -4 _c
144 1 110 10 76 22 _c
76 117 _l
103 101 133 89 166 81 _c
198 73 232 69 268 69 _c
330 69 377 81 409 105 _c
441 129 458 165 458 212 _c
458 254 443 288 413 312 _c
383 336 341 349 287 349 _c
}_e{202 349 _l
202 430 _l
291 430 _l
339 430 376 439 402 459 _c
428 478 441 506 441 543 _c
441 580 427 609 401 629 _c
374 649 336 659 287 659 _c
260 659 231 656 200 650 _c
169 644 135 635 98 623 _c
98 711 _l
135 721 170 729 203 734 _c
235 739 266 742 296 742 _c
370 742 429 725 473 691 _c
517 657 539 611 539 553 _c
539 513 527 479 504 451 _c
481 423 448 403 406 393 _c
_cl}_e}_d
/five{{636 0 77 -13 549 729 _sc
108 729 _m
495 729 _l
495 646 _l
198 646 _l
198 467 _l
212 472 227 476 241 478 _c
255 480 270 482 284 482 _c
365 482 429 459 477 415 _c
525 370 549 310 549 234 _c
549 155 524 94 475 51 _c
426 8 357 -13 269 -13 _c
238 -13 207 -10 175 -6 _c
143 -1 111 6 77 17 _c
77 116 _l
106 100 136 88 168 80 _c
199 72 232 69 267 69 _c
}_e{323 69 368 83 401 113 _c
433 143 450 183 450 234 _c
450 284 433 324 401 354 _c
368 384 323 399 267 399 _c
241 399 214 396 188 390 _c
162 384 135 375 108 363 _c
108 729 _l
_cl}_e}_d
/E{632 0 98 0 568 729 _sc
98 729 _m
559 729 _l
559 646 _l
197 646 _l
197 430 _l
544 430 _l
544 347 _l
197 347 _l
197 83 _l
568 83 _l
568 0 _l
98 0 _l
98 729 _l
_cl}_d
/M{863 0 98 0 765 729 _sc
98 729 _m
245 729 _l
431 233 _l
618 729 _l
765 729 _l
765 0 _l
669 0 _l
669 640 _l
481 140 _l
382 140 _l
194 640 _l
194 0 _l
98 0 _l
98 729 _l
_cl}_d
/P{603 0 98 0 569 729 _sc
197 648 _m
197 374 _l
321 374 _l
367 374 402 385 427 409 _c
452 433 465 467 465 511 _c
465 555 452 588 427 612 _c
402 636 367 648 321 648 _c
197 648 _l
98 729 _m
321 729 _l
402 729 464 710 506 673 _c
548 636 569 582 569 511 _c
569 439 548 384 506 348 _c
464 311 402 293 321 293 _c
197 293 _l
197 0 _l
98 0 _l
98 729 _l
_cl}_d
/S{{635 0 66 -13 579 742 _sc
535 705 _m
535 609 _l
497 627 462 640 429 649 _c
395 657 363 662 333 662 _c
279 662 237 651 208 631 _c
179 610 165 580 165 542 _c
165 510 174 485 194 469 _c
213 452 250 439 304 429 _c
364 417 _l
437 403 491 378 526 343 _c
561 307 579 260 579 201 _c
579 130 555 77 508 41 _c
460 5 391 -13 300 -13 _c
265 -13 228 -9 189 -2 _c
}_e{150 5 110 16 69 32 _c
69 134 _l
109 111 148 94 186 83 _c
224 71 262 66 300 66 _c
356 66 399 77 430 99 _c
460 121 476 152 476 194 _c
476 230 465 258 443 278 _c
421 298 385 313 335 323 _c
275 335 _l
201 349 148 372 115 404 _c
82 435 66 478 66 534 _c
66 598 88 649 134 686 _c
179 723 242 742 322 742 _c
356 742 390 739 426 733 _c
461 727 497 717 535 705 _c
}_e{_cl}_e}_d
/a{{613 0 60 -13 522 560 _sc
343 275 _m
270 275 220 266 192 250 _c
164 233 150 205 150 165 _c
150 133 160 107 181 89 _c
202 70 231 61 267 61 _c
317 61 357 78 387 114 _c
417 149 432 196 432 255 _c
432 275 _l
343 275 _l
522 312 _m
522 0 _l
432 0 _l
432 83 _l
411 49 385 25 355 10 _c
325 -5 287 -13 243 -13 _c
187 -13 142 2 109 33 _c
76 64 60 106 60 159 _c
}_e{60 220 80 266 122 298 _c
163 329 224 345 306 345 _c
432 345 _l
432 354 _l
432 395 418 427 391 450 _c
364 472 326 484 277 484 _c
245 484 215 480 185 472 _c
155 464 127 453 100 439 _c
100 522 _l
132 534 164 544 195 550 _c
226 556 256 560 286 560 _c
365 560 424 539 463 498 _c
502 457 522 395 522 312 _c
_cl}_e}_d
/b{{635 0 91 -13 580 760 _sc
487 273 _m
487 339 473 390 446 428 _c
418 466 381 485 334 485 _c
286 485 249 466 222 428 _c
194 390 181 339 181 273 _c
181 207 194 155 222 117 _c
249 79 286 61 334 61 _c
381 61 418 79 446 117 _c
473 155 487 207 487 273 _c
181 464 _m
199 496 223 520 252 536 _c
281 552 316 560 356 560 _c
422 560 476 533 518 481 _c
559 428 580 359 580 273 _c
}_e{580 187 559 117 518 65 _c
476 13 422 -13 356 -13 _c
316 -13 281 -5 252 10 _c
223 25 199 49 181 82 _c
181 0 _l
91 0 _l
91 760 _l
181 760 _l
181 464 _l
_cl}_e}_d
/d{{635 0 55 -13 544 760 _sc
454 464 _m
454 760 _l
544 760 _l
544 0 _l
454 0 _l
454 82 _l
435 49 411 25 382 10 _c
353 -5 319 -13 279 -13 _c
213 -13 159 13 117 65 _c
75 117 55 187 55 273 _c
55 359 75 428 117 481 _c
159 533 213 560 279 560 _c
319 560 353 552 382 536 _c
411 520 435 496 454 464 _c
148 273 _m
148 207 161 155 188 117 _c
215 79 253 61 301 61 _c
}_e{348 61 385 79 413 117 _c
440 155 454 207 454 273 _c
454 339 440 390 413 428 _c
385 466 348 485 301 485 _c
253 485 215 466 188 428 _c
161 390 148 339 148 273 _c
_cl}_e}_d
/e{{615 0 55 -13 562 560 _sc
562 296 _m
562 252 _l
149 252 _l
153 190 171 142 205 110 _c
238 78 284 62 344 62 _c
378 62 412 66 444 74 _c
476 82 509 95 541 113 _c
541 28 _l
509 14 476 3 442 -3 _c
408 -9 373 -13 339 -13 _c
251 -13 182 12 131 62 _c
80 112 55 181 55 268 _c
55 357 79 428 127 481 _c
175 533 241 560 323 560 _c
397 560 455 536 498 489 _c
}_e{540 441 562 377 562 296 _c
472 322 _m
471 371 457 410 431 440 _c
404 469 368 484 324 484 _c
274 484 234 469 204 441 _c
174 413 156 373 152 322 _c
472 322 _l
_cl}_e}_d
/h{634 0 91 0 549 760 _sc
549 330 _m
549 0 _l
459 0 _l
459 327 _l
459 379 448 417 428 443 _c
408 469 378 482 338 482 _c
289 482 251 466 223 435 _c
195 404 181 362 181 309 _c
181 0 _l
91 0 _l
91 760 _l
181 760 _l
181 462 _l
202 494 227 519 257 535 _c
286 551 320 560 358 560 _c
420 560 468 540 500 501 _c
532 462 549 405 549 330 _c
_cl}_d
/i{278 0 94 0 184 760 _sc
94 547 _m
184 547 _l
184 0 _l
94 0 _l
94 547 _l
94 760 _m
184 760 _l
184 646 _l
94 646 _l
94 760 _l
_cl}_d
/l{278 0 94 0 184 760 _sc
94 760 _m
184 760 _l
184 0 _l
94 0 _l
94 760 _l
_cl}_d
/n{634 0 91 0 549 560 _sc
549 330 _m
549 0 _l
459 0 _l
459 327 _l
459 379 448 417 428 443 _c
408 469 378 482 338 482 _c
289 482 251 466 223 435 _c
195 404 181 362 181 309 _c
181 0 _l
91 0 _l
91 547 _l
181 547 _l
181 462 _l
202 494 227 519 257 535 _c
286 551 320 560 358 560 _c
420 560 468 540 500 501 _c
532 462 549 405 549 330 _c
_cl}_d
/o{612 0 55 -13 557 560 _sc
306 484 _m
258 484 220 465 192 427 _c
164 389 150 338 150 273 _c
150 207 163 156 191 118 _c
219 80 257 62 306 62 _c
354 62 392 80 420 118 _c
448 156 462 207 462 273 _c
462 337 448 389 420 427 _c
392 465 354 484 306 484 _c
306 560 _m
384 560 445 534 490 484 _c
534 433 557 363 557 273 _c
557 183 534 113 490 63 _c
445 12 384 -13 306 -13 _c
227 -13 165 12 121 63 _c
77 113 55 183 55 273 _c
55 363 77 433 121 484 _c
165 534 227 560 306 560 _c
_cl}_d
/p{{635 0 91 -207 580 560 _sc
181 82 _m
181 -207 _l
91 -207 _l
91 547 _l
181 547 _l
181 464 _l
199 496 223 520 252 536 _c
281 552 316 560 356 560 _c
422 560 476 533 518 481 _c
559 428 580 359 580 273 _c
580 187 559 117 518 65 _c
476 13 422 -13 356 -13 _c
316 -13 281 -5 252 10 _c
223 25 199 49 181 82 _c
487 273 _m
487 339 473 390 446 428 _c
418 466 381 485 334 485 _c
}_e{286 485 249 466 222 428 _c
194 390 181 339 181 273 _c
181 207 194 155 222 117 _c
249 79 286 61 334 61 _c
381 61 418 79 446 117 _c
473 155 487 207 487 273 _c
_cl}_e}_d
/r{411 0 91 0 411 560 _sc
411 463 _m
401 469 390 473 378 476 _c
366 478 353 480 339 480 _c
288 480 249 463 222 430 _c
194 397 181 350 181 288 _c
181 0 _l
91 0 _l
91 547 _l
181 547 _l
181 462 _l
199 495 224 520 254 536 _c
284 552 321 560 365 560 _c
371 560 378 559 386 559 _c
393 558 401 557 411 555 _c
411 463 _l
_cl}_d
/s{{521 0 54 -13 472 560 _sc
443 531 _m
443 446 _l
417 458 391 468 364 475 _c
336 481 308 485 279 485 _c
234 485 200 478 178 464 _c
156 450 145 430 145 403 _c
145 382 153 366 169 354 _c
185 342 217 330 265 320 _c
296 313 _l
360 299 405 279 432 255 _c
458 230 472 195 472 151 _c
472 100 452 60 412 31 _c
372 1 316 -13 246 -13 _c
216 -13 186 -10 154 -5 _c
}_e{122 0 89 8 54 20 _c
54 113 _l
87 95 120 82 152 74 _c
184 65 216 61 248 61 _c
290 61 323 68 346 82 _c
368 96 380 117 380 144 _c
380 168 371 187 355 200 _c
339 213 303 226 247 238 _c
216 245 _l
160 257 119 275 95 299 _c
70 323 58 356 58 399 _c
58 450 76 490 112 518 _c
148 546 200 560 268 560 _c
301 560 332 557 362 552 _c
391 547 418 540 443 531 _c
}_e{_cl}_e}_d
/t{392 0 27 0 368 702 _sc
183 702 _m
183 547 _l
368 547 _l
368 477 _l
183 477 _l
183 180 _l
183 135 189 106 201 94 _c
213 81 238 75 276 75 _c
368 75 _l
368 0 _l
276 0 _l
206 0 158 13 132 39 _c
106 65 93 112 93 180 _c
93 477 _l
27 477 _l
27 547 _l
93 547 _l
93 702 _l
183 702 _l
_cl}_d
/u{634 0 85 -13 543 560 _sc
85 216 _m
85 547 _l
175 547 _l
175 219 _l
175 167 185 129 205 103 _c
225 77 255 64 296 64 _c
344 64 383 79 411 110 _c
439 141 453 183 453 237 _c
453 547 _l
543 547 _l
543 0 _l
453 0 _l
453 84 _l
431 50 405 26 377 10 _c
348 -5 315 -13 277 -13 _c
214 -13 166 6 134 45 _c
101 83 85 140 85 216 _c
311 560 _m
311 560 _l
_cl}_d
/x{592 0 29 0 559 547 _sc
549 547 _m
351 281 _l
559 0 _l
453 0 _l
294 215 _l
135 0 _l
29 0 _l
241 286 _l
47 547 _l
153 547 _l
298 352 _l
443 547 _l
549 547 _l
_cl}_d
end readonly def

/BuildGlyph
 {exch begin
 CharStrings exch
 2 copy known not{pop /.notdef}if
 true 3 1 roll get exec
 end}_d

/BuildChar {
 1 index /Encoding get exch get
 1 index /BuildGlyph get exec
}_d

FontName currentdict end definefont pop
end
%%EndProlog
mpldict begin
75.6 223.2 translate
460.8 345.6 0 0 clipbox
gsave
0 0 m
460.8 0 l
460.8 345.6 l
0 345.6 l
cl
1.000 setgray
fill
grestore
gsave
57.6 38.016 m
307.584 38.016 l
307.584 304.128 l
57.6 304.128 l
cl
1.000 setgray
fill
grestore
0.800 setlinewidth
1 setlinejoin
0 setlinecap
[] 0 setdash
0.000 setgray
gsave
/o {
gsave
newpath
translate
0.8 setlinewidth
1 setlinejoin
0 setlinecap
0 0 m
0 -3.5 l

gsave
0.000 setgray
fill
grestore
stroke
grestore
} bind def
57.6 38.016 o
grestore
/DejaVuSans findfont
10.000 scalefont
setfont
gsave
51.240625 23.422250 translate
0.000000 rotate
0.000000 0.000000 m /one glyphshow
6.362305 0.000000 m /zero glyphshow
grestore
gsave
/o {
gsave
newpath
translate
0.8 setlinewidth
1 setlinejoin
0 setlinecap
0 0 m
0 -3.5 l

gsave
0.000 setgray
fill
grestore
stroke
grestore
} bind def
117.12 38.016 o
grestore
gsave
110.760625 23.422250 translate
0.000000 rotate
0.000000 0.000000 m /one glyphshow
6.362305 0.000000 m /five glyphshow
grestore
gsave
/o {
gsave
newpath
translate
0.8 setlinewidth
1 setlinejoin
0 setlinecap
0 0 m
0 -3.5 l

gsave
0.000 setgray
fill
grestore
stroke
grestore
} bind def
176.64 38.016 o
grestore
gsave
170.280625 23.422250 translate
0.000000 rotate
0.000000 0.000000 m /two glyphshow
6.362305 0.000000 m /zero glyphshow
grestore
gsave
/o {
gsave
newpath
translate
0.8 setlinewidth
1 setlinejoin
0 setlinecap
0 0 m
0 -3.5 l

gsave
0.000 setgray
fill
grestore
stroke
grestore
} bind def
236.16 38.016 o
grestore
gsave
229.800625 23.422250 translate
0.000000 rotate
0.000000 0.000000 m /two glyphshow
6.362305 0.000000 m /five glyphshow
grestore
gsave
/o {
gsave
newpath
translate
0.8 setlinewidth
1 setlinejoin
0 setlinecap
0 0 m
0 -3.5 l

gsave
0.000 setgray
fill
grestore
stroke
grestore
} bind def
295.68 38.016 o
grestore
gsave
289.320625 23.422250 translate
0.000000 rotate
0.000000 0.000000 m /three glyphshow
6.362305 0.000000 m /zero glyphshow
grestore
gsave
156.599813 9.750375 translate
0.000000 rotate
0.000000 0.000000 m /S glyphshow
6.347656 0.000000 m /n glyphshow
12.685547 0.000000 m /a glyphshow
18.813477 0.000000 m /p glyphshow
25.161133 0.000000 m /s glyphshow
30.371094 0.000000 m /h glyphshow
36.708984 0.000000 m /o glyphshow
42.827148 0.000000 m /t glyphshow
46.748047 0.000000 m /s glyphshow
grestore
gsave
/o {
gsave
newpath
translate
0.8 setlinewidth
1 setlinejoin
0 setlinecap
0 0 m
-3.5 0 l

gsave
0.000 setgray
fill
grestore
stroke
grestore
} bind def
57.6 42.5132 o
grestore
gsave
21.975000 38.716334 translate
0.000000 rotate
0.000000 0.000000 m /zero glyphshow
6.362305 0.000000 m /period glyphshow
9.541016 0.000000 m /zero glyphshow
15.903320 0.000000 m /zero glyphshow
22.265625 0.000000 m /zero glyphshow
grestore
gsave
/o {
gsave
newpath
translate
0.8 setlinewidth
1 setlinejoin
0 setlinecap
0 0 m
-3.5 0 l

gsave
0.000 setgray
fill
grestore
stroke
grestore
} bind def
57.6 99.7198 o
grestore
gsave
21.975000 95.922932 translate
0.000000 rotate
0.000000 0.000000 m /zero glyphshow
6.362305 0.000000 m /period glyphshow
9.541016 0.000000 m /zero glyphshow
15.903320 0.000000 m /zero glyphshow
22.265625 0.000000 m /five glyphshow
grestore
gsave
/o {
gsave
newpath
translate
0.8 setlinewidth
1 setlinejoin
0 setlinecap
0 0 m
-3.5 0 l

gsave
0.000 setgray
fill
grestore
stroke
grestore
} bind def
57.6 156.926 o
grestore
gsave
21.975000 153.129531 translate
0.000000 rotate
0.000000 0.000000 m /zero glyphshow
6.362305 0.000000 m /period glyphshow
9.541016 0.000000 m /zero glyphshow
15.903320 0.000000 m /one glyphshow
22.265625 0.000000 m /zero glyphshow
grestore
gsave
/o {
gsave
newpath
translate
0.8 setlinewidth
1 setlinejoin
0 setlinecap
0 0 m
-3.5 0 l

gsave
0.000 setgray
fill
grestore
stroke
grestore
} bind def
57.6 214.133 o
grestore
gsave
21.975000 210.336129 translate
0.000000 rotate
0.000000 0.000000 m /zero glyphshow
6.362305 0.000000 m /period glyphshow
9.541016 0.000000 m /zero glyphshow
15.903320 0.000000 m /one glyphshow
22.265625 0.000000 m /five glyphshow
grestore
gsave
/o {
gsave
newpath
translate
0.8 setlinewidth
1 setlinejoin
0 setlinecap
0 0 m
-3.5 0 l

gsave
0.000 setgray
fill
grestore
stroke
grestore
} bind def
57.6 271.34 o
grestore
gsave
21.975000 267.542728 translate
0.000000 rotate
0.000000 0.000000 m /zero glyphshow
6.362305 0.000000 m /period glyphshow
9.541016 0.000000 m /zero glyphshow
15.903320 0.000000 m /two glyphshow
22.265625 0.000000 m /zero glyphshow
grestore
gsave
15.896875 159.236062 translate
90.000000 rotate
0.000000 0.000000 m /P glyphshow
6.030273 0.000000 m /i glyphshow
8.808594 0.000000 m /x glyphshow
14.726562 0.000000 m /e glyphshow
20.878906 0.000000 m /l glyphshow
grestore
2.000 setlinewidth
2 setlinecap
1.000 0.000 0.000 setrgbcolor
gsave
250 266.1 57.6 38.02 clipbox
57.6 214.253138 m
69.504 286.010196 l
81.408 290.770683 l
93.312 287.965821 l
105.216 292.032 l
117.12 287.318362 l
129.024 289.381843 l
140.928 290.304882 l
152.832 291.014983 l
164.736 291.428663 l
176.64 286.394109 l
188.544 286.992863 l
200.448 289.551899 l
212.352 288.898061 l
224.256 289.65552 l
236.16 285.022084 l
248.064 286.009421 l
259.968 282.996671 l
271.872 282.804993 l
283.776 282.959191 l
295.68 277.89105 l
307.584 286.179583 l
stroke
grestore
0 setlinecap
[7.4 3.2] 0 setdash
gsave
250 266.1 57.6 38.02 clipbox
57.6 171.791405 m
69.504 197.534597 l
81.408 195.40077 l
93.312 195.020356 l
105.216 196.968748 l
117.12 192.172365 l
129.024 194.981796 l
140.928 194.562407 l
152.832 196.945221 l
164.736 198.412814 l
176.64 197.603425 l
188.544 193.419771 l
200.448 190.792492 l
212.352 189.342023 l
224.256 193.122382 l
236.16 189.661107 l
248.064 193.016432 l
259.968 195.001248 l
271.872 194.586187 l
283.776 194.740796 l
295.68 191.961264 l
307.584 197.462316 l
stroke
grestore
0.750 0.000 0.750 setrgbcolor
gsave
250 266.1 57.6 38.02 clipbox
57.6 171.17244 m
69.504 195.64124 l
81.408 206.691051 l
93.312 200.177164 l
105.216 203.222734 l
117.12 205.86691 l
129.024 207.536139 l
140.928 207.288167 l
152.832 203.700188 l
164.736 210.246178 l
176.64 210.368001 l
188.544 213.524131 l
200.448 209.667437 l
212.352 209.561164 l
224.256 210.158897 l
236.16 214.374154 l
248.064 213.080058 l
259.968 212.804606 l
271.872 214.167015 l
283.776 207.144028 l
295.68 208.970152 l
307.584 209.433887 l
stroke
grestore
[12.8 3.2 2 3.2] 0 setdash
1.000 0.000 0.000 setrgbcolor
gsave
250 266.1 57.6 38.02 clipbox
57.6 159.235798 m
69.504 169.623779 l
81.408 170.421737 l
93.312 165.993294 l
105.216 163.558959 l
117.12 163.29854 l
129.024 166.868572 l
140.928 163.810016 l
152.832 164.171525 l
164.736 167.666769 l
176.64 166.198096 l
188.544 168.890016 l
200.448 158.626205 l
212.352 163.509436 l
224.256 161.538491 l
236.16 160.749791 l
248.064 165.576687 l
259.968 170.335129 l
271.872 163.111905 l
283.776 162.172816 l
295.68 166.209986 l
307.584 168.346813 l
stroke
grestore
[2 3.3] 0 setdash
gsave
250 266.1 57.6 38.02 clipbox
57.6 155.004137 m
69.504 156.956364 l
81.408 158.254336 l
93.312 152.815055 l
105.216 147.520454 l
117.12 150.679476 l
129.024 150.855672 l
140.928 152.166863 l
152.832 155.636659 l
164.736 153.283227 l
176.64 152.456992 l
188.544 151.998046 l
200.448 148.825862 l
212.352 155.605967 l
224.256 150.141826 l
236.16 150.499734 l
248.064 154.824734 l
259.968 149.6021 l
271.872 159.062332 l
283.776 154.190273 l
295.68 150.573368 l
307.584 148.311769 l
stroke
grestore
0.750 0.000 0.750 setrgbcolor
gsave
250 266.1 57.6 38.02 clipbox
57.6 150.06887 m
69.504 153.712509 l
81.408 157.989344 l
93.312 160.674412 l
105.216 150.233499 l
117.12 147.187319 l
129.024 143.649064 l
140.928 150.651695 l
152.832 153.881071 l
164.736 153.779975 l
176.64 152.561661 l
188.544 156.896777 l
200.448 152.36083 l
212.352 153.400435 l
224.256 152.299548 l
236.16 159.034203 l
248.064 150.781275 l
259.968 151.515572 l
271.872 149.644234 l
283.776 157.237707 l
295.68 150.092096 l
307.584 154.061863 l
stroke
grestore
2 setlinecap
[] 0 setdash
0.000 setgray
gsave
250 266.1 57.6 38.02 clipbox
57.6 97.298744 m
69.504 113.56699 l
81.408 121.887804 l
93.312 126.929923 l
105.216 135.421887 l
117.12 138.118328 l
129.024 139.802847 l
140.928 139.094711 l
152.832 140.965516 l
164.736 142.828259 l
176.64 145.663197 l
188.544 143.578984 l
200.448 145.062292 l
212.352 145.582951 l
224.256 149.734035 l
236.16 151.069008 l
248.064 150.717488 l
259.968 155.046133 l
271.872 150.659111 l
283.776 153.099833 l
295.68 150.230976 l
307.584 158.513686 l
stroke
grestore
0 setlinecap
[7.4 3.2] 0 setdash
gsave
250 266.1 57.6 38.02 clipbox
57.6 68.089415 m
69.504 73.442182 l
81.408 77.981993 l
93.312 78.39019 l
105.216 80.924106 l
117.12 79.74364 l
129.024 78.66592 l
140.928 80.451883 l
152.832 83.284637 l
164.736 83.702255 l
176.64 82.651263 l
188.544 80.709368 l
200.448 82.949593 l
212.352 83.521468 l
224.256 83.404569 l
236.16 84.806251 l
248.064 80.305643 l
259.968 87.012357 l
271.872 87.157026 l
283.776 87.456472 l
295.68 84.91356 l
307.584 89.59974 l
stroke
grestore
0.000 0.000 1.000 setrgbcolor
gsave
250 266.1 57.6 38.02 clipbox
57.6 71.789662 m
69.504 76.331841 l
81.408 84.880847 l
93.312 81.001853 l
105.216 85.004912 l
117.12 87.708263 l
129.024 91.414925 l
140.928 93.182845 l
152.832 92.892544 l
164.736 95.30324 l
176.64 95.174188 l
188.544 98.38049 l
200.448 100.498488 l
212.352 95.3247 l
224.256 97.213628 l
236.16 100.490598 l
248.064 96.838421 l
259.968 100.501434 l
271.872 103.672431 l
283.776 99.544577 l
295.68 101.642328 l
307.584 104.646497 l
stroke
grestore
[12.8 3.2 2 3.2] 0 setdash
0.000 setgray
gsave
250 266.1 57.6 38.02 clipbox
57.6 57.542113 m
69.504 58.361335 l
81.408 60.177186 l
93.312 58.833812 l
105.216 57.950542 l
117.12 59.378886 l
129.024 58.364113 l
140.928 60.396305 l
152.832 60.607972 l
164.736 60.179429 l
176.64 59.009596 l
188.544 59.50305 l
200.448 59.6036 l
212.352 62.583948 l
224.256 61.722599 l
236.16 61.243327 l
248.064 61.01245 l
259.968 64.976157 l
271.872 62.628893 l
283.776 64.461506 l
295.68 67.701655 l
307.584 67.708302 l
stroke
grestore
[2 3.3] 0 setdash
gsave
250 266.1 57.6 38.02 clipbox
57.6 52.263487 m
69.504 51.828341 l
81.408 52.925231 l
93.312 50.359493 l
105.216 51.138709 l
117.12 51.839511 l
129.024 50.885399 l
140.928 53.103974 l
152.832 50.663577 l
164.736 51.681775 l
176.64 50.112 l
188.544 50.478908 l
200.448 50.61314 l
212.352 50.523846 l
224.256 50.833513 l
236.16 50.89532 l
248.064 51.211194 l
259.968 50.39382 l
271.872 53.490697 l
283.776 56.91215 l
295.68 52.070242 l
307.584 51.926543 l
stroke
grestore
0.000 0.000 1.000 setrgbcolor
gsave
250 266.1 57.6 38.02 clipbox
57.6 52.041945 m
69.504 56.03346 l
81.408 53.761369 l
93.312 50.731549 l
105.216 59.233926 l
117.12 50.156589 l
129.024 52.392367 l
140.928 54.906503 l
152.832 63.0708 l
164.736 65.798959 l
176.64 67.195563 l
188.544 59.367001 l
200.448 64.811564 l
212.352 64.581529 l
224.256 61.884377 l
236.16 68.830455 l
248.064 65.897597 l
259.968 67.053889 l
271.872 67.779284 l
283.776 61.606196 l
295.68 63.918296 l
307.584 63.268575 l
stroke
grestore
0.800 setlinewidth
0 setlinejoin
2 setlinecap
[] 0 setdash
0.000 setgray
gsave
57.6 38.016 m
57.6 304.128 l
stroke
grestore
gsave
307.584 38.016 m
307.584 304.128 l
stroke
grestore
gsave
57.6 38.016 m
307.584 38.016 l
stroke
grestore
gsave
57.6 304.128 m
307.584 304.128 l
stroke
grestore
/DejaVuSans findfont
12.000 scalefont
setfont
gsave
118.638875 310.128000 translate
0.000000 rotate
0.000000 0.000000 m /M glyphshow
10.353516 0.000000 m /e glyphshow
17.736328 0.000000 m /a glyphshow
25.089844 0.000000 m /n glyphshow
32.695312 0.000000 m /space glyphshow
36.509766 0.000000 m /P glyphshow
43.746094 0.000000 m /o glyphshow
51.087891 0.000000 m /s glyphshow
57.339844 0.000000 m /i glyphshow
60.673828 0.000000 m /t glyphshow
65.378906 0.000000 m /i glyphshow
68.712891 0.000000 m /o glyphshow
76.054688 0.000000 m /n glyphshow
83.660156 0.000000 m /a glyphshow
91.013672 0.000000 m /l glyphshow
94.347656 0.000000 m /space glyphshow
98.162109 0.000000 m /E glyphshow
105.744141 0.000000 m /r glyphshow
110.677734 0.000000 m /r glyphshow
115.611328 0.000000 m /o glyphshow
122.953125 0.000000 m /r glyphshow
grestore
1.000 setlinewidth
0 setlinecap
0.800 setgray
gsave
325.402525 120.0655 m
450.5744 120.0655 l
451.907733 120.0655 452.5744 120.732167 452.5744 122.0655 c
452.5744 297.128 l
452.5744 298.461333 451.907733 299.128 450.5744 299.128 c
325.402525 299.128 l
324.069192 299.128 323.402525 298.461333 323.402525 297.128 c
323.402525 122.0655 l
323.402525 120.732167 324.069192 120.0655 325.402525 120.0655 c
cl
gsave
1.000 setgray
fill
grestore
stroke
grestore
2.000 setlinewidth
1 setlinejoin
2 setlinecap
[] 0 setdash
1.000 0.000 0.000 setrgbcolor
gsave
327.402525 291.03425 m
347.402525 291.03425 l
stroke
grestore
0.000 setgray
/DejaVuSans findfont
10.000 scalefont
setfont
gsave
355.402525 287.534250 translate
0.000000 rotate
0.000000 0.000000 m /s glyphshow
5.209961 0.000000 m /t glyphshow
9.130859 0.000000 m /b glyphshow
15.478516 0.000000 m /space glyphshow
18.657227 0.000000 m /two glyphshow
25.019531 0.000000 m /five glyphshow
31.381836 0.000000 m /zero glyphshow
37.744141 0.000000 m /zero glyphshow
44.106445 0.000000 m /zero glyphshow
grestore
0 setlinecap
[7.4 3.2] 0 setdash
1.000 0.000 0.000 setrgbcolor
gsave
327.402525 276.362375 m
347.402525 276.362375 l
stroke
grestore
0.000 setgray
gsave
355.402525 272.862375 translate
0.000000 rotate
0.000000 0.000000 m /s glyphshow
5.209961 0.000000 m /t glyphshow
9.130859 0.000000 m /b glyphshow
15.478516 0.000000 m /space glyphshow
18.657227 0.000000 m /one glyphshow
25.019531 0.000000 m /zero glyphshow
31.381836 0.000000 m /zero glyphshow
37.744141 0.000000 m /zero glyphshow
44.106445 0.000000 m /zero glyphshow
grestore
0.750 0.000 0.750 setrgbcolor
gsave
327.402525 261.6905 m
347.402525 261.6905 l
stroke
grestore
0.000 setgray
gsave
355.402525 258.190500 translate
0.000000 rotate
0.000000 0.000000 m /s glyphshow
5.209961 0.000000 m /t glyphshow
9.130859 0.000000 m /b glyphshow
15.478516 0.000000 m /space glyphshow
18.657227 0.000000 m /one glyphshow
25.019531 0.000000 m /zero glyphshow
31.381836 0.000000 m /zero glyphshow
37.744141 0.000000 m /zero glyphshow
44.106445 0.000000 m /zero glyphshow
50.468750 0.000000 m /comma glyphshow
53.647461 0.000000 m /space glyphshow
56.826172 0.000000 m /d glyphshow
63.173828 0.000000 m /o glyphshow
69.291992 0.000000 m /u glyphshow
75.629883 0.000000 m /b glyphshow
81.977539 0.000000 m /l glyphshow
84.755859 0.000000 m /e glyphshow
grestore
[12.8 3.2 2 3.2] 0 setdash
1.000 0.000 0.000 setrgbcolor
gsave
327.402525 247.018625 m
347.402525 247.018625 l
stroke
grestore
0.000 setgray
gsave
355.402525 243.518625 translate
0.000000 rotate
0.000000 0.000000 m /s glyphshow
5.209961 0.000000 m /t glyphshow
9.130859 0.000000 m /b glyphshow
15.478516 0.000000 m /space glyphshow
18.657227 0.000000 m /five glyphshow
25.019531 0.000000 m /zero glyphshow
31.381836 0.000000 m /zero glyphshow
37.744141 0.000000 m /zero glyphshow
grestore
[2 3.3] 0 setdash
1.000 0.000 0.000 setrgbcolor
gsave
327.402525 232.34675 m
347.402525 232.34675 l
stroke
grestore
0.000 setgray
gsave
355.402525 228.846750 translate
0.000000 rotate
0.000000 0.000000 m /s glyphshow
5.209961 0.000000 m /t glyphshow
9.130859 0.000000 m /b glyphshow
15.478516 0.000000 m /space glyphshow
18.657227 0.000000 m /one glyphshow
25.019531 0.000000 m /zero glyphshow
31.381836 0.000000 m /zero glyphshow
37.744141 0.000000 m /zero glyphshow
grestore
0.750 0.000 0.750 setrgbcolor
gsave
327.402525 217.674875 m
347.402525 217.674875 l
stroke
grestore
0.000 setgray
gsave
355.402525 214.174875 translate
0.000000 rotate
0.000000 0.000000 m /s glyphshow
5.209961 0.000000 m /t glyphshow
9.130859 0.000000 m /b glyphshow
15.478516 0.000000 m /space glyphshow
18.657227 0.000000 m /one glyphshow
25.019531 0.000000 m /zero glyphshow
31.381836 0.000000 m /zero glyphshow
37.744141 0.000000 m /zero glyphshow
44.106445 0.000000 m /comma glyphshow
47.285156 0.000000 m /space glyphshow
50.463867 0.000000 m /d glyphshow
56.811523 0.000000 m /o glyphshow
62.929688 0.000000 m /u glyphshow
69.267578 0.000000 m /b glyphshow
75.615234 0.000000 m /l glyphshow
78.393555 0.000000 m /e glyphshow
grestore
2 setlinecap
[] 0 setdash
gsave
327.402525 203.003 m
347.402525 203.003 l
stroke
grestore
gsave
355.402525 199.503000 translate
0.000000 rotate
0.000000 0.000000 m /e glyphshow
6.152344 0.000000 m /n glyphshow
12.490234 0.000000 m /s glyphshow
17.700195 0.000000 m /space glyphshow
20.878906 0.000000 m /two glyphshow
27.241211 0.000000 m /five glyphshow
33.603516 0.000000 m /zero glyphshow
39.965820 0.000000 m /zero glyphshow
46.328125 0.000000 m /zero glyphshow
grestore
0 setlinecap
[7.4 3.2] 0 setdash
gsave
327.402525 188.331125 m
347.402525 188.331125 l
stroke
grestore
gsave
355.402525 184.831125 translate
0.000000 rotate
0.000000 0.000000 m /e glyphshow
6.152344 0.000000 m /n glyphshow
12.490234 0.000000 m /s glyphshow
17.700195 0.000000 m /space glyphshow
20.878906 0.000000 m /one glyphshow
27.241211 0.000000 m /zero glyphshow
33.603516 0.000000 m /zero glyphshow
39.965820 0.000000 m /zero glyphshow
46.328125 0.000000 m /zero glyphshow
grestore
0.000 0.000 1.000 setrgbcolor
gsave
327.402525 173.65925 m
347.402525 173.65925 l
stroke
grestore
0.000 setgray
gsave
355.402525 170.159250 translate
0.000000 rotate
0.000000 0.000000 m /e glyphshow
6.152344 0.000000 m /n glyphshow
12.490234 0.000000 m /s glyphshow
17.700195 0.000000 m /space glyphshow
20.878906 0.000000 m /one glyphshow
27.241211 0.000000 m /zero glyphshow
33.603516 0.000000 m /zero glyphshow
39.965820 0.000000 m /zero glyphshow
46.328125 0.000000 m /zero glyphshow
52.690430 0.000000 m /comma glyphshow
55.869141 0.000000 m /space glyphshow
59.047852 0.000000 m /d glyphshow
65.395508 0.000000 m /o glyphshow
71.513672 0.000000 m /u glyphshow
77.851562 0.000000 m /b glyphshow
84.199219 0.000000 m /l glyphshow
86.977539 0.000000 m /e glyphshow
grestore
[12.8 3.2 2 3.2] 0 setdash
gsave
327.402525 158.987375 m
347.402525 158.987375 l
stroke
grestore
gsave
355.402525 155.487375 translate
0.000000 rotate
0.000000 0.000000 m /e glyphshow
6.152344 0.000000 m /n glyphshow
12.490234 0.000000 m /s glyphshow
17.700195 0.000000 m /space glyphshow
20.878906 0.000000 m /five glyphshow
27.241211 0.000000 m /zero glyphshow
33.603516 0.000000 m /zero glyphshow
39.965820 0.000000 m /zero glyphshow
grestore
[2 3.3] 0 setdash
gsave
327.402525 144.3155 m
347.402525 144.3155 l
stroke
grestore
gsave
355.402525 140.815500 translate
0.000000 rotate
0.000000 0.000000 m /e glyphshow
6.152344 0.000000 m /n glyphshow
12.490234 0.000000 m /s glyphshow
17.700195 0.000000 m /space glyphshow
20.878906 0.000000 m /one glyphshow
27.241211 0.000000 m /zero glyphshow
33.603516 0.000000 m /zero glyphshow
39.965820 0.000000 m /zero glyphshow
grestore
0.000 0.000 1.000 setrgbcolor
gsave
327.402525 129.643625 m
347.402525 129.643625 l
stroke
grestore
0.000 setgray
gsave
355.402525 126.143625 translate
0.000000 rotate
0.000000 0.000000 m /e glyphshow
6.152344 0.000000 m /n glyphshow
12.490234 0.000000 m /s glyphshow
17.700195 0.000000 m /space glyphshow
20.878906 0.000000 m /one glyphshow
27.241211 0.000000 m /zero glyphshow
33.603516 0.000000 m /zero glyphshow
39.965820 0.000000 m /zero glyphshow
46.328125 0.000000 m /comma glyphshow
49.506836 0.000000 m /space glyphshow
52.685547 0.000000 m /d glyphshow
59.033203 0.000000 m /o glyphshow
65.151367 0.000000 m /u glyphshow
71.489258 0.000000 m /b glyphshow
77.836914 0.000000 m /l glyphshow
80.615234 0.000000 m /e glyphshow
grestore

end
showpage
